,sample_ID,Saponin human proportion,Filter human proportion,Saponin reduction,Saponin effect,% of original human prop,% reduction in human proportion of bases
0,W51803,0.9663585092750717,0.9794439288234326,0.013085419548360844,7485.0021063797185,98.6639950319484,1.336004968051597
4,F40235,0.002029246377798906,0.7150252182249344,0.7129959718471355,100.28460839302384,0.2838006724904828,99.71619932750951
6,H44530,0.9862226615569081,0.98796849959268,0.001745838035771885,56589.92869609871,99.82329011132525,0.17670988867475046
7,H47179,0.028518271661026454,0.9988932893813193,0.9703750177202928,102.93889178309894,2.854986810321822,97.14501318967818
8,M14548,0.012817314812879219,0.9922281503824978,0.9794108355696186,101.308676027198,1.2917709307015957,98.7082290692984
9,H48161,0.12878734032268493,0.97660711853747,0.847819778214785,115.19041471217697,13.187221133054203,86.81277886694579
13,H48613,0.0055261885689944406,0.9265835711502115,0.921057382581217,100.59998309263942,0.5964047648864014,99.4035952351136
14,H48507,0.00117670091122047,0.7410313712960791,0.7398546703848586,100.15904487169193,0.15879232064931287,99.84120767935069
15,W57236,0.0035972911427234423,0.6987665555603564,0.6951692644176329,100.51746982020804,0.5148058552743261,99.48519414472567
18,H51197,0.3186388551558311,0.9799960346848213,0.6613571795289902,148.17954125526563,32.51430045411452,67.48569954588548
20,W59582,0.8892714510117609,0.9994480196723021,0.11017656866054126,907.1330064304728,88.97625824535969,11.023741754640312
21,W60598,0.0027834772713158542,0.9613813910822676,0.9585979138109517,100.29036963582053,0.2895289317158903,99.71047106828411
22,M18707,0.6704052778735436,0.9991578056506422,0.3287525277770985,303.9239918264882,67.0970365323806,32.9029634676194
23,M19410,0.004559677640588222,0.993693052464061,0.9891333748234729,100.46097702864407,0.4588617812393463,99.54113821876065
24,T8853,0.036652591845453684,0.9985686854373463,0.9619160935918927,103.81037307615773,3.670512843030005,96.32948715696999
26,W61172,0.0008852329319453135,0.7623123148490357,0.7614270819170904,100.11625971192363,0.11612470567533993,99.88387529432465
27,T8239,0.15828414249701594,0.847476157134404,0.6891920146373881,122.96662455967306,18.67712043159146,81.32287956840854
28,F46912,0.007171104423156109,0.35772734137081785,0.35055623694766175,102.04563595433243,2.0046285519234575,97.99537144807654
29,F46948,0.17515352715939186,0.9926461931529399,0.817492665993548,121.42570012496898,17.645111457391693,82.35488854260831
30,F47404,0.03169389607609138,0.9813458755010165,0.9496519794249251,103.33742220969033,3.229635632789548,96.77036436721045
31,M21065,0.11932904659657355,0.9982605407573045,0.878931494160731,113.5766037955572,11.953697629483347,88.04630237051666
32,M21023,0.8905486397275681,0.9873290521966527,0.09678041246908453,1020.1744619677504,90.1977550185763,9.802244981423698
33,W62243,0.49436902643094754,0.9988641953034189,0.5044951688724713,197.99281676687704,49.493117158011266,50.506882841988734
34,T10102,0.03893138669976876,0.763093224312282,0.7241618376125132,105.37606163121238,5.101786447501833,94.89821355249816
35,F48161,0.21060544398832046,0.9837738077263636,0.7731683637380431,127.23927334146275,21.407913316482635,78.59208668351737
36,M20865,0.002952530137315716,0.6397594678863927,0.636806937749077,100.4636460381151,0.4615062825205458,99.53849371747945
37,F48906,0.0006802772908285899,0.5593101185513788,0.5586298412605503,100.12177603854701,0.12162792487833365,99.87837207512166
38,T10498,0.16239754078325283,0.9983986674317402,0.8360011266484874,119.42551697678942,16.2658010352719,83.73419896472811
39,F48387,0.0012989767586220511,0.542170583716711,0.540871606958089,100.24016360665104,0.23958820298166125,99.76041179701834
40,M21766,0.3587694530252551,0.9969665395361323,0.6381970865108773,156.21609070431572,35.986107737595994,64.013892262404
41,W63364,0.00031107209368076694,0.9692001655255525,0.9688890934318718,100.03210605793682,0.032095753255684485,99.96790424674431
42,F49455,0.4386149308239704,0.9980066301746552,0.5593916993506848,178.4092669471309,43.949099891972764,56.050900108027236
43,F49887,0.7248527739701127,0.9915272260100023,0.2666744520398896,371.8118546510365,73.10467680115931,26.895323198840686
44,F50035,0.11116392190718856,0.9654506131427353,0.8542866912355467,113.01248433900022,11.5142007673834,88.4857992326166
45,W64646,0.9225287340530249,0.9961962372788501,0.07366750322582516,1352.2872279586363,92.60512131354251,7.3948786864574885
46,T11847,0.9985232864243281,0.9992403001312138,0.0007170137068857052,139361.39442456941,99.92824411637605,0.07175588362395047
47,W64389,0.0008563038965837956,0.8704215458253856,0.8695652419288018,100.09847494532835,0.09837806758009388,99.9016219324199
48,H56410,0.0006444879342588088,0.5315711169262564,0.5309266289919975,100.12138926530818,0.1212420904253564,99.87875790957465
49,W65053,0.9597387994733271,0.9982197465071455,0.038480947033818436,2594.062317722779,96.14504249505518,3.854957504944821
51,H57175,0.8590100319768523,0.9352974317586532,0.07628739978180088,1226.0182342481382,91.84351445952797,8.156485540472033
52,W65277,0.011527819707275748,0.9946992624316203,0.9831714427243445,101.17251368442237,1.1589251286961941,98.8410748713038
53,F52293,0.058343397580401656,0.981843890342316,0.9235004927619144,106.31763578229547,5.9422274919957445,94.05777250800426
55,H57679,0.9492885153504709,0.9974516562660158,0.048163140915544966,2070.9854824772897,95.17138092728776,4.828619072712243
56,W65894,0.0017072431150832387,0.9000797385219861,0.8983724954069029,100.19003733126424,0.1896768743941164,99.81032312560589
57,W67616,0.22459486647835847,0.29678678275988035,0.07219191628152188,411.10805481672105,75.67549484171948,24.324505158280516
58,H59497,0.008670326779784724,0.9759008749273139,0.9672305481475292,100.89640745904794,0.8884433862640505,99.11155661373596
59,M25424,0.15941835654384265,0.993968006345062,0.8345496498012194,119.10232142351438,16.03858026879988,83.96141973120012
62,F54088,0.9159451877107997,0.9809116014101652,0.06496641369936551,1509.874942380797,93.37693492400648,6.623065075993523
65,T14997,0.9679317831204953,0.9841655207006567,0.016233737580161334,6062.470308152387,98.35050738532235,1.649492614677655
