run name,chrom,length,bases,avDepth,position cov1,position cov10,covBreadth1x,covBreadth10x
41,mecA,2007,12117,10.906390639063906,1111,708.0,0.5535625311410065,0.35276532137518685
41,tetK,1380,5572,4.049418604651163,1376,,0.9971014492753624,
41,vanA,57888,73407,12.60638845955693,5823,3639.0,0.1005907960199005,0.06286276948590382
