sample_ID	guuid	barcode	human bases	human reads	bacterial bases	bacterial reads	viral bases	viral reads	total bases	total reads
redo_PJI_RPB004_1	5e440bc85f87b044df24470b	barcode01	2288	1	2162605	613	1729	1	2336522	680
redo_PJI_RPB004_1	5e440bc85f87b044df24470b	barcode11	0	0	0	0	0	0	662	1
redo_PJI_RPB004_1	5e440bc85f87b044df24470b	barcode10	631	1	0	0	0	0	631	1
redo_PJI_RPB004_1	5e440bc85f87b044df24470b	barcode07	1189	1	0	0	0	0	1189	1
redo_PJI_RPB004_1	5e440bc85f87b044df24470b	barcode12	0	0	0	0	0	0	4188	1
redo_PJI_RPB004_1	5e440bc85f87b044df24470b	barcode05	4956837	2460	3589339	982	11264	3	9685276	4372
redo_PJI_RPB004_1	5e440bc85f87b044df24470b	barcode03	1492	1	0	0	0	0	1910	2
redo_PJI_RPB004_1	5e440bc85f87b044df24470b	barcode02	9886865	5405	25555038	9385	46630	16	38912701	17452
redo_PJI_RPB004_1	5e440bc85f87b044df24470b	unclassified	64760170	23387	2983572	1061	14304	9	470537348	253339
redo_PJI_RPB004_1	5e440bc85f87b044df24470b	barcode04	18180415	10671	4293130	1594	13579	9	28392974	17548
redo_PJI_RPB004_1	5e440bc85f87b044df24470b	barcode12a	3636	3	0	0	0	0	7187	5
redo_PJI_RPB004_1	5e440bc85f87b044df24470b	barcode06	21111	10	23041396	6397	13687	7	23744366	6670
redo_PJI_RPB004_1	5e440bc85f87b044df24470b	barcode09	1919	1	0	0	0	0	3449	2
redo_RPB004_10	5e45a53a5f87b05d9ae24a93	unclassified	864867	559	6146029	1863	7918	9	7890196	3257
redo_RPB004_10	5e45a53a5f87b05d9ae24a93	barcode01	29275	6	22849840	5466	158858	44	32275417	7871
redo_RPB004_10	5e45a53a5f87b05d9ae24a93	barcode09	0	0	3773	1	0	0	3773	1
redo_RPB004_10	5e45a53a5f87b05d9ae24a93	barcode08	0	0	234	1	0	0	234	1
redo_RPB004_10	5e45a53a5f87b05d9ae24a93	barcode11	79794	17	70012494	15158	70840	30	72968496	16406
redo_RPB004_10	5e45a53a5f87b05d9ae24a93	barcode12a	0	0	946334	203	0	0	1141856	262
redo_RPB004_10	5e45a53a5f87b05d9ae24a93	barcode10	144775	23	135038656	28232	116335	42	140274293	30458
redo_RPB004_10	5e45a53a5f87b05d9ae24a93	barcode02	16807666	8046	179946990	49561	469459	145	222831061	68200
redo_RPB004_11	5e463a635f87b0f17da19c70	barcode01	11031990	1582	5484508570	1639476	182900	61	5581891820	1671625
redo_RPB004_11	5e463a635f87b0f17da19c70	barcode12a	0	0	17065	4	0	0	17223	5
redo_RPB004_11	5e463a635f87b0f17da19c70	barcode03	0	0	11576	3	0	0	11752	4
redo_RPB004_11	5e463a635f87b0f17da19c70	barcode04	2278565	440	22978562	5141	53970	12	27401752	6152
redo_RPB004_11	5e463a635f87b0f17da19c70	barcode07	83790	22	10379824	2645	22456	8	16210835	4265
redo_RPB004_11	5e463a635f87b0f17da19c70	barcode02	42562817	11054	99582790	28604	259389	95	169529605	49893
redo_RPB004_11	5e463a635f87b0f17da19c70	barcode09	0	0	37880	13	0	0	41995	14
redo_RPB004_11	5e463a635f87b0f17da19c70	barcode08	21028	5	11314119	2849	48983	11	14995307	3906
redo_RPB004_11	5e463a635f87b0f17da19c70	barcode11	0	0	7847	3	0	0	7847	3
redo_RPB004_11	5e463a635f87b0f17da19c70	unclassified	2826608	866	129361785	47225	15513	8	136338271	51409
redo_RPB004_11	5e463a635f87b0f17da19c70	barcode06	57707	9	4931782	1230	0	0	5887625	1493
redo_RPB004_11	5e463a635f87b0f17da19c70	barcode10	0	0	27092	8	0	0	27092	8
redo_RPB004_11	5e463a635f87b0f17da19c70	barcode05	0	0	680246	154	0	0	932672	223
redo_RPB004_12	5da5dc115f87b064d0bce723	barcode10	160160	95	2669572967	1071644	4343252	1738	2687670083	1083575
redo_RPB004_12	5da5dc115f87b064d0bce723	barcode11	3804	2	27744131	7776	24453	8	27933766	7974
redo_RPB004_12	5da5dc115f87b064d0bce723	barcode07	62699	33	2562139823	757461	7775142	2423	2586577222	767662
redo_RPB004_12	5da5dc115f87b064d0bce723	barcode01	5915	8	10454737	2846	26948	10	13422154	3757
redo_RPB004_12	5da5dc115f87b064d0bce723	barcode06	284661	208	2299636286	648090	3815472	1093	2312092175	654097
redo_RPB004_12	5da5dc115f87b064d0bce723	barcode04	0	0	67532	22	0	0	68693	23
redo_RPB004_12	5da5dc115f87b064d0bce723	barcode09	132089	65	2977442097	1001694	5230034	1762	2995523474	1011852
redo_RPB004_12	5da5dc115f87b064d0bce723	unclassified	303045	174	331576204	124849	552945	204	337698331	132424
redo_RPB004_12	5da5dc115f87b064d0bce723	barcode03	0	0	132052	42	0	0	134303	43
redo_RPB004_12	5da5dc115f87b064d0bce723	barcode05	67465	23	2608738246	681499	3712526	987	2620765790	687119
redo_RPB004_12	5da5dc115f87b064d0bce723	barcode02	0	0	375270	124	0	0	375950	127
redo_RPB004_12	5da5dc115f87b064d0bce723	barcode12a	0	0	54076	18	0	0	54076	18
redo_RPB004_12	5da5dc115f87b064d0bce723	barcode08	0	0	66563	20	0	0	66733	21
redo_RPB004_13	5da68bb85f87b0388999bd29	barcode07	0	0	62124	25	0	0	62302	26
redo_RPB004_13	5da68bb85f87b0388999bd29	barcode03	0	0	88411	33	2710	1	91121	34
redo_RPB004_13	5da68bb85f87b0388999bd29	barcode11	117368	64	1929259699	514238	3423626	954	1940254142	519538
redo_RPB004_13	5da68bb85f87b0388999bd29	barcode05	0	0	171501	61	0	0	174082	63
redo_RPB004_13	5da68bb85f87b0388999bd29	barcode06	0	0	133261	58	0	0	133487	59
redo_RPB004_13	5da68bb85f87b0388999bd29	barcode08	150286	93	2927328872	1193858	4523567	1849	2949102580	1208036
redo_RPB004_13	5da68bb85f87b0388999bd29	barcode04	136146	70	2806635424	969967	4293520	1497	2823448688	979393
redo_RPB004_13	5da68bb85f87b0388999bd29	barcode02	139608	65	3111315295	1038989	4875663	1631	3129914641	1048945
redo_RPB004_13	5da68bb85f87b0388999bd29	barcode01	0	0	76143	29	0	0	76474	30
redo_RPB004_13	5da68bb85f87b0388999bd29	barcode12a	0	0	160681	58	0	0	164402	60
redo_RPB004_13	5da68bb85f87b0388999bd29	barcode09	108878	57	2831786298	957099	4568749	1535	2848680537	966375
redo_RPB004_13	5da68bb85f87b0388999bd29	unclassified	275862	154	355659316	142489	528437	194	363148976	151119
redo_RPB004_13	5da68bb85f87b0388999bd29	barcode10	42675	18	26412058	6793	0	0	33160845	8625
redo_RPB004_14	5da683285f87b083600f4d38	barcode07	131283	86	1792920	533	4520	2	2863742	1047
redo_RPB004_14	5da683285f87b083600f4d38	barcode08	77858	27	1912684	517	0	0	4457772	1492
redo_RPB004_14	5da683285f87b083600f4d38	barcode05	74566	80	1855722	430	0	0	2875752	834
redo_RPB004_14	5da683285f87b083600f4d38	barcode14	0	0	368	1	0	0	368	1
redo_RPB004_14	5da683285f87b083600f4d38	barcode01	37917	21	8164114	1704	0	0	11523836	2537
redo_RPB004_14	5da683285f87b083600f4d38	barcode04	2259984	1444	1598277	449	224	1	4728220	2518
redo_RPB004_14	5da683285f87b083600f4d38	barcode02	10709	7	7417631	1941	2064	1	11849547	3084
redo_RPB004_14	5da683285f87b083600f4d38	unclassified	1693379	911	384891	115	254	1	3525931	2133
redo_RPB004_14	5da683285f87b083600f4d38	barcode06	1042499	463	6214975	1344	8283	4	15097525	4266
redo_RPB004_15	5da687f25f87b0d6902289cf	barcode10	17281	11	7781440	1979	47317	16	13061544	3450
redo_RPB004_15	5da687f25f87b0d6902289cf	barcode11	0	0	167001	70	0	0	265239	131
redo_RPB004_15	5da687f25f87b0d6902289cf	barcode09	214	1	0	0	0	0	214	1
redo_RPB004_15	5da687f25f87b0d6902289cf	barcode08	292391	156	14321465	2909	5442	2	18923588	4148
redo_RPB004_15	5da687f25f87b0d6902289cf	barcode04	6203043	5830	18774	6	0	0	6992383	8052
redo_RPB004_15	5da687f25f87b0d6902289cf	barcode02	0	0	0	0	0	0	418	1
redo_RPB004_15	5da687f25f87b0d6902289cf	unclassified	2873895	2431	553752	149	0	0	4776203	4563
redo_RPB004_15	5da687f25f87b0d6902289cf	barcode07	4971	3	365202	108	0	0	499752	160
redo_RPB004_15	5da687f25f87b0d6902289cf	barcode06	23635	6	5797213	1104	622	1	10025673	1959
redo_RPB004_15	5da687f25f87b0d6902289cf	barcode05	3761	2	0	0	0	0	3761	2
redo_RPB004_16	5da6a1e55f87b0a870d06910	barcode07	456412	109	3009229959	883474	1947422	558	3031170479	893075
redo_RPB004_16	5da6a1e55f87b0a870d06910	barcode11	0	0	8843	2	0	0	8843	2
redo_RPB004_16	5da6a1e55f87b0a870d06910	barcode02	199971	132	31145202	8972	20732	6	31629729	9312
redo_RPB004_16	5da6a1e55f87b0a870d06910	barcode04	1443529	974	130934114	38315	93092	24	133654091	40251
redo_RPB004_16	5da6a1e55f87b0a870d06910	unclassified	2041700	1391	100105698	33906	73926	21	105046799	38721
redo_RPB004_16	5da6a1e55f87b0a870d06910	barcode05	195314	48	902190864	223367	624249	145	907229038	226382
redo_RPB004_16	5da6a1e55f87b0a870d06910	barcode09	0	0	23418	7	0	0	23418	7
redo_RPB004_16	5da6a1e55f87b0a870d06910	barcode08	0	0	24352	7	0	0	24352	7
redo_RPB004_16	5da6a1e55f87b0a870d06910	barcode03	0	0	24215	6	0	0	26003	8
redo_RPB004_16	5da6a1e55f87b0a870d06910	barcode12a	0	0	16040	9	0	0	16040	9
redo_RPB004_16	5da6a1e55f87b0a870d06910	barcode06	897978	496	55089207	13922	24040	8	58892359	15403
redo_RPB004_16	5da6a1e55f87b0a870d06910	barcode10	0	0	96045	26	0	0	97782	27
redo_RPB004_16	5da6a1e55f87b0a870d06910	barcode01	1261446	871	1786678	416	205	1	3426600	1692
redo_RPB004_17	5da6a21a5f87b0c739ed9ebb	unclassified	3309704	3525	4017706	1745	8917	4	9511356	9577
redo_RPB004_17	5da6a21a5f87b0c739ed9ebb	barcode12a	0	0	0	0	0	0	448	2
redo_RPB004_17	5da6a21a5f87b0c739ed9ebb	barcode09	50690	99	45868	16	0	0	127676	203
redo_RPB004_17	5da6a21a5f87b0c739ed9ebb	barcode07	304398	444	103318704	35128	96956	38	105494279	38004
redo_RPB004_17	5da6a21a5f87b0c739ed9ebb	barcode06	8117	7	152222	56	0	0	176351	79
redo_RPB004_17	5da6a21a5f87b0c739ed9ebb	barcode10	5495	4	24395	7	0	0	30946	17
redo_RPB004_17	5da6a21a5f87b0c739ed9ebb	barcode04	231	1	0	0	0	0	705	3
redo_RPB004_17	5da6a21a5f87b0c739ed9ebb	barcode05	2536891	3785	309851	104	5904	4	3568806	6258
redo_RPB004_17	5da6a21a5f87b0c739ed9ebb	barcode02	438	2	5817	1	0	0	6255	3
redo_RPB004_17	5da6a21a5f87b0c739ed9ebb	barcode08	3028708	5573	31551	12	0	0	4109382	9317
redo_RPB004_18	5da6a3735f87b0e4da73cc90	barcode08	2101359	1451	1026322	335	16695	6	3351862	2192
redo_RPB004_18	5da6a3735f87b0e4da73cc90	barcode09	214	1	358710	86	0	0	390394	96
redo_RPB004_18	5da6a3735f87b0e4da73cc90	barcode12a	0	0	0	0	0	0	141	1
redo_RPB004_18	5da6a3735f87b0e4da73cc90	barcode11	0	0	240138	51	0	0	403756	92
redo_RPB004_18	5da6a3735f87b0e4da73cc90	barcode02	34734	19	1254488	389	0	0	1908870	618
redo_RPB004_18	5da6a3735f87b0e4da73cc90	barcode01	1802948	1223	593424	168	195	1	2644972	1726
redo_RPB004_18	5da6a3735f87b0e4da73cc90	unclassified	2470712	1770	63689	25	2332	1	3186560	2777
redo_RPB004_19	5da6a8925f87b03c21a261c9	barcode02	555752	301	111508473	27802	6423	2	128497283	32636
redo_RPB004_19	5da6a8925f87b03c21a261c9	barcode09	1814541	659	9737144	1858	2803	1	14303105	3328
redo_RPB004_19	5da6a8925f87b03c21a261c9	barcode01	1239548	418	5178975	1048	0	0	7261790	1858
redo_RPB004_19	5da6a8925f87b03c21a261c9	barcode04	562089	204	54264624	11884	0	0	62196651	14007
redo_RPB004_19	5da6a8925f87b03c21a261c9	barcode08	0	0	3672	1	0	0	3672	1
redo_RPB004_19	5da6a8925f87b03c21a261c9	barcode06	614761	271	919295	174	0	0	1768098	606
redo_RPB004_19	5da6a8925f87b03c21a261c9	barcode07	0	0	6071	1	0	0	6071	1
redo_RPB004_19	5da6a8925f87b03c21a261c9	barcode10	14773	5	4088695	898	8606	3	4492212	1005
redo_RPB004_19	5da6a8925f87b03c21a261c9	unclassified	241379	336	3328832	935	0	0	4539856	2331
redo_RPB004_19	5da6a8925f87b03c21a261c9	barcode03	0	0	0	0	0	0	2363	1
redo_RPB004_19	5da6a8925f87b03c21a261c9	barcode05	348494	200	803576	156	0	0	1348237	596
redo_RPB004_20	5da6abbd5f87b07c58451ac6	barcode06	311349	91	37063840	9455	31694	7	39822250	10220
redo_RPB004_20	5da6abbd5f87b07c58451ac6	barcode11	14294	3	1459493	343	0	0	1728296	427
redo_RPB004_20	5da6abbd5f87b07c58451ac6	barcode08	198572	107	26940061	6248	0	0	27679983	6613
redo_RPB004_20	5da6abbd5f87b07c58451ac6	barcode12a	530	1	0	0	0	0	530	1
redo_RPB004_20	5da6abbd5f87b07c58451ac6	barcode10	446	2	323013	70	0	0	329079	77
redo_RPB004_20	5da6abbd5f87b07c58451ac6	barcode07	4055046	1493	213396	50	0	0	4625529	2041
redo_RPB004_20	5da6abbd5f87b07c58451ac6	barcode05	1978733	711	7451244	1504	3278	1	10925149	2761
redo_RPB004_20	5da6abbd5f87b07c58451ac6	unclassified	499246	398	1346326	411	0	0	2646646	1813
redo_RPB004_20	5da6abbd5f87b07c58451ac6	barcode09	681526	209	63687	13	0	0	835044	295
redo_RPB004_20	5da6abbd5f87b07c58451ac6	barcode02	217	1	0	0	0	0	217	1
redo_RPB004_21	5da6ae245f87b0a3e73cf62e	barcode09	449186	244	558089	133	0	0	1025368	433
redo_RPB004_21	5da6ae245f87b0a3e73cf62e	barcode10	22999	37	17222348	4481	0	0	18368050	4769
redo_RPB004_21	5da6ae245f87b0a3e73cf62e	barcode01	295377	176	1057371	270	0	0	1368531	481
redo_RPB004_21	5da6ae245f87b0a3e73cf62e	barcode03	0	0	3292	1	0	0	3292	1
redo_RPB004_21	5da6ae245f87b0a3e73cf62e	barcode05	34599	38	111695939	29377	0	0	111889062	29485
redo_RPB004_21	5da6ae245f87b0a3e73cf62e	barcode02	504082	325	63207949	17286	0	0	63752352	17685
redo_RPB004_21	5da6ae245f87b0a3e73cf62e	barcode04	556131	355	554366	161	0	0	1138260	602
redo_RPB004_21	5da6ae245f87b0a3e73cf62e	barcode07	219	1	70749	27	0	0	77128	44
redo_RPB004_21	5da6ae245f87b0a3e73cf62e	unclassified	811916	559	2459921	804	0	0	3520416	1822
redo_RPB004_22	5da6cea25f87b0fb65dc596b	barcode12	0	0	167024	47	0	0	167024	47
redo_RPB004_22	5da6cea25f87b0fb65dc596b	barcode01	0	0	43881	12	0	0	43881	12
redo_RPB004_22	5da6cea25f87b0fb65dc596b	barcode10	103300	17	1906911184	469913	0	0	1907101005	470042
redo_RPB004_22	5da6cea25f87b0fb65dc596b	unclassified	1750613	917	91532733	30571	0	0	94514202	32646
redo_RPB004_22	5da6cea25f87b0fb65dc596b	barcode09	151412	27	2453972969	638513	0	0	2454219975	638698
redo_RPB004_22	5da6cea25f87b0fb65dc596b	barcode11	0	0	246234	57	0	0	247215	60
redo_RPB004_22	5da6cea25f87b0fb65dc596b	barcode06	1088708	528	509562	111	0	0	1830007	767
redo_RPB004_22	5da6cea25f87b0fb65dc596b	barcode08	1212438	572	96815555	25383	0	0	98072529	26072
redo_RPB004_22	5da6cea25f87b0fb65dc596b	barcode04	0	0	22882	6	0	0	22882	6
redo_RPB004_22	5da6cea25f87b0fb65dc596b	barcode05	0	0	131390	38	0	0	131390	38
redo_RPB004_22	5da6cea25f87b0fb65dc596b	barcode03	0	0	22053	8	0	0	22053	8
redo_RPB004_22	5da6cea25f87b0fb65dc596b	barcode02	329890	129	1688601617	497202	0	0	1689534428	497644
redo_RPB004_22	5da6cea25f87b0fb65dc596b	barcode12a	0	0	15581	5	0	0	15581	5
redo_RPB004_22	5da6cea25f87b0fb65dc596b	barcode07	10396	2	4400972	1131	0	0	4506076	1169
redo_RPB004_23	5da6d0f35f87b048c3c65551	barcode09	0	0	3947	1	0	0	3947	1
redo_RPB004_23	5da6d0f35f87b048c3c65551	barcode11	10942	6	8020681	2300	141501	57	8745581	2604
redo_RPB004_23	5da6d0f35f87b048c3c65551	barcode06	14023	3	17915323	4294	0	0	19349089	4706
redo_RPB004_23	5da6d0f35f87b048c3c65551	unclassified	4012830	1922	9745533	2902	2631	1	14883561	6042
redo_RPB004_23	5da6d0f35f87b048c3c65551	barcode02	11586	4	11922924	3138	2587	1	12154222	3216
redo_RPB004_23	5da6d0f35f87b048c3c65551	barcode05	45011	13	319355281	80701	216521	53	321275495	81601
redo_RPB004_23	5da6d0f35f87b048c3c65551	barcode10	6275560	2988	6823911	1575	0	0	13498166	5174
redo_RPB004_23	5da6d0f35f87b048c3c65551	barcode01	794218	428	58690437	13725	2195	1	60218097	14522
redo_RPB004_23	5da6d0f35f87b048c3c65551	barcode04	235	1	13141	3	0	0	15757	17
redo_RPB004_24	5da6d2a35f87b06603285f64	barcode10	625	2	33613	14	0	0	61502	44
redo_RPB004_24	5da6d2a35f87b06603285f64	barcode12	0	0	0	0	0	0	322	2
redo_RPB004_24	5da6d2a35f87b06603285f64	barcode09	4428	3	25864	22	0	0	47079	81
redo_RPB004_24	5da6d2a35f87b06603285f64	barcode06	1445	6	1747691	499	0	0	1789099	600
redo_RPB004_24	5da6d2a35f87b06603285f64	barcode12a	0	0	0	0	0	0	159	1
redo_RPB004_24	5da6d2a35f87b06603285f64	barcode02	5524	13	13355388	3988	0	0	13548438	4324
redo_RPB004_24	5da6d2a35f87b06603285f64	barcode04	21155	11	9328108	2505	10922	4	9851309	2794
redo_RPB004_24	5da6d2a35f87b06603285f64	barcode05	167918	257	2209463	570	0	0	2574611	1059
redo_RPB004_24	5da6d2a35f87b06603285f64	barcode01	5366731	7289	12368671	3361	4347	1	19185415	15131
redo_RPB004_24	5da6d2a35f87b06603285f64	unclassified	2859214	2945	2067140	797	1954	1	6194670	6662
redo_RPB004_25	5da6d4e65f87b095b90eb41e	barcode10	438	1	0	0	0	0	438	1
redo_RPB004_25	5da6d4e65f87b095b90eb41e	unclassified	1504178	1421	188341	63	631	1	2237760	2587
redo_RPB004_25	5da6d4e65f87b095b90eb41e	barcode02	215	1	2881546	755	0	0	3232803	860
redo_RPB004_25	5da6d4e65f87b095b90eb41e	barcode04	34988	29	1980221	482	0	0	2035165	528
redo_RPB004_25	5da6d4e65f87b095b90eb41e	barcode05	149639	142	133666	62	0	0	357884	311
redo_RPB004_25	5da6d4e65f87b095b90eb41e	barcode07	1196	2	1563770	452	0	0	1606686	491
redo_RPB004_25	5da6d4e65f87b095b90eb41e	barcode06	1566158	1464	4885615	1439	0	0	7523480	3699
redo_RPB004_25	5da6d4e65f87b095b90eb41e	barcode01	1226330	1110	1085011	273	3715	2	2571707	1836
redo_RPB004_26	5da6ec6a5f87b036f1cf3101	barcode07	550	2	1139899	301	0	0	1361477	394
redo_RPB004_26	5da6ec6a5f87b036f1cf3101	unclassified	3103979	1888	80687294	31596	15450	5	86439914	37066
redo_RPB004_26	5da6ec6a5f87b036f1cf3101	barcode12a	0	0	4224	1	0	0	4224	1
redo_RPB004_26	5da6ec6a5f87b036f1cf3101	barcode06	0	0	6422	2	0	0	6588	3
redo_RPB004_26	5da6ec6a5f87b036f1cf3101	barcode09	48274	46	591662	129	288	1	951359	265
redo_RPB004_26	5da6ec6a5f87b036f1cf3101	barcode11	375877	95	3625933303	1054903	373613	132	3629913416	1061359
redo_RPB004_26	5da6ec6a5f87b036f1cf3101	barcode05	0	0	4025	1	0	0	4025	1
redo_RPB004_26	5da6ec6a5f87b036f1cf3101	barcode03	0	0	9179	3	0	0	9179	3
redo_RPB004_26	5da6ec6a5f87b036f1cf3101	barcode10	3688949	2130	25211990	7844	1264	1	29119850	10513
redo_RPB004_26	5da6ec6a5f87b036f1cf3101	barcode02	375	1	0	0	0	0	375	1
redo_RPB004_26	5da6ec6a5f87b036f1cf3101	barcode04	276	1	6003	3	0	0	6279	4
redo_RPB004_26	5da6ec6a5f87b036f1cf3101	barcode08	2263775	1690	171033	32	3634	2	2599851	2172
redo_RPB004_27	5da6fc535f87b0baaf4d824d	barcode01	1324641	551	3439335	859	0	0	4823289	1539
redo_RPB004_27	5da6fc535f87b0baaf4d824d	barcode07	0	0	8143	3	0	0	8143	3
redo_RPB004_27	5da6fc535f87b0baaf4d824d	barcode10	84416	16	1065386711	266681	0	0	1136960057	284316
redo_RPB004_27	5da6fc535f87b0baaf4d824d	barcode08	0	0	279679	77	0	0	286421	95
redo_RPB004_27	5da6fc535f87b0baaf4d824d	barcode05	0	0	62851	20	0	0	64010	22
redo_RPB004_27	5da6fc535f87b0baaf4d824d	barcode02	150295	44	899430029	285591	255354	76	902937845	288092
redo_RPB004_27	5da6fc535f87b0baaf4d824d	barcode12a	0	0	9238	3	0	0	9238	3
redo_RPB004_27	5da6fc535f87b0baaf4d824d	barcode11	7129	3	7519929	2772	0	0	8091287	3042
redo_RPB004_27	5da6fc535f87b0baaf4d824d	barcode04	496981	296	945701261	285131	388531	108	949531258	287674
redo_RPB004_27	5da6fc535f87b0baaf4d824d	barcode09	0	0	25637	8	0	0	25637	8
redo_RPB004_27	5da6fc535f87b0baaf4d824d	unclassified	918639	509	36972047	12565	24437	7	40391017	14819
redo_RPB004_28	5da7137a5f87b06220d46cff	barcode06	272555	600	50354899	15715	20804	7	51280829	17812
redo_RPB004_28	5da7137a5f87b06220d46cff	barcode09	879074	991	1332128076	403597	13537	4	1370966117	426802
redo_RPB004_28	5da7137a5f87b06220d46cff	barcode11	17283	10	228779375	76565	2900	6	229892906	78431
redo_RPB004_28	5da7137a5f87b06220d46cff	barcode07	129061	33	983964809	289175	432304	133	994921757	308302
redo_RPB004_28	5da7137a5f87b06220d46cff	barcode02	0	0	61187	24	0	0	62628	28
redo_RPB004_28	5da7137a5f87b06220d46cff	unclassified	697832	1212	96564813	47120	29222	13	102801648	58234
redo_RPB004_28	5da7137a5f87b06220d46cff	barcode03	0	0	10809	9	0	0	11079	10
redo_RPB004_28	5da7137a5f87b06220d46cff	barcode12a	0	0	6342	3	0	0	6536	4
redo_RPB004_28	5da7137a5f87b06220d46cff	barcode05	0	0	8295	3	0	0	8295	3
redo_RPB004_28	5da7137a5f87b06220d46cff	barcode08	1441593	3102	122801644	39848	1548	1	139974074	52550
redo_RPB004_28	5da7137a5f87b06220d46cff	barcode04	0	0	18320	7	0	0	21620	9
redo_RPB004_28	5da7137a5f87b06220d46cff	barcode12	864	3	148541	56	0	0	150550	66
redo_RPB004_28	5da7137a5f87b06220d46cff	barcode10	22263	52	22993422	9309	3392	2	23177174	9611
redo_RPB004_28	5da7137a5f87b06220d46cff	barcode01	0	0	21121	10	0	0	24300	12
redo_RPB004_29	5da721685f87b07647bf1109	barcode15	0	0	4542	1	0	0	4542	1
redo_RPB004_29	5da721685f87b07647bf1109	barcode12a	1118	1	4700	1	0	0	5818	2
redo_RPB004_29	5da721685f87b07647bf1109	barcode01	0	0	0	0	0	0	276	1
redo_RPB004_29	5da721685f87b07647bf1109	barcode04	821407	459	93184	28	2836	2	1135240	997
redo_RPB004_29	5da721685f87b07647bf1109	barcode05	306	1	3862871	1042	353928	113	4241164	1179
redo_RPB004_29	5da721685f87b07647bf1109	barcode06	729588	352	16136680	3954	0	0	17537011	4744
redo_RPB004_29	5da721685f87b07647bf1109	unclassified	662471	614	40450982	13949	68546	25	44267161	18166
redo_RPB004_29	5da721685f87b07647bf1109	barcode07	4114	2	48053612	10809	163697	39	48470555	10992
redo_RPB004_29	5da721685f87b07647bf1109	barcode11	387070	119	1678377478	485100	540553	163	1687588618	492757
redo_RPB004_29	5da721685f87b07647bf1109	barcode02	0	0	5588	2	0	0	5588	2
redo_RPB004_29	5da721685f87b07647bf1109	barcode10	1484202	1050	20516021	8720	6918	3	22620784	10819
redo_RPB004_2	5e442bea5f87b02ed0b314ce	barcode02	484648	183	4760542	1541	30221	10	7489236	2496
redo_RPB004_2	5e442bea5f87b02ed0b314ce	barcode03	3034	1	16410	5	0	0	19799	7
redo_RPB004_2	5e442bea5f87b02ed0b314ce	barcode09	9737434	2956	418668407	104565	69203	18	432790259	109936
redo_RPB004_2	5e442bea5f87b02ed0b314ce	barcode06	0	0	18720	6	0	0	19285	7
redo_RPB004_2	5e442bea5f87b02ed0b314ce	barcode01	5672	1	883045	277	8761	3	1190948	383
redo_RPB004_2	5e442bea5f87b02ed0b314ce	barcode05	0	0	20814	7	0	0	20814	7
redo_RPB004_2	5e442bea5f87b02ed0b314ce	unclassified	26043044	7626	77316384	22826	20535	6	327935114	129801
redo_RPB004_2	5e442bea5f87b02ed0b314ce	barcode07	0	0	8091	3	0	0	8091	3
redo_RPB004_2	5e442bea5f87b02ed0b314ce	barcode08	424255	97	1287407282	325227	395475	108	1299970392	331644
redo_RPB004_2	5e442bea5f87b02ed0b314ce	barcode04	13181662	4745	260976007	77808	48775	13	287383168	87881
redo_RPB004_2	5e442bea5f87b02ed0b314ce	barcode12a	0	0	4324	3	0	0	4324	3
redo_RPB004_30	5da723b65f87b0a4ab84fca7	barcode06	298	1	0	0	0	0	298	1
redo_RPB004_30	5da723b65f87b0a4ab84fca7	barcode12	0	0	0	0	0	0	149	1
redo_RPB004_30	5da723b65f87b0a4ab84fca7	barcode05	234	1	83984	85	0	0	130606	143
redo_RPB004_30	5da723b65f87b0a4ab84fca7	barcode01	2198102	887	12858	5	0	0	2384045	1333
redo_RPB004_30	5da723b65f87b0a4ab84fca7	barcode11	18720	4	3443	3	0	0	1453886	309
redo_RPB004_30	5da723b65f87b0a4ab84fca7	barcode02	399197	154	7066291	1532	5404	2	13740071	3675
redo_RPB004_30	5da723b65f87b0a4ab84fca7	barcode10	0	0	99282	31	0	0	100229	35
redo_RPB004_30	5da723b65f87b0a4ab84fca7	barcode08	1405450	616	1667203	382	0	0	3244602	1278
redo_RPB004_30	5da723b65f87b0a4ab84fca7	unclassified	400963	400	104645	27	2033	2	1063110	1436
redo_RPB004_30	5da723b65f87b0a4ab84fca7	barcode09	204	1	11956	8	0	0	24251	17
redo_RPB004_31	5da81e555f87b0926fb3722d	barcode11	0	0	319171	78	0	0	347613	138
redo_RPB004_31	5da81e555f87b0926fb3722d	barcode01	580310	712	3847	1	0	0	990193	2076
redo_RPB004_31	5da81e555f87b0926fb3722d	barcode09	98755	78	2095224	500	0	0	2762294	860
redo_RPB004_31	5da81e555f87b0926fb3722d	barcode02	80740	101	50462	16	0	0	1468910	753
redo_RPB004_31	5da81e555f87b0926fb3722d	barcode10	226622	337	2970084	742	0	0	4951130	2186
redo_RPB004_31	5da81e555f87b0926fb3722d	barcode08	621791	893	212419	54	0	0	1387612	2572
redo_RPB004_31	5da81e555f87b0926fb3722d	unclassified	645119	1151	275702	101	0	0	2318002	4768
redo_RPB004_31	5da81e555f87b0926fb3722d	barcode06	49215	53	32735	10	0	0	224530	175
redo_RPB004_31	5da81e555f87b0926fb3722d	barcode12	0	0	0	0	0	0	527	3
redo_RPB004_31	5da81e555f87b0926fb3722d	barcode04	588	2	306482	107	0	0	484390	269
redo_RPB004_31	5da81e555f87b0926fb3722d	barcode05	424938	494	38823	12	0	0	744543	1378
redo_RPB004_31	5da81e555f87b0926fb3722d	barcode07	3148	10	160249	73	0	0	216352	237
redo_RPB004_32	5da824af5f87b0f903a6c46c	barcode06	3538	1	87471	19	0	0	101921	25
redo_RPB004_32	5da824af5f87b0f903a6c46c	barcode08	409219	160	28588316	8695	144729	72	32841170	10286
redo_RPB004_32	5da824af5f87b0f903a6c46c	barcode10	14640	4	2155710	466	0	0	2278496	508
redo_RPB004_32	5da824af5f87b0f903a6c46c	barcode04	779544	224	34525439	7897	6653	1	69543643	15663
redo_RPB004_32	5da824af5f87b0f903a6c46c	barcode01	7315057	2331	2271202	476	3831	2	11617064	3831
redo_RPB004_32	5da824af5f87b0f903a6c46c	unclassified	351214	319	1649116	499	0	0	3317813	1843
redo_RPB004_32	5da824af5f87b0f903a6c46c	barcode05	13401	5	1263437	276	0	0	1675185	400
redo_RPB004_32	5da824af5f87b0f903a6c46c	barcode02	43969	12	1873388	400	1736	1	2841180	638
redo_RPB004_32	5da824af5f87b0f903a6c46c	barcode07	39160	26	7412240	1994	5542	3	7831755	2195
redo_RPB004_33	5da83a425f87b0bc3ce769d3	barcode05	2006362	752	1245713	304	4549	2	3483110	1455
redo_RPB004_33	5da83a425f87b0bc3ce769d3	barcode11	114507	45	1188986621	333315	0	0	1189792129	334681
redo_RPB004_33	5da83a425f87b0bc3ce769d3	barcode10	26288	11	629113071	172699	0	0	629564976	173348
redo_RPB004_33	5da83a425f87b0bc3ce769d3	unclassified	388787	354	105165012	32759	87901	29	108346224	35783
redo_RPB004_33	5da83a425f87b0bc3ce769d3	barcode01	0	0	2409	2	0	0	2409	2
redo_RPB004_33	5da83a425f87b0bc3ce769d3	barcode06	2028795	942	20064144	6370	26656	9	23173087	8047
redo_RPB004_33	5da83a425f87b0bc3ce769d3	barcode02	0	0	126477	34	0	0	126477	34
redo_RPB004_33	5da83a425f87b0bc3ce769d3	barcode09	35797	7	780465908	202823	0	0	781031031	203551
redo_RPB004_33	5da83a425f87b0bc3ce769d3	barcode04	77379	22	7277264	1681	0	0	7886561	1893
redo_RPB004_33	5da83a425f87b0bc3ce769d3	barcode07	1309933	336	907203836	243555	2302916	602	958546628	258756
redo_RPB004_33	5da83a425f87b0bc3ce769d3	barcode03	0	0	15502	5	0	0	15502	5
redo_RPB004_33	5da83a425f87b0bc3ce769d3	barcode08	868062	341	31907089	9137	0	0	32993915	9716
redo_RPB004_33	5da83a425f87b0bc3ce769d3	barcode12a	0	0	23226	7	0	0	23226	7
redo_RPB004_33	5da83a425f87b0bc3ce769d3	barcode12	0	0	64175	16	0	0	64175	16
redo_RPB004_34	5da83e325f87b005f55d1f9b	barcode07	15815	6	30079912	6847	21054	4	34434578	7863
redo_RPB004_34	5da83e325f87b005f55d1f9b	barcode02	882918	356	1746405	469	0	0	2744358	1039
redo_RPB004_34	5da83e325f87b005f55d1f9b	unclassified	121033	179	7058555	2282	0	0	8146123	3728
redo_RPB004_34	5da83e325f87b005f55d1f9b	barcode05	1273343	427	150351261	41932	3092	1	159374324	44654
redo_RPB004_34	5da83e325f87b005f55d1f9b	barcode12a	0	0	4533	1	0	0	7159	2
redo_RPB004_34	5da83e325f87b005f55d1f9b	barcode06	183364	54	187613458	53798	61619	19	213318059	60939
redo_RPB004_34	5da83e325f87b005f55d1f9b	barcode09	0	0	6590	2	0	0	6590	2
redo_RPB004_34	5da83e325f87b005f55d1f9b	barcode04	811654	248	12939395	3001	5740	1	15061391	3603
redo_RPB004_34	5da83e325f87b005f55d1f9b	barcode01	26406	5	14528398	2805	6671	1	16413380	3211
redo_RPB004_35	5da841b65f87b03e1e7c08b6	barcode09	105364	50	256653900	58644	115956	29	288183700	65940
redo_RPB004_35	5da841b65f87b03e1e7c08b6	barcode10	466536	217	133061918	31367	29850	9	147685541	34949
redo_RPB004_35	5da841b65f87b03e1e7c08b6	barcode12	0	0	5613	2	0	0	5613	2
redo_RPB004_35	5da841b65f87b03e1e7c08b6	barcode03	0	0	3387	1	0	0	3387	1
redo_RPB004_35	5da841b65f87b03e1e7c08b6	barcode02	0	0	27191	7	0	0	29125	9
redo_RPB004_35	5da841b65f87b03e1e7c08b6	barcode08	1287417	472	2657985	601	0	0	4470292	1305
redo_RPB004_35	5da841b65f87b03e1e7c08b6	barcode11	1048222	356	3060733	662	6178	2	4487784	1211
redo_RPB004_35	5da841b65f87b03e1e7c08b6	unclassified	240607	190	8622546	2272	6560	3	10270481	3467
redo_RPB004_36	5da855985f87b0fe10880be3	barcode01	2219526	697	1200681703	253656	11867	3	1206225332	255246
redo_RPB004_36	5da855985f87b0fe10880be3	barcode05	216776	97	995183670	296539	3011773	760	1093481916	327965
redo_RPB004_36	5da855985f87b0fe10880be3	barcode06	757336	281	383304728	107438	651070	209	424562798	119800
redo_RPB004_36	5da855985f87b0fe10880be3	barcode08	0	0	5721	2	0	0	5721	2
redo_RPB004_36	5da855985f87b0fe10880be3	barcode12a	0	0	6551	2	0	0	6551	2
redo_RPB004_36	5da855985f87b0fe10880be3	unclassified	352010	235	50598796	15062	92506	26	55634350	17667
redo_RPB004_36	5da855985f87b0fe10880be3	barcode02	0	0	7007034	1631	6150	2	7208268	1681
redo_RPB004_36	5da855985f87b0fe10880be3	barcode09	0	0	10587	4	0	0	10587	4
redo_RPB004_36	5da855985f87b0fe10880be3	barcode11	3189	1	96976978	21552	63396	17	122675563	27551
redo_RPB004_36	5da855985f87b0fe10880be3	barcode04	2474908	948	86729957	24368	83642	26	96713023	27706
redo_RPB004_36	5da855985f87b0fe10880be3	barcode07	0	0	68167	20	0	0	73915	22
redo_RPB004_36	5da855985f87b0fe10880be3	barcode10	0	0	10233	6	0	0	10388	7
redo_RPB004_36	5da855985f87b0fe10880be3	barcode03	0	0	13807	3	0	0	13807	3
redo_RPB004_37	5da8906a5f87b039a1b63d88	barcode02	1421027	341	1933400590	452703	0	0	1945962312	458629
redo_RPB004_37	5da8906a5f87b039a1b63d88	barcode05	0	0	194736	56	0	0	194987	57
redo_RPB004_37	5da8906a5f87b039a1b63d88	barcode01	991577	521	894743113	304695	9812	3	904794048	310500
redo_RPB004_37	5da8906a5f87b039a1b63d88	barcode09	9914	2	2313130	484	0	0	2781950	597
redo_RPB004_37	5da8906a5f87b039a1b63d88	barcode11	126126	25	2366748016	602594	15702186	3887	2384303616	608612
redo_RPB004_37	5da8906a5f87b039a1b63d88	barcode06	0	0	9958	3	0	0	9958	3
redo_RPB004_37	5da8906a5f87b039a1b63d88	barcode12a	0	0	64014	18	0	0	64157	19
redo_RPB004_37	5da8906a5f87b039a1b63d88	unclassified	664697	487	435230879	140750	957035	294	443739680	149557
redo_RPB004_37	5da8906a5f87b039a1b63d88	barcode04	1132794	289	1653221785	403866	0	0	1664282628	409148
redo_RPB004_37	5da8906a5f87b039a1b63d88	barcode07	0	0	47620	12	0	0	47620	12
redo_RPB004_37	5da8906a5f87b039a1b63d88	barcode10	514282	299	1122028367	341516	6962286	2042	1134688694	346413
redo_RPB004_37	5da8906a5f87b039a1b63d88	barcode08	0	0	32408	10	0	0	32408	10
redo_RPB004_37	5da8906a5f87b039a1b63d88	barcode03	0	0	35581	13	0	0	35735	14
redo_RPB004_38	5da8a20b5f87b0d336fdc96f	barcode10	0	0	11853	4	0	0	11853	4
redo_RPB004_38	5da8a20b5f87b0d336fdc96f	barcode05	79048	15	1578799263	448294	22285	6	1607062676	456952
redo_RPB004_38	5da8a20b5f87b0d336fdc96f	barcode07	12397	3	59181215	14043	70492	18	72309274	17459
redo_RPB004_38	5da8a20b5f87b0d336fdc96f	barcode02	28717	10	102297546	22866	199870	43	119414671	27009
redo_RPB004_38	5da8a20b5f87b0d336fdc96f	unclassified	155998	171	54012837	18256	15215	4	56258889	19655
redo_RPB004_38	5da8a20b5f87b0d336fdc96f	barcode01	899569	317	2541181	508	0	0	3787231	1008
redo_RPB004_38	5da8a20b5f87b0d336fdc96f	barcode06	603204	211	5428384	1211	0	0	7009702	1707
redo_RPB004_38	5da8a20b5f87b0d336fdc96f	barcode03	0	0	15760	5	0	0	15760	5
redo_RPB004_38	5da8a20b5f87b0d336fdc96f	barcode08	0	0	0	0	0	0	3624	1
redo_RPB004_38	5da8a20b5f87b0d336fdc96f	barcode09	0	0	6502	2	0	0	6502	2
redo_RPB004_38	5da8a20b5f87b0d336fdc96f	barcode04	322810	97	564596171	147800	9198	2	574561450	150637
redo_RPB004_39	5da8a79f5f87b04ce20dfb65	barcode05	16922	3	86443512	19720	90826	26	105128189	24413
redo_RPB004_39	5da8a79f5f87b04ce20dfb65	barcode04	0	0	2346	1	0	0	2576	2
redo_RPB004_39	5da8a79f5f87b04ce20dfb65	barcode07	0	0	6445	1	0	0	8914	2
redo_RPB004_39	5da8a79f5f87b04ce20dfb65	barcode11	19302	12	227064234	53072	58078	12	239423274	56021
redo_RPB004_39	5da8a79f5f87b04ce20dfb65	barcode12	0	0	5761	1	0	0	5761	1
redo_RPB004_39	5da8a79f5f87b04ce20dfb65	barcode08	5001289	1688	53430316	11897	42549	13	69303905	16491
redo_RPB004_39	5da8a79f5f87b04ce20dfb65	unclassified	477497	388	6871184	1947	4692	3	8723823	3605
redo_RPB004_39	5da8a79f5f87b04ce20dfb65	barcode02	0	0	3888	1	0	0	3888	1
redo_RPB004_39	5da8a79f5f87b04ce20dfb65	barcode09	76638	24	6003584	1115	4904	1	7305928	1392
redo_RPB004_39	5da8a79f5f87b04ce20dfb65	barcode10	3815790	1521	21521320	4999	19336	6	28693678	7832
redo_RPB004_3	5e4433075f87b0ce976e6f0a	barcode09	1574	1	0	0	0	0	1574	1
redo_RPB004_3	5e4433075f87b0ce976e6f0a	barcode10	0	0	83101	17	0	0	93135	22
redo_RPB004_3	5e4433075f87b0ce976e6f0a	barcode03	0	0	6953	2	0	0	6953	2
redo_RPB004_3	5e4433075f87b0ce976e6f0a	barcode02	0	0	3573	1	0	0	3573	1
redo_RPB004_3	5e4433075f87b0ce976e6f0a	barcode05	2797284	1035	330984267	96787	1630	1	335221541	98539
redo_RPB004_3	5e4433075f87b0ce976e6f0a	barcode01	0	0	4522	1	0	0	4522	1
redo_RPB004_3	5e4433075f87b0ce976e6f0a	barcode07	7976731	3300	2537300	797	15906	12	12199623	5300
redo_RPB004_3	5e4433075f87b0ce976e6f0a	unclassified	14648689	5267	12146231	3930	34550	17	141417792	71076
redo_RPB004_3	5e4433075f87b0ce976e6f0a	barcode06	5421475	2263	1972964	537	8387	3	8272291	3296
redo_RPB004_40	5da8adcc5f87b09cbd0fa6ad	barcode01	320646	106	473507	88	0	0	820675	234
redo_RPB004_40	5da8adcc5f87b09cbd0fa6ad	unclassified	153919	135	15436082	4634	4514	2	16329595	5455
redo_RPB004_40	5da8adcc5f87b09cbd0fa6ad	barcode11	0	0	0	0	0	0	1718	1
redo_RPB004_40	5da8adcc5f87b09cbd0fa6ad	barcode08	917	3	14732841	2986	8828	2	16949109	3468
redo_RPB004_40	5da8adcc5f87b09cbd0fa6ad	barcode02	107946	24	673833027	178908	302321	80	676189678	179897
redo_RPB004_40	5da8adcc5f87b09cbd0fa6ad	barcode09	10994	1	995744	202	0	0	1250183	254
redo_RPB004_40	5da8adcc5f87b09cbd0fa6ad	barcode06	7255	2	19296302	4065	24903	7	22826174	4878
redo_RPB004_40	5da8adcc5f87b09cbd0fa6ad	barcode05	289	1	7616418	1528	15483	3	8729858	1766
redo_RPB004_40	5da8adcc5f87b09cbd0fa6ad	barcode07	269073	148	9726763	2041	10373	5	12268133	2811
redo_RPB004_40	5da8adcc5f87b09cbd0fa6ad	barcode10	2167	1	39513675	8431	80335	19	47247018	10245
redo_RPB004_40	5da8adcc5f87b09cbd0fa6ad	barcode04	181057	66	7185568	1370	5619	1	8982405	1803
redo_RPB004_41	5da8dbc65f87b0827e7c0594	barcode11	8745	6	22519906	4316	3439	1	26353248	5165
redo_RPB004_41	5da8dbc65f87b0827e7c0594	barcode12	0	0	6042	2	0	0	6042	2
redo_RPB004_41	5da8dbc65f87b0827e7c0594	barcode07	0	0	35328	12	0	0	35581	13
redo_RPB004_41	5da8dbc65f87b0827e7c0594	barcode06	91802	40	136421951	28637	120511	32	163298112	34937
redo_RPB004_41	5da8dbc65f87b0827e7c0594	barcode04	2283442	1323	1268583	362	0	0	4107569	2553
redo_RPB004_41	5da8dbc65f87b0827e7c0594	barcode12a	0	0	34413	12	0	0	34413	12
redo_RPB004_41	5da8dbc65f87b0827e7c0594	barcode05	75683	41	44112544	8279	49562	11	52835322	10116
redo_RPB004_41	5da8dbc65f87b0827e7c0594	unclassified	398047	320	135368124	47792	116568	38	141546217	53293
redo_RPB004_41	5da8dbc65f87b0827e7c0594	barcode09	139047	57	22258207	4230	19048	4	28294459	5503
redo_RPB004_41	5da8dbc65f87b0827e7c0594	barcode10	58092	39	95945646	22502	115090	31	116660246	28067
redo_RPB004_41	5da8dbc65f87b0827e7c0594	barcode03	0	0	56976	17	0	0	57314	18
redo_RPB004_41	5da8dbc65f87b0827e7c0594	barcode01	14252	14	104229517	22895	6444	2	105278846	23241
redo_RPB004_41	5da8dbc65f87b0827e7c0594	barcode02	558082	180	5946012293	1878996	3371065	1106	5973646341	1896716
redo_RPB004_41	5da8dbc65f87b0827e7c0594	barcode08	0	0	16186271	3145	20885	4	19752742	3913
redo_RPB004_42	5da8fd7a5f87b0070b7992da	barcode09	5418	3	83752332	18237	50306	15	100780698	22253
redo_RPB004_42	5da8fd7a5f87b0070b7992da	barcode04	3515652	1265	6342921	1283	2871	1	11546663	3337
redo_RPB004_42	5da8fd7a5f87b0070b7992da	barcode12a	0	0	32612	9	0	0	32612	9
redo_RPB004_42	5da8fd7a5f87b0070b7992da	barcode12	0	0	11543	2	0	0	11543	2
redo_RPB004_42	5da8fd7a5f87b0070b7992da	barcode05	16576	2	11800523	2166	3669	1	16334605	3090
redo_RPB004_42	5da8fd7a5f87b0070b7992da	barcode01	223529	75	2905364	505	0	0	3828708	742
redo_RPB004_42	5da8fd7a5f87b0070b7992da	barcode02	5998	2	36265880	7404	17015	5	43967731	9137
redo_RPB004_42	5da8fd7a5f87b0070b7992da	barcode10	0	0	143812	37	0	0	169366	44
redo_RPB004_42	5da8fd7a5f87b0070b7992da	barcode22	0	0	391	1	0	0	391	1
redo_RPB004_42	5da8fd7a5f87b0070b7992da	barcode08	0	0	17600	5	0	0	20295	6
redo_RPB004_42	5da8fd7a5f87b0070b7992da	barcode11	0	0	20013	5	0	0	20013	5
redo_RPB004_42	5da8fd7a5f87b0070b7992da	barcode07	218158	54	5043009211	1213632	61400960	14575	5366587272	1291340
redo_RPB004_42	5da8fd7a5f87b0070b7992da	unclassified	317387	245	113832052	32770	1234705	332	123273662	36442
redo_RPB004_42	5da8fd7a5f87b0070b7992da	barcode06	1975544	621	133184023	32377	1588452	376	144047510	35319
redo_RPB004_42	5da8fd7a5f87b0070b7992da	barcode03	0	0	9091	2	0	0	9091	2
redo_RPB004_43	5da900955f87b05c259c7d87	barcode07	0	0	5382	1	0	0	9417	2
redo_RPB004_43	5da900955f87b05c259c7d87	barcode05	0	0	702477	126	0	0	778474	145
redo_RPB004_43	5da900955f87b05c259c7d87	barcode06	0	0	19424894	3729	16471	3	22746705	4435
redo_RPB004_43	5da900955f87b05c259c7d87	barcode10	1120569	367	1717055	377	0	0	3121082	890
redo_RPB004_43	5da900955f87b05c259c7d87	barcode04	1680906	552	33761646	6658	30545	7	42204010	8819
redo_RPB004_43	5da900955f87b05c259c7d87	barcode09	4563	2	69037268	14115	132532	25	85035437	17643
redo_RPB004_43	5da900955f87b05c259c7d87	barcode02	0	0	8251	2	0	0	8251	2
redo_RPB004_43	5da900955f87b05c259c7d87	unclassified	184397	122	3023992	776	6502	1	3901519	1347
redo_RPB004_43	5da900955f87b05c259c7d87	barcode08	1395933	442	2795764	565	9953	2	4799397	1186
redo_RPB004_43	5da900955f87b05c259c7d87	barcode11	213282	42	156616998	33317	218415	61	185756525	40242
redo_RPB004_43	5da900955f87b05c259c7d87	barcode12	0	0	6024	1	0	0	6024	1
redo_RPB004_44	5da905b55f87b0bcf6050f6b	barcode09	0	0	12940	3	0	0	12940	3
redo_RPB004_44	5da905b55f87b0bcf6050f6b	barcode01	2352375	1041	6495514	1759	7747	3	10279437	3527
redo_RPB004_44	5da905b55f87b0bcf6050f6b	barcode11	0	0	15522122	3978	15396	5	18052311	4740
redo_RPB004_44	5da905b55f87b0bcf6050f6b	barcode07	0	0	2174	1	0	0	2174	1
redo_RPB004_44	5da905b55f87b0bcf6050f6b	barcode06	823381	318	292956878	69052	6205	3	344548211	81019
redo_RPB004_44	5da905b55f87b0bcf6050f6b	barcode08	0	0	5818	1	0	0	5818	1
redo_RPB004_44	5da905b55f87b0bcf6050f6b	barcode05	2385054	1301	37732418	13653	1976	1	45686592	17248
redo_RPB004_44	5da905b55f87b0bcf6050f6b	barcode04	0	0	5471581	1257	6807	2	6512700	1529
redo_RPB004_44	5da905b55f87b0bcf6050f6b	barcode10	721	1	0	0	0	0	721	1
redo_RPB004_44	5da905b55f87b0bcf6050f6b	barcode02	5394	6	18477866	4732	12964	5	21728534	5750
redo_RPB004_44	5da905b55f87b0bcf6050f6b	unclassified	365901	306	9105392	2781	466	1	11008909	4244
redo_RPB004_45	5da9083a5f87b0ed46bc149f	barcode06	215	1	0	0	0	0	215	1
redo_RPB004_45	5da9083a5f87b0ed46bc149f	barcode02	0	0	2162	1	0	0	2162	1
redo_RPB004_45	5da9083a5f87b0ed46bc149f	barcode08	524796	342	1490882	492	83918	26	2233916	1106
redo_RPB004_45	5da9083a5f87b0ed46bc149f	barcode09	227697	125	141130	38	0	0	460900	287
redo_RPB004_45	5da9083a5f87b0ed46bc149f	barcode10	94976	102	21320046	5644	12784	4	26647283	7588
redo_RPB004_45	5da9083a5f87b0ed46bc149f	unclassified	317646	376	788503	240	6127	2	1629920	1643
redo_RPB004_45	5da9083a5f87b0ed46bc149f	barcode07	863744	689	713840	209	15173	4	1896843	1473
redo_RPB004_46	5da90e205f87b05bc4b13303	barcode10	6283	6	57547225	15926	25110	8	63839656	17774
redo_RPB004_46	5da90e205f87b05bc4b13303	barcode11	3794	2	5398351	1508	6371	3	6487520	1956
redo_RPB004_46	5da90e205f87b05bc4b13303	barcode08	0	0	16467	5	0	0	16467	5
redo_RPB004_46	5da90e205f87b05bc4b13303	unclassified	985757	1257	22808823	7878	19845	6	27029083	13722
redo_RPB004_46	5da90e205f87b05bc4b13303	barcode01	1465969	1102	49753102	11370	127619	35	61580307	16630
redo_RPB004_46	5da90e205f87b05bc4b13303	barcode09	2083012	1457	196088228	59789	112365	29	200084296	64199
redo_RPB004_46	5da90e205f87b05bc4b13303	barcode05	29443	4	25933550	6068	17651	5	30679073	7400
redo_RPB004_46	5da90e205f87b05bc4b13303	barcode02	4369	8	11608679	2998	22549	9	13815814	3737
redo_RPB004_46	5da90e205f87b05bc4b13303	barcode07	549	1	0	0	0	0	549	1
redo_RPB004_46	5da90e205f87b05bc4b13303	barcode03	0	0	10749	3	0	0	10749	3
redo_RPB004_46	5da90e205f87b05bc4b13303	barcode04	7902	8	26236192	6067	23471	5	29521355	6989
redo_RPB004_46	5da90e205f87b05bc4b13303	barcode12	0	0	4019	2	0	0	4019	2
redo_RPB004_47	5e46c6955f87b07c323ec421	barcode08	565582	627	301986	74	0	0	1230962	2126
redo_RPB004_47	5e46c6955f87b07c323ec421	barcode02	285759	119	846850990	243387	9337956	2636	912980830	262832
redo_RPB004_47	5e46c6955f87b07c323ec421	barcode09	342603	335	526910	142	0	0	1830835	1549
redo_RPB004_47	5e46c6955f87b07c323ec421	barcode11	0	0	4113	1	0	0	4113	1
redo_RPB004_47	5e46c6955f87b07c323ec421	barcode05	229908	60	2317581087	635444	1744622	489	2330859397	642134
redo_RPB004_47	5e46c6955f87b07c323ec421	barcode12a	0	0	46450	11	0	0	51923	12
redo_RPB004_47	5e46c6955f87b07c323ec421	barcode10	0	0	15977	5	0	0	15977	5
redo_RPB004_47	5e46c6955f87b07c323ec421	barcode04	833710	233	426041152	102477	180985	57	504665756	122433
redo_RPB004_47	5e46c6955f87b07c323ec421	barcode01	735898	334	318536292	74816	807279	247	439958167	105888
redo_RPB004_47	5e46c6955f87b07c323ec421	unclassified	629024	663	147979256	44825	376102	123	160993458	53103
redo_RPB004_47	5e46c6955f87b07c323ec421	barcode06	0	0	0	0	0	0	246	1
redo_RPB004_47	5e46c6955f87b07c323ec421	barcode03	0	0	40652	11	0	0	40947	12
redo_RPB004_47	5e46c6955f87b07c323ec421	barcode07	0	0	271505	79	0	0	272800	82
redo_RPB004_48	5e46e3c65f87b0e1c7ad6a9b	barcode03	0	0	15539	4	0	0	20823	6
redo_RPB004_48	5e46e3c65f87b0e1c7ad6a9b	barcode05	0	0	82473	24	0	0	86420	25
redo_RPB004_48	5e46e3c65f87b0e1c7ad6a9b	barcode09	222905	209	44115502	11390	14285	4	45767545	12505
redo_RPB004_48	5e46e3c65f87b0e1c7ad6a9b	barcode01	0	0	48054	12	0	0	48054	12
redo_RPB004_48	5e46e3c65f87b0e1c7ad6a9b	barcode04	0	0	6945	3	0	0	7443	4
redo_RPB004_48	5e46e3c65f87b0e1c7ad6a9b	barcode07	340888	118	1542647047	420498	19139618	5127	1704242203	466810
redo_RPB004_48	5e46e3c65f87b0e1c7ad6a9b	barcode12a	0	0	64794	17	0	0	68350	19
redo_RPB004_48	5e46e3c65f87b0e1c7ad6a9b	barcode11	383619	303	15002889	3631	21212	7	28024085	7885
redo_RPB004_48	5e46e3c65f87b0e1c7ad6a9b	unclassified	454559	552	81236234	25153	820425	248	95568778	32652
redo_RPB004_48	5e46e3c65f87b0e1c7ad6a9b	barcode10	353876	355	2263171	640	5430	1	4461666	2340
redo_RPB004_48	5e46e3c65f87b0e1c7ad6a9b	barcode06	1330629	519	158915716	36564	1069083	334	263112711	60362
redo_RPB004_48	5e46e3c65f87b0e1c7ad6a9b	barcode08	94224	79	180749710	40590	192037	57	215848062	50214
redo_RPB004_48	5e46e3c65f87b0e1c7ad6a9b	barcode02	0	0	126559	34	0	0	170814	44
redo_RPB004_49	5e46ebbc5f87b0912f483ab0	barcode07	258142	55	68798766	18600	63140	19	90378047	24007
redo_RPB004_49	5e46ebbc5f87b0912f483ab0	unclassified	227194	282	3558242	1102	2643	1	5624271	2901
redo_RPB004_49	5e46ebbc5f87b0912f483ab0	barcode11	0	0	2571	1	0	0	2715	2
redo_RPB004_49	5e46ebbc5f87b0912f483ab0	barcode06	64967	37	6712862	1817	8861	3	9181346	2468
redo_RPB004_49	5e46ebbc5f87b0912f483ab0	barcode03	0	0	0	0	0	0	359	1
redo_RPB004_49	5e46ebbc5f87b0912f483ab0	barcode04	625530	757	500312	213	0	0	1549600	2446
redo_RPB004_49	5e46ebbc5f87b0912f483ab0	barcode01	49561	40	15202769	3752	11667	4	17776106	4613
redo_RPB004_49	5e46ebbc5f87b0912f483ab0	barcode02	58788	60	9560834	3138	3554	2	11633086	4173
redo_RPB004_49	5e46ebbc5f87b0912f483ab0	barcode05	194241	54	25235492	6122	48988	11	48216161	12446
redo_RPB004_4	5e4456965f87b0d1da8edf86	barcode02	3579792	845	4086172	922	232	1	7790993	1937
redo_RPB004_4	5e4456965f87b0d1da8edf86	barcode11	0	0	5640	2	0	0	5640	2
redo_RPB004_4	5e4456965f87b0d1da8edf86	barcode03	0	0	7665	2	0	0	7665	2
redo_RPB004_4	5e4456965f87b0d1da8edf86	barcode05	0	0	12463	4	0	0	12463	4
redo_RPB004_4	5e4456965f87b0d1da8edf86	barcode07	242263	40	133768667	36732	11570	6	137213486	37765
redo_RPB004_4	5e4456965f87b0d1da8edf86	barcode10	42774988	14859	5544977	1469	0	0	48961130	19209
redo_RPB004_4	5e4456965f87b0d1da8edf86	barcode01	1767120	239	521390605	124735	220773	54	527039868	126961
redo_RPB004_4	5e4456965f87b0d1da8edf86	unclassified	2497431	1084	16655772	5241	0	0	19607761	7052
redo_RPB004_4	5e4456965f87b0d1da8edf86	barcode08	317667	50	119622213	33602	0	0	121670273	34217
redo_RPB004_4	5e4456965f87b0d1da8edf86	barcode09	351445	59	83688782	21391	0	0	85554382	21912
redo_RPB004_4	5e4456965f87b0d1da8edf86	barcode04	0	0	9570	2	0	0	10056	3
redo_RPB004_4	5e4456965f87b0d1da8edf86	barcode12a	0	0	5246	1	0	0	5417	2
redo_RPB004_50	5e46ffdc5f87b027448563de	barcode11	0	0	1898883	464	2816	1	2228804	578
redo_RPB004_50	5e46ffdc5f87b027448563de	barcode07	95003	39	56246845	13846	0	0	59446896	14889
redo_RPB004_50	5e46ffdc5f87b027448563de	barcode05	1120891	1958	2566413	2277	2469	4	4971892	7731
redo_RPB004_50	5e46ffdc5f87b027448563de	barcode09	307882	215	507486	149	0	0	1124617	745
redo_RPB004_50	5e46ffdc5f87b027448563de	barcode10	465795	423	190827	83	0	0	867960	992
redo_RPB004_50	5e46ffdc5f87b027448563de	barcode06	217689	94	85731743	25275	3779	1	90343561	26719
redo_RPB004_50	5e46ffdc5f87b027448563de	barcode01	558962	1261	1065568	1118	2006	3	2385864	5022
redo_RPB004_50	5e46ffdc5f87b027448563de	barcode02	596	2	0	0	0	0	596	2
redo_RPB004_50	5e46ffdc5f87b027448563de	unclassified	640358	949	3364494	1182	0	0	5071300	4520
redo_RPB004_51	5e470eda5f87b058b5251f20	barcode10	324976	216	5293915	1664	7339	3	7273736	2656
redo_RPB004_51	5e470eda5f87b058b5251f20	barcode08	707799	597	4724144	1899	256781	101	6058306	3414
redo_RPB004_51	5e470eda5f87b058b5251f20	barcode06	0	0	4991	2	0	0	5159	3
redo_RPB004_51	5e470eda5f87b058b5251f20	barcode02	0	0	369243	103	0	0	482877	175
redo_RPB004_51	5e470eda5f87b058b5251f20	barcode07	672385	299	1595653	343	17061	5	2635843	1078
redo_RPB004_51	5e470eda5f87b058b5251f20	barcode04	274139	156	12750151	3932	43486	14	17467476	5788
redo_RPB004_51	5e470eda5f87b058b5251f20	barcode11	35620	17	12134649	2439	17381	3	14556389	3078
redo_RPB004_51	5e470eda5f87b058b5251f20	barcode01	299934	160	3930252	1006	9317	4	5009901	1548
redo_RPB004_51	5e470eda5f87b058b5251f20	unclassified	325928	381	731829	277	16782	8	1436639	1529
redo_RPB004_51	5e470eda5f87b058b5251f20	barcode12a	0	0	3148	1	0	0	3872	3
redo_RPB004_52	5e4765e65f87b056453a45a9	unclassified	333052	231	295824822	97020	1775002	611	313666429	105776
redo_RPB004_52	5e4765e65f87b056453a45a9	barcode10	0	0	66832	21	0	0	75945	24
redo_RPB004_52	5e4765e65f87b056453a45a9	barcode12a	0	0	71907	22	0	0	72263	23
redo_RPB004_52	5e4765e65f87b056453a45a9	barcode01	306084	124	266854289	65484	210391	52	268245488	66104
redo_RPB004_52	5e4765e65f87b056453a45a9	barcode02	161522	87	3105841391	894375	2118367	628	3113532817	899583
redo_RPB004_52	5e4765e65f87b056453a45a9	barcode03	0	0	34633	11	0	0	34633	11
redo_RPB004_52	5e4765e65f87b056453a45a9	barcode09	52119	10	28508583	7798	32706	13	37370157	10270
redo_RPB004_52	5e4765e65f87b056453a45a9	barcode11	0	0	94485	29	0	0	100496	32
redo_RPB004_52	5e4765e65f87b056453a45a9	barcode07	0	0	271756	95	0	0	290857	101
redo_RPB004_52	5e4765e65f87b056453a45a9	barcode04	156908	68	3136054759	775433	2274084	584	3142880766	779420
redo_RPB004_52	5e4765e65f87b056453a45a9	barcode08	389572	156	2103539	487	4782	1	3080827	898
redo_RPB004_52	5e4765e65f87b056453a45a9	barcode05	620157	361	1521784578	526738	20341067	6937	1673105302	581569
redo_RPB004_52	5e4765e65f87b056453a45a9	barcode06	411832	194	3468840204	1085206	45327066	14061	3803099169	1193712
redo_RPB004_53	5e4774045f87b0656df1000a	barcode09	4555	1	0	0	0	0	4555	1
redo_RPB004_53	5e4774045f87b0656df1000a	barcode05	451348	199	15242214	3664	0	0	15886057	4136
redo_RPB004_53	5e4774045f87b0656df1000a	barcode06	102620	46	38706069	9309	24626	11	46493805	11547
redo_RPB004_53	5e4774045f87b0656df1000a	barcode07	2020	1	1595894	467	0	0	1984818	616
redo_RPB004_53	5e4774045f87b0656df1000a	barcode01	906741	496	280013256	76089	44688	12	299727256	82545
redo_RPB004_53	5e4774045f87b0656df1000a	barcode02	426936	136	365023147	99714	14659	5	384283201	105812
redo_RPB004_53	5e4774045f87b0656df1000a	barcode08	0	0	4163	1	0	0	4163	1
redo_RPB004_53	5e4774045f87b0656df1000a	barcode11	0	0	3289	1	0	0	3289	1
redo_RPB004_53	5e4774045f87b0656df1000a	barcode10	0	0	5499	1	0	0	11677	3
redo_RPB004_53	5e4774045f87b0656df1000a	unclassified	204489	229	17574898	5823	329	1	19276422	7456
redo_RPB004_53	5e4774045f87b0656df1000a	barcode04	529316	266	475030	109	0	0	1143894	715
redo_RPB004_53	5e4774045f87b0656df1000a	barcode12a	0	0	5808	2	0	0	5808	2
redo_RPB004_54	5e4779205f87b0c22907b7f0	barcode02	0	0	19990	4	0	0	23555	5
redo_RPB004_54	5e4779205f87b0c22907b7f0	barcode06	223875	261	712111	184	6276	2	1347418	1263
redo_RPB004_54	5e4779205f87b0c22907b7f0	unclassified	634464	675	5332053	1592	27501	14	8349616	6153
redo_RPB004_54	5e4779205f87b0c22907b7f0	barcode10	18376	13	13199119	3091	16218	5	15179615	3846
redo_RPB004_54	5e4779205f87b0c22907b7f0	barcode12a	0	0	2613	1	0	0	2613	1
redo_RPB004_54	5e4779205f87b0c22907b7f0	barcode08	198268	246	62193370	14919	176323	53	77084736	20366
redo_RPB004_54	5e4779205f87b0c22907b7f0	barcode07	1376	3	180582	58	0	0	330382	467
redo_RPB004_54	5e4779205f87b0c22907b7f0	barcode01	0	0	0	0	0	0	234	1
redo_RPB004_54	5e4779205f87b0c22907b7f0	barcode09	158464	221	8898350	2320	54754	19	10463276	3868
redo_RPB004_54	5e4779205f87b0c22907b7f0	barcode11	3062	13	7794225	1710	4965	1	9006988	2190
redo_RPB004_55	5e47b3375f87b0d57bdde67e	barcode09	2021	1	10643	3	0	0	13037	5
redo_RPB004_55	5e47b3375f87b0d57bdde67e	barcode01	770141	318	3073623	582	8440	2	4509088	1365
redo_RPB004_55	5e47b3375f87b0d57bdde67e	barcode11	1972	1	9412689	2559	7428	3	11446711	3150
redo_RPB004_55	5e47b3375f87b0d57bdde67e	barcode02	675789	315	9882144	2301	9323	2	13053374	3583
redo_RPB004_55	5e47b3375f87b0d57bdde67e	barcode21	0	0	1838	1	0	0	1838	1
redo_RPB004_55	5e47b3375f87b0d57bdde67e	barcode12a	0	0	6401	2	0	0	16928	7
redo_RPB004_55	5e47b3375f87b0d57bdde67e	barcode03	0	0	13153	3	0	0	24374	7
redo_RPB004_55	5e47b3375f87b0d57bdde67e	barcode05	13081	14	16873593	3311	13667	3	20182810	4063
redo_RPB004_55	5e47b3375f87b0d57bdde67e	barcode04	797541	411	7824533	1816	0	0	10117234	3042
redo_RPB004_55	5e47b3375f87b0d57bdde67e	unclassified	5028196	1610	45914459	14716	45839	14	128772881	47256
redo_RPB004_55	5e47b3375f87b0d57bdde67e	barcode06	0	0	11509	3	0	0	28469	9
redo_RPB004_55	5e47b3375f87b0d57bdde67e	barcode07	0	0	0	0	0	0	5550	2
redo_RPB004_55	5e47b3375f87b0d57bdde67e	barcode08	222	1	12532	4	0	0	21516	8
redo_RPB004_55	5e47b3375f87b0d57bdde67e	barcode10	131598671	35756	2125889872	629629	2079483	600	4261372779	1333942
RPB004_56	5de92e365f87b017540da3b9	nobarcode	0	0	0	0	0	0	0	0
RPB004_56	5de92e365f87b017540da3b9	barcode01	2330499851	668287	335576744	88963	30747	9	2713006559	771669
RPB004_56	5de92e365f87b017540da3b9	unclassified	443222182	145889	214808128	79101	517825	169	664450535	231792
RPB004_56	5de92e365f87b017540da3b9	barcode02	1307469841	308285	79613382	16445	8696	1	1397918776	327814
RPB004_56	5de92e365f87b017540da3b9	barcode08	44575946	13088	3791729765	1294559	9761065	3167	3866814986	1323977
RPB004_56	5de92e365f87b017540da3b9	barcode09	4540056340	1334659	6842922	1358	158495	48	4548298618	1339446
RPB004_57	5de92dbe5f87b0fe55c55a6f	barcode02	3173106797	1283270	49894901	18514	2386429	896	3231783411	1306998
RPB004_57	5de92dbe5f87b0fe55c55a6f	barcode09	2729548999	1020880	13867890	4770	51389	28	2744094725	1027219
RPB004_57	5de92dbe5f87b0fe55c55a6f	unclassified	520726259	269092	5320822	2584	107077	51	527999790	275520
RPB004_57	5de92dbe5f87b0fe55c55a6f	barcode05	4634883924	2501138	58843088	29577	7213	10	4698298525	2537835
RPB004_57	5de92dbe5f87b0fe55c55a6f	barcode01	650579	278	9308083	3314	738057	230	11150859	4000
RPB004_57	5de92dbe5f87b0fe55c55a6f	nobarcode	0	0	0	0	0	0	0	0
RPB004_58	5df8c6525f87b046b88c4329	barcode10	7529	3	428412	108	0	0	698222	192
RPB004_58	5df8c6525f87b046b88c4329	barcode11	18759931	5727	638309	155	3695	1	19517991	5958
RPB004_58	5df8c6525f87b046b88c4329	nobarcode	0	0	0	0	0	0	0	0
RPB004_58	5df8c6525f87b046b88c4329	barcode02	14256197	5254	516690	147	0	0	15051666	5537
RPB004_58	5df8c6525f87b046b88c4329	barcode01	236715	81	317622	86	0	0	657872	213
RPB004_58	5df8c6525f87b046b88c4329	unclassified	1027837	445	195148	63	1846	1	1270383	644
RPB004_58	5df8c6525f87b046b88c4329	barcode04	2141354	659	4148750	1065	0	0	6525575	1811
RPB004_58	5df8c6525f87b046b88c4329	barcode05	19140	6	415389	109	0	0	548131	196
RPB004_58	5df8c6525f87b046b88c4329	barcode07	2662	2	0	0	0	0	2662	2
RPB004_59	5df8c68e5f87b07d6bd7fede	barcode09	24819	7	0	0	0	0	24819	7
RPB004_59	5df8c68e5f87b07d6bd7fede	barcode08	53054	15	0	0	0	0	53054	15
RPB004_59	5df8c68e5f87b07d6bd7fede	barcode02	3844535657	1110432	191425871	56161	10395535	3008	4049912745	1171821
RPB004_59	5df8c68e5f87b07d6bd7fede	barcode12a	85625	23	0	0	0	0	85625	23
RPB004_59	5df8c68e5f87b07d6bd7fede	barcode06	26545	6	0	0	0	0	26545	6
RPB004_59	5df8c68e5f87b07d6bd7fede	barcode11	109786	32	55613	17	0	0	188182	64
RPB004_59	5df8c68e5f87b07d6bd7fede	barcode01	6545631	1506	914498	156	0	0	7589745	1700
RPB004_59	5df8c68e5f87b07d6bd7fede	barcode05	141677	43	7020	3	0	0	159524	117
RPB004_59	5df8c68e5f87b07d6bd7fede	unclassified	935285262	284496	4913838	1655	206071	72	941505982	288962
RPB004_59	5df8c68e5f87b07d6bd7fede	barcode03	21975	6	0	0	0	0	21975	6
RPB004_59	5df8c68e5f87b07d6bd7fede	barcode10	12618763996	3255670	2090855	467	35426	35	12622608802	3259454
RPB004_59	5df8c68e5f87b07d6bd7fede	barcode07	37698	12	0	0	0	0	37698	12
RPB004_59	5df8c68e5f87b07d6bd7fede	barcode04	10348927984	2908254	23390721	6437	1170459	325	10375367988	2918050
redo_RPB004_5	5e4477de5f87b088883eda2b	barcode01	0	0	9617	3	0	0	9617	3
redo_RPB004_5	5e4477de5f87b088883eda2b	barcode12a	0	0	278	1	0	0	278	1
redo_RPB004_5	5e4477de5f87b088883eda2b	barcode11	14212862	4665	59695742	17002	16814	8	75407916	23034
redo_RPB004_5	5e4477de5f87b088883eda2b	barcode10	4187100	1029	1761227166	520314	74937	24	1771712641	524261
redo_RPB004_5	5e4477de5f87b088883eda2b	barcode05	118625	31	2667084	763	47113	15	4231083	1227
redo_RPB004_5	5e4477de5f87b088883eda2b	barcode04	51835	15	8245157	2546	16589	6	13387128	4115
redo_RPB004_5	5e4477de5f87b088883eda2b	unclassified	562833	337	26164355	11122	0	0	27130996	12000
redo_RPB004_5	5e4477de5f87b088883eda2b	barcode02	24095	7	7516168	2366	63817	19	11989873	3851
RPB004_60	5df8c68f5f87b07d70142ca7	unclassified	178274146	64430	40069975	11768	24660	17	221105249	77654
RPB004_60	5df8c68f5f87b07d70142ca7	barcode09	13193	5	6467	2	0	0	19660	7
RPB004_60	5df8c68f5f87b07d70142ca7	barcode10	44215	16	34948	10	0	0	100655	34
RPB004_60	5df8c68f5f87b07d70142ca7	barcode12a	30867	12	4339	1	0	0	35206	13
RPB004_60	5df8c68f5f87b07d70142ca7	barcode05	75107	27	180971	49	0	0	305188	95
RPB004_60	5df8c68f5f87b07d70142ca7	barcode02	2954129	558	1681398982	404120	0	0	1730350513	417060
RPB004_60	5df8c68f5f87b07d70142ca7	barcode11	3883	2	41530	10	0	0	58594	16
RPB004_60	5df8c68f5f87b07d70142ca7	barcode04	1545035714	616510	160415434	56011	17461	5	1716554265	677526
RPB004_60	5df8c68f5f87b07d70142ca7	nobarcode	0	0	0	0	0	0	0	0
RPB004_60	5df8c68f5f87b07d70142ca7	barcode01	1803683814	511169	3257910	753	64738	46	1807628915	512582
RPB004_60	5df8c68f5f87b07d70142ca7	barcode03	8774	4	9578	3	0	0	18352	7
RPB004_60	5df8c68f5f87b07d70142ca7	barcode08	2596	1	24584	6	0	0	27180	7
RPB004_60	5df8c68f5f87b07d70142ca7	barcode07	14946	6	8642	2	0	0	23588	8
RPB004_61	5df8c68f5f87b07d6e11a1e2	unclassified	26927	17	90783	31	2103	1	257416	840
RPB004_61	5df8c68f5f87b07d6e11a1e2	barcode04	15779	18	0	0	0	0	15779	18
RPB004_61	5df8c68f5f87b07d6e11a1e2	barcode05	39513	14	437889	128	6634	2	883041	622
RPB004_61	5df8c68f5f87b07d6e11a1e2	barcode02	595958	211	464825	141	15405	6	1479939	904
RPB004_61	5df8c68f5f87b07d6e11a1e2	barcode10	20430	6	492245	133	0	0	692654	305
RPB004_61	5df8c68f5f87b07d6e11a1e2	nobarcode	0	0	0	0	0	0	0	0
RPB004_61	5df8c68f5f87b07d6e11a1e2	barcode01	27791	10	395565	122	4631	2	538482	361
RPB004_62	5e26e3525f87b0e000ebd045	barcode03	180287	60	18959	5	0	0	199444	66
RPB004_62	5e26e3525f87b0e000ebd045	barcode12a	5084281714	1618057	26310088	7787	129503	72	5115136183	1628702
RPB004_62	5e26e3525f87b0e000ebd045	barcode09	14812985	3935	1574032720	469147	205734	60	1708469055	511462
RPB004_62	5e26e3525f87b0e000ebd045	barcode07	51127	17	122159	33	0	0	227641	84
RPB004_62	5e26e3525f87b0e000ebd045	unclassified	314338536	108506	69381295	22818	47291	22	394658927	136325
RPB004_62	5e26e3525f87b0e000ebd045	barcode01	24295	9	16104	5	0	0	40399	14
RPB004_62	5e26e3525f87b0e000ebd045	nobarcode	0	0	0	0	0	0	0	0
RPB004_62	5e26e3525f87b0e000ebd045	barcode04	300310	95	11777	4	0	0	312087	99
RPB004_62	5e26e3525f87b0e000ebd045	barcode05	8919	3	18177	5	0	0	35410	10
RPB004_62	5e26e3525f87b0e000ebd045	barcode06	2705	1	8356	3	0	0	11061	4
RPB004_62	5e26e3525f87b0e000ebd045	barcode02	150568	47	140412	44	0	0	309248	98
RPB004_62	5e26e3525f87b0e000ebd045	barcode08	64184	23	137023	34	0	0	216263	67
RPB004_62	5e26e3525f87b0e000ebd045	barcode10	3432852431	1085882	77971387	22536	101271	41	3517624094	1111518
RPB004_62	5e26e3525f87b0e000ebd045	barcode11	15388708	4404	74348542	20230	576948	130	96530339	26582
RPB004_63	5e26e38d5f87b0e1dc609381	barcode12a	23693258	5649	7311113708	2712466	14934087	5374	7373758792	2742418
RPB004_63	5e26e38d5f87b0e1dc609381	barcode03	72047	26	373811	148	2980	1	451170	176
RPB004_63	5e26e38d5f87b0e1dc609381	barcode11	66515	24	52345	18	0	0	119482	44
RPB004_63	5e26e38d5f87b0e1dc609381	nobarcode	0	0	0	0	0	0	0	0
RPB004_63	5e26e38d5f87b0e1dc609381	barcode08	5948686852	1930531	105419905	31793	2586270	818	6064447442	1967534
RPB004_63	5e26e38d5f87b0e1dc609381	barcode05	360497	113	29544	10	0	0	390041	123
RPB004_63	5e26e38d5f87b0e1dc609381	barcode06	695785	229	57752	21	0	0	759587	253
RPB004_63	5e26e38d5f87b0e1dc609381	unclassified	600477024	217156	297431859	117643	1196901	432	905623808	341956
RPB004_63	5e26e38d5f87b0e1dc609381	barcode09	137332	47	147987	58	0	0	296312	110
RPB004_63	5e26e38d5f87b0e1dc609381	barcode04	86564	31	1109033	400	0	0	1196246	433
RPB004_63	5e26e38d5f87b0e1dc609381	barcode07	5176745026	1726505	432541462	136295	7624622	2483	5651806566	1878608
RPB004_63	5e26e38d5f87b0e1dc609381	barcode01	83237	29	18854	8	0	0	102307	38
RPB004_63	5e26e38d5f87b0e1dc609381	barcode10	131922	46	81677	28	0	0	217364	76
RPB004_63	5e26e38d5f87b0e1dc609381	barcode02	563783	194	204793	78	0	0	770925	273
RPB004_64	5e26e3c95f87b0e4027b352a	barcode04	7869	3	0	0	0	0	7869	3
RPB004_64	5e26e3c95f87b0e4027b352a	barcode07	36103	13	176514	52	3317	1	340931	167
RPB004_64	5e26e3c95f87b0e4027b352a	barcode11	42261763	14704	729513	198	449	1	43314758	15098
RPB004_64	5e26e3c95f87b0e4027b352a	barcode03	27567	10	0	0	0	0	27567	10
RPB004_64	5e26e3c95f87b0e4027b352a	barcode01	1436	1	0	0	0	0	1436	1
RPB004_64	5e26e3c95f87b0e4027b352a	barcode12a	113648068	35857	10192	3	224	1	113715532	36049
RPB004_64	5e26e3c95f87b0e4027b352a	unclassified	9288089	3722	1555216	651	2818	2	11055476	4770
RPB004_64	5e26e3c95f87b0e4027b352a	barcode10	4009796	2098	31460661	10872	151521	50	36232812	13520
RPB004_64	5e26e3c95f87b0e4027b352a	barcode02	2268	1	0	0	0	0	2268	1
RPB004_64	5e26e3c95f87b0e4027b352a	nobarcode	0	0	0	0	0	0	0	0
RPB004_64	5e26e3c95f87b0e4027b352a	barcode08	34276	11	195429	49	0	0	271969	86
RPB004_64	5e26e3c95f87b0e4027b352a	barcode09	868682	311	199986	54	0	0	1162613	422
RPB004_65	5e26e4065f87b0e666d5e204	nobarcode	0	0	0	0	0	0	0	0
RPB004_65	5e26e4065f87b0e666d5e204	barcode12a	507869	129	14234057	2854	36763	10	16368183	3571
RPB004_65	5e26e4065f87b0e666d5e204	barcode08	2702440653	907738	1004472	276	81550	26	2705117796	912957
RPB004_65	5e26e4065f87b0e666d5e204	barcode02	162929	62	0	0	0	0	163127	63
RPB004_65	5e26e4065f87b0e666d5e204	barcode10	931638485	320572	11890603	3097	21795	9	946627844	326149
RPB004_65	5e26e4065f87b0e666d5e204	barcode01	36914	14	0	0	0	0	36914	14
RPB004_65	5e26e4065f87b0e666d5e204	unclassified	363073791	143724	3885132	1213	16213	11	369721282	152061
RPB004_65	5e26e4065f87b0e666d5e204	barcode09	24215577	8372	492019	136	3422	1	25017855	9785
RPB004_65	5e26e4065f87b0e666d5e204	barcode04	47991	18	2671	1	0	0	50926	20
RPB004_65	5e26e4065f87b0e666d5e204	barcode11	2243546	679	50591324	13203	51415	18	66858229	18652
RPB004_65	5e26e4065f87b0e666d5e204	barcode05	58574	22	0	0	0	0	58574	22
RPB004_65	5e26e4065f87b0e666d5e204	barcode06	256113	90	0	0	0	0	257325	96
RPB004_65	5e26e4065f87b0e666d5e204	barcode03	16370	5	0	0	0	0	16370	5
RPB004_65	5e26e4065f87b0e666d5e204	barcode07	1204887	418	736026	194	3210	1	2412754	2508
RPB004_66	5e31662e5f87b0c77f43a70d	barcode08	7683257	2324	47374984	10793	982989	205	80451338	19181
RPB004_66	5e31662e5f87b0c77f43a70d	barcode02	1566621334	509445	6247118	1870	22496	9	1574823244	512488
RPB004_66	5e31662e5f87b0c77f43a70d	barcode04	102421	30	12697381	2676	3795	1	15035260	3214
RPB004_66	5e31662e5f87b0c77f43a70d	nobarcode	0	0	0	0	0	0	0	0
RPB004_66	5e31662e5f87b0c77f43a70d	unclassified	173862996	61454	4361743	1228	28852	7	180299481	64037
RPB004_66	5e31662e5f87b0c77f43a70d	barcode01	2861542927	834539	1873222	488	7019	2	2865059198	836371
RPB004_66	5e31662e5f87b0c77f43a70d	barcode05	3641577	936	26528155	6360	0	0	40977000	10214
RPB004_66	5e31662e5f87b0c77f43a70d	barcode09	450861	120	11276392	2559	5841	1	14448950	3341
RPB004_66	5e31662e5f87b0c77f43a70d	barcode10	18271	5	0	0	0	0	18271	5
RPB004_66	5e31662e5f87b0c77f43a70d	barcode12a	3012	1	4718	1	0	0	11237	3
RPB004_66	5e31662e5f87b0c77f43a70d	barcode07	262997	76	25435274	7077	46248	19	31112846	8868
RPB004_66	5e31662e5f87b0c77f43a70d	barcode06	60174	19	6878428	1537	7856	3	8352753	1911
RPB004_66	5e31662e5f87b0c77f43a70d	barcode03	6321	3	0	0	0	0	6321	3
redo_RPB004_6	5e44b6ee5f87b0d4ef617c72	barcode05	0	0	20910	9	2521	1	23431	10
redo_RPB004_6	5e44b6ee5f87b0d4ef617c72	barcode08	27462	7	21847077	6207	124292	41	31833506	9086
redo_RPB004_6	5e44b6ee5f87b0d4ef617c72	barcode12a	12956	2	33099219	8297	239485	54	43224001	10996
redo_RPB004_6	5e44b6ee5f87b0d4ef617c72	barcode11	0	0	10391	3	0	0	10391	3
redo_RPB004_6	5e44b6ee5f87b0d4ef617c72	barcode04	0	0	41106	15	0	0	41106	15
redo_RPB004_6	5e44b6ee5f87b0d4ef617c72	barcode01	11891	3	87175761	25892	260254	72	91811469	27787
redo_RPB004_6	5e44b6ee5f87b0d4ef617c72	barcode07	476241	149	8463854	2517	20708	6	13430322	4049
redo_RPB004_6	5e44b6ee5f87b0d4ef617c72	barcode03	0	0	99466	36	0	0	99650	37
redo_RPB004_6	5e44b6ee5f87b0d4ef617c72	barcode09	421135	146	5522454833	1721002	294339	108	5534174795	1742209
redo_RPB004_6	5e44b6ee5f87b0d4ef617c72	barcode10	0	0	91321	34	0	0	91321	34
redo_RPB004_6	5e44b6ee5f87b0d4ef617c72	barcode06	19073	4	6469396	1766	13059	4	13939561	3718
redo_RPB004_6	5e44b6ee5f87b0d4ef617c72	unclassified	97003	58	175379421	70272	54501	21	178172656	74767
redo_RPB004_6	5e44b6ee5f87b0d4ef617c72	barcode02	0	0	197034	68	0	0	197458	69
redo_RPB004_7	5e44fe885f87b004f63923f2	barcode04	4414604	951	2043404629	687315	31415	8	2061216698	699126
redo_RPB004_7	5e44fe885f87b004f63923f2	barcode09	161	1	34390	9	0	0	36698	11
redo_RPB004_7	5e44fe885f87b004f63923f2	barcode12a	0	0	67185	20	0	0	67776	21
redo_RPB004_7	5e44fe885f87b004f63923f2	barcode08	0	0	21079	6	0	0	21079	6
redo_RPB004_7	5e44fe885f87b004f63923f2	barcode06	4618887	1126	907069070	267778	55563	21	918060020	273415
redo_RPB004_7	5e44fe885f87b004f63923f2	barcode01	718762	297	92257630	23518	274601	74	109549946	28618
redo_RPB004_7	5e44fe885f87b004f63923f2	barcode07	18775334	5111	217708598	70772	5639	3	238301682	77976
redo_RPB004_7	5e44fe885f87b004f63923f2	barcode10	0	0	55299	19	0	0	55299	19
redo_RPB004_7	5e44fe885f87b004f63923f2	unclassified	1670513	556	89764522	34344	8933	5	94535557	38283
redo_RPB004_7	5e44fe885f87b004f63923f2	barcode11	0	0	17225	5	0	0	17225	5
redo_RPB004_7	5e44fe885f87b004f63923f2	barcode05	2145224	503	869741829	275770	54294	19	880980867	281743
redo_RPB004_7	5e44fe885f87b004f63923f2	barcode03	0	0	25812	10	0	0	25812	10
redo_RPB004_7	5e44fe885f87b004f63923f2	barcode02	0	0	151114	53	0	0	153134	55
redo_RPB004_8	5e4521af5f87b0d2a909f1df	barcode11	3615609	1204	296626956	78099	20344	6	301014336	80099
redo_RPB004_8	5e4521af5f87b0d2a909f1df	barcode08	643225	108	1110642089	322713	552016	142	1115340829	325422
redo_RPB004_8	5e4521af5f87b0d2a909f1df	barcode04	0	0	10600	4	0	0	10600	4
redo_RPB004_8	5e4521af5f87b0d2a909f1df	barcode03	0	0	367	1	0	0	367	1
redo_RPB004_8	5e4521af5f87b0d2a909f1df	barcode02	0	0	27549	9	0	0	27549	9
redo_RPB004_8	5e4521af5f87b0d2a909f1df	barcode10	3798414	1442	551500563	166299	190269	50	556762592	169182
redo_RPB004_8	5e4521af5f87b0d2a909f1df	unclassified	321110	206	49542743	17364	15620	5	50261026	18321
redo_RPB004_8	5e4521af5f87b0d2a909f1df	barcode12a	0	0	3776	1	0	0	3776	1
redo_RPB004_8	5e4521af5f87b0d2a909f1df	barcode05	23206	5	23513368	4880	22578	6	24465046	5296
redo_RPB004_8	5e4521af5f87b0d2a909f1df	barcode07	0	0	11806	2	0	0	11806	2
redo_RPB004_8	5e4521af5f87b0d2a909f1df	barcode06	138517	29	24183821	4211	9889	4	24849105	4519
redo_RPB004_8	5e4521af5f87b0d2a909f1df	barcode09	77839	15	193890545	49289	69680	22	194788833	49830
redo_RPB004_9	5e4580365f87b0a47956f5a7	barcode02	45711	17	136380649	33822	155470	62	142930550	36077
redo_RPB004_9	5e4580365f87b0a47956f5a7	barcode12a	0	0	1252733	249	0	0	1257520	256
redo_RPB004_9	5e4580365f87b0a47956f5a7	barcode07	15425310	4031	3299975770	936100	177630	58	4751364979	1312903
redo_RPB004_9	5e4580365f87b0a47956f5a7	barcode05	0	0	39903	14	0	0	68899	21
redo_RPB004_9	5e4580365f87b0a47956f5a7	barcode03	0	0	5306	1	0	0	5306	1
redo_RPB004_9	5e4580365f87b0a47956f5a7	barcode04	3862	2	491006	177	527	1	741753	284
redo_RPB004_9	5e4580365f87b0a47956f5a7	barcode11	0	0	6744	2	0	0	15552	4
redo_RPB004_9	5e4580365f87b0a47956f5a7	unclassified	984592	300	71878016	22659	15675	8	112349810	40817
redo_RPB004_9	5e4580365f87b0a47956f5a7	barcode10	0	0	18926	7	0	0	42745	16
redo_RPB004_9	5e4580365f87b0a47956f5a7	barcode08	4135129	1066	1079891810	320723	129179	42	1469062512	422567
redo_RPB004_9	5e4580365f87b0a47956f5a7	barcode09	308929	72	33227342	7643	11409	3	34571219	8048
redo_RPB004_9	5e4580365f87b0a47956f5a7	barcode01	109319	31	1110470145	258708	241116	79	1124797038	264423
redo_RPB004_9	5e4580365f87b0a47956f5a7	barcode06	0	0	38625	12	0	0	60984	19
