<?xml version="1.0" encoding="utf-8" standalone="no"?>
<!DOCTYPE svg PUBLIC "-//W3C//DTD SVG 1.1//EN"
  "http://www.w3.org/Graphics/SVG/1.1/DTD/svg11.dtd">
<!-- Created with matplotlib (https://matplotlib.org/) -->
<svg height="345.6pt" version="1.1" viewBox="0 0 460.8 345.6" width="460.8pt" xmlns="http://www.w3.org/2000/svg" xmlns:xlink="http://www.w3.org/1999/xlink">
 <defs>
  <style type="text/css">
*{stroke-linecap:butt;stroke-linejoin:round;}
  </style>
 </defs>
 <g id="figure_1">
  <g id="patch_1">
   <path d="M 0 345.6 
L 460.8 345.6 
L 460.8 0 
L 0 0 
z
" style="fill:#ffffff;"/>
  </g>
  <g id="axes_1">
   <g id="patch_2">
    <path d="M 57.6 307.584 
L 414.72 307.584 
L 414.72 41.472 
L 57.6 41.472 
z
" style="fill:#eaeaf2;"/>
   </g>
   <g id="matplotlib.axis_1">
    <g id="xtick_1">
     <g id="text_1">
      <!-- saponin 5% -->
      <defs>
       <path d="M 3.078125 15.484375 
L 11.765625 16.84375 
Q 12.5 11.625 15.84375 8.84375 
Q 19.1875 6.0625 25.203125 6.0625 
Q 31.25 6.0625 34.171875 8.515625 
Q 37.109375 10.984375 37.109375 14.3125 
Q 37.109375 17.28125 34.515625 19 
Q 32.71875 20.171875 25.53125 21.96875 
Q 15.875 24.421875 12.140625 26.203125 
Q 8.40625 27.984375 6.46875 31.125 
Q 4.546875 34.28125 4.546875 38.09375 
Q 4.546875 41.546875 6.125 44.5 
Q 7.71875 47.46875 10.453125 49.421875 
Q 12.5 50.921875 16.03125 51.96875 
Q 19.578125 53.03125 23.640625 53.03125 
Q 29.734375 53.03125 34.34375 51.265625 
Q 38.96875 49.515625 41.15625 46.5 
Q 43.359375 43.5 44.1875 38.484375 
L 35.59375 37.3125 
Q 35.015625 41.3125 32.203125 43.546875 
Q 29.390625 45.796875 24.265625 45.796875 
Q 18.21875 45.796875 15.625 43.796875 
Q 13.03125 41.796875 13.03125 39.109375 
Q 13.03125 37.40625 14.109375 36.03125 
Q 15.1875 34.625 17.484375 33.6875 
Q 18.796875 33.203125 25.25 31.453125 
Q 34.578125 28.953125 38.25 27.359375 
Q 41.9375 25.78125 44.03125 22.75 
Q 46.140625 19.734375 46.140625 15.234375 
Q 46.140625 10.84375 43.578125 6.953125 
Q 41.015625 3.078125 36.171875 0.953125 
Q 31.34375 -1.171875 25.25 -1.171875 
Q 15.140625 -1.171875 9.84375 3.03125 
Q 4.546875 7.234375 3.078125 15.484375 
z
" id="ArialMT-115"/>
       <path d="M 40.4375 6.390625 
Q 35.546875 2.25 31.03125 0.53125 
Q 26.515625 -1.171875 21.34375 -1.171875 
Q 12.796875 -1.171875 8.203125 3 
Q 3.609375 7.171875 3.609375 13.671875 
Q 3.609375 17.484375 5.34375 20.625 
Q 7.078125 23.78125 9.890625 25.6875 
Q 12.703125 27.59375 16.21875 28.5625 
Q 18.796875 29.25 24.03125 29.890625 
Q 34.671875 31.15625 39.703125 32.90625 
Q 39.75 34.71875 39.75 35.203125 
Q 39.75 40.578125 37.25 42.78125 
Q 33.890625 45.75 27.25 45.75 
Q 21.046875 45.75 18.09375 43.578125 
Q 15.140625 41.40625 13.71875 35.890625 
L 5.125 37.0625 
Q 6.296875 42.578125 8.984375 45.96875 
Q 11.671875 49.359375 16.75 51.1875 
Q 21.828125 53.03125 28.515625 53.03125 
Q 35.15625 53.03125 39.296875 51.46875 
Q 43.453125 49.90625 45.40625 47.53125 
Q 47.359375 45.171875 48.140625 41.546875 
Q 48.578125 39.3125 48.578125 33.453125 
L 48.578125 21.734375 
Q 48.578125 9.46875 49.140625 6.21875 
Q 49.703125 2.984375 51.375 0 
L 42.1875 0 
Q 40.828125 2.734375 40.4375 6.390625 
z
M 39.703125 26.03125 
Q 34.90625 24.078125 25.34375 22.703125 
Q 19.921875 21.921875 17.671875 20.9375 
Q 15.4375 19.96875 14.203125 18.09375 
Q 12.984375 16.21875 12.984375 13.921875 
Q 12.984375 10.40625 15.640625 8.0625 
Q 18.3125 5.71875 23.4375 5.71875 
Q 28.515625 5.71875 32.46875 7.9375 
Q 36.421875 10.15625 38.28125 14.015625 
Q 39.703125 17 39.703125 22.796875 
z
" id="ArialMT-97"/>
       <path d="M 6.59375 -19.875 
L 6.59375 51.859375 
L 14.59375 51.859375 
L 14.59375 45.125 
Q 17.4375 49.078125 21 51.046875 
Q 24.5625 53.03125 29.640625 53.03125 
Q 36.28125 53.03125 41.359375 49.609375 
Q 46.4375 46.1875 49.015625 39.953125 
Q 51.609375 33.734375 51.609375 26.3125 
Q 51.609375 18.359375 48.75 11.984375 
Q 45.90625 5.609375 40.453125 2.21875 
Q 35.015625 -1.171875 29 -1.171875 
Q 24.609375 -1.171875 21.109375 0.6875 
Q 17.625 2.546875 15.375 5.375 
L 15.375 -19.875 
z
M 14.546875 25.640625 
Q 14.546875 15.625 18.59375 10.84375 
Q 22.65625 6.0625 28.421875 6.0625 
Q 34.28125 6.0625 38.453125 11.015625 
Q 42.625 15.96875 42.625 26.375 
Q 42.625 36.28125 38.546875 41.203125 
Q 34.46875 46.140625 28.8125 46.140625 
Q 23.1875 46.140625 18.859375 40.890625 
Q 14.546875 35.640625 14.546875 25.640625 
z
" id="ArialMT-112"/>
       <path d="M 3.328125 25.921875 
Q 3.328125 40.328125 11.328125 47.265625 
Q 18.015625 53.03125 27.640625 53.03125 
Q 38.328125 53.03125 45.109375 46.015625 
Q 51.90625 39.015625 51.90625 26.65625 
Q 51.90625 16.65625 48.90625 10.90625 
Q 45.90625 5.171875 40.15625 2 
Q 34.421875 -1.171875 27.640625 -1.171875 
Q 16.75 -1.171875 10.03125 5.8125 
Q 3.328125 12.796875 3.328125 25.921875 
z
M 12.359375 25.921875 
Q 12.359375 15.96875 16.703125 11.015625 
Q 21.046875 6.0625 27.640625 6.0625 
Q 34.1875 6.0625 38.53125 11.03125 
Q 42.875 16.015625 42.875 26.21875 
Q 42.875 35.84375 38.5 40.796875 
Q 34.125 45.75 27.640625 45.75 
Q 21.046875 45.75 16.703125 40.8125 
Q 12.359375 35.890625 12.359375 25.921875 
z
" id="ArialMT-111"/>
       <path d="M 6.59375 0 
L 6.59375 51.859375 
L 14.5 51.859375 
L 14.5 44.484375 
Q 20.21875 53.03125 31 53.03125 
Q 35.6875 53.03125 39.625 51.34375 
Q 43.5625 49.65625 45.515625 46.921875 
Q 47.46875 44.1875 48.25 40.4375 
Q 48.734375 37.984375 48.734375 31.890625 
L 48.734375 0 
L 39.9375 0 
L 39.9375 31.546875 
Q 39.9375 36.921875 38.90625 39.578125 
Q 37.890625 42.234375 35.28125 43.8125 
Q 32.671875 45.40625 29.15625 45.40625 
Q 23.53125 45.40625 19.453125 41.84375 
Q 15.375 38.28125 15.375 28.328125 
L 15.375 0 
z
" id="ArialMT-110"/>
       <path d="M 6.640625 61.46875 
L 6.640625 71.578125 
L 15.4375 71.578125 
L 15.4375 61.46875 
z
M 6.640625 0 
L 6.640625 51.859375 
L 15.4375 51.859375 
L 15.4375 0 
z
" id="ArialMT-105"/>
       <path id="ArialMT-32"/>
       <path d="M 4.15625 18.75 
L 13.375 19.53125 
Q 14.40625 12.796875 18.140625 9.390625 
Q 21.875 6 27.15625 6 
Q 33.5 6 37.890625 10.78125 
Q 42.28125 15.578125 42.28125 23.484375 
Q 42.28125 31 38.0625 35.34375 
Q 33.84375 39.703125 27 39.703125 
Q 22.75 39.703125 19.328125 37.765625 
Q 15.921875 35.84375 13.96875 32.765625 
L 5.71875 33.84375 
L 12.640625 70.609375 
L 48.25 70.609375 
L 48.25 62.203125 
L 19.671875 62.203125 
L 15.828125 42.96875 
Q 22.265625 47.46875 29.34375 47.46875 
Q 38.71875 47.46875 45.15625 40.96875 
Q 51.609375 34.46875 51.609375 24.265625 
Q 51.609375 14.546875 45.953125 7.46875 
Q 39.0625 -1.21875 27.15625 -1.21875 
Q 17.390625 -1.21875 11.203125 4.25 
Q 5.03125 9.71875 4.15625 18.75 
z
" id="ArialMT-53"/>
       <path d="M 5.8125 54.390625 
Q 5.8125 62.0625 9.671875 67.421875 
Q 13.53125 72.796875 20.84375 72.796875 
Q 27.59375 72.796875 32 67.984375 
Q 36.421875 63.1875 36.421875 53.859375 
Q 36.421875 44.78125 31.953125 39.875 
Q 27.484375 34.96875 20.953125 34.96875 
Q 14.453125 34.96875 10.125 39.796875 
Q 5.8125 44.625 5.8125 54.390625 
z
M 21.09375 66.75 
Q 17.828125 66.75 15.65625 63.90625 
Q 13.484375 61.078125 13.484375 53.515625 
Q 13.484375 46.625 15.671875 43.8125 
Q 17.875 41.015625 21.09375 41.015625 
Q 24.421875 41.015625 26.59375 43.84375 
Q 28.765625 46.6875 28.765625 54.203125 
Q 28.765625 61.140625 26.5625 63.9375 
Q 24.359375 66.75 21.09375 66.75 
z
M 21.140625 -2.640625 
L 60.296875 72.796875 
L 67.4375 72.796875 
L 28.421875 -2.640625 
z
M 52.09375 16.796875 
Q 52.09375 24.515625 55.953125 29.859375 
Q 59.8125 35.203125 67.1875 35.203125 
Q 73.921875 35.203125 78.34375 30.390625 
Q 82.765625 25.59375 82.765625 16.265625 
Q 82.765625 7.171875 78.296875 2.265625 
Q 73.828125 -2.640625 67.234375 -2.640625 
Q 60.75 -2.640625 56.421875 2.21875 
Q 52.09375 7.078125 52.09375 16.796875 
z
M 67.4375 29.15625 
Q 64.109375 29.15625 61.9375 26.3125 
Q 59.765625 23.484375 59.765625 15.921875 
Q 59.765625 9.078125 61.953125 6.25 
Q 64.15625 3.421875 67.390625 3.421875 
Q 70.75 3.421875 72.921875 6.25 
Q 75.09375 9.078125 75.09375 16.609375 
Q 75.09375 23.53125 72.890625 26.34375 
Q 70.703125 29.15625 67.4375 29.15625 
z
" id="ArialMT-37"/>
      </defs>
      <g style="fill:#262626;" transform="translate(76.111094 321.863687)scale(0.1 -0.1)">
       <use xlink:href="#ArialMT-115"/>
       <use x="50" xlink:href="#ArialMT-97"/>
       <use x="105.615234" xlink:href="#ArialMT-112"/>
       <use x="161.230469" xlink:href="#ArialMT-111"/>
       <use x="216.845703" xlink:href="#ArialMT-110"/>
       <use x="272.460938" xlink:href="#ArialMT-105"/>
       <use x="294.677734" xlink:href="#ArialMT-110"/>
       <use x="350.292969" xlink:href="#ArialMT-32"/>
       <use x="378.076172" xlink:href="#ArialMT-53"/>
       <use x="433.691406" xlink:href="#ArialMT-37"/>
      </g>
     </g>
    </g>
    <g id="xtick_2">
     <g id="text_2">
      <!-- filter 5uM -->
      <defs>
       <path d="M 8.6875 0 
L 8.6875 45.015625 
L 0.921875 45.015625 
L 0.921875 51.859375 
L 8.6875 51.859375 
L 8.6875 57.375 
Q 8.6875 62.59375 9.625 65.140625 
Q 10.890625 68.5625 14.078125 70.671875 
Q 17.28125 72.796875 23.046875 72.796875 
Q 26.765625 72.796875 31.25 71.921875 
L 29.9375 64.265625 
Q 27.203125 64.75 24.75 64.75 
Q 20.75 64.75 19.09375 63.03125 
Q 17.4375 61.328125 17.4375 56.640625 
L 17.4375 51.859375 
L 27.546875 51.859375 
L 27.546875 45.015625 
L 17.4375 45.015625 
L 17.4375 0 
z
" id="ArialMT-102"/>
       <path d="M 6.390625 0 
L 6.390625 71.578125 
L 15.1875 71.578125 
L 15.1875 0 
z
" id="ArialMT-108"/>
       <path d="M 25.78125 7.859375 
L 27.046875 0.09375 
Q 23.34375 -0.6875 20.40625 -0.6875 
Q 15.625 -0.6875 12.984375 0.828125 
Q 10.359375 2.34375 9.28125 4.8125 
Q 8.203125 7.28125 8.203125 15.1875 
L 8.203125 45.015625 
L 1.765625 45.015625 
L 1.765625 51.859375 
L 8.203125 51.859375 
L 8.203125 64.703125 
L 16.9375 69.96875 
L 16.9375 51.859375 
L 25.78125 51.859375 
L 25.78125 45.015625 
L 16.9375 45.015625 
L 16.9375 14.703125 
Q 16.9375 10.9375 17.40625 9.859375 
Q 17.875 8.796875 18.921875 8.15625 
Q 19.96875 7.515625 21.921875 7.515625 
Q 23.390625 7.515625 25.78125 7.859375 
z
" id="ArialMT-116"/>
       <path d="M 42.09375 16.703125 
L 51.171875 15.578125 
Q 49.03125 7.625 43.21875 3.21875 
Q 37.40625 -1.171875 28.375 -1.171875 
Q 17 -1.171875 10.328125 5.828125 
Q 3.65625 12.84375 3.65625 25.484375 
Q 3.65625 38.578125 10.390625 45.796875 
Q 17.140625 53.03125 27.875 53.03125 
Q 38.28125 53.03125 44.875 45.953125 
Q 51.46875 38.875 51.46875 26.03125 
Q 51.46875 25.25 51.421875 23.6875 
L 12.75 23.6875 
Q 13.234375 15.140625 17.578125 10.59375 
Q 21.921875 6.0625 28.421875 6.0625 
Q 33.25 6.0625 36.671875 8.59375 
Q 40.09375 11.140625 42.09375 16.703125 
z
M 13.234375 30.90625 
L 42.1875 30.90625 
Q 41.609375 37.453125 38.875 40.71875 
Q 34.671875 45.796875 27.984375 45.796875 
Q 21.921875 45.796875 17.796875 41.75 
Q 13.671875 37.703125 13.234375 30.90625 
z
" id="ArialMT-101"/>
       <path d="M 6.5 0 
L 6.5 51.859375 
L 14.40625 51.859375 
L 14.40625 44 
Q 17.4375 49.515625 20 51.265625 
Q 22.5625 53.03125 25.640625 53.03125 
Q 30.078125 53.03125 34.671875 50.203125 
L 31.640625 42.046875 
Q 28.421875 43.953125 25.203125 43.953125 
Q 22.3125 43.953125 20.015625 42.21875 
Q 17.71875 40.484375 16.75 37.40625 
Q 15.28125 32.71875 15.28125 27.15625 
L 15.28125 0 
z
" id="ArialMT-114"/>
       <path d="M 40.578125 0 
L 40.578125 7.625 
Q 34.515625 -1.171875 24.125 -1.171875 
Q 19.53125 -1.171875 15.546875 0.578125 
Q 11.578125 2.34375 9.640625 5 
Q 7.71875 7.671875 6.9375 11.53125 
Q 6.390625 14.109375 6.390625 19.734375 
L 6.390625 51.859375 
L 15.1875 51.859375 
L 15.1875 23.09375 
Q 15.1875 16.21875 15.71875 13.8125 
Q 16.546875 10.359375 19.234375 8.375 
Q 21.921875 6.390625 25.875 6.390625 
Q 29.828125 6.390625 33.296875 8.421875 
Q 36.765625 10.453125 38.203125 13.9375 
Q 39.65625 17.4375 39.65625 24.078125 
L 39.65625 51.859375 
L 48.4375 51.859375 
L 48.4375 0 
z
" id="ArialMT-117"/>
       <path d="M 7.421875 0 
L 7.421875 71.578125 
L 21.6875 71.578125 
L 38.625 20.90625 
Q 40.96875 13.8125 42.046875 10.296875 
Q 43.265625 14.203125 45.84375 21.78125 
L 62.984375 71.578125 
L 75.734375 71.578125 
L 75.734375 0 
L 66.609375 0 
L 66.609375 59.90625 
L 45.796875 0 
L 37.25 0 
L 16.546875 60.9375 
L 16.546875 0 
z
" id="ArialMT-77"/>
      </defs>
      <g style="fill:#262626;" transform="translate(170.959844 321.741812)scale(0.1 -0.1)">
       <use xlink:href="#ArialMT-102"/>
       <use x="27.783203" xlink:href="#ArialMT-105"/>
       <use x="50" xlink:href="#ArialMT-108"/>
       <use x="72.216797" xlink:href="#ArialMT-116"/>
       <use x="100" xlink:href="#ArialMT-101"/>
       <use x="155.615234" xlink:href="#ArialMT-114"/>
       <use x="188.916016" xlink:href="#ArialMT-32"/>
       <use x="216.699219" xlink:href="#ArialMT-53"/>
       <use x="272.314453" xlink:href="#ArialMT-117"/>
       <use x="327.929688" xlink:href="#ArialMT-77"/>
      </g>
     </g>
    </g>
    <g id="xtick_3">
     <g id="text_3">
      <!-- saponin 1% -->
      <defs>
       <path d="M 37.25 0 
L 28.46875 0 
L 28.46875 56 
Q 25.296875 52.984375 20.140625 49.953125 
Q 14.984375 46.921875 10.890625 45.40625 
L 10.890625 53.90625 
Q 18.265625 57.375 23.78125 62.296875 
Q 29.296875 67.234375 31.59375 71.875 
L 37.25 71.875 
z
" id="ArialMT-49"/>
      </defs>
      <g style="fill:#262626;" transform="translate(254.671094 321.863687)scale(0.1 -0.1)">
       <use xlink:href="#ArialMT-115"/>
       <use x="50" xlink:href="#ArialMT-97"/>
       <use x="105.615234" xlink:href="#ArialMT-112"/>
       <use x="161.230469" xlink:href="#ArialMT-111"/>
       <use x="216.845703" xlink:href="#ArialMT-110"/>
       <use x="272.460938" xlink:href="#ArialMT-105"/>
       <use x="294.677734" xlink:href="#ArialMT-110"/>
       <use x="350.292969" xlink:href="#ArialMT-32"/>
       <use x="378.076172" xlink:href="#ArialMT-49"/>
       <use x="433.691406" xlink:href="#ArialMT-37"/>
      </g>
     </g>
    </g>
    <g id="xtick_4">
     <g id="text_4">
      <!-- saponin 0.1% -->
      <defs>
       <path d="M 4.15625 35.296875 
Q 4.15625 48 6.765625 55.734375 
Q 9.375 63.484375 14.515625 67.671875 
Q 19.671875 71.875 27.484375 71.875 
Q 33.25 71.875 37.59375 69.546875 
Q 41.9375 67.234375 44.765625 62.859375 
Q 47.609375 58.5 49.21875 52.21875 
Q 50.828125 45.953125 50.828125 35.296875 
Q 50.828125 22.703125 48.234375 14.96875 
Q 45.65625 7.234375 40.5 3 
Q 35.359375 -1.21875 27.484375 -1.21875 
Q 17.140625 -1.21875 11.234375 6.203125 
Q 4.15625 15.140625 4.15625 35.296875 
z
M 13.1875 35.296875 
Q 13.1875 17.671875 17.3125 11.828125 
Q 21.4375 6 27.484375 6 
Q 33.546875 6 37.671875 11.859375 
Q 41.796875 17.71875 41.796875 35.296875 
Q 41.796875 52.984375 37.671875 58.78125 
Q 33.546875 64.59375 27.390625 64.59375 
Q 21.34375 64.59375 17.71875 59.46875 
Q 13.1875 52.9375 13.1875 35.296875 
z
" id="ArialMT-48"/>
       <path d="M 9.078125 0 
L 9.078125 10.015625 
L 19.09375 10.015625 
L 19.09375 0 
z
" id="ArialMT-46"/>
      </defs>
      <g style="fill:#262626;" transform="translate(339.781563 321.863687)scale(0.1 -0.1)">
       <use xlink:href="#ArialMT-115"/>
       <use x="50" xlink:href="#ArialMT-97"/>
       <use x="105.615234" xlink:href="#ArialMT-112"/>
       <use x="161.230469" xlink:href="#ArialMT-111"/>
       <use x="216.845703" xlink:href="#ArialMT-110"/>
       <use x="272.460938" xlink:href="#ArialMT-105"/>
       <use x="294.677734" xlink:href="#ArialMT-110"/>
       <use x="350.292969" xlink:href="#ArialMT-32"/>
       <use x="378.076172" xlink:href="#ArialMT-48"/>
       <use x="433.691406" xlink:href="#ArialMT-46"/>
       <use x="461.474609" xlink:href="#ArialMT-49"/>
       <use x="517.089844" xlink:href="#ArialMT-37"/>
      </g>
     </g>
    </g>
    <g id="text_5">
     <!-- Human depletion method -->
     <defs>
      <path d="M 8.015625 0 
L 8.015625 71.578125 
L 17.484375 71.578125 
L 17.484375 42.1875 
L 54.6875 42.1875 
L 54.6875 71.578125 
L 64.15625 71.578125 
L 64.15625 0 
L 54.6875 0 
L 54.6875 33.734375 
L 17.484375 33.734375 
L 17.484375 0 
z
" id="ArialMT-72"/>
      <path d="M 6.59375 0 
L 6.59375 51.859375 
L 14.453125 51.859375 
L 14.453125 44.578125 
Q 16.890625 48.390625 20.9375 50.703125 
Q 25 53.03125 30.171875 53.03125 
Q 35.9375 53.03125 39.625 50.640625 
Q 43.3125 48.25 44.828125 43.953125 
Q 50.984375 53.03125 60.84375 53.03125 
Q 68.5625 53.03125 72.703125 48.75 
Q 76.859375 44.484375 76.859375 35.59375 
L 76.859375 0 
L 68.109375 0 
L 68.109375 32.671875 
Q 68.109375 37.9375 67.25 40.25 
Q 66.40625 42.578125 64.15625 43.984375 
Q 61.921875 45.40625 58.890625 45.40625 
Q 53.421875 45.40625 49.796875 41.765625 
Q 46.1875 38.140625 46.1875 30.125 
L 46.1875 0 
L 37.40625 0 
L 37.40625 33.6875 
Q 37.40625 39.546875 35.25 42.46875 
Q 33.109375 45.40625 28.21875 45.40625 
Q 24.515625 45.40625 21.359375 43.453125 
Q 18.21875 41.5 16.796875 37.734375 
Q 15.375 33.984375 15.375 26.90625 
L 15.375 0 
z
" id="ArialMT-109"/>
      <path d="M 40.234375 0 
L 40.234375 6.546875 
Q 35.296875 -1.171875 25.734375 -1.171875 
Q 19.53125 -1.171875 14.328125 2.25 
Q 9.125 5.671875 6.265625 11.796875 
Q 3.421875 17.921875 3.421875 25.875 
Q 3.421875 33.640625 6 39.96875 
Q 8.59375 46.296875 13.765625 49.65625 
Q 18.953125 53.03125 25.34375 53.03125 
Q 30.03125 53.03125 33.6875 51.046875 
Q 37.359375 49.078125 39.65625 45.90625 
L 39.65625 71.578125 
L 48.390625 71.578125 
L 48.390625 0 
z
M 12.453125 25.875 
Q 12.453125 15.921875 16.640625 10.984375 
Q 20.84375 6.0625 26.5625 6.0625 
Q 32.328125 6.0625 36.34375 10.765625 
Q 40.375 15.484375 40.375 25.140625 
Q 40.375 35.796875 36.265625 40.765625 
Q 32.171875 45.75 26.171875 45.75 
Q 20.3125 45.75 16.375 40.96875 
Q 12.453125 36.1875 12.453125 25.875 
z
" id="ArialMT-100"/>
      <path d="M 6.59375 0 
L 6.59375 71.578125 
L 15.375 71.578125 
L 15.375 45.90625 
Q 21.53125 53.03125 30.90625 53.03125 
Q 36.671875 53.03125 40.921875 50.75 
Q 45.171875 48.484375 47 44.484375 
Q 48.828125 40.484375 48.828125 32.859375 
L 48.828125 0 
L 40.046875 0 
L 40.046875 32.859375 
Q 40.046875 39.453125 37.1875 42.453125 
Q 34.328125 45.453125 29.109375 45.453125 
Q 25.203125 45.453125 21.75 43.421875 
Q 18.3125 41.40625 16.84375 37.9375 
Q 15.375 34.46875 15.375 28.375 
L 15.375 0 
z
" id="ArialMT-104"/>
     </defs>
     <g style="fill:#262626;" transform="translate(180.295156 335.009)scale(0.1 -0.1)">
      <use xlink:href="#ArialMT-72"/>
      <use x="72.216797" xlink:href="#ArialMT-117"/>
      <use x="127.832031" xlink:href="#ArialMT-109"/>
      <use x="211.132812" xlink:href="#ArialMT-97"/>
      <use x="266.748047" xlink:href="#ArialMT-110"/>
      <use x="322.363281" xlink:href="#ArialMT-32"/>
      <use x="350.146484" xlink:href="#ArialMT-100"/>
      <use x="405.761719" xlink:href="#ArialMT-101"/>
      <use x="461.376953" xlink:href="#ArialMT-112"/>
      <use x="516.992188" xlink:href="#ArialMT-108"/>
      <use x="539.208984" xlink:href="#ArialMT-101"/>
      <use x="594.824219" xlink:href="#ArialMT-116"/>
      <use x="622.607422" xlink:href="#ArialMT-105"/>
      <use x="644.824219" xlink:href="#ArialMT-111"/>
      <use x="700.439453" xlink:href="#ArialMT-110"/>
      <use x="756.054688" xlink:href="#ArialMT-32"/>
      <use x="783.837891" xlink:href="#ArialMT-109"/>
      <use x="867.138672" xlink:href="#ArialMT-101"/>
      <use x="922.753906" xlink:href="#ArialMT-116"/>
      <use x="950.537109" xlink:href="#ArialMT-104"/>
      <use x="1006.152344" xlink:href="#ArialMT-111"/>
      <use x="1061.767578" xlink:href="#ArialMT-100"/>
     </g>
    </g>
   </g>
   <g id="matplotlib.axis_2">
    <g id="ytick_1">
     <g id="line2d_1">
      <path clip-path="url(#pd4cb86556e)" d="M 57.6 293.708992 
L 414.72 293.708992 
" style="fill:none;stroke:#ffffff;stroke-linecap:round;stroke-width:0.8;"/>
     </g>
     <g id="text_6">
      <!-- 0.0 -->
      <g style="fill:#262626;" transform="translate(36.7 297.287898)scale(0.1 -0.1)">
       <use xlink:href="#ArialMT-48"/>
       <use x="55.615234" xlink:href="#ArialMT-46"/>
       <use x="83.398438" xlink:href="#ArialMT-48"/>
      </g>
     </g>
    </g>
    <g id="ytick_2">
     <g id="line2d_2">
      <path clip-path="url(#pd4cb86556e)" d="M 57.6 253.272112 
L 414.72 253.272112 
" style="fill:none;stroke:#ffffff;stroke-linecap:round;stroke-width:0.8;"/>
     </g>
     <g id="text_7">
      <!-- 0.2 -->
      <defs>
       <path d="M 50.34375 8.453125 
L 50.34375 0 
L 3.03125 0 
Q 2.9375 3.171875 4.046875 6.109375 
Q 5.859375 10.9375 9.828125 15.625 
Q 13.8125 20.3125 21.34375 26.46875 
Q 33.015625 36.03125 37.109375 41.625 
Q 41.21875 47.21875 41.21875 52.203125 
Q 41.21875 57.421875 37.46875 61 
Q 33.734375 64.59375 27.734375 64.59375 
Q 21.390625 64.59375 17.578125 60.78125 
Q 13.765625 56.984375 13.71875 50.25 
L 4.6875 51.171875 
Q 5.609375 61.28125 11.65625 66.578125 
Q 17.71875 71.875 27.9375 71.875 
Q 38.234375 71.875 44.234375 66.15625 
Q 50.25 60.453125 50.25 52 
Q 50.25 47.703125 48.484375 43.546875 
Q 46.734375 39.40625 42.65625 34.8125 
Q 38.578125 30.21875 29.109375 22.21875 
Q 21.1875 15.578125 18.9375 13.203125 
Q 16.703125 10.84375 15.234375 8.453125 
z
" id="ArialMT-50"/>
      </defs>
      <g style="fill:#262626;" transform="translate(36.7 256.851018)scale(0.1 -0.1)">
       <use xlink:href="#ArialMT-48"/>
       <use x="55.615234" xlink:href="#ArialMT-46"/>
       <use x="83.398438" xlink:href="#ArialMT-50"/>
      </g>
     </g>
    </g>
    <g id="ytick_3">
     <g id="line2d_3">
      <path clip-path="url(#pd4cb86556e)" d="M 57.6 212.835232 
L 414.72 212.835232 
" style="fill:none;stroke:#ffffff;stroke-linecap:round;stroke-width:0.8;"/>
     </g>
     <g id="text_8">
      <!-- 0.4 -->
      <defs>
       <path d="M 32.328125 0 
L 32.328125 17.140625 
L 1.265625 17.140625 
L 1.265625 25.203125 
L 33.9375 71.578125 
L 41.109375 71.578125 
L 41.109375 25.203125 
L 50.78125 25.203125 
L 50.78125 17.140625 
L 41.109375 17.140625 
L 41.109375 0 
z
M 32.328125 25.203125 
L 32.328125 57.46875 
L 9.90625 25.203125 
z
" id="ArialMT-52"/>
      </defs>
      <g style="fill:#262626;" transform="translate(36.7 216.414139)scale(0.1 -0.1)">
       <use xlink:href="#ArialMT-48"/>
       <use x="55.615234" xlink:href="#ArialMT-46"/>
       <use x="83.398438" xlink:href="#ArialMT-52"/>
      </g>
     </g>
    </g>
    <g id="ytick_4">
     <g id="line2d_4">
      <path clip-path="url(#pd4cb86556e)" d="M 57.6 172.398353 
L 414.72 172.398353 
" style="fill:none;stroke:#ffffff;stroke-linecap:round;stroke-width:0.8;"/>
     </g>
     <g id="text_9">
      <!-- 0.6 -->
      <defs>
       <path d="M 49.75 54.046875 
L 41.015625 53.375 
Q 39.84375 58.546875 37.703125 60.890625 
Q 34.125 64.65625 28.90625 64.65625 
Q 24.703125 64.65625 21.53125 62.3125 
Q 17.390625 59.28125 14.984375 53.46875 
Q 12.59375 47.65625 12.5 36.921875 
Q 15.671875 41.75 20.265625 44.09375 
Q 24.859375 46.4375 29.890625 46.4375 
Q 38.671875 46.4375 44.84375 39.96875 
Q 51.03125 33.5 51.03125 23.25 
Q 51.03125 16.5 48.125 10.71875 
Q 45.21875 4.9375 40.140625 1.859375 
Q 35.0625 -1.21875 28.609375 -1.21875 
Q 17.625 -1.21875 10.6875 6.859375 
Q 3.765625 14.9375 3.765625 33.5 
Q 3.765625 54.25 11.421875 63.671875 
Q 18.109375 71.875 29.4375 71.875 
Q 37.890625 71.875 43.28125 67.140625 
Q 48.6875 62.40625 49.75 54.046875 
z
M 13.875 23.1875 
Q 13.875 18.65625 15.796875 14.5 
Q 17.71875 10.359375 21.1875 8.171875 
Q 24.65625 6 28.46875 6 
Q 34.03125 6 38.03125 10.484375 
Q 42.046875 14.984375 42.046875 22.703125 
Q 42.046875 30.125 38.078125 34.390625 
Q 34.125 38.671875 28.125 38.671875 
Q 22.171875 38.671875 18.015625 34.390625 
Q 13.875 30.125 13.875 23.1875 
z
" id="ArialMT-54"/>
      </defs>
      <g style="fill:#262626;" transform="translate(36.7 175.977259)scale(0.1 -0.1)">
       <use xlink:href="#ArialMT-48"/>
       <use x="55.615234" xlink:href="#ArialMT-46"/>
       <use x="83.398438" xlink:href="#ArialMT-54"/>
      </g>
     </g>
    </g>
    <g id="ytick_5">
     <g id="line2d_5">
      <path clip-path="url(#pd4cb86556e)" d="M 57.6 131.961473 
L 414.72 131.961473 
" style="fill:none;stroke:#ffffff;stroke-linecap:round;stroke-width:0.8;"/>
     </g>
     <g id="text_10">
      <!-- 0.8 -->
      <defs>
       <path d="M 17.671875 38.8125 
Q 12.203125 40.828125 9.5625 44.53125 
Q 6.9375 48.25 6.9375 53.421875 
Q 6.9375 61.234375 12.546875 66.546875 
Q 18.171875 71.875 27.484375 71.875 
Q 36.859375 71.875 42.578125 66.421875 
Q 48.296875 60.984375 48.296875 53.171875 
Q 48.296875 48.1875 45.671875 44.5 
Q 43.0625 40.828125 37.75 38.8125 
Q 44.34375 36.671875 47.78125 31.875 
Q 51.21875 27.09375 51.21875 20.453125 
Q 51.21875 11.28125 44.71875 5.03125 
Q 38.234375 -1.21875 27.640625 -1.21875 
Q 17.046875 -1.21875 10.546875 5.046875 
Q 4.046875 11.328125 4.046875 20.703125 
Q 4.046875 27.6875 7.59375 32.390625 
Q 11.140625 37.109375 17.671875 38.8125 
z
M 15.921875 53.71875 
Q 15.921875 48.640625 19.1875 45.40625 
Q 22.46875 42.1875 27.6875 42.1875 
Q 32.765625 42.1875 36.015625 45.375 
Q 39.265625 48.578125 39.265625 53.21875 
Q 39.265625 58.0625 35.90625 61.359375 
Q 32.5625 64.65625 27.59375 64.65625 
Q 22.5625 64.65625 19.234375 61.421875 
Q 15.921875 58.203125 15.921875 53.71875 
z
M 13.09375 20.65625 
Q 13.09375 16.890625 14.875 13.375 
Q 16.65625 9.859375 20.171875 7.921875 
Q 23.6875 6 27.734375 6 
Q 34.03125 6 38.125 10.046875 
Q 42.234375 14.109375 42.234375 20.359375 
Q 42.234375 26.703125 38.015625 30.859375 
Q 33.796875 35.015625 27.4375 35.015625 
Q 21.234375 35.015625 17.15625 30.90625 
Q 13.09375 26.8125 13.09375 20.65625 
z
" id="ArialMT-56"/>
      </defs>
      <g style="fill:#262626;" transform="translate(36.7 135.540379)scale(0.1 -0.1)">
       <use xlink:href="#ArialMT-48"/>
       <use x="55.615234" xlink:href="#ArialMT-46"/>
       <use x="83.398438" xlink:href="#ArialMT-56"/>
      </g>
     </g>
    </g>
    <g id="ytick_6">
     <g id="line2d_6">
      <path clip-path="url(#pd4cb86556e)" d="M 57.6 91.524593 
L 414.72 91.524593 
" style="fill:none;stroke:#ffffff;stroke-linecap:round;stroke-width:0.8;"/>
     </g>
     <g id="text_11">
      <!-- 1.0 -->
      <g style="fill:#262626;" transform="translate(36.7 95.103499)scale(0.1 -0.1)">
       <use xlink:href="#ArialMT-49"/>
       <use x="55.615234" xlink:href="#ArialMT-46"/>
       <use x="83.398438" xlink:href="#ArialMT-48"/>
      </g>
     </g>
    </g>
    <g id="ytick_7">
     <g id="line2d_7">
      <path clip-path="url(#pd4cb86556e)" d="M 57.6 51.087713 
L 414.72 51.087713 
" style="fill:none;stroke:#ffffff;stroke-linecap:round;stroke-width:0.8;"/>
     </g>
     <g id="text_12">
      <!-- 1.2 -->
      <g style="fill:#262626;" transform="translate(36.7 54.666619)scale(0.1 -0.1)">
       <use xlink:href="#ArialMT-49"/>
       <use x="55.615234" xlink:href="#ArialMT-46"/>
       <use x="83.398438" xlink:href="#ArialMT-50"/>
      </g>
     </g>
    </g>
    <g id="text_13">
     <!-- Total bases sequenced -->
     <defs>
      <path d="M 25.921875 0 
L 25.921875 63.140625 
L 2.34375 63.140625 
L 2.34375 71.578125 
L 59.078125 71.578125 
L 59.078125 63.140625 
L 35.40625 63.140625 
L 35.40625 0 
z
" id="ArialMT-84"/>
      <path d="M 14.703125 0 
L 6.546875 0 
L 6.546875 71.578125 
L 15.328125 71.578125 
L 15.328125 46.046875 
Q 20.90625 53.03125 29.546875 53.03125 
Q 34.328125 53.03125 38.59375 51.09375 
Q 42.875 49.171875 45.625 45.671875 
Q 48.390625 42.1875 49.953125 37.25 
Q 51.515625 32.328125 51.515625 26.703125 
Q 51.515625 13.375 44.921875 6.09375 
Q 38.328125 -1.171875 29.109375 -1.171875 
Q 19.921875 -1.171875 14.703125 6.5 
z
M 14.59375 26.3125 
Q 14.59375 17 17.140625 12.84375 
Q 21.296875 6.0625 28.375 6.0625 
Q 34.125 6.0625 38.328125 11.0625 
Q 42.53125 16.0625 42.53125 25.984375 
Q 42.53125 36.140625 38.5 40.96875 
Q 34.46875 45.796875 28.765625 45.796875 
Q 23 45.796875 18.796875 40.796875 
Q 14.59375 35.796875 14.59375 26.3125 
z
" id="ArialMT-98"/>
      <path d="M 39.65625 -19.875 
L 39.65625 5.515625 
Q 37.59375 2.640625 33.90625 0.734375 
Q 30.21875 -1.171875 26.078125 -1.171875 
Q 16.84375 -1.171875 10.171875 6.203125 
Q 3.515625 13.578125 3.515625 26.421875 
Q 3.515625 34.234375 6.21875 40.421875 
Q 8.9375 46.625 14.078125 49.828125 
Q 19.234375 53.03125 25.390625 53.03125 
Q 35.015625 53.03125 40.53125 44.921875 
L 40.53125 51.859375 
L 48.4375 51.859375 
L 48.4375 -19.875 
z
M 12.546875 26.078125 
Q 12.546875 16.0625 16.75 11.0625 
Q 20.953125 6.0625 26.8125 6.0625 
Q 32.421875 6.0625 36.46875 10.8125 
Q 40.53125 15.578125 40.53125 25.296875 
Q 40.53125 35.640625 36.25 40.859375 
Q 31.984375 46.09375 26.21875 46.09375 
Q 20.515625 46.09375 16.53125 41.234375 
Q 12.546875 36.375 12.546875 26.078125 
z
" id="ArialMT-113"/>
      <path d="M 40.4375 19 
L 49.078125 17.875 
Q 47.65625 8.9375 41.8125 3.875 
Q 35.984375 -1.171875 27.484375 -1.171875 
Q 16.84375 -1.171875 10.375 5.78125 
Q 3.90625 12.75 3.90625 25.734375 
Q 3.90625 34.125 6.6875 40.421875 
Q 9.46875 46.734375 15.15625 49.875 
Q 20.84375 53.03125 27.546875 53.03125 
Q 35.984375 53.03125 41.359375 48.75 
Q 46.734375 44.484375 48.25 36.625 
L 39.703125 35.296875 
Q 38.484375 40.53125 35.375 43.15625 
Q 32.28125 45.796875 27.875 45.796875 
Q 21.234375 45.796875 17.078125 41.03125 
Q 12.9375 36.28125 12.9375 25.984375 
Q 12.9375 15.53125 16.9375 10.796875 
Q 20.953125 6.0625 27.390625 6.0625 
Q 32.5625 6.0625 36.03125 9.234375 
Q 39.5 12.40625 40.4375 19 
z
" id="ArialMT-99"/>
     </defs>
     <g style="fill:#262626;" transform="translate(30.7125 226.217062)rotate(-90)scale(0.1 -0.1)">
      <use xlink:href="#ArialMT-84"/>
      <use x="60.912109" xlink:href="#ArialMT-111"/>
      <use x="116.527344" xlink:href="#ArialMT-116"/>
      <use x="144.310547" xlink:href="#ArialMT-97"/>
      <use x="199.925781" xlink:href="#ArialMT-108"/>
      <use x="222.142578" xlink:href="#ArialMT-32"/>
      <use x="249.925781" xlink:href="#ArialMT-98"/>
      <use x="305.541016" xlink:href="#ArialMT-97"/>
      <use x="361.15625" xlink:href="#ArialMT-115"/>
      <use x="411.15625" xlink:href="#ArialMT-101"/>
      <use x="466.771484" xlink:href="#ArialMT-115"/>
      <use x="516.771484" xlink:href="#ArialMT-32"/>
      <use x="544.554688" xlink:href="#ArialMT-115"/>
      <use x="594.554688" xlink:href="#ArialMT-101"/>
      <use x="650.169922" xlink:href="#ArialMT-113"/>
      <use x="705.785156" xlink:href="#ArialMT-117"/>
      <use x="761.400391" xlink:href="#ArialMT-101"/>
      <use x="817.015625" xlink:href="#ArialMT-110"/>
      <use x="872.630859" xlink:href="#ArialMT-99"/>
      <use x="922.630859" xlink:href="#ArialMT-101"/>
      <use x="978.246094" xlink:href="#ArialMT-100"/>
     </g>
    </g>
    <g id="text_14">
     <!-- 1e10 -->
     <g style="fill:#262626;" transform="translate(57.6 38.472)scale(0.1 -0.1)">
      <use xlink:href="#ArialMT-49"/>
      <use x="55.615234" xlink:href="#ArialMT-101"/>
      <use x="111.230469" xlink:href="#ArialMT-49"/>
      <use x="166.845703" xlink:href="#ArialMT-48"/>
     </g>
    </g>
   </g>
   <g id="patch_3">
    <path clip-path="url(#pd4cb86556e)" d="M 66.528 293.708992 
L 137.952 293.708992 
L 137.952 293.708992 
L 66.528 293.708992 
L 66.528 293.708992 
z
" style="fill:#3274a1;stroke:#3d3d3d;stroke-linejoin:miter;stroke-width:1.5;"/>
   </g>
   <g id="patch_4">
    <path clip-path="url(#pd4cb86556e)" d="M 155.808 293.708992 
L 227.232 293.708992 
L 227.232 293.708992 
L 155.808 293.708992 
L 155.808 293.708992 
z
" style="fill:#e1812c;stroke:#3d3d3d;stroke-linejoin:miter;stroke-width:1.5;"/>
   </g>
   <g id="patch_5">
    <path clip-path="url(#pd4cb86556e)" d="M 245.088 293.708992 
L 316.512 293.708992 
L 316.512 293.708992 
L 245.088 293.708992 
L 245.088 293.708992 
z
" style="fill:#3a923a;stroke:#3d3d3d;stroke-linejoin:miter;stroke-width:1.5;"/>
   </g>
   <g id="patch_6">
    <path clip-path="url(#pd4cb86556e)" d="M 334.368 293.708992 
L 405.792 293.708992 
L 405.792 293.708992 
L 334.368 293.708992 
L 334.368 293.708992 
z
" style="fill:#c03d3e;stroke:#3d3d3d;stroke-linejoin:miter;stroke-width:1.5;"/>
   </g>
   <g id="patch_7">
    <path clip-path="url(#pd4cb86556e)" d="M 66.528 292.187625 
L 137.952 292.187625 
L 137.952 248.220762 
L 66.528 248.220762 
L 66.528 292.187625 
z
" style="fill:#3274a1;stroke:#3d3d3d;stroke-linejoin:miter;stroke-width:1.5;"/>
   </g>
   <g id="patch_8">
    <path clip-path="url(#pd4cb86556e)" d="M 155.808 267.610123 
L 227.232 267.610123 
L 227.232 202.155168 
L 155.808 202.155168 
L 155.808 267.610123 
z
" style="fill:#e1812c;stroke:#3d3d3d;stroke-linejoin:miter;stroke-width:1.5;"/>
   </g>
   <g id="patch_9">
    <path clip-path="url(#pd4cb86556e)" d="M 245.088 289.927305 
L 316.512 289.927305 
L 316.512 258.188122 
L 245.088 258.188122 
L 245.088 289.927305 
z
" style="fill:#3a923a;stroke:#3d3d3d;stroke-linejoin:miter;stroke-width:1.5;"/>
   </g>
   <g id="patch_10">
    <path clip-path="url(#pd4cb86556e)" d="M 334.368 287.052582 
L 405.792 287.052582 
L 405.792 261.204992 
L 334.368 261.204992 
L 334.368 287.052582 
z
" style="fill:#c03d3e;stroke:#3d3d3d;stroke-linejoin:miter;stroke-width:1.5;"/>
   </g>
   <g id="line2d_8">
    <path clip-path="url(#pd4cb86556e)" d="M 102.24 293.708992 
L 102.24 293.708992 
" style="fill:none;stroke:#3d3d3d;stroke-linecap:round;stroke-width:1.5;"/>
   </g>
   <g id="line2d_9">
    <path clip-path="url(#pd4cb86556e)" d="M 102.24 293.708992 
L 102.24 293.708992 
" style="fill:none;stroke:#3d3d3d;stroke-linecap:round;stroke-width:1.5;"/>
   </g>
   <g id="line2d_10">
    <path clip-path="url(#pd4cb86556e)" d="M 84.384 293.708992 
L 120.096 293.708992 
" style="fill:none;stroke:#3d3d3d;stroke-linecap:round;stroke-width:1.5;"/>
   </g>
   <g id="line2d_11">
    <path clip-path="url(#pd4cb86556e)" d="M 84.384 293.708992 
L 120.096 293.708992 
" style="fill:none;stroke:#3d3d3d;stroke-linecap:round;stroke-width:1.5;"/>
   </g>
   <g id="line2d_12">
    <path clip-path="url(#pd4cb86556e)" d="M 191.52 293.708992 
L 191.52 293.708992 
" style="fill:none;stroke:#3d3d3d;stroke-linecap:round;stroke-width:1.5;"/>
   </g>
   <g id="line2d_13">
    <path clip-path="url(#pd4cb86556e)" d="M 191.52 293.708992 
L 191.52 293.708992 
" style="fill:none;stroke:#3d3d3d;stroke-linecap:round;stroke-width:1.5;"/>
   </g>
   <g id="line2d_14">
    <path clip-path="url(#pd4cb86556e)" d="M 173.664 293.708992 
L 209.376 293.708992 
" style="fill:none;stroke:#3d3d3d;stroke-linecap:round;stroke-width:1.5;"/>
   </g>
   <g id="line2d_15">
    <path clip-path="url(#pd4cb86556e)" d="M 173.664 293.708992 
L 209.376 293.708992 
" style="fill:none;stroke:#3d3d3d;stroke-linecap:round;stroke-width:1.5;"/>
   </g>
   <g id="line2d_16">
    <path clip-path="url(#pd4cb86556e)" d="M 280.8 293.708992 
L 280.8 293.708992 
" style="fill:none;stroke:#3d3d3d;stroke-linecap:round;stroke-width:1.5;"/>
   </g>
   <g id="line2d_17">
    <path clip-path="url(#pd4cb86556e)" d="M 280.8 293.708992 
L 280.8 293.708992 
" style="fill:none;stroke:#3d3d3d;stroke-linecap:round;stroke-width:1.5;"/>
   </g>
   <g id="line2d_18">
    <path clip-path="url(#pd4cb86556e)" d="M 262.944 293.708992 
L 298.656 293.708992 
" style="fill:none;stroke:#3d3d3d;stroke-linecap:round;stroke-width:1.5;"/>
   </g>
   <g id="line2d_19">
    <path clip-path="url(#pd4cb86556e)" d="M 262.944 293.708992 
L 298.656 293.708992 
" style="fill:none;stroke:#3d3d3d;stroke-linecap:round;stroke-width:1.5;"/>
   </g>
   <g id="line2d_20">
    <path clip-path="url(#pd4cb86556e)" d="M 370.08 293.708992 
L 370.08 293.708992 
" style="fill:none;stroke:#3d3d3d;stroke-linecap:round;stroke-width:1.5;"/>
   </g>
   <g id="line2d_21">
    <path clip-path="url(#pd4cb86556e)" d="M 370.08 293.708992 
L 370.08 293.708992 
" style="fill:none;stroke:#3d3d3d;stroke-linecap:round;stroke-width:1.5;"/>
   </g>
   <g id="line2d_22">
    <path clip-path="url(#pd4cb86556e)" d="M 352.224 293.708992 
L 387.936 293.708992 
" style="fill:none;stroke:#3d3d3d;stroke-linecap:round;stroke-width:1.5;"/>
   </g>
   <g id="line2d_23">
    <path clip-path="url(#pd4cb86556e)" d="M 352.224 293.708992 
L 387.936 293.708992 
" style="fill:none;stroke:#3d3d3d;stroke-linecap:round;stroke-width:1.5;"/>
   </g>
   <g id="line2d_24">
    <path clip-path="url(#pd4cb86556e)" d="M 102.24 292.187625 
L 102.24 293.706576 
" style="fill:none;stroke:#3d3d3d;stroke-linecap:round;stroke-width:1.5;"/>
   </g>
   <g id="line2d_25">
    <path clip-path="url(#pd4cb86556e)" d="M 102.24 248.220762 
L 102.24 182.817553 
" style="fill:none;stroke:#3d3d3d;stroke-linecap:round;stroke-width:1.5;"/>
   </g>
   <g id="line2d_26">
    <path clip-path="url(#pd4cb86556e)" d="M 84.384 293.706576 
L 120.096 293.706576 
" style="fill:none;stroke:#3d3d3d;stroke-linecap:round;stroke-width:1.5;"/>
   </g>
   <g id="line2d_27">
    <path clip-path="url(#pd4cb86556e)" d="M 84.384 182.817553 
L 120.096 182.817553 
" style="fill:none;stroke:#3d3d3d;stroke-linecap:round;stroke-width:1.5;"/>
   </g>
   <g id="line2d_28">
    <path clip-path="url(#pd4cb86556e)" d="M 191.52 267.610123 
L 191.52 293.70462 
" style="fill:none;stroke:#3d3d3d;stroke-linecap:round;stroke-width:1.5;"/>
   </g>
   <g id="line2d_29">
    <path clip-path="url(#pd4cb86556e)" d="M 191.52 202.155168 
L 191.52 119.34428 
" style="fill:none;stroke:#3d3d3d;stroke-linecap:round;stroke-width:1.5;"/>
   </g>
   <g id="line2d_30">
    <path clip-path="url(#pd4cb86556e)" d="M 173.664 293.70462 
L 209.376 293.70462 
" style="fill:none;stroke:#3d3d3d;stroke-linecap:round;stroke-width:1.5;"/>
   </g>
   <g id="line2d_31">
    <path clip-path="url(#pd4cb86556e)" d="M 173.664 119.34428 
L 209.376 119.34428 
" style="fill:none;stroke:#3d3d3d;stroke-linecap:round;stroke-width:1.5;"/>
   </g>
   <g id="line2d_32">
    <path clip-path="url(#pd4cb86556e)" d="M 280.8 289.927305 
L 280.8 293.691545 
" style="fill:none;stroke:#3d3d3d;stroke-linecap:round;stroke-width:1.5;"/>
   </g>
   <g id="line2d_33">
    <path clip-path="url(#pd4cb86556e)" d="M 280.8 258.188122 
L 280.8 253.885904 
" style="fill:none;stroke:#3d3d3d;stroke-linecap:round;stroke-width:1.5;"/>
   </g>
   <g id="line2d_34">
    <path clip-path="url(#pd4cb86556e)" d="M 262.944 293.691545 
L 298.656 293.691545 
" style="fill:none;stroke:#3d3d3d;stroke-linecap:round;stroke-width:1.5;"/>
   </g>
   <g id="line2d_35">
    <path clip-path="url(#pd4cb86556e)" d="M 262.944 253.885904 
L 298.656 253.885904 
" style="fill:none;stroke:#3d3d3d;stroke-linecap:round;stroke-width:1.5;"/>
   </g>
   <g id="line2d_36">
    <path clip-path="url(#pd4cb86556e)" d="M 370.08 287.052582 
L 370.08 292.843635 
" style="fill:none;stroke:#3d3d3d;stroke-linecap:round;stroke-width:1.5;"/>
   </g>
   <g id="line2d_37">
    <path clip-path="url(#pd4cb86556e)" d="M 370.08 261.204992 
L 370.08 234.093379 
" style="fill:none;stroke:#3d3d3d;stroke-linecap:round;stroke-width:1.5;"/>
   </g>
   <g id="line2d_38">
    <path clip-path="url(#pd4cb86556e)" d="M 352.224 292.843635 
L 387.936 292.843635 
" style="fill:none;stroke:#3d3d3d;stroke-linecap:round;stroke-width:1.5;"/>
   </g>
   <g id="line2d_39">
    <path clip-path="url(#pd4cb86556e)" d="M 352.224 234.093379 
L 387.936 234.093379 
" style="fill:none;stroke:#3d3d3d;stroke-linecap:round;stroke-width:1.5;"/>
   </g>
   <g id="line2d_40">
    <path clip-path="url(#pd4cb86556e)" d="M 66.528 293.708992 
L 137.952 293.708992 
" style="fill:none;stroke:#3d3d3d;stroke-linecap:round;stroke-width:1.5;"/>
   </g>
   <g id="line2d_41">
    <path clip-path="url(#pd4cb86556e)" d="M 155.808 293.708992 
L 227.232 293.708992 
" style="fill:none;stroke:#3d3d3d;stroke-linecap:round;stroke-width:1.5;"/>
   </g>
   <g id="line2d_42">
    <path clip-path="url(#pd4cb86556e)" d="M 245.088 293.708992 
L 316.512 293.708992 
" style="fill:none;stroke:#3d3d3d;stroke-linecap:round;stroke-width:1.5;"/>
   </g>
   <g id="line2d_43">
    <path clip-path="url(#pd4cb86556e)" d="M 334.368 293.708992 
L 405.792 293.708992 
" style="fill:none;stroke:#3d3d3d;stroke-linecap:round;stroke-width:1.5;"/>
   </g>
   <g id="line2d_44">
    <path clip-path="url(#pd4cb86556e)" d="M 66.528 271.23585 
L 137.952 271.23585 
" style="fill:none;stroke:#3d3d3d;stroke-linecap:round;stroke-width:1.5;"/>
   </g>
   <g id="line2d_45">
    <path clip-path="url(#pd4cb86556e)" d="M 155.808 243.417481 
L 227.232 243.417481 
" style="fill:none;stroke:#3d3d3d;stroke-linecap:round;stroke-width:1.5;"/>
   </g>
   <g id="line2d_46">
    <path clip-path="url(#pd4cb86556e)" d="M 245.088 275.89605 
L 316.512 275.89605 
" style="fill:none;stroke:#3d3d3d;stroke-linecap:round;stroke-width:1.5;"/>
   </g>
   <g id="line2d_47">
    <path clip-path="url(#pd4cb86556e)" d="M 334.368 267.498892 
L 405.792 267.498892 
" style="fill:none;stroke:#3d3d3d;stroke-linecap:round;stroke-width:1.5;"/>
   </g>
   <g id="patch_11">
    <path d="M 57.6 307.584 
L 57.6 41.472 
" style="fill:none;stroke:#ffffff;stroke-linecap:square;stroke-linejoin:miter;stroke-width:0.8;"/>
   </g>
   <g id="patch_12">
    <path d="M 414.72 307.584 
L 414.72 41.472 
" style="fill:none;stroke:#ffffff;stroke-linecap:square;stroke-linejoin:miter;stroke-width:0.8;"/>
   </g>
   <g id="patch_13">
    <path d="M 57.6 307.584 
L 414.72 307.584 
" style="fill:none;stroke:#ffffff;stroke-linecap:square;stroke-linejoin:miter;stroke-width:0.8;"/>
   </g>
   <g id="patch_14">
    <path d="M 57.6 41.472 
L 414.72 41.472 
" style="fill:none;stroke:#ffffff;stroke-linecap:square;stroke-linejoin:miter;stroke-width:0.8;"/>
   </g>
   <g id="PathCollection_1">
    <defs>
     <path d="M 0 2.5 
C 0.663008 2.5 1.29895 2.236584 1.767767 1.767767 
C 2.236584 1.29895 2.5 0.663008 2.5 0 
C 2.5 -0.663008 2.236584 -1.29895 1.767767 -1.767767 
C 1.29895 -2.236584 0.663008 -2.5 0 -2.5 
C -0.663008 -2.5 -1.29895 -2.236584 -1.767767 -1.767767 
C -2.236584 -1.29895 -2.5 -0.663008 -2.5 0 
C -2.5 0.663008 -2.236584 1.29895 -1.767767 1.767767 
C -1.29895 2.236584 -0.663008 2.5 0 2.5 
z
" id="C0_0_864fbfcced"/>
    </defs>
    <g clip-path="url(#pd4cb86556e)">
     <use style="fill:#404040;" x="102.24" xlink:href="#C0_0_864fbfcced" y="293.708992"/>
    </g>
    <g clip-path="url(#pd4cb86556e)">
     <use style="fill:#404040;" x="96.990104" xlink:href="#C0_0_864fbfcced" y="293.708992"/>
    </g>
    <g clip-path="url(#pd4cb86556e)">
     <use style="fill:#404040;" x="107.489336" xlink:href="#C0_0_864fbfcced" y="293.708992"/>
    </g>
    <g clip-path="url(#pd4cb86556e)">
     <use style="fill:#404040;" x="112.739328" xlink:href="#C0_0_864fbfcced" y="293.708992"/>
    </g>
    <g clip-path="url(#pd4cb86556e)">
     <use style="fill:#404040;" x="91.741125" xlink:href="#C0_0_864fbfcced" y="293.708992"/>
    </g>
    <g clip-path="url(#pd4cb86556e)">
     <use style="fill:#404040;" x="86.49113" xlink:href="#C0_0_864fbfcced" y="293.708992"/>
    </g>
    <g clip-path="url(#pd4cb86556e)">
     <use style="fill:#404040;" x="117.987855" xlink:href="#C0_0_864fbfcced" y="293.708992"/>
    </g>
    <g clip-path="url(#pd4cb86556e)">
     <use style="fill:#404040;" x="123.237799" xlink:href="#C0_0_864fbfcced" y="293.708992"/>
    </g>
    <g clip-path="url(#pd4cb86556e)">
     <use style="fill:#404040;" x="81.242153" xlink:href="#C0_0_864fbfcced" y="293.708992"/>
    </g>
    <g clip-path="url(#pd4cb86556e)">
     <use style="fill:#404040;" x="128.486677" xlink:href="#C0_0_864fbfcced" y="293.708992"/>
    </g>
    <g clip-path="url(#pd4cb86556e)">
     <use style="fill:#404040;" x="75.995341" xlink:href="#C0_0_864fbfcced" y="293.708992"/>
    </g>
    <g clip-path="url(#pd4cb86556e)">
     <use style="fill:#404040;" x="133.729752" xlink:href="#C0_0_864fbfcced" y="293.708992"/>
    </g>
    <g clip-path="url(#pd4cb86556e)">
     <use style="fill:#404040;" x="70.750437" xlink:href="#C0_0_864fbfcced" y="293.708992"/>
    </g>
    <g clip-path="url(#pd4cb86556e)">
     <use style="fill:#404040;" x="137.952" xlink:href="#C0_0_864fbfcced" y="293.708992"/>
    </g>
    <g clip-path="url(#pd4cb86556e)">
     <use style="fill:#404040;" x="66.528" xlink:href="#C0_0_864fbfcced" y="293.708992"/>
    </g>
    <g clip-path="url(#pd4cb86556e)">
     <use style="fill:#404040;" x="137.952" xlink:href="#C0_0_864fbfcced" y="293.708992"/>
    </g>
    <g clip-path="url(#pd4cb86556e)">
     <use style="fill:#404040;" x="66.528" xlink:href="#C0_0_864fbfcced" y="293.708992"/>
    </g>
    <g clip-path="url(#pd4cb86556e)">
     <use style="fill:#404040;" x="137.952" xlink:href="#C0_0_864fbfcced" y="293.708992"/>
    </g>
    <g clip-path="url(#pd4cb86556e)">
     <use style="fill:#404040;" x="66.528" xlink:href="#C0_0_864fbfcced" y="293.708992"/>
    </g>
    <g clip-path="url(#pd4cb86556e)">
     <use style="fill:#404040;" x="137.952" xlink:href="#C0_0_864fbfcced" y="293.708992"/>
    </g>
    <g clip-path="url(#pd4cb86556e)">
     <use style="fill:#404040;" x="66.528" xlink:href="#C0_0_864fbfcced" y="293.708992"/>
    </g>
    <g clip-path="url(#pd4cb86556e)">
     <use style="fill:#404040;" x="137.952" xlink:href="#C0_0_864fbfcced" y="293.708992"/>
    </g>
    <g clip-path="url(#pd4cb86556e)">
     <use style="fill:#404040;" x="102.24" xlink:href="#C0_0_864fbfcced" y="293.708992"/>
    </g>
    <g clip-path="url(#pd4cb86556e)">
     <use style="fill:#404040;" x="107.358028" xlink:href="#C0_0_864fbfcced" y="293.708992"/>
    </g>
    <g clip-path="url(#pd4cb86556e)">
     <use style="fill:#404040;" x="97.371675" xlink:href="#C0_0_864fbfcced" y="293.708992"/>
    </g>
    <g clip-path="url(#pd4cb86556e)">
     <use style="fill:#404040;" x="112.196529" xlink:href="#C0_0_864fbfcced" y="293.708992"/>
    </g>
    <g clip-path="url(#pd4cb86556e)">
     <use style="fill:#404040;" x="92.444604" xlink:href="#C0_0_864fbfcced" y="293.708992"/>
    </g>
    <g clip-path="url(#pd4cb86556e)">
     <use style="fill:#404040;" x="87.275939" xlink:href="#C0_0_864fbfcced" y="293.708992"/>
    </g>
    <g clip-path="url(#pd4cb86556e)">
     <use style="fill:#404040;" x="102.24" xlink:href="#C0_0_864fbfcced" y="293.708992"/>
    </g>
    <g clip-path="url(#pd4cb86556e)">
     <use style="fill:#404040;" x="97.07368" xlink:href="#C0_0_864fbfcced" y="293.708992"/>
    </g>
    <g clip-path="url(#pd4cb86556e)">
     <use style="fill:#404040;" x="106.826449" xlink:href="#C0_0_864fbfcced" y="293.708992"/>
    </g>
    <g clip-path="url(#pd4cb86556e)">
     <use style="fill:#404040;" x="102.24" xlink:href="#C0_0_864fbfcced" y="293.708992"/>
    </g>
    <g clip-path="url(#pd4cb86556e)">
     <use style="fill:#404040;" x="96.991473" xlink:href="#C0_0_864fbfcced" y="293.708992"/>
    </g>
    <g clip-path="url(#pd4cb86556e)">
     <use style="fill:#404040;" x="107.020747" xlink:href="#C0_0_864fbfcced" y="293.708992"/>
    </g>
    <g clip-path="url(#pd4cb86556e)">
     <use style="fill:#404040;" x="93.290337" xlink:href="#C0_0_864fbfcced" y="293.708992"/>
    </g>
    <g clip-path="url(#pd4cb86556e)">
     <use style="fill:#404040;" x="111.705799" xlink:href="#C0_0_864fbfcced" y="293.708992"/>
    </g>
    <g clip-path="url(#pd4cb86556e)">
     <use style="fill:#404040;" x="102.24" xlink:href="#C0_0_864fbfcced" y="293.708992"/>
    </g>
    <g clip-path="url(#pd4cb86556e)">
     <use style="fill:#404040;" x="96.997693" xlink:href="#C0_0_864fbfcced" y="293.708992"/>
    </g>
    <g clip-path="url(#pd4cb86556e)">
     <use style="fill:#404040;" x="107.387904" xlink:href="#C0_0_864fbfcced" y="293.708992"/>
    </g>
    <g clip-path="url(#pd4cb86556e)">
     <use style="fill:#404040;" x="93.529545" xlink:href="#C0_0_864fbfcced" y="293.708992"/>
    </g>
    <g clip-path="url(#pd4cb86556e)">
     <use style="fill:#404040;" x="102.24" xlink:href="#C0_0_864fbfcced" y="293.708992"/>
    </g>
    <g clip-path="url(#pd4cb86556e)">
     <use style="fill:#404040;" x="98.330551" xlink:href="#C0_0_864fbfcced" y="293.708992"/>
    </g>
    <g clip-path="url(#pd4cb86556e)">
     <use style="fill:#404040;" x="102.24" xlink:href="#C0_0_864fbfcced" y="293.708992"/>
    </g>
    <g clip-path="url(#pd4cb86556e)">
     <use style="fill:#404040;" x="97.561403" xlink:href="#C0_0_864fbfcced" y="293.708992"/>
    </g>
    <g clip-path="url(#pd4cb86556e)">
     <use style="fill:#404040;" x="102.24" xlink:href="#C0_0_864fbfcced" y="293.708992"/>
    </g>
    <g clip-path="url(#pd4cb86556e)">
     <use style="fill:#404040;" x="102.24" xlink:href="#C0_0_864fbfcced" y="293.708992"/>
    </g>
    <g clip-path="url(#pd4cb86556e)">
     <use style="fill:#404040;" x="102.24" xlink:href="#C0_0_864fbfcced" y="293.708992"/>
    </g>
    <g clip-path="url(#pd4cb86556e)">
     <use style="fill:#404040;" x="102.24" xlink:href="#C0_0_864fbfcced" y="293.708992"/>
    </g>
    <g clip-path="url(#pd4cb86556e)">
     <use style="fill:#404040;" x="102.24" xlink:href="#C0_0_864fbfcced" y="293.708992"/>
    </g>
    <g clip-path="url(#pd4cb86556e)">
     <use style="fill:#404040;" x="100.851082" xlink:href="#C0_0_864fbfcced" y="293.708992"/>
    </g>
    <g clip-path="url(#pd4cb86556e)">
     <use style="fill:#404040;" x="102.24" xlink:href="#C0_0_864fbfcced" y="293.708992"/>
    </g>
    <g clip-path="url(#pd4cb86556e)">
     <use style="fill:#404040;" x="102.24" xlink:href="#C0_0_864fbfcced" y="293.708992"/>
    </g>
    <g clip-path="url(#pd4cb86556e)">
     <use style="fill:#404040;" x="102.24" xlink:href="#C0_0_864fbfcced" y="293.708992"/>
    </g>
    <g clip-path="url(#pd4cb86556e)">
     <use style="fill:#404040;" x="102.24" xlink:href="#C0_0_864fbfcced" y="293.708992"/>
    </g>
    <g clip-path="url(#pd4cb86556e)">
     <use style="fill:#404040;" x="102.24" xlink:href="#C0_0_864fbfcced" y="293.708992"/>
    </g>
    <g clip-path="url(#pd4cb86556e)">
     <use style="fill:#404040;" x="96.999756" xlink:href="#C0_0_864fbfcced" y="293.708992"/>
    </g>
    <g clip-path="url(#pd4cb86556e)">
     <use style="fill:#404040;" x="102.24" xlink:href="#C0_0_864fbfcced" y="293.708992"/>
    </g>
    <g clip-path="url(#pd4cb86556e)">
     <use style="fill:#404040;" x="97.255715" xlink:href="#C0_0_864fbfcced" y="293.708992"/>
    </g>
    <g clip-path="url(#pd4cb86556e)">
     <use style="fill:#404040;" x="102.24" xlink:href="#C0_0_864fbfcced" y="293.708992"/>
    </g>
    <g clip-path="url(#pd4cb86556e)">
     <use style="fill:#404040;" x="97.444384" xlink:href="#C0_0_864fbfcced" y="293.708992"/>
    </g>
    <g clip-path="url(#pd4cb86556e)">
     <use style="fill:#404040;" x="106.790893" xlink:href="#C0_0_864fbfcced" y="293.708992"/>
    </g>
    <g clip-path="url(#pd4cb86556e)">
     <use style="fill:#404040;" x="111.772172" xlink:href="#C0_0_864fbfcced" y="293.708992"/>
    </g>
    <g clip-path="url(#pd4cb86556e)">
     <use style="fill:#404040;" x="92.846036" xlink:href="#C0_0_864fbfcced" y="293.708992"/>
    </g>
    <g clip-path="url(#pd4cb86556e)">
     <use style="fill:#404040;" x="102.24" xlink:href="#C0_0_864fbfcced" y="293.708992"/>
    </g>
    <g clip-path="url(#pd4cb86556e)">
     <use style="fill:#404040;" x="97.076301" xlink:href="#C0_0_864fbfcced" y="293.708992"/>
    </g>
    <g clip-path="url(#pd4cb86556e)">
     <use style="fill:#404040;" x="105.605851" xlink:href="#C0_0_864fbfcced" y="293.708992"/>
    </g>
   </g>
   <g id="PathCollection_2">
    <defs>
     <path d="M 0 2.5 
C 0.663008 2.5 1.29895 2.236584 1.767767 1.767767 
C 2.236584 1.29895 2.5 0.663008 2.5 0 
C 2.5 -0.663008 2.236584 -1.29895 1.767767 -1.767767 
C 1.29895 -2.236584 0.663008 -2.5 0 -2.5 
C -0.663008 -2.5 -1.29895 -2.236584 -1.767767 -1.767767 
C -2.236584 -1.29895 -2.5 -0.663008 -2.5 0 
C -2.5 0.663008 -2.236584 1.29895 -1.767767 1.767767 
C -1.29895 2.236584 -0.663008 2.5 0 2.5 
z
" id="C1_0_4ae0d61a87"/>
    </defs>
    <g clip-path="url(#pd4cb86556e)">
     <use style="fill:#404040;" x="191.52" xlink:href="#C1_0_4ae0d61a87" y="293.708992"/>
    </g>
    <g clip-path="url(#pd4cb86556e)">
     <use style="fill:#404040;" x="191.52" xlink:href="#C1_0_4ae0d61a87" y="293.708992"/>
    </g>
    <g clip-path="url(#pd4cb86556e)">
     <use style="fill:#404040;" x="191.52" xlink:href="#C1_0_4ae0d61a87" y="293.708992"/>
    </g>
    <g clip-path="url(#pd4cb86556e)">
     <use style="fill:#404040;" x="186.990805" xlink:href="#C1_0_4ae0d61a87" y="293.708992"/>
    </g>
    <g clip-path="url(#pd4cb86556e)">
     <use style="fill:#404040;" x="191.52" xlink:href="#C1_0_4ae0d61a87" y="293.708992"/>
    </g>
    <g clip-path="url(#pd4cb86556e)">
     <use style="fill:#404040;" x="191.52" xlink:href="#C1_0_4ae0d61a87" y="293.708992"/>
    </g>
    <g clip-path="url(#pd4cb86556e)">
     <use style="fill:#404040;" x="191.52" xlink:href="#C1_0_4ae0d61a87" y="293.708992"/>
    </g>
    <g clip-path="url(#pd4cb86556e)">
     <use style="fill:#404040;" x="188.20681" xlink:href="#C1_0_4ae0d61a87" y="293.708992"/>
    </g>
    <g clip-path="url(#pd4cb86556e)">
     <use style="fill:#404040;" x="191.52" xlink:href="#C1_0_4ae0d61a87" y="293.708992"/>
    </g>
    <g clip-path="url(#pd4cb86556e)">
     <use style="fill:#404040;" x="191.52" xlink:href="#C1_0_4ae0d61a87" y="293.708992"/>
    </g>
    <g clip-path="url(#pd4cb86556e)">
     <use style="fill:#404040;" x="186.273645" xlink:href="#C1_0_4ae0d61a87" y="293.708992"/>
    </g>
    <g clip-path="url(#pd4cb86556e)">
     <use style="fill:#404040;" x="191.52" xlink:href="#C1_0_4ae0d61a87" y="293.708992"/>
    </g>
    <g clip-path="url(#pd4cb86556e)">
     <use style="fill:#404040;" x="191.52" xlink:href="#C1_0_4ae0d61a87" y="293.708992"/>
    </g>
    <g clip-path="url(#pd4cb86556e)">
     <use style="fill:#404040;" x="191.52" xlink:href="#C1_0_4ae0d61a87" y="293.708992"/>
    </g>
    <g clip-path="url(#pd4cb86556e)">
     <use style="fill:#404040;" x="191.52" xlink:href="#C1_0_4ae0d61a87" y="293.708992"/>
    </g>
    <g clip-path="url(#pd4cb86556e)">
     <use style="fill:#404040;" x="186.745225" xlink:href="#C1_0_4ae0d61a87" y="293.708992"/>
    </g>
    <g clip-path="url(#pd4cb86556e)">
     <use style="fill:#404040;" x="191.52" xlink:href="#C1_0_4ae0d61a87" y="293.708992"/>
    </g>
    <g clip-path="url(#pd4cb86556e)">
     <use style="fill:#404040;" x="186.369894" xlink:href="#C1_0_4ae0d61a87" y="293.708992"/>
    </g>
    <g clip-path="url(#pd4cb86556e)">
     <use style="fill:#404040;" x="196.391029" xlink:href="#C1_0_4ae0d61a87" y="293.708992"/>
    </g>
    <g clip-path="url(#pd4cb86556e)">
     <use style="fill:#404040;" x="181.818997" xlink:href="#C1_0_4ae0d61a87" y="293.708992"/>
    </g>
    <g clip-path="url(#pd4cb86556e)">
     <use style="fill:#404040;" x="201.302275" xlink:href="#C1_0_4ae0d61a87" y="293.708992"/>
    </g>
    <g clip-path="url(#pd4cb86556e)">
     <use style="fill:#404040;" x="176.644551" xlink:href="#C1_0_4ae0d61a87" y="293.708992"/>
    </g>
    <g clip-path="url(#pd4cb86556e)">
     <use style="fill:#404040;" x="206.483195" xlink:href="#C1_0_4ae0d61a87" y="293.708992"/>
    </g>
    <g clip-path="url(#pd4cb86556e)">
     <use style="fill:#404040;" x="171.407438" xlink:href="#C1_0_4ae0d61a87" y="293.708992"/>
    </g>
    <g clip-path="url(#pd4cb86556e)">
     <use style="fill:#404040;" x="189.921545" xlink:href="#C1_0_4ae0d61a87" y="293.708992"/>
    </g>
    <g clip-path="url(#pd4cb86556e)">
     <use style="fill:#404040;" x="211.712752" xlink:href="#C1_0_4ae0d61a87" y="293.708992"/>
    </g>
    <g clip-path="url(#pd4cb86556e)">
     <use style="fill:#404040;" x="166.20662" xlink:href="#C1_0_4ae0d61a87" y="293.708992"/>
    </g>
    <g clip-path="url(#pd4cb86556e)">
     <use style="fill:#404040;" x="216.930445" xlink:href="#C1_0_4ae0d61a87" y="293.708992"/>
    </g>
    <g clip-path="url(#pd4cb86556e)">
     <use style="fill:#404040;" x="161.032698" xlink:href="#C1_0_4ae0d61a87" y="293.708992"/>
    </g>
    <g clip-path="url(#pd4cb86556e)">
     <use style="fill:#404040;" x="222.093302" xlink:href="#C1_0_4ae0d61a87" y="293.708992"/>
    </g>
    <g clip-path="url(#pd4cb86556e)">
     <use style="fill:#404040;" x="194.510526" xlink:href="#C1_0_4ae0d61a87" y="293.708992"/>
    </g>
    <g clip-path="url(#pd4cb86556e)">
     <use style="fill:#404040;" x="185.434626" xlink:href="#C1_0_4ae0d61a87" y="293.708992"/>
    </g>
    <g clip-path="url(#pd4cb86556e)">
     <use style="fill:#404040;" x="155.954443" xlink:href="#C1_0_4ae0d61a87" y="293.708992"/>
    </g>
    <g clip-path="url(#pd4cb86556e)">
     <use style="fill:#404040;" x="227.143692" xlink:href="#C1_0_4ae0d61a87" y="293.708992"/>
    </g>
    <g clip-path="url(#pd4cb86556e)">
     <use style="fill:#404040;" x="155.808" xlink:href="#C1_0_4ae0d61a87" y="293.708992"/>
    </g>
    <g clip-path="url(#pd4cb86556e)">
     <use style="fill:#404040;" x="227.232" xlink:href="#C1_0_4ae0d61a87" y="293.708992"/>
    </g>
    <g clip-path="url(#pd4cb86556e)">
     <use style="fill:#404040;" x="199.435035" xlink:href="#C1_0_4ae0d61a87" y="293.708992"/>
    </g>
    <g clip-path="url(#pd4cb86556e)">
     <use style="fill:#404040;" x="180.320546" xlink:href="#C1_0_4ae0d61a87" y="293.708992"/>
    </g>
    <g clip-path="url(#pd4cb86556e)">
     <use style="fill:#404040;" x="155.808" xlink:href="#C1_0_4ae0d61a87" y="293.708992"/>
    </g>
    <g clip-path="url(#pd4cb86556e)">
     <use style="fill:#404040;" x="227.232" xlink:href="#C1_0_4ae0d61a87" y="293.708992"/>
    </g>
    <g clip-path="url(#pd4cb86556e)">
     <use style="fill:#404040;" x="174.368349" xlink:href="#C1_0_4ae0d61a87" y="293.708992"/>
    </g>
    <g clip-path="url(#pd4cb86556e)">
     <use style="fill:#404040;" x="155.808" xlink:href="#C1_0_4ae0d61a87" y="293.708992"/>
    </g>
    <g clip-path="url(#pd4cb86556e)">
     <use style="fill:#404040;" x="227.232" xlink:href="#C1_0_4ae0d61a87" y="293.708992"/>
    </g>
    <g clip-path="url(#pd4cb86556e)">
     <use style="fill:#404040;" x="155.808" xlink:href="#C1_0_4ae0d61a87" y="293.708992"/>
    </g>
    <g clip-path="url(#pd4cb86556e)">
     <use style="fill:#404040;" x="208.769272" xlink:href="#C1_0_4ae0d61a87" y="293.708992"/>
    </g>
    <g clip-path="url(#pd4cb86556e)">
     <use style="fill:#404040;" x="227.232" xlink:href="#C1_0_4ae0d61a87" y="293.708992"/>
    </g>
    <g clip-path="url(#pd4cb86556e)">
     <use style="fill:#404040;" x="155.808" xlink:href="#C1_0_4ae0d61a87" y="293.708992"/>
    </g>
    <g clip-path="url(#pd4cb86556e)">
     <use style="fill:#404040;" x="227.232" xlink:href="#C1_0_4ae0d61a87" y="293.708992"/>
    </g>
    <g clip-path="url(#pd4cb86556e)">
     <use style="fill:#404040;" x="155.808" xlink:href="#C1_0_4ae0d61a87" y="293.708992"/>
    </g>
   </g>
   <g id="PathCollection_3">
    <defs>
     <path d="M 0 2.5 
C 0.663008 2.5 1.29895 2.236584 1.767767 1.767767 
C 2.236584 1.29895 2.5 0.663008 2.5 0 
C 2.5 -0.663008 2.236584 -1.29895 1.767767 -1.767767 
C 1.29895 -2.236584 0.663008 -2.5 0 -2.5 
C -0.663008 -2.5 -1.29895 -2.236584 -1.767767 -1.767767 
C -2.236584 -1.29895 -2.5 -0.663008 -2.5 0 
C -2.5 0.663008 -2.236584 1.29895 -1.767767 1.767767 
C -1.29895 2.236584 -0.663008 2.5 0 2.5 
z
" id="C2_0_fa2561e792"/>
    </defs>
    <g clip-path="url(#pd4cb86556e)">
     <use style="fill:#404040;" x="280.8" xlink:href="#C2_0_fa2561e792" y="293.708992"/>
    </g>
    <g clip-path="url(#pd4cb86556e)">
     <use style="fill:#404040;" x="275.559801" xlink:href="#C2_0_fa2561e792" y="293.708992"/>
    </g>
    <g clip-path="url(#pd4cb86556e)">
     <use style="fill:#404040;" x="285.547896" xlink:href="#C2_0_fa2561e792" y="293.708992"/>
    </g>
    <g clip-path="url(#pd4cb86556e)">
     <use style="fill:#404040;" x="271.419512" xlink:href="#C2_0_fa2561e792" y="293.708992"/>
    </g>
    <g clip-path="url(#pd4cb86556e)">
     <use style="fill:#404040;" x="290.307646" xlink:href="#C2_0_fa2561e792" y="293.708992"/>
    </g>
    <g clip-path="url(#pd4cb86556e)">
     <use style="fill:#404040;" x="279.334376" xlink:href="#C2_0_fa2561e792" y="293.708992"/>
    </g>
    <g clip-path="url(#pd4cb86556e)">
     <use style="fill:#404040;" x="280.8" xlink:href="#C2_0_fa2561e792" y="293.708992"/>
    </g>
    <g clip-path="url(#pd4cb86556e)">
     <use style="fill:#404040;" x="275.609446" xlink:href="#C2_0_fa2561e792" y="293.708992"/>
    </g>
    <g clip-path="url(#pd4cb86556e)">
     <use style="fill:#404040;" x="284.880603" xlink:href="#C2_0_fa2561e792" y="293.708992"/>
    </g>
    <g clip-path="url(#pd4cb86556e)">
     <use style="fill:#404040;" x="280.8" xlink:href="#C2_0_fa2561e792" y="293.708992"/>
    </g>
    <g clip-path="url(#pd4cb86556e)">
     <use style="fill:#404040;" x="280.8" xlink:href="#C2_0_fa2561e792" y="293.708992"/>
    </g>
    <g clip-path="url(#pd4cb86556e)">
     <use style="fill:#404040;" x="280.8" xlink:href="#C2_0_fa2561e792" y="293.708992"/>
    </g>
    <g clip-path="url(#pd4cb86556e)">
     <use style="fill:#404040;" x="280.8" xlink:href="#C2_0_fa2561e792" y="293.708992"/>
    </g>
   </g>
   <g id="PathCollection_4">
    <defs>
     <path d="M 0 2.5 
C 0.663008 2.5 1.29895 2.236584 1.767767 1.767767 
C 2.236584 1.29895 2.5 0.663008 2.5 0 
C 2.5 -0.663008 2.236584 -1.29895 1.767767 -1.767767 
C 1.29895 -2.236584 0.663008 -2.5 0 -2.5 
C -0.663008 -2.5 -1.29895 -2.236584 -1.767767 -1.767767 
C -2.236584 -1.29895 -2.5 -0.663008 -2.5 0 
C -2.5 0.663008 -2.236584 1.29895 -1.767767 1.767767 
C -1.29895 2.236584 -0.663008 2.5 0 2.5 
z
" id="C3_0_867aa3c012"/>
    </defs>
    <g clip-path="url(#pd4cb86556e)">
     <use style="fill:#404040;" x="370.08" xlink:href="#C3_0_867aa3c012" y="293.708992"/>
    </g>
    <g clip-path="url(#pd4cb86556e)">
     <use style="fill:#404040;" x="370.08" xlink:href="#C3_0_867aa3c012" y="293.708992"/>
    </g>
    <g clip-path="url(#pd4cb86556e)">
     <use style="fill:#404040;" x="364.846908" xlink:href="#C3_0_867aa3c012" y="293.708992"/>
    </g>
    <g clip-path="url(#pd4cb86556e)">
     <use style="fill:#404040;" x="370.08" xlink:href="#C3_0_867aa3c012" y="293.708992"/>
    </g>
    <g clip-path="url(#pd4cb86556e)">
     <use style="fill:#404040;" x="370.08" xlink:href="#C3_0_867aa3c012" y="293.708992"/>
    </g>
    <g clip-path="url(#pd4cb86556e)">
     <use style="fill:#404040;" x="370.08" xlink:href="#C3_0_867aa3c012" y="293.708992"/>
    </g>
    <g clip-path="url(#pd4cb86556e)">
     <use style="fill:#404040;" x="370.08" xlink:href="#C3_0_867aa3c012" y="293.708992"/>
    </g>
    <g clip-path="url(#pd4cb86556e)">
     <use style="fill:#404040;" x="370.08" xlink:href="#C3_0_867aa3c012" y="293.708992"/>
    </g>
   </g>
   <g id="PathCollection_5">
    <defs>
     <path d="M 0 2.5 
C 0.663008 2.5 1.29895 2.236584 1.767767 1.767767 
C 2.236584 1.29895 2.5 0.663008 2.5 0 
C 2.5 -0.663008 2.236584 -1.29895 1.767767 -1.767767 
C 1.29895 -2.236584 0.663008 -2.5 0 -2.5 
C -0.663008 -2.5 -1.29895 -2.236584 -1.767767 -1.767767 
C -2.236584 -1.29895 -2.5 -0.663008 -2.5 0 
C -2.5 0.663008 -2.236584 1.29895 -1.767767 1.767767 
C -1.29895 2.236584 -0.663008 2.5 0 2.5 
z
" id="C4_0_ee10faeeb0"/>
    </defs>
    <g clip-path="url(#pd4cb86556e)">
     <use style="fill:#404040;" x="102.24" xlink:href="#C4_0_ee10faeeb0" y="293.706576"/>
    </g>
    <g clip-path="url(#pd4cb86556e)">
     <use style="fill:#404040;" x="96.990001" xlink:href="#C4_0_ee10faeeb0" y="293.70439"/>
    </g>
    <g clip-path="url(#pd4cb86556e)">
     <use style="fill:#404040;" x="107.489999" xlink:href="#C4_0_ee10faeeb0" y="293.703493"/>
    </g>
    <g clip-path="url(#pd4cb86556e)">
     <use style="fill:#404040;" x="91.7404" xlink:href="#C4_0_ee10faeeb0" y="293.642718"/>
    </g>
    <g clip-path="url(#pd4cb86556e)">
     <use style="fill:#404040;" x="112.73832" xlink:href="#C4_0_ee10faeeb0" y="293.577055"/>
    </g>
    <g clip-path="url(#pd4cb86556e)">
     <use style="fill:#404040;" x="117.988297" xlink:href="#C4_0_ee10faeeb0" y="293.562093"/>
    </g>
    <g clip-path="url(#pd4cb86556e)">
     <use style="fill:#404040;" x="86.491598" xlink:href="#C4_0_ee10faeeb0" y="293.535909"/>
    </g>
    <g clip-path="url(#pd4cb86556e)">
     <use style="fill:#404040;" x="123.238137" xlink:href="#C4_0_ee10faeeb0" y="293.523082"/>
    </g>
    <g clip-path="url(#pd4cb86556e)">
     <use style="fill:#404040;" x="81.241886" xlink:href="#C4_0_ee10faeeb0" y="293.483539"/>
    </g>
    <g clip-path="url(#pd4cb86556e)">
     <use style="fill:#404040;" x="128.484308" xlink:href="#C4_0_ee10faeeb0" y="293.332146"/>
    </g>
    <g clip-path="url(#pd4cb86556e)">
     <use style="fill:#404040;" x="76.000146" xlink:href="#C4_0_ee10faeeb0" y="293.20317"/>
    </g>
    <g clip-path="url(#pd4cb86556e)">
     <use style="fill:#404040;" x="70.750148" xlink:href="#C4_0_ee10faeeb0" y="293.199243"/>
    </g>
    <g clip-path="url(#pd4cb86556e)">
     <use style="fill:#404040;" x="133.73191" xlink:href="#C4_0_ee10faeeb0" y="293.181066"/>
    </g>
    <g clip-path="url(#pd4cb86556e)">
     <use style="fill:#404040;" x="66.528" xlink:href="#C4_0_ee10faeeb0" y="292.976421"/>
    </g>
    <g clip-path="url(#pd4cb86556e)">
     <use style="fill:#404040;" x="137.952" xlink:href="#C4_0_ee10faeeb0" y="292.937117"/>
    </g>
    <g clip-path="url(#pd4cb86556e)">
     <use style="fill:#404040;" x="66.528" xlink:href="#C4_0_ee10faeeb0" y="292.325285"/>
    </g>
    <g clip-path="url(#pd4cb86556e)">
     <use style="fill:#404040;" x="137.952" xlink:href="#C4_0_ee10faeeb0" y="292.274806"/>
    </g>
    <g clip-path="url(#pd4cb86556e)">
     <use style="fill:#404040;" x="66.528" xlink:href="#C4_0_ee10faeeb0" y="291.926084"/>
    </g>
    <g clip-path="url(#pd4cb86556e)">
     <use style="fill:#404040;" x="137.952" xlink:href="#C4_0_ee10faeeb0" y="291.757299"/>
    </g>
    <g clip-path="url(#pd4cb86556e)">
     <use style="fill:#404040;" x="66.528" xlink:href="#C4_0_ee10faeeb0" y="290.986375"/>
    </g>
    <g clip-path="url(#pd4cb86556e)">
     <use style="fill:#404040;" x="137.952" xlink:href="#C4_0_ee10faeeb0" y="290.865624"/>
    </g>
    <g clip-path="url(#pd4cb86556e)">
     <use style="fill:#404040;" x="66.528" xlink:href="#C4_0_ee10faeeb0" y="290.110515"/>
    </g>
    <g clip-path="url(#pd4cb86556e)">
     <use style="fill:#404040;" x="100.209658" xlink:href="#C4_0_ee10faeeb0" y="289.095615"/>
    </g>
    <g clip-path="url(#pd4cb86556e)">
     <use style="fill:#404040;" x="104.485347" xlink:href="#C4_0_ee10faeeb0" y="286.194213"/>
    </g>
    <g clip-path="url(#pd4cb86556e)">
     <use style="fill:#404040;" x="100.138676" xlink:href="#C4_0_ee10faeeb0" y="283.39011"/>
    </g>
    <g clip-path="url(#pd4cb86556e)">
     <use style="fill:#404040;" x="107.588341" xlink:href="#C4_0_ee10faeeb0" y="282.161026"/>
    </g>
    <g clip-path="url(#pd4cb86556e)">
     <use style="fill:#404040;" x="95.83299" xlink:href="#C4_0_ee10faeeb0" y="280.529228"/>
    </g>
    <g clip-path="url(#pd4cb86556e)">
     <use style="fill:#404040;" x="112.478817" xlink:href="#C4_0_ee10faeeb0" y="280.342565"/>
    </g>
    <g clip-path="url(#pd4cb86556e)">
     <use style="fill:#404040;" x="102.24" xlink:href="#C4_0_ee10faeeb0" y="277.376538"/>
    </g>
    <g clip-path="url(#pd4cb86556e)">
     <use style="fill:#404040;" x="107.475308" xlink:href="#C4_0_ee10faeeb0" y="277.002731"/>
    </g>
    <g clip-path="url(#pd4cb86556e)">
     <use style="fill:#404040;" x="97.686028" xlink:href="#C4_0_ee10faeeb0" y="274.888682"/>
    </g>
    <g clip-path="url(#pd4cb86556e)">
     <use style="fill:#404040;" x="111.471244" xlink:href="#C4_0_ee10faeeb0" y="273.759739"/>
    </g>
    <g clip-path="url(#pd4cb86556e)">
     <use style="fill:#404040;" x="102.24" xlink:href="#C4_0_ee10faeeb0" y="272.059951"/>
    </g>
    <g clip-path="url(#pd4cb86556e)">
     <use style="fill:#404040;" x="107.196559" xlink:href="#C4_0_ee10faeeb0" y="270.411748"/>
    </g>
    <g clip-path="url(#pd4cb86556e)">
     <use style="fill:#404040;" x="98.079978" xlink:href="#C4_0_ee10faeeb0" y="269.009846"/>
    </g>
    <g clip-path="url(#pd4cb86556e)">
     <use style="fill:#404040;" x="92.830164" xlink:href="#C4_0_ee10faeeb0" y="268.967726"/>
    </g>
    <g clip-path="url(#pd4cb86556e)">
     <use style="fill:#404040;" x="111.439549" xlink:href="#C4_0_ee10faeeb0" y="267.467129"/>
    </g>
    <g clip-path="url(#pd4cb86556e)">
     <use style="fill:#404040;" x="102.24" xlink:href="#C4_0_ee10faeeb0" y="266.209205"/>
    </g>
    <g clip-path="url(#pd4cb86556e)">
     <use style="fill:#404040;" x="88.558772" xlink:href="#C4_0_ee10faeeb0" y="266.060591"/>
    </g>
    <g clip-path="url(#pd4cb86556e)">
     <use style="fill:#404040;" x="106.919448" xlink:href="#C4_0_ee10faeeb0" y="263.942366"/>
    </g>
    <g clip-path="url(#pd4cb86556e)">
     <use style="fill:#404040;" x="100.341637" xlink:href="#C4_0_ee10faeeb0" y="261.547525"/>
    </g>
    <g clip-path="url(#pd4cb86556e)">
     <use style="fill:#404040;" x="95.137898" xlink:href="#C4_0_ee10faeeb0" y="260.885231"/>
    </g>
    <g clip-path="url(#pd4cb86556e)">
     <use style="fill:#404040;" x="104.958093" xlink:href="#C4_0_ee10faeeb0" y="259.166413"/>
    </g>
    <g clip-path="url(#pd4cb86556e)">
     <use style="fill:#404040;" x="110.207872" xlink:href="#C4_0_ee10faeeb0" y="259.120497"/>
    </g>
    <g clip-path="url(#pd4cb86556e)">
     <use style="fill:#404040;" x="90.403678" xlink:href="#C4_0_ee10faeeb0" y="258.724004"/>
    </g>
    <g clip-path="url(#pd4cb86556e)">
     <use style="fill:#404040;" x="101.858316" xlink:href="#C4_0_ee10faeeb0" y="255.130983"/>
    </g>
    <g clip-path="url(#pd4cb86556e)">
     <use style="fill:#404040;" x="107.46809" xlink:href="#C4_0_ee10faeeb0" y="254.774872"/>
    </g>
    <g clip-path="url(#pd4cb86556e)">
     <use style="fill:#404040;" x="96.640846" xlink:href="#C4_0_ee10faeeb0" y="254.575236"/>
    </g>
    <g clip-path="url(#pd4cb86556e)">
     <use style="fill:#404040;" x="111.485122" xlink:href="#C4_0_ee10faeeb0" y="251.555605"/>
    </g>
    <g clip-path="url(#pd4cb86556e)">
     <use style="fill:#404040;" x="102.24" xlink:href="#C4_0_ee10faeeb0" y="247.109148"/>
    </g>
    <g clip-path="url(#pd4cb86556e)">
     <use style="fill:#404040;" x="97.467917" xlink:href="#C4_0_ee10faeeb0" y="245.024821"/>
    </g>
    <g clip-path="url(#pd4cb86556e)">
     <use style="fill:#404040;" x="102.24" xlink:href="#C4_0_ee10faeeb0" y="238.856232"/>
    </g>
    <g clip-path="url(#pd4cb86556e)">
     <use style="fill:#404040;" x="102.24" xlink:href="#C4_0_ee10faeeb0" y="229.444113"/>
    </g>
    <g clip-path="url(#pd4cb86556e)">
     <use style="fill:#404040;" x="102.24" xlink:href="#C4_0_ee10faeeb0" y="220.10908"/>
    </g>
    <g clip-path="url(#pd4cb86556e)">
     <use style="fill:#404040;" x="98.637145" xlink:href="#C4_0_ee10faeeb0" y="216.47229"/>
    </g>
    <g clip-path="url(#pd4cb86556e)">
     <use style="fill:#404040;" x="104.343656" xlink:href="#C4_0_ee10faeeb0" y="215.528026"/>
    </g>
    <g clip-path="url(#pd4cb86556e)">
     <use style="fill:#404040;" x="100.814725" xlink:href="#C4_0_ee10faeeb0" y="211.826075"/>
    </g>
    <g clip-path="url(#pd4cb86556e)">
     <use style="fill:#404040;" x="102.24" xlink:href="#C4_0_ee10faeeb0" y="204.606721"/>
    </g>
    <g clip-path="url(#pd4cb86556e)">
     <use style="fill:#404040;" x="102.24" xlink:href="#C4_0_ee10faeeb0" y="199.247608"/>
    </g>
    <g clip-path="url(#pd4cb86556e)">
     <use style="fill:#404040;" x="102.24" xlink:href="#C4_0_ee10faeeb0" y="186.590805"/>
    </g>
    <g clip-path="url(#pd4cb86556e)">
     <use style="fill:#404040;" x="97.02895" xlink:href="#C4_0_ee10faeeb0" y="185.982877"/>
    </g>
    <g clip-path="url(#pd4cb86556e)">
     <use style="fill:#404040;" x="105.684667" xlink:href="#C4_0_ee10faeeb0" y="182.817553"/>
    </g>
    <g clip-path="url(#pd4cb86556e)">
     <use style="fill:#404040;" x="101.289772" xlink:href="#C4_0_ee10faeeb0" y="180.082478"/>
    </g>
    <g clip-path="url(#pd4cb86556e)">
     <use style="fill:#404040;" x="96.083528" xlink:href="#C4_0_ee10faeeb0" y="179.438281"/>
    </g>
    <g clip-path="url(#pd4cb86556e)">
     <use style="fill:#404040;" x="105.837963" xlink:href="#C4_0_ee10faeeb0" y="177.585049"/>
    </g>
    <g clip-path="url(#pd4cb86556e)">
     <use style="fill:#404040;" x="102.24" xlink:href="#C4_0_ee10faeeb0" y="144.623093"/>
    </g>
   </g>
   <g id="PathCollection_6">
    <defs>
     <path d="M 0 2.5 
C 0.663008 2.5 1.29895 2.236584 1.767767 1.767767 
C 2.236584 1.29895 2.5 0.663008 2.5 0 
C 2.5 -0.663008 2.236584 -1.29895 1.767767 -1.767767 
C 1.29895 -2.236584 0.663008 -2.5 0 -2.5 
C -0.663008 -2.5 -1.29895 -2.236584 -1.767767 -1.767767 
C -2.236584 -1.29895 -2.5 -0.663008 -2.5 0 
C -2.5 0.663008 -2.236584 1.29895 -1.767767 1.767767 
C -1.29895 2.236584 -0.663008 2.5 0 2.5 
z
" id="C5_0_092d91b762"/>
    </defs>
    <g clip-path="url(#pd4cb86556e)">
     <use style="fill:#404040;" x="191.52" xlink:href="#C5_0_092d91b762" y="293.70462"/>
    </g>
    <g clip-path="url(#pd4cb86556e)">
     <use style="fill:#404040;" x="186.323123" xlink:href="#C5_0_092d91b762" y="292.995128"/>
    </g>
    <g clip-path="url(#pd4cb86556e)">
     <use style="fill:#404040;" x="196.231554" xlink:href="#C5_0_092d91b762" y="291.498926"/>
    </g>
    <g clip-path="url(#pd4cb86556e)">
     <use style="fill:#404040;" x="182.713067" xlink:href="#C5_0_092d91b762" y="289.364821"/>
    </g>
    <g clip-path="url(#pd4cb86556e)">
     <use style="fill:#404040;" x="191.52" xlink:href="#C5_0_092d91b762" y="282.582178"/>
    </g>
    <g clip-path="url(#pd4cb86556e)">
     <use style="fill:#404040;" x="191.52" xlink:href="#C5_0_092d91b762" y="275.699607"/>
    </g>
    <g clip-path="url(#pd4cb86556e)">
     <use style="fill:#404040;" x="186.40582" xlink:href="#C5_0_092d91b762" y="274.569654"/>
    </g>
    <g clip-path="url(#pd4cb86556e)">
     <use style="fill:#404040;" x="196.456143" xlink:href="#C5_0_092d91b762" y="273.996737"/>
    </g>
    <g clip-path="url(#pd4cb86556e)">
     <use style="fill:#404040;" x="182.260424" xlink:href="#C5_0_092d91b762" y="271.50154"/>
    </g>
    <g clip-path="url(#pd4cb86556e)">
     <use style="fill:#404040;" x="191.52" xlink:href="#C5_0_092d91b762" y="270.690094"/>
    </g>
    <g clip-path="url(#pd4cb86556e)">
     <use style="fill:#404040;" x="197.062302" xlink:href="#C5_0_092d91b762" y="269.030176"/>
    </g>
    <g clip-path="url(#pd4cb86556e)">
     <use style="fill:#404040;" x="186.721335" xlink:href="#C5_0_092d91b762" y="268.661876"/>
    </g>
    <g clip-path="url(#pd4cb86556e)">
     <use style="fill:#404040;" x="202.096113" xlink:href="#C5_0_092d91b762" y="267.610123"/>
    </g>
    <g clip-path="url(#pd4cb86556e)">
     <use style="fill:#404040;" x="191.52" xlink:href="#C5_0_092d91b762" y="265.445255"/>
    </g>
    <g clip-path="url(#pd4cb86556e)">
     <use style="fill:#404040;" x="196.441309" xlink:href="#C5_0_092d91b762" y="263.703878"/>
    </g>
    <g clip-path="url(#pd4cb86556e)">
     <use style="fill:#404040;" x="191.52" xlink:href="#C5_0_092d91b762" y="259.018847"/>
    </g>
    <g clip-path="url(#pd4cb86556e)">
     <use style="fill:#404040;" x="186.270027" xlink:href="#C5_0_092d91b762" y="259.002943"/>
    </g>
    <g clip-path="url(#pd4cb86556e)">
     <use style="fill:#404040;" x="194.853263" xlink:href="#C5_0_092d91b762" y="255.155906"/>
    </g>
    <g clip-path="url(#pd4cb86556e)">
     <use style="fill:#404040;" x="189.882127" xlink:href="#C5_0_092d91b762" y="253.548017"/>
    </g>
    <g clip-path="url(#pd4cb86556e)">
     <use style="fill:#404040;" x="196.13354" xlink:href="#C5_0_092d91b762" y="250.306856"/>
    </g>
    <g clip-path="url(#pd4cb86556e)">
     <use style="fill:#404040;" x="191.52" xlink:href="#C5_0_092d91b762" y="246.815338"/>
    </g>
    <g clip-path="url(#pd4cb86556e)">
     <use style="fill:#404040;" x="186.853317" xlink:href="#C5_0_092d91b762" y="244.524755"/>
    </g>
    <g clip-path="url(#pd4cb86556e)">
     <use style="fill:#404040;" x="195.631251" xlink:href="#C5_0_092d91b762" y="243.70583"/>
    </g>
    <g clip-path="url(#pd4cb86556e)">
     <use style="fill:#404040;" x="200.872949" xlink:href="#C5_0_092d91b762" y="243.424743"/>
    </g>
    <g clip-path="url(#pd4cb86556e)">
     <use style="fill:#404040;" x="181.73367" xlink:href="#C5_0_092d91b762" y="243.417481"/>
    </g>
    <g clip-path="url(#pd4cb86556e)">
     <use style="fill:#404040;" x="191.52" xlink:href="#C5_0_092d91b762" y="238.227678"/>
    </g>
    <g clip-path="url(#pd4cb86556e)">
     <use style="fill:#404040;" x="186.361368" xlink:href="#C5_0_092d91b762" y="237.298915"/>
    </g>
    <g clip-path="url(#pd4cb86556e)">
     <use style="fill:#404040;" x="196.194048" xlink:href="#C5_0_092d91b762" y="235.950755"/>
    </g>
    <g clip-path="url(#pd4cb86556e)">
     <use style="fill:#404040;" x="191.52" xlink:href="#C5_0_092d91b762" y="231.777813"/>
    </g>
    <g clip-path="url(#pd4cb86556e)">
     <use style="fill:#404040;" x="186.659311" xlink:href="#C5_0_092d91b762" y="229.888303"/>
    </g>
    <g clip-path="url(#pd4cb86556e)">
     <use style="fill:#404040;" x="196.045679" xlink:href="#C5_0_092d91b762" y="229.243562"/>
    </g>
    <g clip-path="url(#pd4cb86556e)">
     <use style="fill:#404040;" x="201.214441" xlink:href="#C5_0_092d91b762" y="228.367373"/>
    </g>
    <g clip-path="url(#pd4cb86556e)">
     <use style="fill:#404040;" x="191.52" xlink:href="#C5_0_092d91b762" y="222.588121"/>
    </g>
    <g clip-path="url(#pd4cb86556e)">
     <use style="fill:#404040;" x="186.921775" xlink:href="#C5_0_092d91b762" y="220.175225"/>
    </g>
    <g clip-path="url(#pd4cb86556e)">
     <use style="fill:#404040;" x="191.52" xlink:href="#C5_0_092d91b762" y="204.176938"/>
    </g>
    <g clip-path="url(#pd4cb86556e)">
     <use style="fill:#404040;" x="186.286303" xlink:href="#C5_0_092d91b762" y="203.783201"/>
    </g>
    <g clip-path="url(#pd4cb86556e)">
     <use style="fill:#404040;" x="196.321663" xlink:href="#C5_0_092d91b762" y="202.155168"/>
    </g>
    <g clip-path="url(#pd4cb86556e)">
     <use style="fill:#404040;" x="181.53709" xlink:href="#C5_0_092d91b762" y="201.652022"/>
    </g>
    <g clip-path="url(#pd4cb86556e)">
     <use style="fill:#404040;" x="191.52" xlink:href="#C5_0_092d91b762" y="192.288034"/>
    </g>
    <g clip-path="url(#pd4cb86556e)">
     <use style="fill:#404040;" x="186.70789" xlink:href="#C5_0_092d91b762" y="190.288918"/>
    </g>
    <g clip-path="url(#pd4cb86556e)">
     <use style="fill:#404040;" x="196.027799" xlink:href="#C5_0_092d91b762" y="189.725042"/>
    </g>
    <g clip-path="url(#pd4cb86556e)">
     <use style="fill:#404040;" x="191.52" xlink:href="#C5_0_092d91b762" y="176.281971"/>
    </g>
    <g clip-path="url(#pd4cb86556e)">
     <use style="fill:#404040;" x="186.292427" xlink:href="#C5_0_092d91b762" y="175.820304"/>
    </g>
    <g clip-path="url(#pd4cb86556e)">
     <use style="fill:#404040;" x="196.394531" xlink:href="#C5_0_092d91b762" y="174.425086"/>
    </g>
    <g clip-path="url(#pd4cb86556e)">
     <use style="fill:#404040;" x="191.52" xlink:href="#C5_0_092d91b762" y="171.095326"/>
    </g>
    <g clip-path="url(#pd4cb86556e)">
     <use style="fill:#404040;" x="184.597593" xlink:href="#C5_0_092d91b762" y="171.088011"/>
    </g>
    <g clip-path="url(#pd4cb86556e)">
     <use style="fill:#404040;" x="191.52" xlink:href="#C5_0_092d91b762" y="119.34428"/>
    </g>
    <g clip-path="url(#pd4cb86556e)">
     <use style="fill:#404040;" x="191.52" xlink:href="#C5_0_092d91b762" y="83.935238"/>
    </g>
    <g clip-path="url(#pd4cb86556e)">
     <use style="fill:#404040;" x="191.52" xlink:href="#C5_0_092d91b762" y="54.874991"/>
    </g>
   </g>
   <g id="PathCollection_7">
    <defs>
     <path d="M 0 2.5 
C 0.663008 2.5 1.29895 2.236584 1.767767 1.767767 
C 2.236584 1.29895 2.5 0.663008 2.5 0 
C 2.5 -0.663008 2.236584 -1.29895 1.767767 -1.767767 
C 1.29895 -2.236584 0.663008 -2.5 0 -2.5 
C -0.663008 -2.5 -1.29895 -2.236584 -1.767767 -1.767767 
C -2.236584 -1.29895 -2.5 -0.663008 -2.5 0 
C -2.5 0.663008 -2.236584 1.29895 -1.767767 1.767767 
C -1.29895 2.236584 -0.663008 2.5 0 2.5 
z
" id="C6_0_3c34d14529"/>
    </defs>
    <g clip-path="url(#pd4cb86556e)">
     <use style="fill:#404040;" x="280.8" xlink:href="#C6_0_3c34d14529" y="293.691545"/>
    </g>
    <g clip-path="url(#pd4cb86556e)">
     <use style="fill:#404040;" x="275.551539" xlink:href="#C6_0_3c34d14529" y="293.570492"/>
    </g>
    <g clip-path="url(#pd4cb86556e)">
     <use style="fill:#404040;" x="285.400775" xlink:href="#C6_0_3c34d14529" y="291.283061"/>
    </g>
    <g clip-path="url(#pd4cb86556e)">
     <use style="fill:#404040;" x="271.955816" xlink:href="#C6_0_3c34d14529" y="289.927305"/>
    </g>
    <g clip-path="url(#pd4cb86556e)">
     <use style="fill:#404040;" x="278.433255" xlink:href="#C6_0_3c34d14529" y="289.228441"/>
    </g>
    <g clip-path="url(#pd4cb86556e)">
     <use style="fill:#404040;" x="280.8" xlink:href="#C6_0_3c34d14529" y="280.710221"/>
    </g>
    <g clip-path="url(#pd4cb86556e)">
     <use style="fill:#404040;" x="279.38201" xlink:href="#C6_0_3c34d14529" y="275.89605"/>
    </g>
    <g clip-path="url(#pd4cb86556e)">
     <use style="fill:#404040;" x="280.8" xlink:href="#C6_0_3c34d14529" y="266.002055"/>
    </g>
    <g clip-path="url(#pd4cb86556e)">
     <use style="fill:#404040;" x="280.8" xlink:href="#C6_0_3c34d14529" y="258.855"/>
    </g>
    <g clip-path="url(#pd4cb86556e)">
     <use style="fill:#404040;" x="275.596906" xlink:href="#C6_0_3c34d14529" y="258.188122"/>
    </g>
    <g clip-path="url(#pd4cb86556e)">
     <use style="fill:#404040;" x="285.996423" xlink:href="#C6_0_3c34d14529" y="258.142504"/>
    </g>
    <g clip-path="url(#pd4cb86556e)">
     <use style="fill:#404040;" x="271.112763" xlink:href="#C6_0_3c34d14529" y="255.587762"/>
    </g>
    <g clip-path="url(#pd4cb86556e)">
     <use style="fill:#404040;" x="280.217194" xlink:href="#C6_0_3c34d14529" y="253.885904"/>
    </g>
   </g>
   <g id="PathCollection_8">
    <defs>
     <path d="M 0 2.5 
C 0.663008 2.5 1.29895 2.236584 1.767767 1.767767 
C 2.236584 1.29895 2.5 0.663008 2.5 0 
C 2.5 -0.663008 2.236584 -1.29895 1.767767 -1.767767 
C 1.29895 -2.236584 0.663008 -2.5 0 -2.5 
C -0.663008 -2.5 -1.29895 -2.236584 -1.767767 -1.767767 
C -2.236584 -1.29895 -2.5 -0.663008 -2.5 0 
C -2.5 0.663008 -2.236584 1.29895 -1.767767 1.767767 
C -1.29895 2.236584 -0.663008 2.5 0 2.5 
z
" id="C7_0_c9efb7abb5"/>
    </defs>
    <g clip-path="url(#pd4cb86556e)">
     <use style="fill:#404040;" x="370.08" xlink:href="#C7_0_c9efb7abb5" y="292.843635"/>
    </g>
    <g clip-path="url(#pd4cb86556e)">
     <use style="fill:#404040;" x="365.010881" xlink:href="#C7_0_c9efb7abb5" y="291.542481"/>
    </g>
    <g clip-path="url(#pd4cb86556e)">
     <use style="fill:#404040;" x="370.08" xlink:href="#C7_0_c9efb7abb5" y="285.555949"/>
    </g>
    <g clip-path="url(#pd4cb86556e)">
     <use style="fill:#404040;" x="370.08" xlink:href="#C7_0_c9efb7abb5" y="268.603905"/>
    </g>
    <g clip-path="url(#pd4cb86556e)">
     <use style="fill:#404040;" x="365.370684" xlink:href="#C7_0_c9efb7abb5" y="266.393879"/>
    </g>
    <g clip-path="url(#pd4cb86556e)">
     <use style="fill:#404040;" x="373.013058" xlink:href="#C7_0_c9efb7abb5" y="264.45698"/>
    </g>
    <g clip-path="url(#pd4cb86556e)">
     <use style="fill:#404040;" x="370.08" xlink:href="#C7_0_c9efb7abb5" y="251.449026"/>
    </g>
    <g clip-path="url(#pd4cb86556e)">
     <use style="fill:#404040;" x="370.08" xlink:href="#C7_0_c9efb7abb5" y="234.093379"/>
    </g>
   </g>
  </g>
 </g>
 <defs>
  <clipPath id="pd4cb86556e">
   <rect height="266.112" width="357.12" x="57.6" y="41.472"/>
  </clipPath>
 </defs>
</svg>
