<?xml version="1.0" encoding="utf-8" standalone="no"?>
<!DOCTYPE svg PUBLIC "-//W3C//DTD SVG 1.1//EN"
  "http://www.w3.org/Graphics/SVG/1.1/DTD/svg11.dtd">
<!-- Created with matplotlib (https://matplotlib.org/) -->
<svg height="345.6pt" version="1.1" viewBox="0 0 460.8 345.6" width="460.8pt" xmlns="http://www.w3.org/2000/svg" xmlns:xlink="http://www.w3.org/1999/xlink">
 <defs>
  <style type="text/css">
*{stroke-linecap:butt;stroke-linejoin:round;}
  </style>
 </defs>
 <g id="figure_1">
  <g id="patch_1">
   <path d="M 0 345.6 
L 460.8 345.6 
L 460.8 0 
L 0 0 
z
" style="fill:#ffffff;"/>
  </g>
  <g id="axes_1">
   <g id="patch_2">
    <path d="M 57.6 307.584 
L 414.72 307.584 
L 414.72 41.472 
L 57.6 41.472 
z
" style="fill:#eaeaf2;"/>
   </g>
   <g id="matplotlib.axis_1">
    <g id="xtick_1">
     <g id="text_1">
      <text style="fill:#262626;font-family:DejaVu Sans;font-size:10px;font-style:normal;font-weight:normal;text-anchor:middle;" transform="rotate(-0, 146.88, 322.182437)" x="146.88" y="322.182437">saponin 5%</text>
     </g>
    </g>
    <g id="xtick_2">
     <g id="text_2">
      <text style="fill:#262626;font-family:DejaVu Sans;font-size:10px;font-style:normal;font-weight:normal;text-anchor:middle;" transform="rotate(-0, 325.44, 322.182437)" x="325.44" y="322.182437">filter 5μM</text>
     </g>
    </g>
    <g id="text_3">
     <text style="fill:#262626;font-family:DejaVu Sans;font-size:10px;font-style:normal;font-weight:normal;text-anchor:middle;" transform="rotate(-0, 236.16, 335.860562)" x="236.16" y="335.860562">Human depletion method</text>
    </g>
   </g>
   <g id="matplotlib.axis_2">
    <g id="ytick_1">
     <g id="line2d_1">
      <path clip-path="url(#p3696028e33)" d="M 57.6 293.740787 
L 414.72 293.740787 
" style="fill:none;stroke:#ffffff;stroke-linecap:round;stroke-width:0.8;"/>
     </g>
     <g id="text_4">
      <text style="fill:#262626;font-family:DejaVu Sans;font-size:10px;font-style:normal;font-weight:normal;text-anchor:end;" transform="rotate(-0, 50.6, 297.540006)" x="50.6" y="297.540006">0.0</text>
     </g>
    </g>
    <g id="ytick_2">
     <g id="line2d_2">
      <path clip-path="url(#p3696028e33)" d="M 57.6 248.577597 
L 414.72 248.577597 
" style="fill:none;stroke:#ffffff;stroke-linecap:round;stroke-width:0.8;"/>
     </g>
     <g id="text_5">
      <text style="fill:#262626;font-family:DejaVu Sans;font-size:10px;font-style:normal;font-weight:normal;text-anchor:end;" transform="rotate(-0, 50.6, 252.376816)" x="50.6" y="252.376816">0.2</text>
     </g>
    </g>
    <g id="ytick_3">
     <g id="line2d_3">
      <path clip-path="url(#p3696028e33)" d="M 57.6 203.414407 
L 414.72 203.414407 
" style="fill:none;stroke:#ffffff;stroke-linecap:round;stroke-width:0.8;"/>
     </g>
     <g id="text_6">
      <text style="fill:#262626;font-family:DejaVu Sans;font-size:10px;font-style:normal;font-weight:normal;text-anchor:end;" transform="rotate(-0, 50.6, 207.213626)" x="50.6" y="207.213626">0.4</text>
     </g>
    </g>
    <g id="ytick_4">
     <g id="line2d_4">
      <path clip-path="url(#p3696028e33)" d="M 57.6 158.251217 
L 414.72 158.251217 
" style="fill:none;stroke:#ffffff;stroke-linecap:round;stroke-width:0.8;"/>
     </g>
     <g id="text_7">
      <text style="fill:#262626;font-family:DejaVu Sans;font-size:10px;font-style:normal;font-weight:normal;text-anchor:end;" transform="rotate(-0, 50.6, 162.050436)" x="50.6" y="162.050436">0.6</text>
     </g>
    </g>
    <g id="ytick_5">
     <g id="line2d_5">
      <path clip-path="url(#p3696028e33)" d="M 57.6 113.088027 
L 414.72 113.088027 
" style="fill:none;stroke:#ffffff;stroke-linecap:round;stroke-width:0.8;"/>
     </g>
     <g id="text_8">
      <text style="fill:#262626;font-family:DejaVu Sans;font-size:10px;font-style:normal;font-weight:normal;text-anchor:end;" transform="rotate(-0, 50.6, 116.887246)" x="50.6" y="116.887246">0.8</text>
     </g>
    </g>
    <g id="ytick_6">
     <g id="line2d_6">
      <path clip-path="url(#p3696028e33)" d="M 57.6 67.924837 
L 414.72 67.924837 
" style="fill:none;stroke:#ffffff;stroke-linecap:round;stroke-width:0.8;"/>
     </g>
     <g id="text_9">
      <text style="fill:#262626;font-family:DejaVu Sans;font-size:10px;font-style:normal;font-weight:normal;text-anchor:end;" transform="rotate(-0, 50.6, 71.724056)" x="50.6" y="71.724056">1.0</text>
     </g>
    </g>
    <g id="text_10">
     <text style="fill:#262626;font-family:DejaVu Sans;font-size:10px;font-style:normal;font-weight:normal;text-anchor:middle;" transform="rotate(-90, 28.617188, 174.528)" x="28.617188" y="174.528">Proportion of bases classified as bacteria</text>
    </g>
   </g>
   <g id="patch_3">
    <path clip-path="url(#p3696028e33)" d="M 75.456 224.375798 
L 218.304 224.375798 
L 218.304 72.309697 
L 75.456 72.309697 
L 75.456 224.375798 
z
" style="fill:#3274a1;stroke:#3f3f3f;stroke-linejoin:miter;stroke-width:1.5;"/>
   </g>
   <g id="patch_4">
    <path clip-path="url(#p3696028e33)" d="M 254.016 293.231697 
L 396.864 293.231697 
L 396.864 265.669305 
L 254.016 265.669305 
L 254.016 293.231697 
z
" style="fill:#e1812c;stroke:#3f3f3f;stroke-linejoin:miter;stroke-width:1.5;"/>
   </g>
   <g id="line2d_7">
    <path clip-path="url(#p3696028e33)" d="M 146.88 224.375798 
L 146.88 293.49872 
" style="fill:none;stroke:#3f3f3f;stroke-linecap:round;stroke-width:1.5;"/>
   </g>
   <g id="line2d_8">
    <path clip-path="url(#p3696028e33)" d="M 146.88 72.309697 
L 146.88 55.341424 
" style="fill:none;stroke:#3f3f3f;stroke-linecap:round;stroke-width:1.5;"/>
   </g>
   <g id="line2d_9">
    <path clip-path="url(#p3696028e33)" d="M 111.168 293.49872 
L 182.592 293.49872 
" style="fill:none;stroke:#3f3f3f;stroke-linecap:round;stroke-width:1.5;"/>
   </g>
   <g id="line2d_10">
    <path clip-path="url(#p3696028e33)" d="M 111.168 55.341424 
L 182.592 55.341424 
" style="fill:none;stroke:#3f3f3f;stroke-linecap:round;stroke-width:1.5;"/>
   </g>
   <g id="line2d_11">
    <path clip-path="url(#p3696028e33)" d="M 325.44 293.231697 
L 325.44 293.689606 
" style="fill:none;stroke:#3f3f3f;stroke-linecap:round;stroke-width:1.5;"/>
   </g>
   <g id="line2d_12">
    <path clip-path="url(#p3696028e33)" d="M 325.44 265.669305 
L 325.44 225.098363 
" style="fill:none;stroke:#3f3f3f;stroke-linecap:round;stroke-width:1.5;"/>
   </g>
   <g id="line2d_13">
    <path clip-path="url(#p3696028e33)" d="M 289.728 293.689606 
L 361.152 293.689606 
" style="fill:none;stroke:#3f3f3f;stroke-linecap:round;stroke-width:1.5;"/>
   </g>
   <g id="line2d_14">
    <path clip-path="url(#p3696028e33)" d="M 289.728 225.098363 
L 361.152 225.098363 
" style="fill:none;stroke:#3f3f3f;stroke-linecap:round;stroke-width:1.5;"/>
   </g>
   <g id="line2d_15">
    <path clip-path="url(#p3696028e33)" d="M 75.456 110.542647 
L 218.304 110.542647 
" style="fill:none;stroke:#3f3f3f;stroke-linecap:round;stroke-width:1.5;"/>
   </g>
   <g id="line2d_16">
    <path clip-path="url(#p3696028e33)" d="M 254.016 290.254457 
L 396.864 290.254457 
" style="fill:none;stroke:#3f3f3f;stroke-linecap:round;stroke-width:1.5;"/>
   </g>
   <g id="patch_5">
    <path d="M 57.6 307.584 
L 57.6 41.472 
" style="fill:none;stroke:#ffffff;stroke-linecap:square;stroke-linejoin:miter;stroke-width:0.8;"/>
   </g>
   <g id="patch_6">
    <path d="M 414.72 307.584 
L 414.72 41.472 
" style="fill:none;stroke:#ffffff;stroke-linecap:square;stroke-linejoin:miter;stroke-width:0.8;"/>
   </g>
   <g id="patch_7">
    <path d="M 57.6 307.584 
L 414.72 307.584 
" style="fill:none;stroke:#ffffff;stroke-linecap:square;stroke-linejoin:miter;stroke-width:0.8;"/>
   </g>
   <g id="patch_8">
    <path d="M 57.6 41.472 
L 414.72 41.472 
" style="fill:none;stroke:#ffffff;stroke-linecap:square;stroke-linejoin:miter;stroke-width:0.8;"/>
   </g>
   <g id="PathCollection_1">
    <defs>
     <path d="M 0 2.5 
C 0.663008 2.5 1.29895 2.236584 1.767767 1.767767 
C 2.236584 1.29895 2.5 0.663008 2.5 0 
C 2.5 -0.663008 2.236584 -1.29895 1.767767 -1.767767 
C 1.29895 -2.236584 0.663008 -2.5 0 -2.5 
C -0.663008 -2.5 -1.29895 -2.236584 -1.767767 -1.767767 
C -2.236584 -1.29895 -2.5 -0.663008 -2.5 0 
C -2.5 0.663008 -2.236584 1.29895 -1.767767 1.767767 
C -1.29895 2.236584 -0.663008 2.5 0 2.5 
z
" id="C0_0_fb779db1a3"/>
    </defs>
    <g clip-path="url(#p3696028e33)">
     <use style="fill:#404040;" x="146.88" xlink:href="#C0_0_fb779db1a3" y="293.49872"/>
    </g>
    <g clip-path="url(#p3696028e33)">
     <use style="fill:#404040;" x="141.650497" xlink:href="#C0_0_fb779db1a3" y="293.057326"/>
    </g>
    <g clip-path="url(#p3696028e33)">
     <use style="fill:#404040;" x="150.029017" xlink:href="#C0_0_fb779db1a3" y="289.498017"/>
    </g>
    <g clip-path="url(#p3696028e33)">
     <use style="fill:#404040;" x="155.275144" xlink:href="#C0_0_fb779db1a3" y="289.305993"/>
    </g>
    <g clip-path="url(#p3696028e33)">
     <use style="fill:#404040;" x="138.187014" xlink:href="#C0_0_fb779db1a3" y="289.299729"/>
    </g>
    <g clip-path="url(#p3696028e33)">
     <use style="fill:#404040;" x="146.88" xlink:href="#C0_0_fb779db1a3" y="283.06722"/>
    </g>
    <g clip-path="url(#p3696028e33)">
     <use style="fill:#404040;" x="146.88" xlink:href="#C0_0_fb779db1a3" y="277.920222"/>
    </g>
    <g clip-path="url(#p3696028e33)">
     <use style="fill:#404040;" x="141.859278" xlink:href="#C0_0_fb779db1a3" y="276.458745"/>
    </g>
    <g clip-path="url(#p3696028e33)">
     <use style="fill:#404040;" x="146.88" xlink:href="#C0_0_fb779db1a3" y="270.679703"/>
    </g>
    <g clip-path="url(#p3696028e33)">
     <use style="fill:#404040;" x="141.924324" xlink:href="#C0_0_fb779db1a3" y="269.029092"/>
    </g>
    <g clip-path="url(#p3696028e33)">
     <use style="fill:#404040;" x="148.067101" xlink:href="#C0_0_fb779db1a3" y="265.809199"/>
    </g>
    <g clip-path="url(#p3696028e33)">
     <use style="fill:#404040;" x="146.88" xlink:href="#C0_0_fb779db1a3" y="239.5876"/>
    </g>
    <g clip-path="url(#p3696028e33)">
     <use style="fill:#404040;" x="146.88" xlink:href="#C0_0_fb779db1a3" y="224.375798"/>
    </g>
    <g clip-path="url(#p3696028e33)">
     <use style="fill:#404040;" x="146.88" xlink:href="#C0_0_fb779db1a3" y="192.269163"/>
    </g>
    <g clip-path="url(#p3696028e33)">
     <use style="fill:#404040;" x="146.88" xlink:href="#C0_0_fb779db1a3" y="184.444147"/>
    </g>
    <g clip-path="url(#p3696028e33)">
     <use style="fill:#404040;" x="146.88" xlink:href="#C0_0_fb779db1a3" y="172.561164"/>
    </g>
    <g clip-path="url(#p3696028e33)">
     <use style="fill:#404040;" x="146.88" xlink:href="#C0_0_fb779db1a3" y="163.995607"/>
    </g>
    <g clip-path="url(#p3696028e33)">
     <use style="fill:#404040;" x="141.642641" xlink:href="#C0_0_fb779db1a3" y="163.648837"/>
    </g>
    <g clip-path="url(#p3696028e33)">
     <use style="fill:#404040;" x="146.88" xlink:href="#C0_0_fb779db1a3" y="155.786634"/>
    </g>
    <g clip-path="url(#p3696028e33)">
     <use style="fill:#404040;" x="146.88" xlink:href="#C0_0_fb779db1a3" y="135.184293"/>
    </g>
    <g clip-path="url(#p3696028e33)">
     <use style="fill:#404040;" x="146.88" xlink:href="#C0_0_fb779db1a3" y="129.479817"/>
    </g>
    <g clip-path="url(#p3696028e33)">
     <use style="fill:#404040;" x="141.630608" xlink:href="#C0_0_fb779db1a3" y="129.403744"/>
    </g>
    <g clip-path="url(#p3696028e33)">
     <use style="fill:#404040;" x="146.88" xlink:href="#C0_0_fb779db1a3" y="119.815296"/>
    </g>
    <g clip-path="url(#p3696028e33)">
     <use style="fill:#404040;" x="142.111654" xlink:href="#C0_0_fb779db1a3" y="117.723225"/>
    </g>
    <g clip-path="url(#p3696028e33)">
     <use style="fill:#404040;" x="146.88" xlink:href="#C0_0_fb779db1a3" y="110.542647"/>
    </g>
    <g clip-path="url(#p3696028e33)">
     <use style="fill:#404040;" x="142.113186" xlink:href="#C0_0_fb779db1a3" y="108.447412"/>
    </g>
    <g clip-path="url(#p3696028e33)">
     <use style="fill:#404040;" x="146.88" xlink:href="#C0_0_fb779db1a3" y="105.242878"/>
    </g>
    <g clip-path="url(#p3696028e33)">
     <use style="fill:#404040;" x="146.88" xlink:href="#C0_0_fb779db1a3" y="88.689345"/>
    </g>
    <g clip-path="url(#p3696028e33)">
     <use style="fill:#404040;" x="142.676429" xlink:href="#C0_0_fb779db1a3" y="85.693885"/>
    </g>
    <g clip-path="url(#p3696028e33)">
     <use style="fill:#404040;" x="150.741979" xlink:href="#C0_0_fb779db1a3" y="85.302346"/>
    </g>
    <g clip-path="url(#p3696028e33)">
     <use style="fill:#404040;" x="146.88" xlink:href="#C0_0_fb779db1a3" y="80.008064"/>
    </g>
    <g clip-path="url(#p3696028e33)">
     <use style="fill:#404040;" x="143.796704" xlink:href="#C0_0_fb779db1a3" y="75.961198"/>
    </g>
    <g clip-path="url(#p3696028e33)">
     <use style="fill:#404040;" x="149.289804" xlink:href="#C0_0_fb779db1a3" y="75.56591"/>
    </g>
    <g clip-path="url(#p3696028e33)">
     <use style="fill:#404040;" x="154.539766" xlink:href="#C0_0_fb779db1a3" y="75.546755"/>
    </g>
    <g clip-path="url(#p3696028e33)">
     <use style="fill:#404040;" x="138.840085" xlink:href="#C0_0_fb779db1a3" y="74.313159"/>
    </g>
    <g clip-path="url(#p3696028e33)">
     <use style="fill:#404040;" x="159.111607" xlink:href="#C0_0_fb779db1a3" y="73.088806"/>
    </g>
    <g clip-path="url(#p3696028e33)">
     <use style="fill:#404040;" x="134.029969" xlink:href="#C0_0_fb779db1a3" y="72.309697"/>
    </g>
    <g clip-path="url(#p3696028e33)">
     <use style="fill:#404040;" x="146.88" xlink:href="#C0_0_fb779db1a3" y="69.753407"/>
    </g>
    <g clip-path="url(#p3696028e33)">
     <use style="fill:#404040;" x="152.127966" xlink:href="#C0_0_fb779db1a3" y="69.614231"/>
    </g>
    <g clip-path="url(#p3696028e33)">
     <use style="fill:#404040;" x="141.641706" xlink:href="#C0_0_fb779db1a3" y="69.419692"/>
    </g>
    <g clip-path="url(#p3696028e33)">
     <use style="fill:#404040;" x="161.831517" xlink:href="#C0_0_fb779db1a3" y="68.812139"/>
    </g>
    <g clip-path="url(#p3696028e33)">
     <use style="fill:#404040;" x="130.571837" xlink:href="#C0_0_fb779db1a3" y="68.547633"/>
    </g>
    <g clip-path="url(#p3696028e33)">
     <use style="fill:#404040;" x="156.79722" xlink:href="#C0_0_fb779db1a3" y="67.328406"/>
    </g>
    <g clip-path="url(#p3696028e33)">
     <use style="fill:#404040;" x="137.036588" xlink:href="#C0_0_fb779db1a3" y="67.018751"/>
    </g>
    <g clip-path="url(#p3696028e33)">
     <use style="fill:#404040;" x="146.88" xlink:href="#C0_0_fb779db1a3" y="63.604951"/>
    </g>
    <g clip-path="url(#p3696028e33)">
     <use style="fill:#404040;" x="141.662596" xlink:href="#C0_0_fb779db1a3" y="63.048642"/>
    </g>
    <g clip-path="url(#p3696028e33)">
     <use style="fill:#404040;" x="151.798858" xlink:href="#C0_0_fb779db1a3" y="61.857303"/>
    </g>
    <g clip-path="url(#p3696028e33)">
     <use style="fill:#404040;" x="137.950011" xlink:href="#C0_0_fb779db1a3" y="59.51337"/>
    </g>
    <g clip-path="url(#p3696028e33)">
     <use style="fill:#404040;" x="146.88" xlink:href="#C0_0_fb779db1a3" y="55.341424"/>
    </g>
   </g>
   <g id="PathCollection_2">
    <defs>
     <path d="M 0 2.5 
C 0.663008 2.5 1.29895 2.236584 1.767767 1.767767 
C 2.236584 1.29895 2.5 0.663008 2.5 0 
C 2.5 -0.663008 2.236584 -1.29895 1.767767 -1.767767 
C 1.29895 -2.236584 0.663008 -2.5 0 -2.5 
C -0.663008 -2.5 -1.29895 -2.236584 -1.767767 -1.767767 
C -2.236584 -1.29895 -2.5 -0.663008 -2.5 0 
C -2.5 0.663008 -2.236584 1.29895 -1.767767 1.767767 
C -1.29895 2.236584 -0.663008 2.5 0 2.5 
z
" id="C1_0_3e09db8c29"/>
    </defs>
    <g clip-path="url(#p3696028e33)">
     <use style="fill:#404040;" x="325.44" xlink:href="#C1_0_3e09db8c29" y="293.689606"/>
    </g>
    <g clip-path="url(#p3696028e33)">
     <use style="fill:#404040;" x="320.190401" xlink:href="#C1_0_3e09db8c29" y="293.627778"/>
    </g>
    <g clip-path="url(#p3696028e33)">
     <use style="fill:#404040;" x="330.68934" xlink:href="#C1_0_3e09db8c29" y="293.610339"/>
    </g>
    <g clip-path="url(#p3696028e33)">
     <use style="fill:#404040;" x="335.93934" xlink:href="#C1_0_3e09db8c29" y="293.609045"/>
    </g>
    <g clip-path="url(#p3696028e33)">
     <use style="fill:#404040;" x="314.941026" xlink:href="#C1_0_3e09db8c29" y="293.550638"/>
    </g>
    <g clip-path="url(#p3696028e33)">
     <use style="fill:#404040;" x="341.18866" xlink:href="#C1_0_3e09db8c29" y="293.528551"/>
    </g>
    <g clip-path="url(#p3696028e33)">
     <use style="fill:#404040;" x="309.691401" xlink:href="#C1_0_3e09db8c29" y="293.490917"/>
    </g>
    <g clip-path="url(#p3696028e33)">
     <use style="fill:#404040;" x="346.43848" xlink:href="#C1_0_3e09db8c29" y="293.487235"/>
    </g>
    <g clip-path="url(#p3696028e33)">
     <use style="fill:#404040;" x="304.441561" xlink:href="#C1_0_3e09db8c29" y="293.451896"/>
    </g>
    <g clip-path="url(#p3696028e33)">
     <use style="fill:#404040;" x="351.688197" xlink:href="#C1_0_3e09db8c29" y="293.435277"/>
    </g>
    <g clip-path="url(#p3696028e33)">
     <use style="fill:#404040;" x="299.191749" xlink:href="#C1_0_3e09db8c29" y="293.409551"/>
    </g>
    <g clip-path="url(#p3696028e33)">
     <use style="fill:#404040;" x="356.933872" xlink:href="#C1_0_3e09db8c29" y="293.232374"/>
    </g>
    <g clip-path="url(#p3696028e33)">
     <use style="fill:#404040;" x="293.945071" xlink:href="#C1_0_3e09db8c29" y="293.231697"/>
    </g>
    <g clip-path="url(#p3696028e33)">
     <use style="fill:#404040;" x="362.183553" xlink:href="#C1_0_3e09db8c29" y="293.177263"/>
    </g>
    <g clip-path="url(#p3696028e33)">
     <use style="fill:#404040;" x="288.696961" xlink:href="#C1_0_3e09db8c29" y="293.097544"/>
    </g>
    <g clip-path="url(#p3696028e33)">
     <use style="fill:#404040;" x="367.398395" xlink:href="#C1_0_3e09db8c29" y="292.599576"/>
    </g>
    <g clip-path="url(#p3696028e33)">
     <use style="fill:#404040;" x="283.47524" xlink:href="#C1_0_3e09db8c29" y="292.579286"/>
    </g>
    <g clip-path="url(#p3696028e33)">
     <use style="fill:#404040;" x="372.646499" xlink:href="#C1_0_3e09db8c29" y="292.465222"/>
    </g>
    <g clip-path="url(#p3696028e33)">
     <use style="fill:#404040;" x="278.226715" xlink:href="#C1_0_3e09db8c29" y="292.460743"/>
    </g>
    <g clip-path="url(#p3696028e33)">
     <use style="fill:#404040;" x="377.881222" xlink:href="#C1_0_3e09db8c29" y="292.084062"/>
    </g>
    <g clip-path="url(#p3696028e33)">
     <use style="fill:#404040;" x="272.993259" xlink:href="#C1_0_3e09db8c29" y="292.064115"/>
    </g>
    <g clip-path="url(#p3696028e33)">
     <use style="fill:#404040;" x="383.043594" xlink:href="#C1_0_3e09db8c29" y="291.174344"/>
    </g>
    <g clip-path="url(#p3696028e33)">
     <use style="fill:#404040;" x="267.886453" xlink:href="#C1_0_3e09db8c29" y="290.90431"/>
    </g>
    <g clip-path="url(#p3696028e33)">
     <use style="fill:#404040;" x="262.666666" xlink:href="#C1_0_3e09db8c29" y="290.368665"/>
    </g>
    <g clip-path="url(#p3696028e33)">
     <use style="fill:#404040;" x="388.203979" xlink:href="#C1_0_3e09db8c29" y="290.254457"/>
    </g>
    <g clip-path="url(#p3696028e33)">
     <use style="fill:#404040;" x="393.448825" xlink:href="#C1_0_3e09db8c29" y="290.032941"/>
    </g>
    <g clip-path="url(#p3696028e33)">
     <use style="fill:#404040;" x="257.448909" xlink:href="#C1_0_3e09db8c29" y="289.815368"/>
    </g>
    <g clip-path="url(#p3696028e33)">
     <use style="fill:#404040;" x="254.016" xlink:href="#C1_0_3e09db8c29" y="289.541425"/>
    </g>
    <g clip-path="url(#p3696028e33)">
     <use style="fill:#404040;" x="324.731327" xlink:href="#C1_0_3e09db8c29" y="288.735368"/>
    </g>
    <g clip-path="url(#p3696028e33)">
     <use style="fill:#404040;" x="329.951076" xlink:href="#C1_0_3e09db8c29" y="288.199385"/>
    </g>
    <g clip-path="url(#p3696028e33)">
     <use style="fill:#404040;" x="319.757371" xlink:href="#C1_0_3e09db8c29" y="287.135409"/>
    </g>
    <g clip-path="url(#p3696028e33)">
     <use style="fill:#404040;" x="334.738207" xlink:href="#C1_0_3e09db8c29" y="286.146594"/>
    </g>
    <g clip-path="url(#p3696028e33)">
     <use style="fill:#404040;" x="315.060844" xlink:href="#C1_0_3e09db8c29" y="284.900835"/>
    </g>
    <g clip-path="url(#p3696028e33)">
     <use style="fill:#404040;" x="325.44" xlink:href="#C1_0_3e09db8c29" y="280.880261"/>
    </g>
    <g clip-path="url(#p3696028e33)">
     <use style="fill:#404040;" x="323.833285" xlink:href="#C1_0_3e09db8c29" y="276.120169"/>
    </g>
    <g clip-path="url(#p3696028e33)">
     <use style="fill:#404040;" x="327.600627" xlink:href="#C1_0_3e09db8c29" y="272.637834"/>
    </g>
    <g clip-path="url(#p3696028e33)">
     <use style="fill:#404040;" x="325.44" xlink:href="#C1_0_3e09db8c29" y="265.669305"/>
    </g>
    <g clip-path="url(#p3696028e33)">
     <use style="fill:#404040;" x="320.204486" xlink:href="#C1_0_3e09db8c29" y="265.298132"/>
    </g>
    <g clip-path="url(#p3696028e33)">
     <use style="fill:#404040;" x="325.44" xlink:href="#C1_0_3e09db8c29" y="240.818687"/>
    </g>
    <g clip-path="url(#p3696028e33)">
     <use style="fill:#404040;" x="320.325525" xlink:href="#C1_0_3e09db8c29" y="239.689948"/>
    </g>
    <g clip-path="url(#p3696028e33)">
     <use style="fill:#404040;" x="325.44" xlink:href="#C1_0_3e09db8c29" y="232.757035"/>
    </g>
    <g clip-path="url(#p3696028e33)">
     <use style="fill:#404040;" x="321.036016" xlink:href="#C1_0_3e09db8c29" y="230.035253"/>
    </g>
    <g clip-path="url(#p3696028e33)">
     <use style="fill:#404040;" x="325.44" xlink:href="#C1_0_3e09db8c29" y="225.098363"/>
    </g>
    <g clip-path="url(#p3696028e33)">
     <use style="fill:#404040;" x="325.44" xlink:href="#C1_0_3e09db8c29" y="212.512754"/>
    </g>
    <g clip-path="url(#p3696028e33)">
     <use style="fill:#404040;" x="325.44" xlink:href="#C1_0_3e09db8c29" y="199.254535"/>
    </g>
    <g clip-path="url(#p3696028e33)">
     <use style="fill:#404040;" x="325.44" xlink:href="#C1_0_3e09db8c29" y="191.864263"/>
    </g>
    <g clip-path="url(#p3696028e33)">
     <use style="fill:#404040;" x="320.304684" xlink:href="#C1_0_3e09db8c29" y="190.82489"/>
    </g>
    <g clip-path="url(#p3696028e33)">
     <use style="fill:#404040;" x="325.44" xlink:href="#C1_0_3e09db8c29" y="150.665093"/>
    </g>
    <g clip-path="url(#p3696028e33)">
     <use style="fill:#404040;" x="322.266228" xlink:href="#C1_0_3e09db8c29" y="146.682173"/>
    </g>
   </g>
  </g>
 </g>
 <defs>
  <clipPath id="p3696028e33">
   <rect height="266.112" width="357.12" x="57.6" y="41.472"/>
  </clipPath>
 </defs>
</svg>
