<?xml version="1.0" encoding="utf-8" standalone="no"?>
<!DOCTYPE svg PUBLIC "-//W3C//DTD SVG 1.1//EN"
  "http://www.w3.org/Graphics/SVG/1.1/DTD/svg11.dtd">
<!-- Created with matplotlib (https://matplotlib.org/) -->
<svg height="345.6pt" version="1.1" viewBox="0 0 460.8 345.6" width="460.8pt" xmlns="http://www.w3.org/2000/svg" xmlns:xlink="http://www.w3.org/1999/xlink">
 <defs>
  <style type="text/css">
*{stroke-linecap:butt;stroke-linejoin:round;}
  </style>
 </defs>
 <g id="figure_1">
  <g id="patch_1">
   <path d="M 0 345.6 
L 460.8 345.6 
L 460.8 0 
L 0 0 
z
" style="fill:#ffffff;"/>
  </g>
  <g id="axes_1">
   <g id="patch_2">
    <path d="M 57.6 307.584 
L 414.72 307.584 
L 414.72 41.472 
L 57.6 41.472 
z
" style="fill:#eaeaf2;"/>
   </g>
   <g id="matplotlib.axis_1">
    <g id="xtick_1">
     <g id="text_1">
      <text style="fill:#262626;font-family:DejaVu Sans;font-size:10px;font-style:normal;font-weight:normal;text-anchor:middle;" transform="rotate(-0, 146.88, 322.182437)" x="146.88" y="322.182437">saponin 5%</text>
     </g>
    </g>
    <g id="xtick_2">
     <g id="text_2">
      <text style="fill:#262626;font-family:DejaVu Sans;font-size:10px;font-style:normal;font-weight:normal;text-anchor:middle;" transform="rotate(-0, 325.44, 322.182437)" x="325.44" y="322.182437">filter 5μM</text>
     </g>
    </g>
    <g id="text_3">
     <text style="fill:#262626;font-family:DejaVu Sans;font-size:10px;font-style:normal;font-weight:normal;text-anchor:middle;" transform="rotate(-0, 236.16, 335.860562)" x="236.16" y="335.860562">Human depletion method</text>
    </g>
   </g>
   <g id="matplotlib.axis_2">
    <g id="ytick_1">
     <g id="line2d_1">
      <path clip-path="url(#pa0821a54a2)" d="M 57.6 294.182827 
L 414.72 294.182827 
" style="fill:none;stroke:#ffffff;stroke-linecap:round;stroke-width:0.8;"/>
     </g>
     <g id="text_4">
      <text style="fill:#262626;font-family:DejaVu Sans;font-size:10px;font-style:normal;font-weight:normal;text-anchor:end;" transform="rotate(-0, 50.6, 297.982046)" x="50.6" y="297.982046">0.0</text>
     </g>
    </g>
    <g id="ytick_2">
     <g id="line2d_2">
      <path clip-path="url(#pa0821a54a2)" d="M 57.6 253.666156 
L 414.72 253.666156 
" style="fill:none;stroke:#ffffff;stroke-linecap:round;stroke-width:0.8;"/>
     </g>
     <g id="text_5">
      <text style="fill:#262626;font-family:DejaVu Sans;font-size:10px;font-style:normal;font-weight:normal;text-anchor:end;" transform="rotate(-0, 50.6, 257.465375)" x="50.6" y="257.465375">0.2</text>
     </g>
    </g>
    <g id="ytick_3">
     <g id="line2d_3">
      <path clip-path="url(#pa0821a54a2)" d="M 57.6 213.149485 
L 414.72 213.149485 
" style="fill:none;stroke:#ffffff;stroke-linecap:round;stroke-width:0.8;"/>
     </g>
     <g id="text_6">
      <text style="fill:#262626;font-family:DejaVu Sans;font-size:10px;font-style:normal;font-weight:normal;text-anchor:end;" transform="rotate(-0, 50.6, 216.948704)" x="50.6" y="216.948704">0.4</text>
     </g>
    </g>
    <g id="ytick_4">
     <g id="line2d_4">
      <path clip-path="url(#pa0821a54a2)" d="M 57.6 172.632815 
L 414.72 172.632815 
" style="fill:none;stroke:#ffffff;stroke-linecap:round;stroke-width:0.8;"/>
     </g>
     <g id="text_7">
      <text style="fill:#262626;font-family:DejaVu Sans;font-size:10px;font-style:normal;font-weight:normal;text-anchor:end;" transform="rotate(-0, 50.6, 176.432034)" x="50.6" y="176.432034">0.6</text>
     </g>
    </g>
    <g id="ytick_5">
     <g id="line2d_5">
      <path clip-path="url(#pa0821a54a2)" d="M 57.6 132.116144 
L 414.72 132.116144 
" style="fill:none;stroke:#ffffff;stroke-linecap:round;stroke-width:0.8;"/>
     </g>
     <g id="text_8">
      <text style="fill:#262626;font-family:DejaVu Sans;font-size:10px;font-style:normal;font-weight:normal;text-anchor:end;" transform="rotate(-0, 50.6, 135.915363)" x="50.6" y="135.915363">0.8</text>
     </g>
    </g>
    <g id="ytick_6">
     <g id="line2d_6">
      <path clip-path="url(#pa0821a54a2)" d="M 57.6 91.599473 
L 414.72 91.599473 
" style="fill:none;stroke:#ffffff;stroke-linecap:round;stroke-width:0.8;"/>
     </g>
     <g id="text_9">
      <text style="fill:#262626;font-family:DejaVu Sans;font-size:10px;font-style:normal;font-weight:normal;text-anchor:end;" transform="rotate(-0, 50.6, 95.398692)" x="50.6" y="95.398692">1.0</text>
     </g>
    </g>
    <g id="ytick_7">
     <g id="line2d_7">
      <path clip-path="url(#pa0821a54a2)" d="M 57.6 51.082803 
L 414.72 51.082803 
" style="fill:none;stroke:#ffffff;stroke-linecap:round;stroke-width:0.8;"/>
     </g>
     <g id="text_10">
      <text style="fill:#262626;font-family:DejaVu Sans;font-size:10px;font-style:normal;font-weight:normal;text-anchor:end;" transform="rotate(-0, 50.6, 54.882021)" x="50.6" y="54.882021">1.2</text>
     </g>
    </g>
    <g id="text_11">
     <text style="fill:#262626;font-family:DejaVu Sans;font-size:10px;font-style:normal;font-weight:normal;text-anchor:middle;" transform="rotate(-90, 28.617187, 174.528)" x="28.617187" y="174.528">Total bases sequenced</text>
    </g>
    <g id="text_12">
     <text style="fill:#262626;font-family:DejaVu Sans;font-size:10px;font-style:normal;font-weight:normal;text-anchor:start;" transform="rotate(-0, 57.6, 38.472)" x="57.6" y="38.472">1e10</text>
    </g>
   </g>
   <g id="patch_3">
    <path clip-path="url(#pa0821a54a2)" d="M 75.456 294.182827 
L 218.304 294.182827 
L 218.304 294.182826 
L 75.456 294.182826 
L 75.456 294.182827 
z
" style="fill:#3274a1;stroke:#3f3f3f;stroke-linejoin:miter;stroke-width:1.5;"/>
   </g>
   <g id="patch_4">
    <path clip-path="url(#pa0821a54a2)" d="M 254.016 294.182825 
L 396.864 294.182825 
L 396.864 294.182825 
L 254.016 294.182825 
L 254.016 294.182825 
z
" style="fill:#e1812c;stroke:#3f3f3f;stroke-linejoin:miter;stroke-width:1.5;"/>
   </g>
   <g id="patch_5">
    <path clip-path="url(#pa0821a54a2)" d="M 75.456 292.227283 
L 218.304 292.227283 
L 218.304 254.971851 
L 75.456 254.971851 
L 75.456 292.227283 
z
" style="fill:#3274a1;stroke:#3f3f3f;stroke-linejoin:miter;stroke-width:1.5;"/>
   </g>
   <g id="patch_6">
    <path clip-path="url(#pa0821a54a2)" d="M 254.016 268.032459 
L 396.864 268.032459 
L 396.864 202.448347 
L 254.016 202.448347 
L 254.016 268.032459 
z
" style="fill:#e1812c;stroke:#3f3f3f;stroke-linejoin:miter;stroke-width:1.5;"/>
   </g>
   <g id="line2d_8">
    <path clip-path="url(#pa0821a54a2)" d="M 146.88 294.182827 
L 146.88 294.182827 
" style="fill:none;stroke:#3f3f3f;stroke-linecap:round;stroke-width:1.5;"/>
   </g>
   <g id="line2d_9">
    <path clip-path="url(#pa0821a54a2)" d="M 146.88 294.182826 
L 146.88 294.182825 
" style="fill:none;stroke:#3f3f3f;stroke-linecap:round;stroke-width:1.5;"/>
   </g>
   <g id="line2d_10">
    <path clip-path="url(#pa0821a54a2)" d="M 111.168 294.182827 
L 182.592 294.182827 
" style="fill:none;stroke:#3f3f3f;stroke-linecap:round;stroke-width:1.5;"/>
   </g>
   <g id="line2d_11">
    <path clip-path="url(#pa0821a54a2)" d="M 111.168 294.182825 
L 182.592 294.182825 
" style="fill:none;stroke:#3f3f3f;stroke-linecap:round;stroke-width:1.5;"/>
   </g>
   <g id="line2d_12">
    <path clip-path="url(#pa0821a54a2)" d="M 325.44 294.182825 
L 325.44 294.182826 
" style="fill:none;stroke:#3f3f3f;stroke-linecap:round;stroke-width:1.5;"/>
   </g>
   <g id="line2d_13">
    <path clip-path="url(#pa0821a54a2)" d="M 325.44 294.182825 
L 325.44 294.182825 
" style="fill:none;stroke:#3f3f3f;stroke-linecap:round;stroke-width:1.5;"/>
   </g>
   <g id="line2d_14">
    <path clip-path="url(#pa0821a54a2)" d="M 289.728 294.182826 
L 361.152 294.182826 
" style="fill:none;stroke:#3f3f3f;stroke-linecap:round;stroke-width:1.5;"/>
   </g>
   <g id="line2d_15">
    <path clip-path="url(#pa0821a54a2)" d="M 289.728 294.182825 
L 361.152 294.182825 
" style="fill:none;stroke:#3f3f3f;stroke-linecap:round;stroke-width:1.5;"/>
   </g>
   <g id="line2d_16">
    <path clip-path="url(#pa0821a54a2)" d="M 146.88 292.227283 
L 146.88 294.178215 
" style="fill:none;stroke:#3f3f3f;stroke-linecap:round;stroke-width:1.5;"/>
   </g>
   <g id="line2d_17">
    <path clip-path="url(#pa0821a54a2)" d="M 146.88 254.971851 
L 146.88 204.904737 
" style="fill:none;stroke:#3f3f3f;stroke-linecap:round;stroke-width:1.5;"/>
   </g>
   <g id="line2d_18">
    <path clip-path="url(#pa0821a54a2)" d="M 111.168 294.178215 
L 182.592 294.178215 
" style="fill:none;stroke:#3f3f3f;stroke-linecap:round;stroke-width:1.5;"/>
   </g>
   <g id="line2d_19">
    <path clip-path="url(#pa0821a54a2)" d="M 111.168 204.904737 
L 182.592 204.904737 
" style="fill:none;stroke:#3f3f3f;stroke-linecap:round;stroke-width:1.5;"/>
   </g>
   <g id="line2d_20">
    <path clip-path="url(#pa0821a54a2)" d="M 325.44 268.032459 
L 325.44 294.178446 
" style="fill:none;stroke:#3f3f3f;stroke-linecap:round;stroke-width:1.5;"/>
   </g>
   <g id="line2d_21">
    <path clip-path="url(#pa0821a54a2)" d="M 325.44 202.448347 
L 325.44 119.474055 
" style="fill:none;stroke:#3f3f3f;stroke-linecap:round;stroke-width:1.5;"/>
   </g>
   <g id="line2d_22">
    <path clip-path="url(#pa0821a54a2)" d="M 289.728 294.178446 
L 361.152 294.178446 
" style="fill:none;stroke:#3f3f3f;stroke-linecap:round;stroke-width:1.5;"/>
   </g>
   <g id="line2d_23">
    <path clip-path="url(#pa0821a54a2)" d="M 289.728 119.474055 
L 361.152 119.474055 
" style="fill:none;stroke:#3f3f3f;stroke-linecap:round;stroke-width:1.5;"/>
   </g>
   <g id="line2d_24">
    <path clip-path="url(#pa0821a54a2)" d="M 75.456 294.182827 
L 218.304 294.182827 
" style="fill:none;stroke:#3f3f3f;stroke-linecap:round;stroke-width:1.5;"/>
   </g>
   <g id="line2d_25">
    <path clip-path="url(#pa0821a54a2)" d="M 254.016 294.182825 
L 396.864 294.182825 
" style="fill:none;stroke:#3f3f3f;stroke-linecap:round;stroke-width:1.5;"/>
   </g>
   <g id="line2d_26">
    <path clip-path="url(#pa0821a54a2)" d="M 75.456 269.434944 
L 218.304 269.434944 
" style="fill:none;stroke:#3f3f3f;stroke-linecap:round;stroke-width:1.5;"/>
   </g>
   <g id="line2d_27">
    <path clip-path="url(#pa0821a54a2)" d="M 254.016 243.79208 
L 396.864 243.79208 
" style="fill:none;stroke:#3f3f3f;stroke-linecap:round;stroke-width:1.5;"/>
   </g>
   <g id="patch_7">
    <path d="M 57.6 307.584 
L 57.6 41.472 
" style="fill:none;stroke:#ffffff;stroke-linecap:square;stroke-linejoin:miter;stroke-width:0.8;"/>
   </g>
   <g id="patch_8">
    <path d="M 414.72 307.584 
L 414.72 41.472 
" style="fill:none;stroke:#ffffff;stroke-linecap:square;stroke-linejoin:miter;stroke-width:0.8;"/>
   </g>
   <g id="patch_9">
    <path d="M 57.6 307.584 
L 414.72 307.584 
" style="fill:none;stroke:#ffffff;stroke-linecap:square;stroke-linejoin:miter;stroke-width:0.8;"/>
   </g>
   <g id="patch_10">
    <path d="M 57.6 41.472 
L 414.72 41.472 
" style="fill:none;stroke:#ffffff;stroke-linecap:square;stroke-linejoin:miter;stroke-width:0.8;"/>
   </g>
   <g id="PathCollection_1">
    <defs>
     <path d="M 0 2.5 
C 0.663008 2.5 1.29895 2.236584 1.767767 1.767767 
C 2.236584 1.29895 2.5 0.663008 2.5 0 
C 2.5 -0.663008 2.236584 -1.29895 1.767767 -1.767767 
C 1.29895 -2.236584 0.663008 -2.5 0 -2.5 
C -0.663008 -2.5 -1.29895 -2.236584 -1.767767 -1.767767 
C -2.236584 -1.29895 -2.5 -0.663008 -2.5 0 
C -2.5 0.663008 -2.236584 1.29895 -1.767767 1.767767 
C -1.29895 2.236584 -0.663008 2.5 0 2.5 
z
" id="C0_0_2b5c0cce94"/>
    </defs>
    <g clip-path="url(#pa0821a54a2)">
     <use style="fill:#404040;" x="146.88" xlink:href="#C0_0_2b5c0cce94" y="294.182827"/>
    </g>
    <g clip-path="url(#pa0821a54a2)">
     <use style="fill:#404040;" x="141.630664" xlink:href="#C0_0_2b5c0cce94" y="294.182827"/>
    </g>
    <g clip-path="url(#pa0821a54a2)">
     <use style="fill:#404040;" x="152.129185" xlink:href="#C0_0_2b5c0cce94" y="294.182827"/>
    </g>
    <g clip-path="url(#pa0821a54a2)">
     <use style="fill:#404040;" x="157.379" xlink:href="#C0_0_2b5c0cce94" y="294.182827"/>
    </g>
    <g clip-path="url(#pa0821a54a2)">
     <use style="fill:#404040;" x="136.381011" xlink:href="#C0_0_2b5c0cce94" y="294.182827"/>
    </g>
    <g clip-path="url(#pa0821a54a2)">
     <use style="fill:#404040;" x="162.628387" xlink:href="#C0_0_2b5c0cce94" y="294.182827"/>
    </g>
    <g clip-path="url(#pa0821a54a2)">
     <use style="fill:#404040;" x="131.132034" xlink:href="#C0_0_2b5c0cce94" y="294.182827"/>
    </g>
    <g clip-path="url(#pa0821a54a2)">
     <use style="fill:#404040;" x="167.876705" xlink:href="#C0_0_2b5c0cce94" y="294.182827"/>
    </g>
    <g clip-path="url(#pa0821a54a2)">
     <use style="fill:#404040;" x="125.885221" xlink:href="#C0_0_2b5c0cce94" y="294.182827"/>
    </g>
    <g clip-path="url(#pa0821a54a2)">
     <use style="fill:#404040;" x="173.119779" xlink:href="#C0_0_2b5c0cce94" y="294.182827"/>
    </g>
    <g clip-path="url(#pa0821a54a2)">
     <use style="fill:#404040;" x="120.640317" xlink:href="#C0_0_2b5c0cce94" y="294.182827"/>
    </g>
    <g clip-path="url(#pa0821a54a2)">
     <use style="fill:#404040;" x="178.36582" xlink:href="#C0_0_2b5c0cce94" y="294.182827"/>
    </g>
    <g clip-path="url(#pa0821a54a2)">
     <use style="fill:#404040;" x="115.405774" xlink:href="#C0_0_2b5c0cce94" y="294.182827"/>
    </g>
    <g clip-path="url(#pa0821a54a2)">
     <use style="fill:#404040;" x="183.593541" xlink:href="#C0_0_2b5c0cce94" y="294.182827"/>
    </g>
    <g clip-path="url(#pa0821a54a2)">
     <use style="fill:#404040;" x="110.196683" xlink:href="#C0_0_2b5c0cce94" y="294.182827"/>
    </g>
    <g clip-path="url(#pa0821a54a2)">
     <use style="fill:#404040;" x="188.784134" xlink:href="#C0_0_2b5c0cce94" y="294.182827"/>
    </g>
    <g clip-path="url(#pa0821a54a2)">
     <use style="fill:#404040;" x="105.061353" xlink:href="#C0_0_2b5c0cce94" y="294.182827"/>
    </g>
    <g clip-path="url(#pa0821a54a2)">
     <use style="fill:#404040;" x="193.930347" xlink:href="#C0_0_2b5c0cce94" y="294.182827"/>
    </g>
    <g clip-path="url(#pa0821a54a2)">
     <use style="fill:#404040;" x="146.88" xlink:href="#C0_0_2b5c0cce94" y="294.182827"/>
    </g>
    <g clip-path="url(#pa0821a54a2)">
     <use style="fill:#404040;" x="141.690609" xlink:href="#C0_0_2b5c0cce94" y="294.182827"/>
    </g>
    <g clip-path="url(#pa0821a54a2)">
     <use style="fill:#404040;" x="151.718501" xlink:href="#C0_0_2b5c0cce94" y="294.182827"/>
    </g>
    <g clip-path="url(#pa0821a54a2)">
     <use style="fill:#404040;" x="156.937379" xlink:href="#C0_0_2b5c0cce94" y="294.182827"/>
    </g>
    <g clip-path="url(#pa0821a54a2)">
     <use style="fill:#404040;" x="146.88" xlink:href="#C0_0_2b5c0cce94" y="294.182827"/>
    </g>
    <g clip-path="url(#pa0821a54a2)">
     <use style="fill:#404040;" x="146.88" xlink:href="#C0_0_2b5c0cce94" y="294.182827"/>
    </g>
    <g clip-path="url(#pa0821a54a2)">
     <use style="fill:#404040;" x="142.044756" xlink:href="#C0_0_2b5c0cce94" y="294.182827"/>
    </g>
    <g clip-path="url(#pa0821a54a2)">
     <use style="fill:#404040;" x="149.721834" xlink:href="#C0_0_2b5c0cce94" y="294.182827"/>
    </g>
    <g clip-path="url(#pa0821a54a2)">
     <use style="fill:#404040;" x="146.88" xlink:href="#C0_0_2b5c0cce94" y="294.182827"/>
    </g>
    <g clip-path="url(#pa0821a54a2)">
     <use style="fill:#404040;" x="141.637693" xlink:href="#C0_0_2b5c0cce94" y="294.182827"/>
    </g>
    <g clip-path="url(#pa0821a54a2)">
     <use style="fill:#404040;" x="152.027904" xlink:href="#C0_0_2b5c0cce94" y="294.182827"/>
    </g>
    <g clip-path="url(#pa0821a54a2)">
     <use style="fill:#404040;" x="138.169545" xlink:href="#C0_0_2b5c0cce94" y="294.182827"/>
    </g>
    <g clip-path="url(#pa0821a54a2)">
     <use style="fill:#404040;" x="146.88" xlink:href="#C0_0_2b5c0cce94" y="294.182827"/>
    </g>
    <g clip-path="url(#pa0821a54a2)">
     <use style="fill:#404040;" x="142.970551" xlink:href="#C0_0_2b5c0cce94" y="294.182827"/>
    </g>
    <g clip-path="url(#pa0821a54a2)">
     <use style="fill:#404040;" x="146.88" xlink:href="#C0_0_2b5c0cce94" y="294.182826"/>
    </g>
    <g clip-path="url(#pa0821a54a2)">
     <use style="fill:#404040;" x="146.88" xlink:href="#C0_0_2b5c0cce94" y="294.182826"/>
    </g>
    <g clip-path="url(#pa0821a54a2)">
     <use style="fill:#404040;" x="146.88" xlink:href="#C0_0_2b5c0cce94" y="294.182826"/>
    </g>
    <g clip-path="url(#pa0821a54a2)">
     <use style="fill:#404040;" x="146.88" xlink:href="#C0_0_2b5c0cce94" y="294.182826"/>
    </g>
    <g clip-path="url(#pa0821a54a2)">
     <use style="fill:#404040;" x="146.88" xlink:href="#C0_0_2b5c0cce94" y="294.182826"/>
    </g>
    <g clip-path="url(#pa0821a54a2)">
     <use style="fill:#404040;" x="146.88" xlink:href="#C0_0_2b5c0cce94" y="294.182826"/>
    </g>
    <g clip-path="url(#pa0821a54a2)">
     <use style="fill:#404040;" x="146.88" xlink:href="#C0_0_2b5c0cce94" y="294.182825"/>
    </g>
    <g clip-path="url(#pa0821a54a2)">
     <use style="fill:#404040;" x="146.88" xlink:href="#C0_0_2b5c0cce94" y="294.182825"/>
    </g>
    <g clip-path="url(#pa0821a54a2)">
     <use style="fill:#404040;" x="141.639756" xlink:href="#C0_0_2b5c0cce94" y="294.182825"/>
    </g>
    <g clip-path="url(#pa0821a54a2)">
     <use style="fill:#404040;" x="146.88" xlink:href="#C0_0_2b5c0cce94" y="294.182825"/>
    </g>
    <g clip-path="url(#pa0821a54a2)">
     <use style="fill:#404040;" x="141.895715" xlink:href="#C0_0_2b5c0cce94" y="294.182825"/>
    </g>
    <g clip-path="url(#pa0821a54a2)">
     <use style="fill:#404040;" x="146.88" xlink:href="#C0_0_2b5c0cce94" y="294.182825"/>
    </g>
    <g clip-path="url(#pa0821a54a2)">
     <use style="fill:#404040;" x="142.329107" xlink:href="#C0_0_2b5c0cce94" y="294.182825"/>
    </g>
    <g clip-path="url(#pa0821a54a2)">
     <use style="fill:#404040;" x="149.926418" xlink:href="#C0_0_2b5c0cce94" y="294.182825"/>
    </g>
    <g clip-path="url(#pa0821a54a2)">
     <use style="fill:#404040;" x="155.161607" xlink:href="#C0_0_2b5c0cce94" y="294.182825"/>
    </g>
    <g clip-path="url(#pa0821a54a2)">
     <use style="fill:#404040;" x="146.88" xlink:href="#C0_0_2b5c0cce94" y="294.182825"/>
    </g>
    <g clip-path="url(#pa0821a54a2)">
     <use style="fill:#404040;" x="142.629187" xlink:href="#C0_0_2b5c0cce94" y="294.182825"/>
    </g>
   </g>
   <g id="PathCollection_2">
    <defs>
     <path d="M 0 2.5 
C 0.663008 2.5 1.29895 2.236584 1.767767 1.767767 
C 2.236584 1.29895 2.5 0.663008 2.5 0 
C 2.5 -0.663008 2.236584 -1.29895 1.767767 -1.767767 
C 1.29895 -2.236584 0.663008 -2.5 0 -2.5 
C -0.663008 -2.5 -1.29895 -2.236584 -1.767767 -1.767767 
C -2.236584 -1.29895 -2.5 -0.663008 -2.5 0 
C -2.5 0.663008 -2.236584 1.29895 -1.767767 1.767767 
C -1.29895 2.236584 -0.663008 2.5 0 2.5 
z
" id="C1_0_2b145b7b53"/>
    </defs>
    <g clip-path="url(#pa0821a54a2)">
     <use style="fill:#404040;" x="325.44" xlink:href="#C1_0_2b145b7b53" y="294.182826"/>
    </g>
    <g clip-path="url(#pa0821a54a2)">
     <use style="fill:#404040;" x="325.44" xlink:href="#C1_0_2b145b7b53" y="294.182826"/>
    </g>
    <g clip-path="url(#pa0821a54a2)">
     <use style="fill:#404040;" x="325.44" xlink:href="#C1_0_2b145b7b53" y="294.182826"/>
    </g>
    <g clip-path="url(#pa0821a54a2)">
     <use style="fill:#404040;" x="320.910805" xlink:href="#C1_0_2b145b7b53" y="294.182826"/>
    </g>
    <g clip-path="url(#pa0821a54a2)">
     <use style="fill:#404040;" x="325.44" xlink:href="#C1_0_2b145b7b53" y="294.182826"/>
    </g>
    <g clip-path="url(#pa0821a54a2)">
     <use style="fill:#404040;" x="325.44" xlink:href="#C1_0_2b145b7b53" y="294.182826"/>
    </g>
    <g clip-path="url(#pa0821a54a2)">
     <use style="fill:#404040;" x="325.44" xlink:href="#C1_0_2b145b7b53" y="294.182826"/>
    </g>
    <g clip-path="url(#pa0821a54a2)">
     <use style="fill:#404040;" x="322.12681" xlink:href="#C1_0_2b145b7b53" y="294.182826"/>
    </g>
    <g clip-path="url(#pa0821a54a2)">
     <use style="fill:#404040;" x="325.44" xlink:href="#C1_0_2b145b7b53" y="294.182825"/>
    </g>
    <g clip-path="url(#pa0821a54a2)">
     <use style="fill:#404040;" x="325.44" xlink:href="#C1_0_2b145b7b53" y="294.182825"/>
    </g>
    <g clip-path="url(#pa0821a54a2)">
     <use style="fill:#404040;" x="320.193645" xlink:href="#C1_0_2b145b7b53" y="294.182825"/>
    </g>
    <g clip-path="url(#pa0821a54a2)">
     <use style="fill:#404040;" x="325.44" xlink:href="#C1_0_2b145b7b53" y="294.182825"/>
    </g>
    <g clip-path="url(#pa0821a54a2)">
     <use style="fill:#404040;" x="325.44" xlink:href="#C1_0_2b145b7b53" y="294.182825"/>
    </g>
    <g clip-path="url(#pa0821a54a2)">
     <use style="fill:#404040;" x="325.44" xlink:href="#C1_0_2b145b7b53" y="294.182825"/>
    </g>
    <g clip-path="url(#pa0821a54a2)">
     <use style="fill:#404040;" x="325.44" xlink:href="#C1_0_2b145b7b53" y="294.182825"/>
    </g>
    <g clip-path="url(#pa0821a54a2)">
     <use style="fill:#404040;" x="320.665225" xlink:href="#C1_0_2b145b7b53" y="294.182825"/>
    </g>
    <g clip-path="url(#pa0821a54a2)">
     <use style="fill:#404040;" x="325.44" xlink:href="#C1_0_2b145b7b53" y="294.182825"/>
    </g>
    <g clip-path="url(#pa0821a54a2)">
     <use style="fill:#404040;" x="320.289894" xlink:href="#C1_0_2b145b7b53" y="294.182825"/>
    </g>
    <g clip-path="url(#pa0821a54a2)">
     <use style="fill:#404040;" x="330.311029" xlink:href="#C1_0_2b145b7b53" y="294.182825"/>
    </g>
    <g clip-path="url(#pa0821a54a2)">
     <use style="fill:#404040;" x="315.738997" xlink:href="#C1_0_2b145b7b53" y="294.182825"/>
    </g>
    <g clip-path="url(#pa0821a54a2)">
     <use style="fill:#404040;" x="335.222275" xlink:href="#C1_0_2b145b7b53" y="294.182825"/>
    </g>
    <g clip-path="url(#pa0821a54a2)">
     <use style="fill:#404040;" x="310.564551" xlink:href="#C1_0_2b145b7b53" y="294.182825"/>
    </g>
    <g clip-path="url(#pa0821a54a2)">
     <use style="fill:#404040;" x="340.403195" xlink:href="#C1_0_2b145b7b53" y="294.182825"/>
    </g>
    <g clip-path="url(#pa0821a54a2)">
     <use style="fill:#404040;" x="305.327438" xlink:href="#C1_0_2b145b7b53" y="294.182825"/>
    </g>
    <g clip-path="url(#pa0821a54a2)">
     <use style="fill:#404040;" x="323.841545" xlink:href="#C1_0_2b145b7b53" y="294.182825"/>
    </g>
    <g clip-path="url(#pa0821a54a2)">
     <use style="fill:#404040;" x="345.632752" xlink:href="#C1_0_2b145b7b53" y="294.182825"/>
    </g>
    <g clip-path="url(#pa0821a54a2)">
     <use style="fill:#404040;" x="300.12662" xlink:href="#C1_0_2b145b7b53" y="294.182825"/>
    </g>
    <g clip-path="url(#pa0821a54a2)">
     <use style="fill:#404040;" x="350.850445" xlink:href="#C1_0_2b145b7b53" y="294.182825"/>
    </g>
    <g clip-path="url(#pa0821a54a2)">
     <use style="fill:#404040;" x="294.952698" xlink:href="#C1_0_2b145b7b53" y="294.182825"/>
    </g>
    <g clip-path="url(#pa0821a54a2)">
     <use style="fill:#404040;" x="356.013302" xlink:href="#C1_0_2b145b7b53" y="294.182825"/>
    </g>
    <g clip-path="url(#pa0821a54a2)">
     <use style="fill:#404040;" x="328.430526" xlink:href="#C1_0_2b145b7b53" y="294.182825"/>
    </g>
    <g clip-path="url(#pa0821a54a2)">
     <use style="fill:#404040;" x="319.354626" xlink:href="#C1_0_2b145b7b53" y="294.182825"/>
    </g>
    <g clip-path="url(#pa0821a54a2)">
     <use style="fill:#404040;" x="289.874443" xlink:href="#C1_0_2b145b7b53" y="294.182825"/>
    </g>
    <g clip-path="url(#pa0821a54a2)">
     <use style="fill:#404040;" x="361.063692" xlink:href="#C1_0_2b145b7b53" y="294.182825"/>
    </g>
    <g clip-path="url(#pa0821a54a2)">
     <use style="fill:#404040;" x="284.634893" xlink:href="#C1_0_2b145b7b53" y="294.182825"/>
    </g>
    <g clip-path="url(#pa0821a54a2)">
     <use style="fill:#404040;" x="366.307639" xlink:href="#C1_0_2b145b7b53" y="294.182825"/>
    </g>
    <g clip-path="url(#pa0821a54a2)">
     <use style="fill:#404040;" x="333.355035" xlink:href="#C1_0_2b145b7b53" y="294.182825"/>
    </g>
    <g clip-path="url(#pa0821a54a2)">
     <use style="fill:#404040;" x="314.240546" xlink:href="#C1_0_2b145b7b53" y="294.182825"/>
    </g>
    <g clip-path="url(#pa0821a54a2)">
     <use style="fill:#404040;" x="279.457917" xlink:href="#C1_0_2b145b7b53" y="294.182825"/>
    </g>
    <g clip-path="url(#pa0821a54a2)">
     <use style="fill:#404040;" x="371.491865" xlink:href="#C1_0_2b145b7b53" y="294.182825"/>
    </g>
    <g clip-path="url(#pa0821a54a2)">
     <use style="fill:#404040;" x="308.288349" xlink:href="#C1_0_2b145b7b53" y="294.182825"/>
    </g>
    <g clip-path="url(#pa0821a54a2)">
     <use style="fill:#404040;" x="274.211828" xlink:href="#C1_0_2b145b7b53" y="294.182825"/>
    </g>
    <g clip-path="url(#pa0821a54a2)">
     <use style="fill:#404040;" x="376.740946" xlink:href="#C1_0_2b145b7b53" y="294.182825"/>
    </g>
    <g clip-path="url(#pa0821a54a2)">
     <use style="fill:#404040;" x="268.962395" xlink:href="#C1_0_2b145b7b53" y="294.182825"/>
    </g>
    <g clip-path="url(#pa0821a54a2)">
     <use style="fill:#404040;" x="342.689272" xlink:href="#C1_0_2b145b7b53" y="294.182825"/>
    </g>
    <g clip-path="url(#pa0821a54a2)">
     <use style="fill:#404040;" x="381.989484" xlink:href="#C1_0_2b145b7b53" y="294.182825"/>
    </g>
    <g clip-path="url(#pa0821a54a2)">
     <use style="fill:#404040;" x="263.714469" xlink:href="#C1_0_2b145b7b53" y="294.182825"/>
    </g>
    <g clip-path="url(#pa0821a54a2)">
     <use style="fill:#404040;" x="387.238764" xlink:href="#C1_0_2b145b7b53" y="294.182825"/>
    </g>
    <g clip-path="url(#pa0821a54a2)">
     <use style="fill:#404040;" x="258.464973" xlink:href="#C1_0_2b145b7b53" y="294.182825"/>
    </g>
   </g>
   <g id="PathCollection_3">
    <defs>
     <path d="M 0 2.5 
C 0.663008 2.5 1.29895 2.236584 1.767767 1.767767 
C 2.236584 1.29895 2.5 0.663008 2.5 0 
C 2.5 -0.663008 2.236584 -1.29895 1.767767 -1.767767 
C 1.29895 -2.236584 0.663008 -2.5 0 -2.5 
C -0.663008 -2.5 -1.29895 -2.236584 -1.767767 -1.767767 
C -2.236584 -1.29895 -2.5 -0.663008 -2.5 0 
C -2.5 0.663008 -2.236584 1.29895 -1.767767 1.767767 
C -1.29895 2.236584 -0.663008 2.5 0 2.5 
z
" id="C2_0_d463045bc8"/>
    </defs>
    <g clip-path="url(#pa0821a54a2)">
     <use style="fill:#404040;" x="146.88" xlink:href="#C2_0_d463045bc8" y="294.178215"/>
    </g>
    <g clip-path="url(#pa0821a54a2)">
     <use style="fill:#404040;" x="141.630401" xlink:href="#C2_0_d463045bc8" y="294.116422"/>
    </g>
    <g clip-path="url(#pa0821a54a2)">
     <use style="fill:#404040;" x="152.127865" xlink:href="#C2_0_d463045bc8" y="294.035638"/>
    </g>
    <g clip-path="url(#pa0821a54a2)">
     <use style="fill:#404040;" x="157.377793" xlink:href="#C2_0_d463045bc8" y="294.009402"/>
    </g>
    <g clip-path="url(#pa0821a54a2)">
     <use style="fill:#404040;" x="136.38191" xlink:href="#C2_0_d463045bc8" y="293.99655"/>
    </g>
    <g clip-path="url(#pa0821a54a2)">
     <use style="fill:#404040;" x="162.627504" xlink:href="#C2_0_d463045bc8" y="293.956929"/>
    </g>
    <g clip-path="url(#pa0821a54a2)">
     <use style="fill:#404040;" x="131.135754" xlink:href="#C2_0_d463045bc8" y="293.805237"/>
    </g>
    <g clip-path="url(#pa0821a54a2)">
     <use style="fill:#404040;" x="167.869211" xlink:href="#C2_0_d463045bc8" y="293.676007"/>
    </g>
    <g clip-path="url(#pa0821a54a2)">
     <use style="fill:#404040;" x="125.888161" xlink:href="#C2_0_d463045bc8" y="293.653859"/>
    </g>
    <g clip-path="url(#pa0821a54a2)">
     <use style="fill:#404040;" x="173.111744" xlink:href="#C2_0_d463045bc8" y="293.409428"/>
    </g>
    <g clip-path="url(#pa0821a54a2)">
     <use style="fill:#404040;" x="120.715939" xlink:href="#C2_0_d463045bc8" y="292.796389"/>
    </g>
    <g clip-path="url(#pa0821a54a2)">
     <use style="fill:#404040;" x="115.466208" xlink:href="#C2_0_d463045bc8" y="292.745811"/>
    </g>
    <g clip-path="url(#pa0821a54a2)">
     <use style="fill:#404040;" x="178.2129" xlink:href="#C2_0_d463045bc8" y="292.227283"/>
    </g>
    <g clip-path="url(#pa0821a54a2)">
     <use style="fill:#404040;" x="110.39422" xlink:href="#C2_0_d463045bc8" y="291.454838"/>
    </g>
    <g clip-path="url(#pa0821a54a2)">
     <use style="fill:#404040;" x="183.378406" xlink:href="#C2_0_d463045bc8" y="291.333848"/>
    </g>
    <g clip-path="url(#pa0821a54a2)">
     <use style="fill:#404040;" x="144.86704" xlink:href="#C2_0_d463045bc8" y="289.560347"/>
    </g>
    <g clip-path="url(#pa0821a54a2)">
     <use style="fill:#404040;" x="149.138439" xlink:href="#C2_0_d463045bc8" y="286.65322"/>
    </g>
    <g clip-path="url(#pa0821a54a2)">
     <use style="fill:#404040;" x="144.795709" xlink:href="#C2_0_d463045bc8" y="283.843583"/>
    </g>
    <g clip-path="url(#pa0821a54a2)">
     <use style="fill:#404040;" x="152.229996" xlink:href="#C2_0_d463045bc8" y="282.612074"/>
    </g>
    <g clip-path="url(#pa0821a54a2)">
     <use style="fill:#404040;" x="140.494165" xlink:href="#C2_0_d463045bc8" y="280.977056"/>
    </g>
    <g clip-path="url(#pa0821a54a2)">
     <use style="fill:#404040;" x="146.88" xlink:href="#C2_0_d463045bc8" y="277.818145"/>
    </g>
    <g clip-path="url(#pa0821a54a2)">
     <use style="fill:#404040;" x="142.328989" xlink:href="#C2_0_d463045bc8" y="275.32538"/>
    </g>
    <g clip-path="url(#pa0821a54a2)">
     <use style="fill:#404040;" x="150.497108" xlink:href="#C2_0_d463045bc8" y="274.19421"/>
    </g>
    <g clip-path="url(#pa0821a54a2)">
     <use style="fill:#404040;" x="155.433148" xlink:href="#C2_0_d463045bc8" y="272.491068"/>
    </g>
    <g clip-path="url(#pa0821a54a2)">
     <use style="fill:#404040;" x="146.88" xlink:href="#C2_0_d463045bc8" y="269.434944"/>
    </g>
    <g clip-path="url(#pa0821a54a2)">
     <use style="fill:#404040;" x="141.630187" xlink:href="#C2_0_d463045bc8" y="269.392741"/>
    </g>
    <g clip-path="url(#pa0821a54a2)">
     <use style="fill:#404040;" x="151.872816" xlink:href="#C2_0_d463045bc8" y="267.889183"/>
    </g>
    <g clip-path="url(#pa0821a54a2)">
     <use style="fill:#404040;" x="137.255264" xlink:href="#C2_0_d463045bc8" y="266.628777"/>
    </g>
    <g clip-path="url(#pa0821a54a2)">
     <use style="fill:#404040;" x="156.909953" xlink:href="#C2_0_d463045bc8" y="266.479869"/>
    </g>
    <g clip-path="url(#pa0821a54a2)">
     <use style="fill:#404040;" x="146.88" xlink:href="#C2_0_d463045bc8" y="264.357465"/>
    </g>
    <g clip-path="url(#pa0821a54a2)">
     <use style="fill:#404040;" x="142.274092" xlink:href="#C2_0_d463045bc8" y="261.957898"/>
    </g>
    <g clip-path="url(#pa0821a54a2)">
     <use style="fill:#404040;" x="151.029427" xlink:href="#C2_0_d463045bc8" y="261.294297"/>
    </g>
    <g clip-path="url(#pa0821a54a2)">
     <use style="fill:#404040;" x="155.958167" xlink:href="#C2_0_d463045bc8" y="259.572088"/>
    </g>
    <g clip-path="url(#pa0821a54a2)">
     <use style="fill:#404040;" x="137.94531" xlink:href="#C2_0_d463045bc8" y="259.128806"/>
    </g>
    <g clip-path="url(#pa0821a54a2)">
     <use style="fill:#404040;" x="146.88" xlink:href="#C2_0_d463045bc8" y="255.528695"/>
    </g>
    <g clip-path="url(#pa0821a54a2)">
     <use style="fill:#404040;" x="141.643385" xlink:href="#C2_0_d463045bc8" y="255.171881"/>
    </g>
    <g clip-path="url(#pa0821a54a2)">
     <use style="fill:#404040;" x="152.097341" xlink:href="#C2_0_d463045bc8" y="254.971851"/>
    </g>
    <g clip-path="url(#pa0821a54a2)">
     <use style="fill:#404040;" x="146.88" xlink:href="#C2_0_d463045bc8" y="247.491031"/>
    </g>
    <g clip-path="url(#pa0821a54a2)">
     <use style="fill:#404040;" x="142.1099" xlink:href="#C2_0_d463045bc8" y="245.402591"/>
    </g>
    <g clip-path="url(#pa0821a54a2)">
     <use style="fill:#404040;" x="146.88" xlink:href="#C2_0_d463045bc8" y="239.22183"/>
    </g>
    <g clip-path="url(#pa0821a54a2)">
     <use style="fill:#404040;" x="146.88" xlink:href="#C2_0_d463045bc8" y="229.791139"/>
    </g>
    <g clip-path="url(#pa0821a54a2)">
     <use style="fill:#404040;" x="146.88" xlink:href="#C2_0_d463045bc8" y="220.437686"/>
    </g>
    <g clip-path="url(#pa0821a54a2)">
     <use style="fill:#404040;" x="143.285148" xlink:href="#C2_0_d463045bc8" y="216.79372"/>
    </g>
    <g clip-path="url(#pa0821a54a2)">
     <use style="fill:#404040;" x="148.961819" xlink:href="#C2_0_d463045bc8" y="215.847592"/>
    </g>
    <g clip-path="url(#pa0821a54a2)">
     <use style="fill:#404040;" x="145.441355" xlink:href="#C2_0_d463045bc8" y="212.138336"/>
    </g>
    <g clip-path="url(#pa0821a54a2)">
     <use style="fill:#404040;" x="146.88" xlink:href="#C2_0_d463045bc8" y="204.904737"/>
    </g>
    <g clip-path="url(#pa0821a54a2)">
     <use style="fill:#404040;" x="146.88" xlink:href="#C2_0_d463045bc8" y="186.244144"/>
    </g>
    <g clip-path="url(#pa0821a54a2)">
     <use style="fill:#404040;" x="146.88" xlink:href="#C2_0_d463045bc8" y="179.686634"/>
    </g>
    <g clip-path="url(#pa0821a54a2)">
     <use style="fill:#404040;" x="142.00547" xlink:href="#C2_0_d463045bc8" y="177.829746"/>
    </g>
   </g>
   <g id="PathCollection_4">
    <defs>
     <path d="M 0 2.5 
C 0.663008 2.5 1.29895 2.236584 1.767767 1.767767 
C 2.236584 1.29895 2.5 0.663008 2.5 0 
C 2.5 -0.663008 2.236584 -1.29895 1.767767 -1.767767 
C 1.29895 -2.236584 0.663008 -2.5 0 -2.5 
C -0.663008 -2.5 -1.29895 -2.236584 -1.767767 -1.767767 
C -2.236584 -1.29895 -2.5 -0.663008 -2.5 0 
C -2.5 0.663008 -2.236584 1.29895 -1.767767 1.767767 
C -1.29895 2.236584 -0.663008 2.5 0 2.5 
z
" id="C3_0_d6f0866a84"/>
    </defs>
    <g clip-path="url(#pa0821a54a2)">
     <use style="fill:#404040;" x="325.44" xlink:href="#C3_0_d6f0866a84" y="294.178446"/>
    </g>
    <g clip-path="url(#pa0821a54a2)">
     <use style="fill:#404040;" x="320.243334" xlink:href="#C3_0_d6f0866a84" y="293.467555"/>
    </g>
    <g clip-path="url(#pa0821a54a2)">
     <use style="fill:#404040;" x="330.149305" xlink:href="#C3_0_d6f0866a84" y="291.9684"/>
    </g>
    <g clip-path="url(#pa0821a54a2)">
     <use style="fill:#404040;" x="316.641236" xlink:href="#C3_0_d6f0866a84" y="289.830084"/>
    </g>
    <g clip-path="url(#pa0821a54a2)">
     <use style="fill:#404040;" x="325.44" xlink:href="#C3_0_d6f0866a84" y="283.034057"/>
    </g>
    <g clip-path="url(#pa0821a54a2)">
     <use style="fill:#404040;" x="325.44" xlink:href="#C3_0_d6f0866a84" y="276.137905"/>
    </g>
    <g clip-path="url(#pa0821a54a2)">
     <use style="fill:#404040;" x="320.326364" xlink:href="#C3_0_d6f0866a84" y="275.005723"/>
    </g>
    <g clip-path="url(#pa0821a54a2)">
     <use style="fill:#404040;" x="330.374864" xlink:href="#C3_0_d6f0866a84" y="274.431676"/>
    </g>
    <g clip-path="url(#pa0821a54a2)">
     <use style="fill:#404040;" x="316.185915" xlink:href="#C3_0_d6f0866a84" y="271.931555"/>
    </g>
    <g clip-path="url(#pa0821a54a2)">
     <use style="fill:#404040;" x="325.44" xlink:href="#C3_0_d6f0866a84" y="271.118508"/>
    </g>
    <g clip-path="url(#pa0821a54a2)">
     <use style="fill:#404040;" x="330.884764" xlink:href="#C3_0_d6f0866a84" y="269.455314"/>
    </g>
    <g clip-path="url(#pa0821a54a2)">
     <use style="fill:#404040;" x="320.643202" xlink:href="#C3_0_d6f0866a84" y="269.086288"/>
    </g>
    <g clip-path="url(#pa0821a54a2)">
     <use style="fill:#404040;" x="335.917703" xlink:href="#C3_0_d6f0866a84" y="268.032459"/>
    </g>
    <g clip-path="url(#pa0821a54a2)">
     <use style="fill:#404040;" x="325.44" xlink:href="#C3_0_d6f0866a84" y="265.86332"/>
    </g>
    <g clip-path="url(#pa0821a54a2)">
     <use style="fill:#404040;" x="330.359967" xlink:href="#C3_0_d6f0866a84" y="264.118506"/>
    </g>
    <g clip-path="url(#pa0821a54a2)">
     <use style="fill:#404040;" x="325.44" xlink:href="#C3_0_d6f0866a84" y="259.424231"/>
    </g>
    <g clip-path="url(#pa0821a54a2)">
     <use style="fill:#404040;" x="320.190027" xlink:href="#C3_0_d6f0866a84" y="259.408295"/>
    </g>
    <g clip-path="url(#pa0821a54a2)">
     <use style="fill:#404040;" x="328.7635" xlink:href="#C3_0_d6f0866a84" y="255.553667"/>
    </g>
    <g clip-path="url(#pa0821a54a2)">
     <use style="fill:#404040;" x="323.793496" xlink:href="#C3_0_d6f0866a84" y="253.942606"/>
    </g>
    <g clip-path="url(#pa0821a54a2)">
     <use style="fill:#404040;" x="330.003138" xlink:href="#C3_0_d6f0866a84" y="250.695049"/>
    </g>
    <g clip-path="url(#pa0821a54a2)">
     <use style="fill:#404040;" x="325.44" xlink:href="#C3_0_d6f0866a84" y="247.196641"/>
    </g>
    <g clip-path="url(#pa0821a54a2)">
     <use style="fill:#404040;" x="320.775765" xlink:href="#C3_0_d6f0866a84" y="244.901538"/>
    </g>
    <g clip-path="url(#pa0821a54a2)">
     <use style="fill:#404040;" x="329.546127" xlink:href="#C3_0_d6f0866a84" y="244.080998"/>
    </g>
    <g clip-path="url(#pa0821a54a2)">
     <use style="fill:#404040;" x="334.787791" xlink:href="#C3_0_d6f0866a84" y="243.799356"/>
    </g>
    <g clip-path="url(#pa0821a54a2)">
     <use style="fill:#404040;" x="315.656641" xlink:href="#C3_0_d6f0866a84" y="243.79208"/>
    </g>
    <g clip-path="url(#pa0821a54a2)">
     <use style="fill:#404040;" x="325.44" xlink:href="#C3_0_d6f0866a84" y="238.592036"/>
    </g>
    <g clip-path="url(#pa0821a54a2)">
     <use style="fill:#404040;" x="320.281732" xlink:href="#C3_0_d6f0866a84" y="237.66144"/>
    </g>
    <g clip-path="url(#pa0821a54a2)">
     <use style="fill:#404040;" x="330.111632" xlink:href="#C3_0_d6f0866a84" y="236.31062"/>
    </g>
    <g clip-path="url(#pa0821a54a2)">
     <use style="fill:#404040;" x="325.44" xlink:href="#C3_0_d6f0866a84" y="232.129444"/>
    </g>
    <g clip-path="url(#pa0821a54a2)">
     <use style="fill:#404040;" x="320.58091" xlink:href="#C3_0_d6f0866a84" y="230.236206"/>
    </g>
    <g clip-path="url(#pa0821a54a2)">
     <use style="fill:#404040;" x="329.962588" xlink:href="#C3_0_d6f0866a84" y="229.590192"/>
    </g>
    <g clip-path="url(#pa0821a54a2)">
     <use style="fill:#404040;" x="335.131027" xlink:href="#C3_0_d6f0866a84" y="228.712275"/>
    </g>
    <g clip-path="url(#pa0821a54a2)">
     <use style="fill:#404040;" x="325.44" xlink:href="#C3_0_d6f0866a84" y="222.921618"/>
    </g>
    <g clip-path="url(#pa0821a54a2)">
     <use style="fill:#404040;" x="320.844533" xlink:href="#C3_0_d6f0866a84" y="220.503962"/>
    </g>
    <g clip-path="url(#pa0821a54a2)">
     <use style="fill:#404040;" x="325.44" xlink:href="#C3_0_d6f0866a84" y="204.474107"/>
    </g>
    <g clip-path="url(#pa0821a54a2)">
     <use style="fill:#404040;" x="320.206368" xlink:href="#C3_0_d6f0866a84" y="204.079593"/>
    </g>
    <g clip-path="url(#pa0821a54a2)">
     <use style="fill:#404040;" x="330.239809" xlink:href="#C3_0_d6f0866a84" y="202.448347"/>
    </g>
    <g clip-path="url(#pa0821a54a2)">
     <use style="fill:#404040;" x="315.459238" xlink:href="#C3_0_d6f0866a84" y="201.944208"/>
    </g>
    <g clip-path="url(#pa0821a54a2)">
     <use style="fill:#404040;" x="325.44" xlink:href="#C3_0_d6f0866a84" y="192.561743"/>
    </g>
    <g clip-path="url(#pa0821a54a2)">
     <use style="fill:#404040;" x="320.629699" xlink:href="#C3_0_d6f0866a84" y="190.558683"/>
    </g>
    <g clip-path="url(#pa0821a54a2)">
     <use style="fill:#404040;" x="329.944625" xlink:href="#C3_0_d6f0866a84" y="189.993693"/>
    </g>
    <g clip-path="url(#pa0821a54a2)">
     <use style="fill:#404040;" x="325.44" xlink:href="#C3_0_d6f0866a84" y="176.524097"/>
    </g>
    <g clip-path="url(#pa0821a54a2)">
     <use style="fill:#404040;" x="320.212516" xlink:href="#C3_0_d6f0866a84" y="176.061518"/>
    </g>
    <g clip-path="url(#pa0821a54a2)">
     <use style="fill:#404040;" x="330.312991" xlink:href="#C3_0_d6f0866a84" y="174.663548"/>
    </g>
    <g clip-path="url(#pa0821a54a2)">
     <use style="fill:#404040;" x="325.44" xlink:href="#C3_0_d6f0866a84" y="171.327217"/>
    </g>
    <g clip-path="url(#pa0821a54a2)">
     <use style="fill:#404040;" x="318.546704" xlink:href="#C3_0_d6f0866a84" y="171.319888"/>
    </g>
    <g clip-path="url(#pa0821a54a2)">
     <use style="fill:#404040;" x="325.44" xlink:href="#C3_0_d6f0866a84" y="119.474055"/>
    </g>
    <g clip-path="url(#pa0821a54a2)">
     <use style="fill:#404040;" x="325.44" xlink:href="#C3_0_d6f0866a84" y="83.995143"/>
    </g>
    <g clip-path="url(#pa0821a54a2)">
     <use style="fill:#404040;" x="325.44" xlink:href="#C3_0_d6f0866a84" y="54.877554"/>
    </g>
   </g>
  </g>
 </g>
 <defs>
  <clipPath id="pa0821a54a2">
   <rect height="266.112" width="357.12" x="57.6" y="41.472"/>
  </clipPath>
 </defs>
</svg>
