<?xml version="1.0" encoding="utf-8" standalone="no"?>
<!DOCTYPE svg PUBLIC "-//W3C//DTD SVG 1.1//EN"
  "http://www.w3.org/Graphics/SVG/1.1/DTD/svg11.dtd">
<!-- Created with matplotlib (https://matplotlib.org/) -->
<svg height="345.6pt" version="1.1" viewBox="0 0 460.8 345.6" width="460.8pt" xmlns="http://www.w3.org/2000/svg" xmlns:xlink="http://www.w3.org/1999/xlink">
 <defs>
  <style type="text/css">
*{stroke-linecap:butt;stroke-linejoin:round;}
  </style>
 </defs>
 <g id="figure_1">
  <g id="patch_1">
   <path d="M 0 345.6 
L 460.8 345.6 
L 460.8 0 
L 0 0 
z
" style="fill:#ffffff;"/>
  </g>
  <g id="axes_1">
   <g id="patch_2">
    <path d="M 57.6 307.584 
L 414.72 307.584 
L 414.72 41.472 
L 57.6 41.472 
z
" style="fill:#eaeaf2;"/>
   </g>
   <g id="matplotlib.axis_1">
    <g id="xtick_1">
     <g id="text_1">
      <!-- saponin 5% -->
      <defs>
       <path d="M 3.078125 15.484375 
L 11.765625 16.84375 
Q 12.5 11.625 15.84375 8.84375 
Q 19.1875 6.0625 25.203125 6.0625 
Q 31.25 6.0625 34.171875 8.515625 
Q 37.109375 10.984375 37.109375 14.3125 
Q 37.109375 17.28125 34.515625 19 
Q 32.71875 20.171875 25.53125 21.96875 
Q 15.875 24.421875 12.140625 26.203125 
Q 8.40625 27.984375 6.46875 31.125 
Q 4.546875 34.28125 4.546875 38.09375 
Q 4.546875 41.546875 6.125 44.5 
Q 7.71875 47.46875 10.453125 49.421875 
Q 12.5 50.921875 16.03125 51.96875 
Q 19.578125 53.03125 23.640625 53.03125 
Q 29.734375 53.03125 34.34375 51.265625 
Q 38.96875 49.515625 41.15625 46.5 
Q 43.359375 43.5 44.1875 38.484375 
L 35.59375 37.3125 
Q 35.015625 41.3125 32.203125 43.546875 
Q 29.390625 45.796875 24.265625 45.796875 
Q 18.21875 45.796875 15.625 43.796875 
Q 13.03125 41.796875 13.03125 39.109375 
Q 13.03125 37.40625 14.109375 36.03125 
Q 15.1875 34.625 17.484375 33.6875 
Q 18.796875 33.203125 25.25 31.453125 
Q 34.578125 28.953125 38.25 27.359375 
Q 41.9375 25.78125 44.03125 22.75 
Q 46.140625 19.734375 46.140625 15.234375 
Q 46.140625 10.84375 43.578125 6.953125 
Q 41.015625 3.078125 36.171875 0.953125 
Q 31.34375 -1.171875 25.25 -1.171875 
Q 15.140625 -1.171875 9.84375 3.03125 
Q 4.546875 7.234375 3.078125 15.484375 
z
" id="ArialMT-115"/>
       <path d="M 40.4375 6.390625 
Q 35.546875 2.25 31.03125 0.53125 
Q 26.515625 -1.171875 21.34375 -1.171875 
Q 12.796875 -1.171875 8.203125 3 
Q 3.609375 7.171875 3.609375 13.671875 
Q 3.609375 17.484375 5.34375 20.625 
Q 7.078125 23.78125 9.890625 25.6875 
Q 12.703125 27.59375 16.21875 28.5625 
Q 18.796875 29.25 24.03125 29.890625 
Q 34.671875 31.15625 39.703125 32.90625 
Q 39.75 34.71875 39.75 35.203125 
Q 39.75 40.578125 37.25 42.78125 
Q 33.890625 45.75 27.25 45.75 
Q 21.046875 45.75 18.09375 43.578125 
Q 15.140625 41.40625 13.71875 35.890625 
L 5.125 37.0625 
Q 6.296875 42.578125 8.984375 45.96875 
Q 11.671875 49.359375 16.75 51.1875 
Q 21.828125 53.03125 28.515625 53.03125 
Q 35.15625 53.03125 39.296875 51.46875 
Q 43.453125 49.90625 45.40625 47.53125 
Q 47.359375 45.171875 48.140625 41.546875 
Q 48.578125 39.3125 48.578125 33.453125 
L 48.578125 21.734375 
Q 48.578125 9.46875 49.140625 6.21875 
Q 49.703125 2.984375 51.375 0 
L 42.1875 0 
Q 40.828125 2.734375 40.4375 6.390625 
z
M 39.703125 26.03125 
Q 34.90625 24.078125 25.34375 22.703125 
Q 19.921875 21.921875 17.671875 20.9375 
Q 15.4375 19.96875 14.203125 18.09375 
Q 12.984375 16.21875 12.984375 13.921875 
Q 12.984375 10.40625 15.640625 8.0625 
Q 18.3125 5.71875 23.4375 5.71875 
Q 28.515625 5.71875 32.46875 7.9375 
Q 36.421875 10.15625 38.28125 14.015625 
Q 39.703125 17 39.703125 22.796875 
z
" id="ArialMT-97"/>
       <path d="M 6.59375 -19.875 
L 6.59375 51.859375 
L 14.59375 51.859375 
L 14.59375 45.125 
Q 17.4375 49.078125 21 51.046875 
Q 24.5625 53.03125 29.640625 53.03125 
Q 36.28125 53.03125 41.359375 49.609375 
Q 46.4375 46.1875 49.015625 39.953125 
Q 51.609375 33.734375 51.609375 26.3125 
Q 51.609375 18.359375 48.75 11.984375 
Q 45.90625 5.609375 40.453125 2.21875 
Q 35.015625 -1.171875 29 -1.171875 
Q 24.609375 -1.171875 21.109375 0.6875 
Q 17.625 2.546875 15.375 5.375 
L 15.375 -19.875 
z
M 14.546875 25.640625 
Q 14.546875 15.625 18.59375 10.84375 
Q 22.65625 6.0625 28.421875 6.0625 
Q 34.28125 6.0625 38.453125 11.015625 
Q 42.625 15.96875 42.625 26.375 
Q 42.625 36.28125 38.546875 41.203125 
Q 34.46875 46.140625 28.8125 46.140625 
Q 23.1875 46.140625 18.859375 40.890625 
Q 14.546875 35.640625 14.546875 25.640625 
z
" id="ArialMT-112"/>
       <path d="M 3.328125 25.921875 
Q 3.328125 40.328125 11.328125 47.265625 
Q 18.015625 53.03125 27.640625 53.03125 
Q 38.328125 53.03125 45.109375 46.015625 
Q 51.90625 39.015625 51.90625 26.65625 
Q 51.90625 16.65625 48.90625 10.90625 
Q 45.90625 5.171875 40.15625 2 
Q 34.421875 -1.171875 27.640625 -1.171875 
Q 16.75 -1.171875 10.03125 5.8125 
Q 3.328125 12.796875 3.328125 25.921875 
z
M 12.359375 25.921875 
Q 12.359375 15.96875 16.703125 11.015625 
Q 21.046875 6.0625 27.640625 6.0625 
Q 34.1875 6.0625 38.53125 11.03125 
Q 42.875 16.015625 42.875 26.21875 
Q 42.875 35.84375 38.5 40.796875 
Q 34.125 45.75 27.640625 45.75 
Q 21.046875 45.75 16.703125 40.8125 
Q 12.359375 35.890625 12.359375 25.921875 
z
" id="ArialMT-111"/>
       <path d="M 6.59375 0 
L 6.59375 51.859375 
L 14.5 51.859375 
L 14.5 44.484375 
Q 20.21875 53.03125 31 53.03125 
Q 35.6875 53.03125 39.625 51.34375 
Q 43.5625 49.65625 45.515625 46.921875 
Q 47.46875 44.1875 48.25 40.4375 
Q 48.734375 37.984375 48.734375 31.890625 
L 48.734375 0 
L 39.9375 0 
L 39.9375 31.546875 
Q 39.9375 36.921875 38.90625 39.578125 
Q 37.890625 42.234375 35.28125 43.8125 
Q 32.671875 45.40625 29.15625 45.40625 
Q 23.53125 45.40625 19.453125 41.84375 
Q 15.375 38.28125 15.375 28.328125 
L 15.375 0 
z
" id="ArialMT-110"/>
       <path d="M 6.640625 61.46875 
L 6.640625 71.578125 
L 15.4375 71.578125 
L 15.4375 61.46875 
z
M 6.640625 0 
L 6.640625 51.859375 
L 15.4375 51.859375 
L 15.4375 0 
z
" id="ArialMT-105"/>
       <path id="ArialMT-32"/>
       <path d="M 4.15625 18.75 
L 13.375 19.53125 
Q 14.40625 12.796875 18.140625 9.390625 
Q 21.875 6 27.15625 6 
Q 33.5 6 37.890625 10.78125 
Q 42.28125 15.578125 42.28125 23.484375 
Q 42.28125 31 38.0625 35.34375 
Q 33.84375 39.703125 27 39.703125 
Q 22.75 39.703125 19.328125 37.765625 
Q 15.921875 35.84375 13.96875 32.765625 
L 5.71875 33.84375 
L 12.640625 70.609375 
L 48.25 70.609375 
L 48.25 62.203125 
L 19.671875 62.203125 
L 15.828125 42.96875 
Q 22.265625 47.46875 29.34375 47.46875 
Q 38.71875 47.46875 45.15625 40.96875 
Q 51.609375 34.46875 51.609375 24.265625 
Q 51.609375 14.546875 45.953125 7.46875 
Q 39.0625 -1.21875 27.15625 -1.21875 
Q 17.390625 -1.21875 11.203125 4.25 
Q 5.03125 9.71875 4.15625 18.75 
z
" id="ArialMT-53"/>
       <path d="M 5.8125 54.390625 
Q 5.8125 62.0625 9.671875 67.421875 
Q 13.53125 72.796875 20.84375 72.796875 
Q 27.59375 72.796875 32 67.984375 
Q 36.421875 63.1875 36.421875 53.859375 
Q 36.421875 44.78125 31.953125 39.875 
Q 27.484375 34.96875 20.953125 34.96875 
Q 14.453125 34.96875 10.125 39.796875 
Q 5.8125 44.625 5.8125 54.390625 
z
M 21.09375 66.75 
Q 17.828125 66.75 15.65625 63.90625 
Q 13.484375 61.078125 13.484375 53.515625 
Q 13.484375 46.625 15.671875 43.8125 
Q 17.875 41.015625 21.09375 41.015625 
Q 24.421875 41.015625 26.59375 43.84375 
Q 28.765625 46.6875 28.765625 54.203125 
Q 28.765625 61.140625 26.5625 63.9375 
Q 24.359375 66.75 21.09375 66.75 
z
M 21.140625 -2.640625 
L 60.296875 72.796875 
L 67.4375 72.796875 
L 28.421875 -2.640625 
z
M 52.09375 16.796875 
Q 52.09375 24.515625 55.953125 29.859375 
Q 59.8125 35.203125 67.1875 35.203125 
Q 73.921875 35.203125 78.34375 30.390625 
Q 82.765625 25.59375 82.765625 16.265625 
Q 82.765625 7.171875 78.296875 2.265625 
Q 73.828125 -2.640625 67.234375 -2.640625 
Q 60.75 -2.640625 56.421875 2.21875 
Q 52.09375 7.078125 52.09375 16.796875 
z
M 67.4375 29.15625 
Q 64.109375 29.15625 61.9375 26.3125 
Q 59.765625 23.484375 59.765625 15.921875 
Q 59.765625 9.078125 61.953125 6.25 
Q 64.15625 3.421875 67.390625 3.421875 
Q 70.75 3.421875 72.921875 6.25 
Q 75.09375 9.078125 75.09375 16.609375 
Q 75.09375 23.53125 72.890625 26.34375 
Q 70.703125 29.15625 67.4375 29.15625 
z
" id="ArialMT-37"/>
      </defs>
      <g style="fill:#262626;" transform="translate(120.751094 321.863687)scale(0.1 -0.1)">
       <use xlink:href="#ArialMT-115"/>
       <use x="50" xlink:href="#ArialMT-97"/>
       <use x="105.615234" xlink:href="#ArialMT-112"/>
       <use x="161.230469" xlink:href="#ArialMT-111"/>
       <use x="216.845703" xlink:href="#ArialMT-110"/>
       <use x="272.460938" xlink:href="#ArialMT-105"/>
       <use x="294.677734" xlink:href="#ArialMT-110"/>
       <use x="350.292969" xlink:href="#ArialMT-32"/>
       <use x="378.076172" xlink:href="#ArialMT-53"/>
       <use x="433.691406" xlink:href="#ArialMT-37"/>
      </g>
     </g>
    </g>
    <g id="xtick_2">
     <g id="text_2">
      <!-- filter 5μM -->
      <defs>
       <path d="M 8.6875 0 
L 8.6875 45.015625 
L 0.921875 45.015625 
L 0.921875 51.859375 
L 8.6875 51.859375 
L 8.6875 57.375 
Q 8.6875 62.59375 9.625 65.140625 
Q 10.890625 68.5625 14.078125 70.671875 
Q 17.28125 72.796875 23.046875 72.796875 
Q 26.765625 72.796875 31.25 71.921875 
L 29.9375 64.265625 
Q 27.203125 64.75 24.75 64.75 
Q 20.75 64.75 19.09375 63.03125 
Q 17.4375 61.328125 17.4375 56.640625 
L 17.4375 51.859375 
L 27.546875 51.859375 
L 27.546875 45.015625 
L 17.4375 45.015625 
L 17.4375 0 
z
" id="ArialMT-102"/>
       <path d="M 6.390625 0 
L 6.390625 71.578125 
L 15.1875 71.578125 
L 15.1875 0 
z
" id="ArialMT-108"/>
       <path d="M 25.78125 7.859375 
L 27.046875 0.09375 
Q 23.34375 -0.6875 20.40625 -0.6875 
Q 15.625 -0.6875 12.984375 0.828125 
Q 10.359375 2.34375 9.28125 4.8125 
Q 8.203125 7.28125 8.203125 15.1875 
L 8.203125 45.015625 
L 1.765625 45.015625 
L 1.765625 51.859375 
L 8.203125 51.859375 
L 8.203125 64.703125 
L 16.9375 69.96875 
L 16.9375 51.859375 
L 25.78125 51.859375 
L 25.78125 45.015625 
L 16.9375 45.015625 
L 16.9375 14.703125 
Q 16.9375 10.9375 17.40625 9.859375 
Q 17.875 8.796875 18.921875 8.15625 
Q 19.96875 7.515625 21.921875 7.515625 
Q 23.390625 7.515625 25.78125 7.859375 
z
" id="ArialMT-116"/>
       <path d="M 42.09375 16.703125 
L 51.171875 15.578125 
Q 49.03125 7.625 43.21875 3.21875 
Q 37.40625 -1.171875 28.375 -1.171875 
Q 17 -1.171875 10.328125 5.828125 
Q 3.65625 12.84375 3.65625 25.484375 
Q 3.65625 38.578125 10.390625 45.796875 
Q 17.140625 53.03125 27.875 53.03125 
Q 38.28125 53.03125 44.875 45.953125 
Q 51.46875 38.875 51.46875 26.03125 
Q 51.46875 25.25 51.421875 23.6875 
L 12.75 23.6875 
Q 13.234375 15.140625 17.578125 10.59375 
Q 21.921875 6.0625 28.421875 6.0625 
Q 33.25 6.0625 36.671875 8.59375 
Q 40.09375 11.140625 42.09375 16.703125 
z
M 13.234375 30.90625 
L 42.1875 30.90625 
Q 41.609375 37.453125 38.875 40.71875 
Q 34.671875 45.796875 27.984375 45.796875 
Q 21.921875 45.796875 17.796875 41.75 
Q 13.671875 37.703125 13.234375 30.90625 
z
" id="ArialMT-101"/>
       <path d="M 6.5 0 
L 6.5 51.859375 
L 14.40625 51.859375 
L 14.40625 44 
Q 17.4375 49.515625 20 51.265625 
Q 22.5625 53.03125 25.640625 53.03125 
Q 30.078125 53.03125 34.671875 50.203125 
L 31.640625 42.046875 
Q 28.421875 43.953125 25.203125 43.953125 
Q 22.3125 43.953125 20.015625 42.21875 
Q 17.71875 40.484375 16.75 37.40625 
Q 15.28125 32.71875 15.28125 27.15625 
L 15.28125 0 
z
" id="ArialMT-114"/>
       <path d="M 49.703125 51.859375 
L 49.703125 0 
L 41.84375 0 
L 41.84375 6.15625 
Q 39.3125 2.25 36.8125 0.78125 
Q 33.40625 -1.21875 28.859375 -1.21875 
Q 24.8125 -1.21875 21.6875 0.390625 
Q 19.34375 1.609375 16.5 5.21875 
L 16.5 -19.875 
L 7.8125 -19.875 
L 7.8125 51.859375 
L 16.5 51.859375 
L 16.5 29.890625 
Q 16.5 17.921875 17.765625 14.375 
Q 19.046875 10.84375 21.890625 8.78125 
Q 24.75 6.734375 28.46875 6.734375 
Q 32.375 6.734375 35.453125 8.875 
Q 38.53125 11.03125 39.796875 14.421875 
Q 41.0625 17.828125 41.0625 29.734375 
L 41.0625 51.859375 
z
" id="ArialMT-956"/>
       <path d="M 7.421875 0 
L 7.421875 71.578125 
L 21.6875 71.578125 
L 38.625 20.90625 
Q 40.96875 13.8125 42.046875 10.296875 
Q 43.265625 14.203125 45.84375 21.78125 
L 62.984375 71.578125 
L 75.734375 71.578125 
L 75.734375 0 
L 66.609375 0 
L 66.609375 59.90625 
L 45.796875 0 
L 37.25 0 
L 16.546875 60.9375 
L 16.546875 0 
z
" id="ArialMT-77"/>
      </defs>
      <g style="fill:#262626;" transform="translate(304.779063 321.863687)scale(0.1 -0.1)">
       <use xlink:href="#ArialMT-102"/>
       <use x="27.783203" xlink:href="#ArialMT-105"/>
       <use x="50" xlink:href="#ArialMT-108"/>
       <use x="72.216797" xlink:href="#ArialMT-116"/>
       <use x="100" xlink:href="#ArialMT-101"/>
       <use x="155.615234" xlink:href="#ArialMT-114"/>
       <use x="188.916016" xlink:href="#ArialMT-32"/>
       <use x="216.699219" xlink:href="#ArialMT-53"/>
       <use x="272.314453" xlink:href="#ArialMT-956"/>
       <use x="329.931641" xlink:href="#ArialMT-77"/>
      </g>
     </g>
    </g>
    <g id="text_3">
     <!-- Human depletion method -->
     <defs>
      <path d="M 8.015625 0 
L 8.015625 71.578125 
L 17.484375 71.578125 
L 17.484375 42.1875 
L 54.6875 42.1875 
L 54.6875 71.578125 
L 64.15625 71.578125 
L 64.15625 0 
L 54.6875 0 
L 54.6875 33.734375 
L 17.484375 33.734375 
L 17.484375 0 
z
" id="ArialMT-72"/>
      <path d="M 40.578125 0 
L 40.578125 7.625 
Q 34.515625 -1.171875 24.125 -1.171875 
Q 19.53125 -1.171875 15.546875 0.578125 
Q 11.578125 2.34375 9.640625 5 
Q 7.71875 7.671875 6.9375 11.53125 
Q 6.390625 14.109375 6.390625 19.734375 
L 6.390625 51.859375 
L 15.1875 51.859375 
L 15.1875 23.09375 
Q 15.1875 16.21875 15.71875 13.8125 
Q 16.546875 10.359375 19.234375 8.375 
Q 21.921875 6.390625 25.875 6.390625 
Q 29.828125 6.390625 33.296875 8.421875 
Q 36.765625 10.453125 38.203125 13.9375 
Q 39.65625 17.4375 39.65625 24.078125 
L 39.65625 51.859375 
L 48.4375 51.859375 
L 48.4375 0 
z
" id="ArialMT-117"/>
      <path d="M 6.59375 0 
L 6.59375 51.859375 
L 14.453125 51.859375 
L 14.453125 44.578125 
Q 16.890625 48.390625 20.9375 50.703125 
Q 25 53.03125 30.171875 53.03125 
Q 35.9375 53.03125 39.625 50.640625 
Q 43.3125 48.25 44.828125 43.953125 
Q 50.984375 53.03125 60.84375 53.03125 
Q 68.5625 53.03125 72.703125 48.75 
Q 76.859375 44.484375 76.859375 35.59375 
L 76.859375 0 
L 68.109375 0 
L 68.109375 32.671875 
Q 68.109375 37.9375 67.25 40.25 
Q 66.40625 42.578125 64.15625 43.984375 
Q 61.921875 45.40625 58.890625 45.40625 
Q 53.421875 45.40625 49.796875 41.765625 
Q 46.1875 38.140625 46.1875 30.125 
L 46.1875 0 
L 37.40625 0 
L 37.40625 33.6875 
Q 37.40625 39.546875 35.25 42.46875 
Q 33.109375 45.40625 28.21875 45.40625 
Q 24.515625 45.40625 21.359375 43.453125 
Q 18.21875 41.5 16.796875 37.734375 
Q 15.375 33.984375 15.375 26.90625 
L 15.375 0 
z
" id="ArialMT-109"/>
      <path d="M 40.234375 0 
L 40.234375 6.546875 
Q 35.296875 -1.171875 25.734375 -1.171875 
Q 19.53125 -1.171875 14.328125 2.25 
Q 9.125 5.671875 6.265625 11.796875 
Q 3.421875 17.921875 3.421875 25.875 
Q 3.421875 33.640625 6 39.96875 
Q 8.59375 46.296875 13.765625 49.65625 
Q 18.953125 53.03125 25.34375 53.03125 
Q 30.03125 53.03125 33.6875 51.046875 
Q 37.359375 49.078125 39.65625 45.90625 
L 39.65625 71.578125 
L 48.390625 71.578125 
L 48.390625 0 
z
M 12.453125 25.875 
Q 12.453125 15.921875 16.640625 10.984375 
Q 20.84375 6.0625 26.5625 6.0625 
Q 32.328125 6.0625 36.34375 10.765625 
Q 40.375 15.484375 40.375 25.140625 
Q 40.375 35.796875 36.265625 40.765625 
Q 32.171875 45.75 26.171875 45.75 
Q 20.3125 45.75 16.375 40.96875 
Q 12.453125 36.1875 12.453125 25.875 
z
" id="ArialMT-100"/>
      <path d="M 6.59375 0 
L 6.59375 71.578125 
L 15.375 71.578125 
L 15.375 45.90625 
Q 21.53125 53.03125 30.90625 53.03125 
Q 36.671875 53.03125 40.921875 50.75 
Q 45.171875 48.484375 47 44.484375 
Q 48.828125 40.484375 48.828125 32.859375 
L 48.828125 0 
L 40.046875 0 
L 40.046875 32.859375 
Q 40.046875 39.453125 37.1875 42.453125 
Q 34.328125 45.453125 29.109375 45.453125 
Q 25.203125 45.453125 21.75 43.421875 
Q 18.3125 41.40625 16.84375 37.9375 
Q 15.375 34.46875 15.375 28.375 
L 15.375 0 
z
" id="ArialMT-104"/>
     </defs>
     <g style="fill:#262626;" transform="translate(180.295156 335.009)scale(0.1 -0.1)">
      <use xlink:href="#ArialMT-72"/>
      <use x="72.216797" xlink:href="#ArialMT-117"/>
      <use x="127.832031" xlink:href="#ArialMT-109"/>
      <use x="211.132812" xlink:href="#ArialMT-97"/>
      <use x="266.748047" xlink:href="#ArialMT-110"/>
      <use x="322.363281" xlink:href="#ArialMT-32"/>
      <use x="350.146484" xlink:href="#ArialMT-100"/>
      <use x="405.761719" xlink:href="#ArialMT-101"/>
      <use x="461.376953" xlink:href="#ArialMT-112"/>
      <use x="516.992188" xlink:href="#ArialMT-108"/>
      <use x="539.208984" xlink:href="#ArialMT-101"/>
      <use x="594.824219" xlink:href="#ArialMT-116"/>
      <use x="622.607422" xlink:href="#ArialMT-105"/>
      <use x="644.824219" xlink:href="#ArialMT-111"/>
      <use x="700.439453" xlink:href="#ArialMT-110"/>
      <use x="756.054688" xlink:href="#ArialMT-32"/>
      <use x="783.837891" xlink:href="#ArialMT-109"/>
      <use x="867.138672" xlink:href="#ArialMT-101"/>
      <use x="922.753906" xlink:href="#ArialMT-116"/>
      <use x="950.537109" xlink:href="#ArialMT-104"/>
      <use x="1006.152344" xlink:href="#ArialMT-111"/>
      <use x="1061.767578" xlink:href="#ArialMT-100"/>
     </g>
    </g>
   </g>
   <g id="matplotlib.axis_2">
    <g id="ytick_1">
     <g id="line2d_1">
      <path clip-path="url(#p09441a5eec)" d="M 57.6 293.688196 
L 414.72 293.688196 
" style="fill:none;stroke:#ffffff;stroke-linecap:round;stroke-width:0.8;"/>
     </g>
     <g id="text_4">
      <!-- 0 -->
      <defs>
       <path d="M 4.15625 35.296875 
Q 4.15625 48 6.765625 55.734375 
Q 9.375 63.484375 14.515625 67.671875 
Q 19.671875 71.875 27.484375 71.875 
Q 33.25 71.875 37.59375 69.546875 
Q 41.9375 67.234375 44.765625 62.859375 
Q 47.609375 58.5 49.21875 52.21875 
Q 50.828125 45.953125 50.828125 35.296875 
Q 50.828125 22.703125 48.234375 14.96875 
Q 45.65625 7.234375 40.5 3 
Q 35.359375 -1.21875 27.484375 -1.21875 
Q 17.140625 -1.21875 11.234375 6.203125 
Q 4.15625 15.140625 4.15625 35.296875 
z
M 13.1875 35.296875 
Q 13.1875 17.671875 17.3125 11.828125 
Q 21.4375 6 27.484375 6 
Q 33.546875 6 37.671875 11.859375 
Q 41.796875 17.71875 41.796875 35.296875 
Q 41.796875 52.984375 37.671875 58.78125 
Q 33.546875 64.59375 27.390625 64.59375 
Q 21.34375 64.59375 17.71875 59.46875 
Q 13.1875 52.9375 13.1875 35.296875 
z
" id="ArialMT-48"/>
      </defs>
      <g style="fill:#262626;" transform="translate(45.039062 297.267103)scale(0.1 -0.1)">
       <use xlink:href="#ArialMT-48"/>
      </g>
     </g>
    </g>
    <g id="ytick_2">
     <g id="line2d_2">
      <path clip-path="url(#p09441a5eec)" d="M 57.6 246.01884 
L 414.72 246.01884 
" style="fill:none;stroke:#ffffff;stroke-linecap:round;stroke-width:0.8;"/>
     </g>
     <g id="text_5">
      <!-- 20 -->
      <defs>
       <path d="M 50.34375 8.453125 
L 50.34375 0 
L 3.03125 0 
Q 2.9375 3.171875 4.046875 6.109375 
Q 5.859375 10.9375 9.828125 15.625 
Q 13.8125 20.3125 21.34375 26.46875 
Q 33.015625 36.03125 37.109375 41.625 
Q 41.21875 47.21875 41.21875 52.203125 
Q 41.21875 57.421875 37.46875 61 
Q 33.734375 64.59375 27.734375 64.59375 
Q 21.390625 64.59375 17.578125 60.78125 
Q 13.765625 56.984375 13.71875 50.25 
L 4.6875 51.171875 
Q 5.609375 61.28125 11.65625 66.578125 
Q 17.71875 71.875 27.9375 71.875 
Q 38.234375 71.875 44.234375 66.15625 
Q 50.25 60.453125 50.25 52 
Q 50.25 47.703125 48.484375 43.546875 
Q 46.734375 39.40625 42.65625 34.8125 
Q 38.578125 30.21875 29.109375 22.21875 
Q 21.1875 15.578125 18.9375 13.203125 
Q 16.703125 10.84375 15.234375 8.453125 
z
" id="ArialMT-50"/>
      </defs>
      <g style="fill:#262626;" transform="translate(39.478125 249.597746)scale(0.1 -0.1)">
       <use xlink:href="#ArialMT-50"/>
       <use x="55.615234" xlink:href="#ArialMT-48"/>
      </g>
     </g>
    </g>
    <g id="ytick_3">
     <g id="line2d_3">
      <path clip-path="url(#p09441a5eec)" d="M 57.6 198.349483 
L 414.72 198.349483 
" style="fill:none;stroke:#ffffff;stroke-linecap:round;stroke-width:0.8;"/>
     </g>
     <g id="text_6">
      <!-- 40 -->
      <defs>
       <path d="M 32.328125 0 
L 32.328125 17.140625 
L 1.265625 17.140625 
L 1.265625 25.203125 
L 33.9375 71.578125 
L 41.109375 71.578125 
L 41.109375 25.203125 
L 50.78125 25.203125 
L 50.78125 17.140625 
L 41.109375 17.140625 
L 41.109375 0 
z
M 32.328125 25.203125 
L 32.328125 57.46875 
L 9.90625 25.203125 
z
" id="ArialMT-52"/>
      </defs>
      <g style="fill:#262626;" transform="translate(39.478125 201.928389)scale(0.1 -0.1)">
       <use xlink:href="#ArialMT-52"/>
       <use x="55.615234" xlink:href="#ArialMT-48"/>
      </g>
     </g>
    </g>
    <g id="ytick_4">
     <g id="line2d_4">
      <path clip-path="url(#p09441a5eec)" d="M 57.6 150.680127 
L 414.72 150.680127 
" style="fill:none;stroke:#ffffff;stroke-linecap:round;stroke-width:0.8;"/>
     </g>
     <g id="text_7">
      <!-- 60 -->
      <defs>
       <path d="M 49.75 54.046875 
L 41.015625 53.375 
Q 39.84375 58.546875 37.703125 60.890625 
Q 34.125 64.65625 28.90625 64.65625 
Q 24.703125 64.65625 21.53125 62.3125 
Q 17.390625 59.28125 14.984375 53.46875 
Q 12.59375 47.65625 12.5 36.921875 
Q 15.671875 41.75 20.265625 44.09375 
Q 24.859375 46.4375 29.890625 46.4375 
Q 38.671875 46.4375 44.84375 39.96875 
Q 51.03125 33.5 51.03125 23.25 
Q 51.03125 16.5 48.125 10.71875 
Q 45.21875 4.9375 40.140625 1.859375 
Q 35.0625 -1.21875 28.609375 -1.21875 
Q 17.625 -1.21875 10.6875 6.859375 
Q 3.765625 14.9375 3.765625 33.5 
Q 3.765625 54.25 11.421875 63.671875 
Q 18.109375 71.875 29.4375 71.875 
Q 37.890625 71.875 43.28125 67.140625 
Q 48.6875 62.40625 49.75 54.046875 
z
M 13.875 23.1875 
Q 13.875 18.65625 15.796875 14.5 
Q 17.71875 10.359375 21.1875 8.171875 
Q 24.65625 6 28.46875 6 
Q 34.03125 6 38.03125 10.484375 
Q 42.046875 14.984375 42.046875 22.703125 
Q 42.046875 30.125 38.078125 34.390625 
Q 34.125 38.671875 28.125 38.671875 
Q 22.171875 38.671875 18.015625 34.390625 
Q 13.875 30.125 13.875 23.1875 
z
" id="ArialMT-54"/>
      </defs>
      <g style="fill:#262626;" transform="translate(39.478125 154.259033)scale(0.1 -0.1)">
       <use xlink:href="#ArialMT-54"/>
       <use x="55.615234" xlink:href="#ArialMT-48"/>
      </g>
     </g>
    </g>
    <g id="ytick_5">
     <g id="line2d_5">
      <path clip-path="url(#p09441a5eec)" d="M 57.6 103.01077 
L 414.72 103.01077 
" style="fill:none;stroke:#ffffff;stroke-linecap:round;stroke-width:0.8;"/>
     </g>
     <g id="text_8">
      <!-- 80 -->
      <defs>
       <path d="M 17.671875 38.8125 
Q 12.203125 40.828125 9.5625 44.53125 
Q 6.9375 48.25 6.9375 53.421875 
Q 6.9375 61.234375 12.546875 66.546875 
Q 18.171875 71.875 27.484375 71.875 
Q 36.859375 71.875 42.578125 66.421875 
Q 48.296875 60.984375 48.296875 53.171875 
Q 48.296875 48.1875 45.671875 44.5 
Q 43.0625 40.828125 37.75 38.8125 
Q 44.34375 36.671875 47.78125 31.875 
Q 51.21875 27.09375 51.21875 20.453125 
Q 51.21875 11.28125 44.71875 5.03125 
Q 38.234375 -1.21875 27.640625 -1.21875 
Q 17.046875 -1.21875 10.546875 5.046875 
Q 4.046875 11.328125 4.046875 20.703125 
Q 4.046875 27.6875 7.59375 32.390625 
Q 11.140625 37.109375 17.671875 38.8125 
z
M 15.921875 53.71875 
Q 15.921875 48.640625 19.1875 45.40625 
Q 22.46875 42.1875 27.6875 42.1875 
Q 32.765625 42.1875 36.015625 45.375 
Q 39.265625 48.578125 39.265625 53.21875 
Q 39.265625 58.0625 35.90625 61.359375 
Q 32.5625 64.65625 27.59375 64.65625 
Q 22.5625 64.65625 19.234375 61.421875 
Q 15.921875 58.203125 15.921875 53.71875 
z
M 13.09375 20.65625 
Q 13.09375 16.890625 14.875 13.375 
Q 16.65625 9.859375 20.171875 7.921875 
Q 23.6875 6 27.734375 6 
Q 34.03125 6 38.125 10.046875 
Q 42.234375 14.109375 42.234375 20.359375 
Q 42.234375 26.703125 38.015625 30.859375 
Q 33.796875 35.015625 27.4375 35.015625 
Q 21.234375 35.015625 17.15625 30.90625 
Q 13.09375 26.8125 13.09375 20.65625 
z
" id="ArialMT-56"/>
      </defs>
      <g style="fill:#262626;" transform="translate(39.478125 106.589676)scale(0.1 -0.1)">
       <use xlink:href="#ArialMT-56"/>
       <use x="55.615234" xlink:href="#ArialMT-48"/>
      </g>
     </g>
    </g>
    <g id="ytick_6">
     <g id="line2d_6">
      <path clip-path="url(#p09441a5eec)" d="M 57.6 55.341414 
L 414.72 55.341414 
" style="fill:none;stroke:#ffffff;stroke-linecap:round;stroke-width:0.8;"/>
     </g>
     <g id="text_9">
      <!-- 100 -->
      <defs>
       <path d="M 37.25 0 
L 28.46875 0 
L 28.46875 56 
Q 25.296875 52.984375 20.140625 49.953125 
Q 14.984375 46.921875 10.890625 45.40625 
L 10.890625 53.90625 
Q 18.265625 57.375 23.78125 62.296875 
Q 29.296875 67.234375 31.59375 71.875 
L 37.25 71.875 
z
" id="ArialMT-49"/>
      </defs>
      <g style="fill:#262626;" transform="translate(33.917187 58.92032)scale(0.1 -0.1)">
       <use xlink:href="#ArialMT-49"/>
       <use x="55.615234" xlink:href="#ArialMT-48"/>
       <use x="111.230469" xlink:href="#ArialMT-48"/>
      </g>
     </g>
    </g>
    <g id="text_10">
     <!-- % bacterial genome covered at 10x depth -->
     <defs>
      <path d="M 14.703125 0 
L 6.546875 0 
L 6.546875 71.578125 
L 15.328125 71.578125 
L 15.328125 46.046875 
Q 20.90625 53.03125 29.546875 53.03125 
Q 34.328125 53.03125 38.59375 51.09375 
Q 42.875 49.171875 45.625 45.671875 
Q 48.390625 42.1875 49.953125 37.25 
Q 51.515625 32.328125 51.515625 26.703125 
Q 51.515625 13.375 44.921875 6.09375 
Q 38.328125 -1.171875 29.109375 -1.171875 
Q 19.921875 -1.171875 14.703125 6.5 
z
M 14.59375 26.3125 
Q 14.59375 17 17.140625 12.84375 
Q 21.296875 6.0625 28.375 6.0625 
Q 34.125 6.0625 38.328125 11.0625 
Q 42.53125 16.0625 42.53125 25.984375 
Q 42.53125 36.140625 38.5 40.96875 
Q 34.46875 45.796875 28.765625 45.796875 
Q 23 45.796875 18.796875 40.796875 
Q 14.59375 35.796875 14.59375 26.3125 
z
" id="ArialMT-98"/>
      <path d="M 40.4375 19 
L 49.078125 17.875 
Q 47.65625 8.9375 41.8125 3.875 
Q 35.984375 -1.171875 27.484375 -1.171875 
Q 16.84375 -1.171875 10.375 5.78125 
Q 3.90625 12.75 3.90625 25.734375 
Q 3.90625 34.125 6.6875 40.421875 
Q 9.46875 46.734375 15.15625 49.875 
Q 20.84375 53.03125 27.546875 53.03125 
Q 35.984375 53.03125 41.359375 48.75 
Q 46.734375 44.484375 48.25 36.625 
L 39.703125 35.296875 
Q 38.484375 40.53125 35.375 43.15625 
Q 32.28125 45.796875 27.875 45.796875 
Q 21.234375 45.796875 17.078125 41.03125 
Q 12.9375 36.28125 12.9375 25.984375 
Q 12.9375 15.53125 16.9375 10.796875 
Q 20.953125 6.0625 27.390625 6.0625 
Q 32.5625 6.0625 36.03125 9.234375 
Q 39.5 12.40625 40.4375 19 
z
" id="ArialMT-99"/>
      <path d="M 4.984375 -4.296875 
L 13.53125 -5.5625 
Q 14.0625 -9.515625 16.5 -11.328125 
Q 19.78125 -13.765625 25.4375 -13.765625 
Q 31.546875 -13.765625 34.859375 -11.328125 
Q 38.1875 -8.890625 39.359375 -4.5 
Q 40.046875 -1.8125 39.984375 6.78125 
Q 34.234375 0 25.640625 0 
Q 14.9375 0 9.078125 7.71875 
Q 3.21875 15.4375 3.21875 26.21875 
Q 3.21875 33.640625 5.90625 39.90625 
Q 8.59375 46.1875 13.6875 49.609375 
Q 18.796875 53.03125 25.6875 53.03125 
Q 34.859375 53.03125 40.828125 45.609375 
L 40.828125 51.859375 
L 48.921875 51.859375 
L 48.921875 7.03125 
Q 48.921875 -5.078125 46.453125 -10.125 
Q 44 -15.1875 38.640625 -18.109375 
Q 33.296875 -21.046875 25.484375 -21.046875 
Q 16.21875 -21.046875 10.5 -16.875 
Q 4.78125 -12.703125 4.984375 -4.296875 
z
M 12.25 26.859375 
Q 12.25 16.65625 16.296875 11.96875 
Q 20.359375 7.28125 26.46875 7.28125 
Q 32.515625 7.28125 36.609375 11.9375 
Q 40.71875 16.609375 40.71875 26.5625 
Q 40.71875 36.078125 36.5 40.90625 
Q 32.28125 45.75 26.3125 45.75 
Q 20.453125 45.75 16.34375 40.984375 
Q 12.25 36.234375 12.25 26.859375 
z
" id="ArialMT-103"/>
      <path d="M 21 0 
L 1.265625 51.859375 
L 10.546875 51.859375 
L 21.6875 20.796875 
Q 23.484375 15.765625 25 10.359375 
Q 26.171875 14.453125 28.265625 20.21875 
L 39.796875 51.859375 
L 48.828125 51.859375 
L 29.203125 0 
z
" id="ArialMT-118"/>
      <path d="M 0.734375 0 
L 19.671875 26.953125 
L 2.15625 51.859375 
L 13.140625 51.859375 
L 21.09375 39.703125 
Q 23.34375 36.234375 24.703125 33.890625 
Q 26.859375 37.109375 28.65625 39.59375 
L 37.40625 51.859375 
L 47.90625 51.859375 
L 29.984375 27.4375 
L 49.265625 0 
L 38.484375 0 
L 27.828125 16.109375 
L 25 20.453125 
L 11.375 0 
z
" id="ArialMT-120"/>
     </defs>
     <g style="fill:#262626;" transform="translate(27.8125 266.801438)rotate(-90)scale(0.1 -0.1)">
      <use xlink:href="#ArialMT-37"/>
      <use x="88.916016" xlink:href="#ArialMT-32"/>
      <use x="116.699219" xlink:href="#ArialMT-98"/>
      <use x="172.314453" xlink:href="#ArialMT-97"/>
      <use x="227.929688" xlink:href="#ArialMT-99"/>
      <use x="277.929688" xlink:href="#ArialMT-116"/>
      <use x="305.712891" xlink:href="#ArialMT-101"/>
      <use x="361.328125" xlink:href="#ArialMT-114"/>
      <use x="394.628906" xlink:href="#ArialMT-105"/>
      <use x="416.845703" xlink:href="#ArialMT-97"/>
      <use x="472.460938" xlink:href="#ArialMT-108"/>
      <use x="494.677734" xlink:href="#ArialMT-32"/>
      <use x="522.460938" xlink:href="#ArialMT-103"/>
      <use x="578.076172" xlink:href="#ArialMT-101"/>
      <use x="633.691406" xlink:href="#ArialMT-110"/>
      <use x="689.306641" xlink:href="#ArialMT-111"/>
      <use x="744.921875" xlink:href="#ArialMT-109"/>
      <use x="828.222656" xlink:href="#ArialMT-101"/>
      <use x="883.837891" xlink:href="#ArialMT-32"/>
      <use x="911.621094" xlink:href="#ArialMT-99"/>
      <use x="961.621094" xlink:href="#ArialMT-111"/>
      <use x="1017.236328" xlink:href="#ArialMT-118"/>
      <use x="1067.236328" xlink:href="#ArialMT-101"/>
      <use x="1122.851562" xlink:href="#ArialMT-114"/>
      <use x="1156.152344" xlink:href="#ArialMT-101"/>
      <use x="1211.767578" xlink:href="#ArialMT-100"/>
      <use x="1267.382812" xlink:href="#ArialMT-32"/>
      <use x="1295.166016" xlink:href="#ArialMT-97"/>
      <use x="1350.78125" xlink:href="#ArialMT-116"/>
      <use x="1378.564453" xlink:href="#ArialMT-32"/>
      <use x="1406.347656" xlink:href="#ArialMT-49"/>
      <use x="1461.962891" xlink:href="#ArialMT-48"/>
      <use x="1517.578125" xlink:href="#ArialMT-120"/>
      <use x="1567.578125" xlink:href="#ArialMT-32"/>
      <use x="1595.361328" xlink:href="#ArialMT-100"/>
      <use x="1650.976562" xlink:href="#ArialMT-101"/>
      <use x="1706.591797" xlink:href="#ArialMT-112"/>
      <use x="1762.207031" xlink:href="#ArialMT-116"/>
      <use x="1789.990234" xlink:href="#ArialMT-104"/>
     </g>
    </g>
   </g>
   <g id="patch_3">
    <path clip-path="url(#p09441a5eec)" d="M 75.456 284.786853 
L 218.304 284.786853 
L 218.304 70.174961 
L 75.456 70.174961 
L 75.456 284.786853 
z
" style="fill:#3274a1;stroke:#3f3f3f;stroke-linejoin:miter;stroke-width:1.5;"/>
   </g>
   <g id="patch_4">
    <path clip-path="url(#p09441a5eec)" d="M 254.016 292.671574 
L 396.864 292.671574 
L 396.864 92.639046 
L 254.016 92.639046 
L 254.016 292.671574 
z
" style="fill:#e1812c;stroke:#3f3f3f;stroke-linejoin:miter;stroke-width:1.5;"/>
   </g>
   <g id="line2d_7">
    <path clip-path="url(#p09441a5eec)" d="M 146.88 284.786853 
L 146.88 293.688196 
" style="fill:none;stroke:#3f3f3f;stroke-linecap:round;stroke-width:1.5;"/>
   </g>
   <g id="line2d_8">
    <path clip-path="url(#p09441a5eec)" d="M 146.88 70.174961 
L 146.88 55.341414 
" style="fill:none;stroke:#3f3f3f;stroke-linecap:round;stroke-width:1.5;"/>
   </g>
   <g id="line2d_9">
    <path clip-path="url(#p09441a5eec)" d="M 111.168 293.688196 
L 182.592 293.688196 
" style="fill:none;stroke:#3f3f3f;stroke-linecap:round;stroke-width:1.5;"/>
   </g>
   <g id="line2d_10">
    <path clip-path="url(#p09441a5eec)" d="M 111.168 55.341414 
L 182.592 55.341414 
" style="fill:none;stroke:#3f3f3f;stroke-linecap:round;stroke-width:1.5;"/>
   </g>
   <g id="line2d_11"/>
   <g id="line2d_12">
    <path clip-path="url(#p09441a5eec)" d="M 325.44 292.671574 
L 325.44 293.688196 
" style="fill:none;stroke:#3f3f3f;stroke-linecap:round;stroke-width:1.5;"/>
   </g>
   <g id="line2d_13">
    <path clip-path="url(#p09441a5eec)" d="M 325.44 92.639046 
L 325.44 63.854912 
" style="fill:none;stroke:#3f3f3f;stroke-linecap:round;stroke-width:1.5;"/>
   </g>
   <g id="line2d_14">
    <path clip-path="url(#p09441a5eec)" d="M 289.728 293.688196 
L 361.152 293.688196 
" style="fill:none;stroke:#3f3f3f;stroke-linecap:round;stroke-width:1.5;"/>
   </g>
   <g id="line2d_15">
    <path clip-path="url(#p09441a5eec)" d="M 289.728 63.854912 
L 361.152 63.854912 
" style="fill:none;stroke:#3f3f3f;stroke-linecap:round;stroke-width:1.5;"/>
   </g>
   <g id="line2d_16"/>
   <g id="line2d_17">
    <path clip-path="url(#p09441a5eec)" d="M 75.456 100.516581 
L 218.304 100.516581 
" style="fill:none;stroke:#3f3f3f;stroke-linecap:round;stroke-width:1.5;"/>
   </g>
   <g id="line2d_18">
    <path clip-path="url(#p09441a5eec)" d="M 254.016 249.044969 
L 396.864 249.044969 
" style="fill:none;stroke:#3f3f3f;stroke-linecap:round;stroke-width:1.5;"/>
   </g>
   <g id="patch_5">
    <path d="M 57.6 307.584 
L 57.6 41.472 
" style="fill:none;stroke:#ffffff;stroke-linecap:square;stroke-linejoin:miter;stroke-width:0.8;"/>
   </g>
   <g id="patch_6">
    <path d="M 414.72 307.584 
L 414.72 41.472 
" style="fill:none;stroke:#ffffff;stroke-linecap:square;stroke-linejoin:miter;stroke-width:0.8;"/>
   </g>
   <g id="patch_7">
    <path d="M 57.6 307.584 
L 414.72 307.584 
" style="fill:none;stroke:#ffffff;stroke-linecap:square;stroke-linejoin:miter;stroke-width:0.8;"/>
   </g>
   <g id="patch_8">
    <path d="M 57.6 41.472 
L 414.72 41.472 
" style="fill:none;stroke:#ffffff;stroke-linecap:square;stroke-linejoin:miter;stroke-width:0.8;"/>
   </g>
   <g id="PathCollection_1">
    <defs>
     <path d="M 0 2.5 
C 0.663008 2.5 1.29895 2.236584 1.767767 1.767767 
C 2.236584 1.29895 2.5 0.663008 2.5 0 
C 2.5 -0.663008 2.236584 -1.29895 1.767767 -1.767767 
C 1.29895 -2.236584 0.663008 -2.5 0 -2.5 
C -0.663008 -2.5 -1.29895 -2.236584 -1.767767 -1.767767 
C -2.236584 -1.29895 -2.5 -0.663008 -2.5 0 
C -2.5 0.663008 -2.236584 1.29895 -1.767767 1.767767 
C -1.29895 2.236584 -0.663008 2.5 0 2.5 
z
" id="C0_0_97b98589ab"/>
    </defs>
    <g clip-path="url(#p09441a5eec)">
     <use style="fill:#404040;" x="146.88" xlink:href="#C0_0_97b98589ab" y="293.688196"/>
    </g>
    <g clip-path="url(#p09441a5eec)">
     <use style="fill:#404040;" x="141.63" xlink:href="#C0_0_97b98589ab" y="293.688196"/>
    </g>
    <g clip-path="url(#p09441a5eec)">
     <use style="fill:#404040;" x="152.13" xlink:href="#C0_0_97b98589ab" y="293.688196"/>
    </g>
    <g clip-path="url(#p09441a5eec)">
     <use style="fill:#404040;" x="136.38" xlink:href="#C0_0_97b98589ab" y="293.688196"/>
    </g>
    <g clip-path="url(#p09441a5eec)">
     <use style="fill:#404040;" x="157.38" xlink:href="#C0_0_97b98589ab" y="293.688196"/>
    </g>
    <g clip-path="url(#p09441a5eec)">
     <use style="fill:#404040;" x="131.130045" xlink:href="#C0_0_97b98589ab" y="293.667554"/>
    </g>
    <g clip-path="url(#p09441a5eec)">
     <use style="fill:#404040;" x="162.618271" xlink:href="#C0_0_97b98589ab" y="293.354159"/>
    </g>
    <g clip-path="url(#p09441a5eec)">
     <use style="fill:#404040;" x="125.92775" xlink:href="#C0_0_97b98589ab" y="292.995043"/>
    </g>
    <g clip-path="url(#p09441a5eec)">
     <use style="fill:#404040;" x="166.920568" xlink:href="#C0_0_97b98589ab" y="290.488657"/>
    </g>
    <g clip-path="url(#p09441a5eec)">
     <use style="fill:#404040;" x="145.35117" xlink:href="#C0_0_97b98589ab" y="288.904894"/>
    </g>
    <g clip-path="url(#p09441a5eec)">
     <use style="fill:#404040;" x="150.355748" xlink:href="#C0_0_97b98589ab" y="287.394026"/>
    </g>
    <g clip-path="url(#p09441a5eec)">
     <use style="fill:#404040;" x="141.195396" xlink:href="#C0_0_97b98589ab" y="285.84954"/>
    </g>
    <g clip-path="url(#p09441a5eec)">
     <use style="fill:#404040;" x="154.835527" xlink:href="#C0_0_97b98589ab" y="284.786853"/>
    </g>
    <g clip-path="url(#p09441a5eec)">
     <use style="fill:#404040;" x="146.88" xlink:href="#C0_0_97b98589ab" y="255.743543"/>
    </g>
    <g clip-path="url(#p09441a5eec)">
     <use style="fill:#404040;" x="141.89181" xlink:href="#C0_0_97b98589ab" y="254.184294"/>
    </g>
    <g clip-path="url(#p09441a5eec)">
     <use style="fill:#404040;" x="146.88" xlink:href="#C0_0_97b98589ab" y="246.457051"/>
    </g>
    <g clip-path="url(#p09441a5eec)">
     <use style="fill:#404040;" x="146.88" xlink:href="#C0_0_97b98589ab" y="237.906927"/>
    </g>
    <g clip-path="url(#p09441a5eec)">
     <use style="fill:#404040;" x="146.88" xlink:href="#C0_0_97b98589ab" y="223.236039"/>
    </g>
    <g clip-path="url(#p09441a5eec)">
     <use style="fill:#404040;" x="146.88" xlink:href="#C0_0_97b98589ab" y="204.942561"/>
    </g>
    <g clip-path="url(#p09441a5eec)">
     <use style="fill:#404040;" x="146.88" xlink:href="#C0_0_97b98589ab" y="150.449703"/>
    </g>
    <g clip-path="url(#p09441a5eec)">
     <use style="fill:#404040;" x="146.88" xlink:href="#C0_0_97b98589ab" y="125.436524"/>
    </g>
    <g clip-path="url(#p09441a5eec)">
     <use style="fill:#404040;" x="146.88" xlink:href="#C0_0_97b98589ab" y="117.151692"/>
    </g>
    <g clip-path="url(#p09441a5eec)">
     <use style="fill:#404040;" x="146.88" xlink:href="#C0_0_97b98589ab" y="102.794696"/>
    </g>
    <g clip-path="url(#p09441a5eec)">
     <use style="fill:#404040;" x="142.056823" xlink:href="#C0_0_97b98589ab" y="100.81992"/>
    </g>
    <g clip-path="url(#p09441a5eec)">
     <use style="fill:#404040;" x="151.553408" xlink:href="#C0_0_97b98589ab" y="100.516581"/>
    </g>
    <g clip-path="url(#p09441a5eec)">
     <use style="fill:#404040;" x="146.88" xlink:href="#C0_0_97b98589ab" y="84.92908"/>
    </g>
    <g clip-path="url(#p09441a5eec)">
     <use style="fill:#404040;" x="146.88" xlink:href="#C0_0_97b98589ab" y="77.532622"/>
    </g>
    <g clip-path="url(#p09441a5eec)">
     <use style="fill:#404040;" x="141.632591" xlink:href="#C0_0_97b98589ab" y="77.375551"/>
    </g>
    <g clip-path="url(#p09441a5eec)">
     <use style="fill:#404040;" x="151.814871" xlink:href="#C0_0_97b98589ab" y="75.826412"/>
    </g>
    <g clip-path="url(#p09441a5eec)">
     <use style="fill:#404040;" x="137.100061" xlink:href="#C0_0_97b98589ab" y="74.85243"/>
    </g>
    <g clip-path="url(#p09441a5eec)">
     <use style="fill:#404040;" x="156.939293" xlink:href="#C0_0_97b98589ab" y="74.739361"/>
    </g>
    <g clip-path="url(#p09441a5eec)">
     <use style="fill:#404040;" x="131.883265" xlink:href="#C0_0_97b98589ab" y="74.29098"/>
    </g>
    <g clip-path="url(#p09441a5eec)">
     <use style="fill:#404040;" x="162.111625" xlink:href="#C0_0_97b98589ab" y="73.882491"/>
    </g>
    <g clip-path="url(#p09441a5eec)">
     <use style="fill:#404040;" x="146.88" xlink:href="#C0_0_97b98589ab" y="71.796489"/>
    </g>
    <g clip-path="url(#p09441a5eec)">
     <use style="fill:#404040;" x="141.634254" xlink:href="#C0_0_97b98589ab" y="71.59525"/>
    </g>
    <g clip-path="url(#p09441a5eec)">
     <use style="fill:#404040;" x="152.455877" xlink:href="#C0_0_97b98589ab" y="70.863821"/>
    </g>
    <g clip-path="url(#p09441a5eec)">
     <use style="fill:#404040;" x="135.245008" xlink:href="#C0_0_97b98589ab" y="70.174961"/>
    </g>
    <g clip-path="url(#p09441a5eec)">
     <use style="fill:#404040;" x="158.263779" xlink:href="#C0_0_97b98589ab" y="69.901094"/>
    </g>
    <g clip-path="url(#p09441a5eec)">
     <use style="fill:#404040;" x="129.404216" xlink:href="#C0_0_97b98589ab" y="69.883522"/>
    </g>
    <g clip-path="url(#p09441a5eec)">
     <use style="fill:#404040;" x="164.106572" xlink:href="#C0_0_97b98589ab" y="69.257538"/>
    </g>
    <g clip-path="url(#p09441a5eec)">
     <use style="fill:#404040;" x="169.355728" xlink:href="#C0_0_97b98589ab" y="69.167898"/>
    </g>
    <g clip-path="url(#p09441a5eec)">
     <use style="fill:#404040;" x="124.37491" xlink:href="#C0_0_97b98589ab" y="68.449063"/>
    </g>
    <g clip-path="url(#p09441a5eec)">
     <use style="fill:#404040;" x="174.476116" xlink:href="#C0_0_97b98589ab" y="68.063744"/>
    </g>
    <g clip-path="url(#p09441a5eec)">
     <use style="fill:#404040;" x="146.88" xlink:href="#C0_0_97b98589ab" y="66.311029"/>
    </g>
    <g clip-path="url(#p09441a5eec)">
     <use style="fill:#404040;" x="141.966107" xlink:href="#C0_0_97b98589ab" y="64.550757"/>
    </g>
    <g clip-path="url(#p09441a5eec)">
     <use style="fill:#404040;" x="151.5074" xlink:href="#C0_0_97b98589ab" y="63.949264"/>
    </g>
    <g clip-path="url(#p09441a5eec)">
     <use style="fill:#404040;" x="156.702306" xlink:href="#C0_0_97b98589ab" y="63.226802"/>
    </g>
    <g clip-path="url(#p09441a5eec)">
     <use style="fill:#404040;" x="137.406634" xlink:href="#C0_0_97b98589ab" y="62.072058"/>
    </g>
    <g clip-path="url(#p09441a5eec)">
     <use style="fill:#404040;" x="146.88" xlink:href="#C0_0_97b98589ab" y="55.341414"/>
    </g>
   </g>
   <g id="PathCollection_2">
    <defs>
     <path d="M 0 2.5 
C 0.663008 2.5 1.29895 2.236584 1.767767 1.767767 
C 2.236584 1.29895 2.5 0.663008 2.5 0 
C 2.5 -0.663008 2.236584 -1.29895 1.767767 -1.767767 
C 1.29895 -2.236584 0.663008 -2.5 0 -2.5 
C -0.663008 -2.5 -1.29895 -2.236584 -1.767767 -1.767767 
C -2.236584 -1.29895 -2.5 -0.663008 -2.5 0 
C -2.5 0.663008 -2.236584 1.29895 -1.767767 1.767767 
C -1.29895 2.236584 -0.663008 2.5 0 2.5 
z
" id="C1_0_00b4fe37af"/>
    </defs>
    <g clip-path="url(#p09441a5eec)">
     <use style="fill:#404040;" x="325.44" xlink:href="#C1_0_00b4fe37af" y="293.688196"/>
    </g>
    <g clip-path="url(#p09441a5eec)">
     <use style="fill:#404040;" x="320.19" xlink:href="#C1_0_00b4fe37af" y="293.688196"/>
    </g>
    <g clip-path="url(#p09441a5eec)">
     <use style="fill:#404040;" x="330.69" xlink:href="#C1_0_00b4fe37af" y="293.688196"/>
    </g>
    <g clip-path="url(#p09441a5eec)">
     <use style="fill:#404040;" x="314.94" xlink:href="#C1_0_00b4fe37af" y="293.688196"/>
    </g>
    <g clip-path="url(#p09441a5eec)">
     <use style="fill:#404040;" x="335.94" xlink:href="#C1_0_00b4fe37af" y="293.688196"/>
    </g>
    <g clip-path="url(#p09441a5eec)">
     <use style="fill:#404040;" x="309.69" xlink:href="#C1_0_00b4fe37af" y="293.688196"/>
    </g>
    <g clip-path="url(#p09441a5eec)">
     <use style="fill:#404040;" x="341.19" xlink:href="#C1_0_00b4fe37af" y="293.688196"/>
    </g>
    <g clip-path="url(#p09441a5eec)">
     <use style="fill:#404040;" x="304.44" xlink:href="#C1_0_00b4fe37af" y="293.688196"/>
    </g>
    <g clip-path="url(#p09441a5eec)">
     <use style="fill:#404040;" x="346.44" xlink:href="#C1_0_00b4fe37af" y="293.688196"/>
    </g>
    <g clip-path="url(#p09441a5eec)">
     <use style="fill:#404040;" x="299.190337" xlink:href="#C1_0_00b4fe37af" y="293.631511"/>
    </g>
    <g clip-path="url(#p09441a5eec)">
     <use style="fill:#404040;" x="351.679042" xlink:href="#C1_0_00b4fe37af" y="293.36531"/>
    </g>
    <g clip-path="url(#p09441a5eec)">
     <use style="fill:#404040;" x="293.952731" xlink:href="#C1_0_00b4fe37af" y="293.288151"/>
    </g>
    <g clip-path="url(#p09441a5eec)">
     <use style="fill:#404040;" x="356.878263" xlink:href="#C1_0_00b4fe37af" y="292.671574"/>
    </g>
    <g clip-path="url(#p09441a5eec)">
     <use style="fill:#404040;" x="288.965586" xlink:href="#C1_0_00b4fe37af" y="291.725873"/>
    </g>
    <g clip-path="url(#p09441a5eec)">
     <use style="fill:#404040;" x="325.44" xlink:href="#C1_0_00b4fe37af" y="288.533772"/>
    </g>
    <g clip-path="url(#p09441a5eec)">
     <use style="fill:#404040;" x="320.641877" xlink:href="#C1_0_00b4fe37af" y="286.504393"/>
    </g>
    <g clip-path="url(#p09441a5eec)">
     <use style="fill:#404040;" x="330.157909" xlink:href="#C1_0_00b4fe37af" y="286.340434"/>
    </g>
    <g clip-path="url(#p09441a5eec)">
     <use style="fill:#404040;" x="335.406366" xlink:href="#C1_0_00b4fe37af" y="286.219207"/>
    </g>
    <g clip-path="url(#p09441a5eec)">
     <use style="fill:#404040;" x="315.825325" xlink:href="#C1_0_00b4fe37af" y="284.515005"/>
    </g>
    <g clip-path="url(#p09441a5eec)">
     <use style="fill:#404040;" x="325.44" xlink:href="#C1_0_00b4fe37af" y="282.945097"/>
    </g>
    <g clip-path="url(#p09441a5eec)">
     <use style="fill:#404040;" x="325.44" xlink:href="#C1_0_00b4fe37af" y="277.720229"/>
    </g>
    <g clip-path="url(#p09441a5eec)">
     <use style="fill:#404040;" x="322.769253" xlink:href="#C1_0_00b4fe37af" y="273.415551"/>
    </g>
    <g clip-path="url(#p09441a5eec)">
     <use style="fill:#404040;" x="325.44" xlink:href="#C1_0_00b4fe37af" y="256.779838"/>
    </g>
    <g clip-path="url(#p09441a5eec)">
     <use style="fill:#404040;" x="320.866308" xlink:href="#C1_0_00b4fe37af" y="254.325015"/>
    </g>
    <g clip-path="url(#p09441a5eec)">
     <use style="fill:#404040;" x="325.44" xlink:href="#C1_0_00b4fe37af" y="249.044969"/>
    </g>
    <g clip-path="url(#p09441a5eec)">
     <use style="fill:#404040;" x="320.463509" xlink:href="#C1_0_00b4fe37af" y="247.452175"/>
    </g>
    <g clip-path="url(#p09441a5eec)">
     <use style="fill:#404040;" x="325.44" xlink:href="#C1_0_00b4fe37af" y="232.412188"/>
    </g>
    <g clip-path="url(#p09441a5eec)">
     <use style="fill:#404040;" x="321.007252" xlink:href="#C1_0_00b4fe37af" y="229.733094"/>
    </g>
    <g clip-path="url(#p09441a5eec)">
     <use style="fill:#404040;" x="325.44" xlink:href="#C1_0_00b4fe37af" y="174.097012"/>
    </g>
    <g clip-path="url(#p09441a5eec)">
     <use style="fill:#404040;" x="325.44" xlink:href="#C1_0_00b4fe37af" y="164.987958"/>
    </g>
    <g clip-path="url(#p09441a5eec)">
     <use style="fill:#404040;" x="325.44" xlink:href="#C1_0_00b4fe37af" y="155.871742"/>
    </g>
    <g clip-path="url(#p09441a5eec)">
     <use style="fill:#404040;" x="325.44" xlink:href="#C1_0_00b4fe37af" y="143.928756"/>
    </g>
    <g clip-path="url(#p09441a5eec)">
     <use style="fill:#404040;" x="325.44" xlink:href="#C1_0_00b4fe37af" y="111.216594"/>
    </g>
    <g clip-path="url(#p09441a5eec)">
     <use style="fill:#404040;" x="325.44" xlink:href="#C1_0_00b4fe37af" y="105.881993"/>
    </g>
    <g clip-path="url(#p09441a5eec)">
     <use style="fill:#404040;" x="322.386823" xlink:href="#C1_0_00b4fe37af" y="101.814467"/>
    </g>
    <g clip-path="url(#p09441a5eec)">
     <use style="fill:#404040;" x="325.44" xlink:href="#C1_0_00b4fe37af" y="97.434228"/>
    </g>
    <g clip-path="url(#p09441a5eec)">
     <use style="fill:#404040;" x="323.952765" xlink:href="#C1_0_00b4fe37af" y="92.639046"/>
    </g>
    <g clip-path="url(#p09441a5eec)">
     <use style="fill:#404040;" x="325.44" xlink:href="#C1_0_00b4fe37af" y="86.246267"/>
    </g>
    <g clip-path="url(#p09441a5eec)">
     <use style="fill:#404040;" x="320.921705" xlink:href="#C1_0_00b4fe37af" y="83.700092"/>
    </g>
    <g clip-path="url(#p09441a5eec)">
     <use style="fill:#404040;" x="325.44" xlink:href="#C1_0_00b4fe37af" y="79.12542"/>
    </g>
    <g clip-path="url(#p09441a5eec)">
     <use style="fill:#404040;" x="320.6655" xlink:href="#C1_0_00b4fe37af" y="77.046118"/>
    </g>
    <g clip-path="url(#p09441a5eec)">
     <use style="fill:#404040;" x="330.197778" xlink:href="#C1_0_00b4fe37af" y="77.011638"/>
    </g>
    <g clip-path="url(#p09441a5eec)">
     <use style="fill:#404040;" x="335.426654" xlink:href="#C1_0_00b4fe37af" y="76.563559"/>
    </g>
    <g clip-path="url(#p09441a5eec)">
     <use style="fill:#404040;" x="315.539573" xlink:href="#C1_0_00b4fe37af" y="75.965524"/>
    </g>
    <g clip-path="url(#p09441a5eec)">
     <use style="fill:#404040;" x="325.44" xlink:href="#C1_0_00b4fe37af" y="71.595497"/>
    </g>
    <g clip-path="url(#p09441a5eec)">
     <use style="fill:#404040;" x="320.246077" xlink:href="#C1_0_00b4fe37af" y="70.866652"/>
    </g>
    <g clip-path="url(#p09441a5eec)">
     <use style="fill:#404040;" x="330.291126" xlink:href="#C1_0_00b4fe37af" y="69.683825"/>
    </g>
    <g clip-path="url(#p09441a5eec)">
     <use style="fill:#404040;" x="325.44" xlink:href="#C1_0_00b4fe37af" y="64.596225"/>
    </g>
    <g clip-path="url(#p09441a5eec)">
     <use style="fill:#404040;" x="320.248023" xlink:href="#C1_0_00b4fe37af" y="63.854912"/>
    </g>
   </g>
  </g>
 </g>
 <defs>
  <clipPath id="p09441a5eec">
   <rect height="266.112" width="357.12" x="57.6" y="41.472"/>
  </clipPath>
 </defs>
</svg>
