run name,chrom,length,bases,avDepth,position cov1,position cov10,covBreadth1x,covBreadth10x
RPB004_41_barcode02,blaZ,846,2179,3.3888024883359256,643,,0.7600472813238771,
RPB004_41_barcode02,ermC,735,1403583,1909.6367346938775,735,735.0,1.0,1.0
RPB004_41_barcode02,mecA,2007,1366060,680.6477329347284,2007,2007.0,1.0,1.0
RPB004_41_barcode02,tetK,1380,3061928,2218.7884057971014,1380,1380.0,1.0,1.0
RPB004_41_barcode02,vanA,57888,12398247,1052.9296815286625,11775,9348.0,0.20341003316749584,0.16148424543946932
