run name,chrom,length,bases,avDepth,position cov1,position cov10,covBreadth1x,covBreadth10x
RPB004_16_barcode07,blaZ,846,1271,2.542,500,,0.5910165484633569,
RPB004_16_barcode07,ermC,735,194000,263.94557823129253,735,735.0,1.0,1.0
RPB004_16_barcode07,mecA,2007,19087,9.510214250124564,2007,552.0,1.0,0.2750373692077728
RPB004_16_barcode07,tetM,1920,6262,4.772865853658536,1312,,0.6833333333333333,
RPB004_16_barcode07,vanA,57888,735536,62.85020934803042,11703,9779.0,0.20216625207296848,0.1689296572692095
