run name,chrom,length,bases,avDepth,position cov1,position cov10,covBreadth1x,covBreadth10x
RPB004_28_barcode07,blaZ,846,1136,2.4170212765957446,470,,0.5555555555555556,
RPB004_28_barcode07,ermC,735,60544,82.37278911564626,735,735.0,1.0,1.0
RPB004_28_barcode07,mecA,2007,287187,143.09267563527652,2007,2007.0,1.0,1.0
RPB004_28_barcode07,tetK,1380,630856,457.14202898550724,1380,1380.0,1.0,1.0
RPB004_28_barcode07,vanA,57888,1694609,172.42663817663816,9828,7365.0,0.16977611940298507,0.12722844112769485
