run name,chrom,length,bases,avDepth,position cov1,position cov10,covBreadth1x,covBreadth10x
RPB004_41_barcode01,ermC,735,7147,9.723809523809523,735,36,1.0,0.04897959183673469
RPB004_41_barcode01,mecA,2007,23939,11.927752864972597,2007,1245,1.0,0.6203288490284006
RPB004_41_barcode01,tetK,1380,465370,337.22463768115944,1380,1380,1.0,1.0
RPB004_41_barcode01,vanA,57888,132246,18.23076923076923,7254,4816,0.12531094527363185,0.0831951354339414
