,sample_ID,patient,collection_date,sample_type,treatment,run_ID,barcode,sonication_culture_species1,sonication_quantification_1,sonication_culture_species2,sonication_quantification_2,sonication_culture_species3,sonication_quantification_3,tissue_culture_species1,tissue_quantification_1,tissue_culture_species2,tissue_quantification_2,tissue_culture_species3,tissue_quantification_3,tissue_culture_species4,tissue_quantification_4,tissue_culture_species5,tissue_quantification_5,Synovialfluid_culture_species1,Synovialfluid_culture_species2,pus_culture_species1,notes,Number of True species,Sonication taxids,all culture taxids,Detected False,True positive,True negative,False positive,False Negatives,Detected species,False species,True species,False negative species
0,W51803,1.0,2018-10-03,sonication fluid,saponin 5%,RPB004_1,barcode02,Staphylococcus aureus,no quantification,,,,,Staphylococcus aureus,5/5,,,,,,,,,,,,,1,{'Staphylococcus aureus': [1280]},{'Staphylococcus aureus': [1280]},,1.0,1,0,0,['Staphylococcus aureus'],[],['Staphylococcus aureus'],[]
1,H40235,2.0,2018-06-28,sonication fluid,saponin 5%,RPB004_1,barcode05,Staphylococcus aureus,<5,,,,,Staphylococcus aureus,3/6,,,,,,,,,,,,,1,{'Staphylococcus aureus': [1280]},{'Staphylococcus aureus': [1280]},,1.0,1,0,0,['Staphylococcus aureus'],[],['Staphylococcus aureus'],[]
2,F33468,3.0,2018-06-15,sonication fluid,saponin 5%,RPB004_1,barcode06,Enterobacter cloacae,no quantification,,,,,Enterobacter cloacae,4/4,,,,,,,,,,,,,1,{'Enterobacter cloacae': [550]},{'Enterobacter cloacae': [550]},3.0,,0,1,1,"['Cutibacterium acnes', 'Enterobacter ludwigii', 'Escherichia coli']",['Enterobacter ludwigii'],"['Cutibacterium acnes', 'Escherichia coli']",['Enterobacter cloacae']
3,M12378,4.0,2018-10-29,sonication fluid,saponin 5%,RPB004_2,barcode01,negative,,,,,,negative,,,,,,,,,,,,,,0,{},{},,,1,0,0,,[],[],[]
4,T577,5.0,2018-10-30,sonication fluid,saponin 5%,RPB004_2,barcode04,coagulase negative Staphylococcus,>49,,,,,coagulase negative Staphylococcus,4/4,,,,,,,,,,,,Staphylococcus caprae,1,{'Staphylococcus': [1279]},{'Staphylococcus': [1279]},,1.0,1,0,0,['Staphylococcus caprae'],['Staphylococcus caprae'],[],[]
5,F40235,6.0,2018-11-30,sonication fluid,saponin 5%,RPB004_2,barcode08,Staphylococcus aureus,>49,,,,,Staphylococcus aureus,5/5,,,,,,,,,,,,,1,{'Staphylococcus aureus': [1280]},{'Staphylococcus aureus': [1280]},,1.0,1,0,0,['Staphylococcus aureus'],[],['Staphylococcus aureus'],[]
6,W52788,7.0,2018-10-31,sonication fluid,saponin 5%,RPB004_3,barcode05,Streptococcus pyogenes,>49,,,,,Streptococcus pyogenes,4/4,,,,,,,,,,,,,1,{'Streptococcus pyogenes': [1314]},{'Streptococcus pyogenes': [1314]},,1.0,1,0,0,['Streptococcus pyogenes'],[],['Streptococcus pyogenes'],[]
7,H44530,8.0,2018-11-01,sonication fluid,saponin 5%,RPB004_3,barcode06,Escherichia coli,25-49,,,,,Escherichia coli,6/6,Enterococcus faecium,6/6,,,,,,,,,,,1,{'Escherichia coli': [562]},"{'Enterococcus faecium': [1352], 'Escherichia coli': [562]}",,,1,0,1,,[],[],['Escherichia coli']
8,H47179,9.0,2019-01-10,sonication fluid,saponin 5%,RPB004_4,barcode07,Streptococcus dysgalactiae,>49,,,,,Streptococcus dysgalactiae,5/5,,,,,,,,,,,,,1,{'Streptococcus dysgalactiae': [1334]},{'Streptococcus dysgalactiae': [1334]},,1.0,1,0,0,['Streptococcus dysgalactiae'],[],['Streptococcus dysgalactiae'],[]
9,M14548,10.0,2019-01-07,sonication fluid,saponin 5%,RPB004_4,barcode01,Staphylococcus aureus,>49,,,,,Staphylococcus aureus,5/5,,,,,,,,,,,,,1,{'Staphylococcus aureus': [1280]},{'Staphylococcus aureus': [1280]},,1.0,1,0,0,['Staphylococcus aureus'],[],['Staphylococcus aureus'],[]
10,W56064,11.0,2019-01-30,sonication fluid,saponin 5%,RPB004_5,barcode02,negative,,,,,,Staphylococcus epidermidis,3/5,,,,,,,,,,,,,0,{},{'Staphylococcus epidermidis': [1282]},,,1,0,0,,[],[],[]
11,H48161,12.0,2019-02-07,sonication fluid,saponin 5%,RPB004_5,barcode10,Cutibacterium acnes,>49,,,,,Cutibacterium acnes,3/5,,,,,,,,,,,,,1,{'Cutibacterium acnes': [1747]},{'Cutibacterium acnes': [1747]},,1.0,1,0,0,['Cutibacterium acnes'],[],['Cutibacterium acnes'],[]
12,W56006,13.0,2019-01-30,sonication fluid,saponin 5%,RPB004_6,barcode01,Staphylococcus aureus,>49,,,,,Staphylococcus aureus,5/5,,,,,,,,,,,,,1,{'Staphylococcus aureus': [1280]},{'Staphylococcus aureus': [1280]},,1.0,1,0,0,['Staphylococcus aureus'],[],['Staphylococcus aureus'],[]
13,T4140,14.0,2019-02-05,sonication fluid,saponin 5%,RPB004_6,barcode06,negative,,,,,,negative,,,,,,,,,,,,,,0,{},{},,,1,0,0,,[],[],[]
14,W56280,15.0,2019-02-06,sonication fluid,saponin 5%,RPB004_6,barcode08,negative,,,,,,coagulase negative Staphylococcus,2/5,,,,,,,,,,,,,0,{},{'Staphylococcus': [1279]},1.0,,0,1,0,['Acinetobacter johnsonii'],['Acinetobacter johnsonii'],[],[]
15,W56230,16.0,2019-02-06,sonication fluid,saponin 5%,RPB004_6,barcode09,Staphylococcus lugdunensis,>49,,,,,Staphylococcus lugdunensis,5/5,,,,,,,,,,,,,1,{'Staphylococcus lugdunensis': [28035]},{'Staphylococcus lugdunensis': [28035]},,1.0,1,0,0,['Staphylococcus lugdunensis'],[],['Staphylococcus lugdunensis'],[]
16,W56521,17.0,2019-02-13,sonication fluid,saponin 5%,RPB004_7,barcode01,Proteus mirabilis,>49,,,,,Proteus mirabilis,4/5,,,,,,,,,,,,,1,{'Proteus mirabilis': [584]},{'Proteus mirabilis': [584]},1.0,,0,1,1,['Escherichia coli'],[],['Escherichia coli'],['Proteus mirabilis']
17,H48613,18.0,2019-02-21,sonication fluid,saponin 5%,RPB004_7,barcode04,Staphylococcus epidermidis,>49,,,,,Staphylococcus epidermidis,4/4,,,,,,,,,,,,,1,{'Staphylococcus epidermidis': [1282]},{'Staphylococcus epidermidis': [1282]},,1.0,1,0,0,['Staphylococcus epidermidis'],[],['Staphylococcus epidermidis'],[]
18,M16667,19.0,2019-03-04,sonication fluid,saponin 5%,RPB004_8,barcode05,negative,,,,,,negative,,,,,,,,,,,,,,0,{},{},1.0,,0,1,0,['Escherichia coli'],['Escherichia coli'],[],[]
19,H48507,20.0,2019-02-21,sonication fluid,saponin 5%,RPB004_8,barcode08,Staphylococcus aureus,>49,coagulase negative Staphylococcus,>49,,,Staphylococcus aureus,4/4,coagulase negative Staphylococcus,1/4,,,,,,,,,,Staphylococcus schleiferi,2,"{'Staphylococcus': [1279], 'Staphylococcus aureus': [1280]}","{'Staphylococcus': [1279], 'Staphylococcus aureus': [1280]}",2.0,2.0,0,1,0,"['Escherichia coli', 'Fusobacterium nucleatum', 'Staphylococcus aureus', 'Staphylococcus schleiferi']","['Fusobacterium nucleatum', 'Staphylococcus schleiferi']","['Escherichia coli', 'Staphylococcus aureus']",[]
20,M16350,21.0,2019-02-25,sonication fluid,saponin 5%,RPB004_9,barcode12a,negative,,,,,,negative,,,,,,,,,,,,,,0,{},{},,,1,0,0,,[],[],[]
21,W57236,22.0,2019-03-06,sonication fluid,saponin 5%,RPB004_9,barcode07,Staphylococcus epidermidis,<5,Enterococcus faecium,25-49,,,Enterococcus faecium,6/6,Staphylococcus lugdunensis,3/6,coagulase negative Staphylococcus,4/6,Bacillus circulans,1/6,,,,,,,2,"{'Enterococcus faecium': [1352], 'Staphylococcus epidermidis': [1282]}","{'Bacillus circulans': [1397], 'Enterococcus faecium': [1352], 'Staphylococcus': [1279], 'Staphylococcus epidermidis': [1282], 'Staphylococcus lugdunensis': [28035]}",1.0,2.0,0,1,1,"['Enterococcus faecium', 'Escherichia coli', 'Staphylococcus pettenkoferi']",['Staphylococcus pettenkoferi'],"['Enterococcus faecium', 'Escherichia coli']",['Staphylococcus epidermidis']
22,T4269,23.0,2019-02-12,sonication fluid,saponin 5%,RPB004_10,barcode02,coagulase negative Staphylococcus,no quantification,,,,,coagulase negative Staphylococcus,5/6,Staphylococcus epidermidis,2/6,,,,,,,,,,Staphylococcus capitis,1,{'Staphylococcus': [1279]},"{'Staphylococcus': [1279], 'Staphylococcus epidermidis': [1282]}",1.0,1.0,0,1,0,"['Escherichia coli', 'Staphylococcus capitis']",[],"['Escherichia coli', 'Staphylococcus capitis']",[]
23,W57304,24.0,2019-03-06,sonication fluid,saponin 5%,RPB004_10,barcode10,negative,,,,,,Streptococcus dysgalactiae,2/3,,,,,,,,,,,,,0,{},{'Streptococcus dysgalactiae': [1334]},1.0,,0,1,0,['Escherichia coli'],[],['Escherichia coli'],[]
24,F45193,25.0,2019-05-02,sonication fluid,saponin 5%,RPB004_11,barcode01,Enterobacter cloacae,>49,,,,,Enterobacter cloacae,,,,,,,,,,,,,,1,{'Enterobacter cloacae': [550]},{'Enterobacter cloacae': [550]},2.0,1.0,0,1,0,"['Cutibacterium acnes', 'Enterobacter cloacae', 'Enterobacter hormaechei']",['Enterobacter hormaechei'],"['Cutibacterium acnes', 'Enterobacter cloacae']",[]
25,H51197,26.0,2019-05-03,sonication fluid,saponin 5%,RPB004_11,barcode06,Staphylococcus epidermidis,>49,,,,,Staphylococcus epidermidis,2/4,,,,,,,,,,,,"4 different morphotypes S. epi <5 x 2, 10-24, >49",1,{'Staphylococcus epidermidis': [1282]},{'Staphylococcus epidermidis': [1282]},,1.0,1,0,0,['Staphylococcus epidermidis'],[],['Staphylococcus epidermidis'],[]
26,F45595,27.0,2019-05-10,sonication fluid,saponin 5%,RPB004_13,barcode11,Staphylococcus aureus,>49,,,,,Staphylococcus aureus,6/6,,,,,,,,,,,,,1,{'Staphylococcus aureus': [1280]},{'Staphylococcus aureus': [1280]},,1.0,1,0,0,['Staphylococcus aureus'],[],['Staphylococcus aureus'],[]
27,F59884,28.0,2019-05-15,sonication fluid,saponin 5%,RPB004_15,barcode10,negative,,,,,,negative,,,,,,,,,,,,,,0,{},{},,,1,0,0,,[],[],[]
28,W59582,31.0,2019-05-15,sonication fluid,saponin 5%,RPB004_18,barcode09,Pseudomonas aeruginosa,no quantification,,,,,Pseudomonas aeruginosa,,,,,,,,,,,,,,1,{'Pseudomonas aeruginosa': [287]},{'Pseudomonas aeruginosa': [287]},,,1,0,1,,[],[],['Pseudomonas aeruginosa']
29,W60598,33.0,2019-06-05,sonication fluid,saponin 5%,RPB004_22,barcode09,Staphylococcus lugdunensis,25-49,,,,,Staphylococcus lugdunensis,6/6,,,,,,,,,,,,,1,{'Staphylococcus lugdunensis': [28035]},{'Staphylococcus lugdunensis': [28035]},,1.0,1,0,0,['Staphylococcus lugdunensis'],[],['Staphylococcus lugdunensis'],[]
30,M18707,34.0,2019-05-13,sonication fluid,saponin 5%,RPB004_23,barcode11,Staphylococcus aureus,10-24,,,,,Staphylococcus aureus,5/5,,,,,,,,,,,,,1,{'Staphylococcus aureus': [1280]},{'Staphylococcus aureus': [1280]},1.0,1.0,0,1,0,"['Escherichia coli', 'Staphylococcus aureus']",[],"['Escherichia coli', 'Staphylococcus aureus']",[]
31,T7901,35.0,2019-05-21,sonication fluid,saponin 5%,RPB004_25,barcode02,negative,,,,,,negative,,,,,,,,,,,,,,0,{},{},,,1,0,0,,[],[],[]
32,F46306,36.0,2019-05-31,sonication fluid,saponin 5%,RPB004_25,barcode07,negative,,,,,,Staphylococcus epidermidis,1/6,Staphylococcus haemolyticus,1/6,,,,,,,,,,,0,{},"{'Staphylococcus epidermidis': [1282], 'Staphylococcus haemolyticus': [1283]}",,,1,0,0,,[],[],[]
33,M19436,37.0,2019-06-10,sonication fluid,saponin 5%,RPB004_26,barcode09,negative,,,,,,negative,,,,,,,,,,,,,,0,{},{},,,1,0,0,,[],[],[]
34,M19410,38.0,2019-06-10,sonication fluid,saponin 5%,RPB004_26,barcode11,Staphylococcus aureus,>49,,,,,Staphylococcus aureus,5/5,,,,,,,,,,,,,1,{'Staphylococcus aureus': [1280]},{'Staphylococcus aureus': [1280]},,1.0,1,0,0,['Staphylococcus aureus'],[],['Staphylococcus aureus'],[]
35,T8853,39.0,2019-06-18,sonication fluid,saponin 5%,RPB004_27,barcode02,Staphylococcus aureus,<5,,,,,Staphylococcus aureus,5/5,,,,,,,,,,,,,1,{'Staphylococcus aureus': [1280]},{'Staphylococcus aureus': [1280]},,1.0,1,0,0,['Staphylococcus aureus'],[],['Staphylococcus aureus'],[]
36,F46787,40.0,2019-06-14,sonication fluid,saponin 5%,RPB004_27,barcode10,Streptococcus dysgalactiae,no quantification,,,,,Streptococcus dysgalactiae,5/5,,,,,,,,,,,,,1,{'Streptococcus dysgalactiae': [1334]},{'Streptococcus dysgalactiae': [1334]},1.0,1.0,0,1,0,"['Streptococcus dysgalactiae', 'Streptococcus pyogenes']",[],"['Streptococcus dysgalactiae', 'Streptococcus pyogenes']",[]
37,F46786,40.0,2019-06-14,sonication fluid,saponin 5%,RPB004_27,barcode11,negative,,,,,,Streptococcus dysgalactiae,5/5,,,,,,,,,,,,,0,{},{'Streptococcus dysgalactiae': [1334]},,1.0,1,0,0,['Streptococcus dysgalactiae'],[],['Streptococcus dysgalactiae'],[]
38,W61172,41.0,2019-06-19,sonication fluid,saponin 5%,RPB004_28,barcode07,Staphylococcus aureus,>49,,,,,Staphylococcus aureus,5/5,Enterococcus faecium,5/5,,,,,,,,,,,1,{'Staphylococcus aureus': [1280]},"{'Enterococcus faecium': [1352], 'Staphylococcus aureus': [1280]}",,2.0,1,0,0,"['Enterococcus faecium', 'Staphylococcus aureus']",[],"['Enterococcus faecium', 'Staphylococcus aureus']",[]
39,T8239,42.0,2019-06-04,sonication fluid,saponin 5%,RPB004_28,barcode09,Staphylococcus epidermidis,>49,,,,,Staphylococcus epidermidis,4/4,,,,,,,,,,,,,1,{'Staphylococcus epidermidis': [1282]},{'Staphylococcus epidermidis': [1282]},,1.0,1,0,0,['Staphylococcus epidermidis'],[],['Staphylococcus epidermidis'],[]
40,F46912,43.0,2019-06-21,sonication fluid,saponin 5%,RPB004_28,barcode11,Staphylococcus capitis,>49,,,,,Staphylococcus capitis,5/5,,,,,,,,,,,,2 different morphotypes S. capitis 10-24 & >49,1,{'Staphylococcus capitis': [29388]},{'Staphylococcus capitis': [29388]},,1.0,1,0,0,['Staphylococcus capitis'],[],['Staphylococcus capitis'],[]
41,M20188,44.0,2019-07-01,sonication fluid,saponin 5%,RPB004_29,barcode05,negative,,,,,,negative,,,,,,,,,,,,,,0,{},{},1.0,,0,1,0,['Staphylococcus epidermidis'],['Staphylococcus epidermidis'],[],[]
42,F46948,45.0,2019-06-21,sonication fluid,saponin 5%,RPB004_29,barcode07,Enterobacter cloacae,25-49,,,,,Enterobacter cloacae,1/4,,,,,,,,,,,,,1,{'Enterobacter cloacae': [550]},{'Enterobacter cloacae': [550]},,1.0,1,0,0,['Enterobacter cloacae'],[],['Enterobacter cloacae'],[]
43,F46990,46.0,2019-06-21,sonication fluid,saponin 5%,RPB004_29,barcode11,negative,,,,,,Staphylococcus aureus,1/6,,,,,,,,,,,,,0,{},{'Staphylococcus aureus': [1280]},,1.0,1,0,0,['Staphylococcus aureus'],[],['Staphylococcus aureus'],[]
44,M20246,47.0,2019-07-01,sonication fluid,saponin 5%,RPB004_30,barcode02,negative,,,,,,negative,,,,,,,,,,,,,,0,{},{},,,1,0,0,,[],[],[]
45,F47054,48.0,2019-06-21,sonication fluid,saponin 5%,RPB004_30,barcode09,negative,,,,,,negative,,,,,,,,,,,,,,0,{},{},,,1,0,0,,[],[],[]
46,T9673,50.0,2019-07-09,sonication fluid,saponin 5%,RPB004_32,barcode02,negative,,,,,,negative,,,,,,,,,,,,,,0,{},{},,,1,0,0,,[],[],[]
47,F45747,51.0,2019-05-17,sonication fluid,saponin 5%,RPB004_32,barcode04,negative,,,,,,Staphylococcus capitis,4/5,Cutibacterium acnes,1/5,,,,,,,,,,,0,{},"{'Cutibacterium acnes': [1747], 'Staphylococcus capitis': [29388]}",2.0,,0,1,0,"['Acinetobacter johnsonii', 'Shewanella sp. FDAARGOS_354']","['Acinetobacter johnsonii', 'Shewanella sp. FDAARGOS_354']",[],[]
48,W61997,52.0,2019-07-17,sonication fluid,saponin 5%,RPB004_32,barcode06,negative,,,,,,negative,,,,,,,,,,,,,,0,{},{},,,1,0,0,,[],[],[]
49,F47895,53.0,2019-07-19,sonication fluid,saponin 5%,RPB004_33,barcode06,negative,,,,,,Paenibacillus sp,1/5,Peptoniphilus sp,1/5,,,,,,,,,,,0,{},"{'Paenibacillus': [44249], 'Peptoniphilus': [162289]}",1.0,,0,1,0,['Staphylococcus aureus'],[],['Staphylococcus aureus'],[]
50,F47404,54.0,2019-07-05,sonication fluid,saponin 5%,RPB004_33,barcode09,Staphylococcus aureus,<5,,,,,Staphylococcus aureus,5/6,,,,,,,,,,,,,1,{'Staphylococcus aureus': [1280]},{'Staphylococcus aureus': [1280]},,1.0,1,0,0,['Staphylococcus aureus'],[],['Staphylococcus aureus'],[]
51,M21065,55.0,2019-07-29,sonication fluid,saponin 5%,RPB004_34,barcode01,Fusobacterium sp,>49,,,,,Fusobacterium sp,4/4,,,,,,,,,,,,,1,{'Fusobacterium': [848]},{'Fusobacterium': [848]},1.0,,0,1,1,['Escherichia coli'],[],['Escherichia coli'],['Fusobacterium']
52,M21023,56.0,2019-07-29,sonication fluid,saponin 5%,RPB004_34,barcode05,Staphylococcus epidermidis,25-49,,,,,Staphylococcus epidermidis,4/4,,,,,,,,,,,,,1,{'Staphylococcus epidermidis': [1282]},{'Staphylococcus epidermidis': [1282]},,1.0,1,0,0,['Staphylococcus epidermidis'],[],['Staphylococcus epidermidis'],[]
53,W62243,57.0,2019-07-24,sonication fluid,saponin 5%,RPB004_35,barcode09,Pseudomonas aeruginosa,25-49,,,,,Pseudomonas aeruginosa,5/5,Streptococcus agalactiae,1/5,,,,,,,,,,,1,{'Pseudomonas aeruginosa': [287]},"{'Pseudomonas aeruginosa': [287], 'Streptococcus agalactiae': [1311]}",1.0,1.0,0,1,0,"['Escherichia coli', 'Pseudomonas aeruginosa']",[],"['Escherichia coli', 'Pseudomonas aeruginosa']",[]
54,T10102,58.0,2019-07-23,sonication fluid,saponin 5%,RPB004_36,barcode02,Cutibacterium acnes,>49,,,,,Cutibacterium acnes,1/4,,,,,,,,,,,,,1,{'Cutibacterium acnes': [1747]},{'Cutibacterium acnes': [1747]},,1.0,1,0,0,['Cutibacterium acnes'],[],['Cutibacterium acnes'],[]
55,F48161,59.0,2019-07-26,sonication fluid,saponin 5%,RPB004_36,barcode05,Staphylococcus epidermidis,10-24,,,,,Staphylococcus epidermidis,5/5,,,,,,,,,,,,,1,{'Staphylococcus epidermidis': [1282]},{'Staphylococcus epidermidis': [1282]},4.0,1.0,0,1,0,"['Corynebacterium aurimucosum', 'Corynebacterium camporealensis', 'Corynebacterium segmentosum', 'Corynebacterium striatum', 'Staphylococcus epidermidis']","['Corynebacterium aurimucosum', 'Corynebacterium camporealensis', 'Corynebacterium segmentosum', 'Corynebacterium striatum']",['Staphylococcus epidermidis'],[]
56,M20865,60.0,2019-07-22,sonication fluid,saponin 5%,RPB004_37,barcode02,Parvimonas micra,>49,,,,,negative,,,,,,,,,,,,,,1,{'Parvimonas micra': [33033]},{'Parvimonas micra': [33033]},,1.0,1,0,0,['Parvimonas micra'],[],['Parvimonas micra'],[]
57,F48906,61.0,2019-08-16,sonication fluid,saponin 5%,RPB004_37,barcode11,Staphylococcus epidermidis,>49,,,,,Staphylococcus epidermidis,4/6,,,,,,,,,,,,,1,{'Staphylococcus epidermidis': [1282]},{'Staphylococcus epidermidis': [1282]},,1.0,1,0,0,['Staphylococcus epidermidis'],[],['Staphylococcus epidermidis'],[]
58,T10498,62.0,2019-07-30,sonication fluid,saponin 5%,RPB004_38,barcode02,Staphylococcus epidermidis,10-24,,,,,Staphylococcus epidermidis,3/4,,,,,,,,,,,,,1,{'Staphylococcus epidermidis': [1282]},{'Staphylococcus epidermidis': [1282]},1.0,1.0,0,1,0,"['Escherichia coli', 'Staphylococcus epidermidis']",[],"['Escherichia coli', 'Staphylococcus epidermidis']",[]
59,F48387,63.0,2019-08-02,sonication fluid,saponin 5%,RPB004_38,barcode05,Streptococcus dysgalactiae,10-24,,,,,Streptococcus dysgalactiae,6/6,,,,,,,,,,,,,1,{'Streptococcus dysgalactiae': [1334]},{'Streptococcus dysgalactiae': [1334]},1.0,1.0,0,1,0,"['Streptococcus dysgalactiae', 'Streptococcus pyogenes']",[],"['Streptococcus dysgalactiae', 'Streptococcus pyogenes']",[]
60,W62719,64.0,2019-08-07,sonication fluid,saponin 5%,RPB004_38,barcode07,negative,,,,,,negative,,,,,,,,,,,,,,0,{},{},1.0,,0,1,0,['Escherichia coli'],['Escherichia coli'],[],[]
61,M21422,65.0,2019-08-12,sonication fluid,saponin 5%,RPB004_39,barcode09,negative,,,,,,Bacillus sp,1/6,,,,,,,,,,,,,0,{},"{'Bacillus': [1386, 55087]}",,,1,0,0,,[],[],[]
62,M21766,66.0,2019-08-19,sonication fluid,saponin 5%,RPB004_39,barcode11,Enterobacter sp,<5,,,,,Enterobacter cloacae,1/6,,,,,,,,,,,,,1,{'Enterobacter': [547]},"{'Enterobacter': [547], 'Enterobacter cloacae': [550]}",1.0,1.0,0,1,0,"['Enterobacter bugandensis', 'Enterobacter roggenkampii', 'Escherichia coli']","['Enterobacter bugandensis', 'Enterobacter roggenkampii']",['Escherichia coli'],[]
63,H55106,70.0,2019-08-22,sonication fluid,saponin 5%,RPB004_42,barcode02,negative,,,,,,negative,,,,,,,,,,,,,,0,{},{},1.0,,0,1,0,['Escherichia coli'],['Escherichia coli'],[],[]
64,W63305,71.0,2019-08-28,sonication fluid,saponin 5%,RPB004_42,barcode05,negative,,,,,,Candida albicans,1/5,Cutibacterium acnes,1/5,,,,,,,,,,,0,{},"{'Candida albicans': [5476], 'Cutibacterium acnes': [1747]}",1.0,,0,1,0,['Escherichia coli'],[],['Escherichia coli'],[]
65,W63364,72.0,2019-08-28,sonication fluid,saponin 5%,RPB004_42,barcode07,Streptococcus dysgalactiae,25-49,,,,,Streptococcus dysgalactiae,2/5,,,,,,,,,,,,,1,{'Streptococcus dysgalactiae': [1334]},{'Streptococcus dysgalactiae': [1334]},1.0,1.0,0,1,0,"['Streptococcus dysgalactiae', 'Streptococcus pyogenes']",[],"['Streptococcus dysgalactiae', 'Streptococcus pyogenes']",[]
66,F49362,73.0,2019-08-30,sonication fluid,saponin 5%,RPB004_43,barcode09,negative,,,,,,negative,,,,,,,,,,,,,,0,{},{},1.0,,0,1,0,['Escherichia coli'],['Escherichia coli'],[],[]
67,F49455,74.0,2019-08-30,sonication fluid,saponin 5%,RPB004_44,barcode02,Staphylococcus aureus,<5,,,,,Staphylococcus aureus,5/6,,,,,,,,,,,,,1,{'Staphylococcus aureus': [1280]},{'Staphylococcus aureus': [1280]},1.0,,0,1,1,['Escherichia coli'],[],['Escherichia coli'],['Staphylococcus aureus']
68,F49887,75.0,2019-09-13,sonication fluid,saponin 5%,RPB004_44,barcode06,Streptococcus agalactiae,>49,,,,,Streptococcus agalactiae,5/5,,,,,,,,,,,,,1,{'Streptococcus agalactiae': [1311]},{'Streptococcus agalactiae': [1311]},,1.0,1,0,0,['Streptococcus agalactiae'],[],['Streptococcus agalactiae'],[]
69,W63857,76.0,2019-09-11,sonication fluid,saponin 5%,RPB004_45,barcode10,negative,,,,,,negative,,,,,,,,,,,,,,0,{},{},1.0,,0,1,0,['Escherichia coli'],['Escherichia coli'],[],[]
70,M21998,77.0,2019-09-02,sonication fluid,saponin 5%,RPB004_46,barcode02,negative,,,,,,Staphylococcus epidermidis,5/5,,,,,,,,,,,,,0,{},{'Staphylococcus epidermidis': [1282]},1.0,,0,1,0,['Escherichia coli'],[],['Escherichia coli'],[]
71,F50035,78.0,2019-09-13,sonication fluid,saponin 5%,RPB004_46,barcode10,Staphylococcus aureus,>49,,,,,Staphylococcus aureus,4/4,,,,,,,,,,,,,1,{'Staphylococcus aureus': [1280]},{'Staphylococcus aureus': [1280]},1.0,1.0,0,1,0,"['Staphylococcus aureus', 'Escherichia coli']",[],"['Staphylococcus aureus', 'Escherichia coli']",[]
72,W64646,87.0,2019-10-02,sonication fluid,saponin 5%,RPB004_50,barcode06,Staphylococcus epidermidis,10-24,,,,,Staphylococcus epidermidis,6/7,,,,,,,,,,,,,1,{'Staphylococcus epidermidis': [1282]},{'Staphylococcus epidermidis': [1282]},,1.0,1,0,0,['Staphylococcus epidermidis'],[],['Staphylococcus epidermidis'],[]
73,F49636,88.0,2019-09-06,sonication fluid,saponin 5%,RPB004_50,barcode10,negative,,,,,,negative,,,,,,,,,,,,,,0,{},{},,,1,0,0,,[],[],[]
74,W64518,89.0,2019-10-02,sonication fluid,saponin 5%,RPB004_51,barcode02,negative,,,,,,Staphylococcus capitis,4/5,,,,,,,,,,,,,0,{},{'Staphylococcus capitis': [29388]},,,1,0,0,,[],[],[]
75,T11847,90.0,2019-09-03,sonication fluid,saponin 5%,RPB004_51,barcode08,Staphylococcus epidermidis,<5,,,,,Staphylococcus epidermidis,5/6,,,,,,,,,,,,,1,{'Staphylococcus epidermidis': [1282]},{'Staphylococcus epidermidis': [1282]},,1.0,1,0,0,['Staphylococcus epidermidis'],[],['Staphylococcus epidermidis'],[]
76,M22492,91.0,2019-09-16,sonication fluid,saponin 5%,RPB004_51,barcode11,negative,,,,,,negative,,,,,,,,,,,,,,0,{},{},1.0,,0,1,0,['Escherichia coli'],['Escherichia coli'],[],[]
77,W64389,79.0,2019-09-25,sonication fluid,saponin 5%,RPB004_52,barcode02,Staphylococcus aureus,>49,,,,,Staphylococcus aureus,6/6,,,,,,,,,,,,,1,{'Staphylococcus aureus': [1280]},{'Staphylococcus aureus': [1280]},,1.0,1,0,0,['Staphylococcus aureus'],[],['Staphylococcus aureus'],[]
78,H56410,81.0,2019-09-26,sonication fluid,saponin 5%,RPB004_52,barcode06,Streptococcus oralis,>49,,,,,Streptococcus oralis,6/6,,,,,,,,,,,,,1,{'Streptococcus oralis': [1303]},{'Streptococcus oralis': [1303]},3.0,1.0,0,1,0,"['Streptococcus mitis', 'Streptococcus oralis', 'Streptococcus pneumoniae', 'Streptococcus sp. NPS 308']","['Streptococcus mitis', 'Streptococcus pneumoniae', 'Streptococcus sp. NPS 308']",['Streptococcus oralis'],[]
79,F50611,92.0,2019-09-27,sonication fluid,saponin 5%,RPB004_52,barcode09,negative,,,,,,negative,,,,,,,,,,,,,,0,{},{},1.0,,0,1,0,['Escherichia coli'],['Escherichia coli'],[],[]
80,M23674,95.0,2019-10-16,sonication fluid,saponin 5%,RPB004_53,barcode07,negative,,,,,,negative,,,,,,,,,,,,,,0,{},{},,,1,0,0,,[],[],[]
81,W65053,96.0,2019-10-16,sonication fluid,saponin 5%,RPB004_54,barcode07,coagulase negative Staphylococcus,<5,,,,,negative,,,,,,,,,,,,,,1,{'Staphylococcus': [1279]},{'Staphylococcus': [1279]},,,1,0,1,,[],[],['Staphylococcus']
82,F50288,97.0,2019-09-20,sonication fluid,saponin 5%,RPB004_55,barcode02,negative,,,,,,negative,,,,,,,,,,,,,,0,{},{},1.0,,0,1,0,['Escherichia coli'],['Escherichia coli'],[],[]
83,H57040,98.0,2019-10-17,sonication fluid,saponin 5%,RPB004_55,barcode05,negative,,,,,,Staphylococcus epidermidis,6/6,,,,,,,,,,,,,0,{},{'Staphylococcus epidermidis': [1282]},1.0,,0,1,0,['Escherichia coli'],[],['Escherichia coli'],[]
84,T13228,99.0,2019-10-08,sonication fluid,saponin 5%,RPB004_55,barcode10,Enterobacter cloacae,no quantification,Staphylococcus epidermidis,no quantification,Dermabacter hominis,no quantification,Enterobacter cloacae,4/4,Staphylococcus epidermidis,4/4,Staphylococcus aureus,1/4,Dermabacter hominis,1/4,Aspergillus sp,1/4,,,,,3,"{'Dermabacter hominis': [36740], 'Enterobacter cloacae': [550], 'Staphylococcus epidermidis': [1282]}","{'Aspergillus': [5052], 'Dermabacter hominis': [36740], 'Enterobacter cloacae': [550], 'Staphylococcus aureus': [1280], 'Staphylococcus epidermidis': [1282]}",5.0,3.0,0,1,1,"['Anaerococcus mediterraneensis', 'Anaerococcus prevotii', 'Dermabacter vaginalis', 'Enterobacter cloacae', 'Enterobacter hormaechei', 'Prevotella intermedia', 'Staphylococcus aureus', 'Staphylococcus epidermidis']","['Anaerococcus mediterraneensis', 'Anaerococcus prevotii', 'Dermabacter vaginalis', 'Enterobacter hormaechei', 'Prevotella intermedia']","['Enterobacter cloacae', 'Staphylococcus aureus', 'Staphylococcus epidermidis']",['Dermabacter hominis']
85,H57175,100.0,2019-10-24,sonication fluid,saponin 5%,RPB004_56,barcode01,Streptococcus oralis,>49,,,,,Streptococcus oralis,6/6,,,,,,,,,,,,,1,{'Streptococcus oralis': [1303]},{'Streptococcus oralis': [1303]},2.0,1.0,0,1,0,"['Staphylococcus aureus', 'Streptococcus oralis', 'Streptococcus sp. NPS 308']",['Streptococcus sp. NPS 308'],"['Staphylococcus aureus', 'Streptococcus oralis']",[]
86,F51582,101.0,2019-10-25,sonication fluid,saponin 5%,RPB004_56,barcode04,negative,,,,,,negative,,,,,,,,,,,,,,0,{},{},,,1,0,0,,[],[],[]
87,W65277,103.0,2019-10-23,sonication fluid,saponin 5%,RPB004_56,barcode08,Staphylococcus aureus,10-24,Staphylococcus aureus,25-49,,,Staphylococcus aureus,5/5,Staphylococcus aureus,5/5,,,,,,,,,,,1,{'Staphylococcus aureus': [1280]},{'Staphylococcus aureus': [1280]},,1.0,1,0,0,['Staphylococcus aureus'],[],['Staphylococcus aureus'],[]
88,F52293,104.0,2019-11-15,sonication fluid,saponin 5%,RPB004_57,barcode01,Enterococcus faecalis,>49,,,,,Streptococcus oralis,5/5,Enterococcus faecalis,5/5,,,,,,,,,,,1,{'Enterococcus faecalis': [1351]},"{'Enterococcus faecalis': [1351], 'Streptococcus oralis': [1303]}",,1.0,1,0,0,['Enterococcus faecalis'],[],['Enterococcus faecalis'],[]
89,T13842,106.0,2019-10-29,sonication fluid,saponin 5%,RPB004_58,barcode01,negative,,,,,,negative,,,,,,,,,,,,,,0,{},{},,,1,0,0,,[],[],[]
90,W65493,107.0,2019-10-30,sonication fluid,saponin 5%,RPB004_58,barcode04,Staphylococcus epidermidis,25-49,,,,,Staphylococcus epidermidis,5/5,,,,,,,,,,,,,1,{'Staphylococcus epidermidis': [1282]},{'Staphylococcus epidermidis': [1282]},,1.0,1,0,0,['Staphylococcus epidermidis'],[],['Staphylococcus epidermidis'],[]
91,W66159,108.0,2019-11-13,sonication fluid,saponin 5%,RPB004_58,barcode11,negative,,,,,,Enterococcus faecalis,4/4,,,,,,,,,,,,,0,{},{'Enterococcus faecalis': [1351]},,,1,0,0,,[],[],[]
92,H57679,109.0,2019-11-07,sonication fluid,saponin 5%,RPB004_59,barcode02,Staphylococcus epidermidis,<5,,,,,negative,,,,,,,,,,,,,,1,{'Staphylococcus epidermidis': [1282]},{'Staphylococcus epidermidis': [1282]},,1.0,1,0,0,['Staphylococcus epidermidis'],[],['Staphylococcus epidermidis'],[]
93,M24362,110.0,2019-11-11,sonication fluid,saponin 5%,RPB004_59,barcode05,negative,,,,,,negative,,,,,,,,,,,,,,0,{},{},,,1,0,0,,[],[],[]
94,W66153,111.0,2019-11-13,sonication fluid,saponin 5%,RPB004_59,barcode11,negative,,,,,,negative,,,,,,,,,,,,,,0,{},{},,,1,0,0,,[],[],[]
95,W65894,112.0,2019-11-06,sonication fluid,saponin 5%,RPB004_60,barcode02,Escherichia coli,no quantification,,,,,Escherichia coli,3/4,,,,,,,,,,,,,1,{'Escherichia coli': [562]},{'Escherichia coli': [562]},1.0,1.0,0,1,0,"['Cutibacterium acnes', 'Escherichia coli']",[],"['Cutibacterium acnes', 'Escherichia coli']",[]
96,H57650,113.0,2019-11-06,sonication fluid,saponin 5%,RPB004_60,barcode05,negative,,,,,,no tissues,,,,,,,,,,,,,,0,{},{},,,1,0,0,,[],[],[]
97,F52212,114.0,2019-11-15,sonication fluid,saponin 5%,RPB004_61,barcode02,negative,,,,,,negative,,,,,,,,,,,,,,0,{},{},,,1,0,0,,[],[],[]
98,W67616,115.0,2019-12-31,sonication fluid,saponin 5%,RPB004_62,barcode07,Candida parapsilosis,25-49,,,,,Staphylococcus aureus,1/6,coagulase negative Staphylococcus,1/6,,,,,,,,,,,1,{'Candida parapsilosis': [5480]},"{'Candida parapsilosis': [5480], 'Staphylococcus': [1279], 'Staphylococcus aureus': [1280]}",,,1,0,1,,[],[],['Candida parapsilosis']
99,H59497,116.0,2020-01-09,sonication fluid,saponin 5%,RPB004_62,barcode09,Enterococcus faecium,>49,Staphylococcus epidermidis,<5,,,Enterococcus faecium,5/5,,,,,,,,,,,,,2,"{'Enterococcus faecium': [1352], 'Staphylococcus epidermidis': [1282]}","{'Enterococcus faecium': [1352], 'Staphylococcus epidermidis': [1282]}",,2.0,1,0,0,"['Enterococcus faecium', 'Staphylococcus epidermidis']",[],"['Enterococcus faecium', 'Staphylococcus epidermidis']",[]
100,M25424,117.0,2020-12-16,sonication fluid,saponin 5%,RPB004_62,barcode11,Staphylococcus aureus,25-49,,,,,Staphylococcus aureus,6/6,,,,,,,,,,,,,1,{'Staphylococcus aureus': [1280]},{'Staphylococcus aureus': [1280]},1.0,1.0,0,1,0,"['Staphylococcus aureus', 'Escherichia coli']",[],"['Staphylococcus aureus', 'Escherichia coli']",[]
101,T15314,118.0,2019-12-10,sonication fluid,saponin 5%,RPB004_63,barcode11,coagulase negative Staphylococcus,<5,,,,,negative,,,,,,,,,,,,,,1,{'Staphylococcus': [1279]},{'Staphylococcus': [1279]},,,1,0,1,,[],[],['Staphylococcus']
102,M26097,119.0,2020-01-06,sonication fluid,saponin 5%,RPB004_63,barcode12a,Staphylococcus aureus,>49,,,,,Staphylococcus aureus,4/4,,,,,,,,,,,,,1,{'Staphylococcus aureus': [1280]},{'Staphylococcus aureus': [1280]},,1.0,1,0,0,['Staphylococcus aureus'],[],['Staphylococcus aureus'],[]
103,F54088,120.0,2020-01-10,sonication fluid,saponin 5%,RPB004_63,barcode07,Proteus mirabilis,<5,,,,,Proteus mirabilis,1/4,Staphylococcus epidermidis,1/4,,,,,,,,,,,1,{'Proteus mirabilis': [584]},"{'Proteus mirabilis': [584], 'Staphylococcus epidermidis': [1282]}",3.0,2.0,0,1,0,"['Corynebacterium segmentosum', 'Corynebacterium striatum', 'Proteus mirabilis', 'Staphylococcus aureus', 'Staphylococcus epidermidis']","['Corynebacterium segmentosum', 'Corynebacterium striatum']","['Proteus mirabilis', 'Staphylococcus aureus', 'Staphylococcus epidermidis']",[]
104,T14585,121.0,2019-11-20,sonication fluid,saponin 5%,RPB004_64,barcode07,negative,,,,,,Pseudomonas aeruginosa,3/3,coagulase negative Staphylococcus,1/3,,,,,,,,,,,0,{},"{'Pseudomonas aeruginosa': [287], 'Staphylococcus': [1279]}",,,1,0,0,,[],[],[]
105,T14680,122.0,2019-11-26,sonication fluid,saponin 5%,RPB004_64,barcode08,Enterococcus faecalis,>49,,,,,Enterococcus faecalis,6/6,,,,,,,,,,,,,1,{'Enterococcus faecalis': [1351]},{'Enterococcus faecalis': [1351]},,,1,0,1,,[],[],['Enterococcus faecalis']
106,M24763,123.0,2019-11-26,sonication fluid,saponin 5%,RPB004_64,barcode09,negative,,,,,,negative,,,,,,,,,,,,,,0,{},{},,,1,0,0,,[],[],[]
107,F52801,124.0,2019-11-29,sonication fluid,saponin 5%,RPB004_64,barcode10,Staphylococcus aureus,25-49,,,,,Staphylococcus aureus,5/5,,,,,,,,,,,,,1,{'Staphylococcus aureus': [1280]},{'Staphylococcus aureus': [1280]},,1.0,1,0,0,['Staphylococcus aureus'],[],['Staphylococcus aureus'],[]
108,M25020,125.0,2019-11-29,sonication fluid,saponin 5%,RPB004_64,barcode11,negative,,,,,,negative,,,,,,,,,,,,,,0,{},{},,,1,0,0,,[],[],[]
109,H57890,102.0,2019-11-14,sonication fluid,saponin 5%,RPB004_65,barcode07,negative,,,,,,Stenotrophomonas maltophilia,2/2,,,,,,,,,,,,,0,{},{'Stenotrophomonas maltophilia': [40324]},,,1,0,0,,[],[],[]
110,T14997,126.0,2019-12-03,sonication fluid,saponin 5%,RPB004_65,barcode09,Pseudomonas aeruginosa,10-24,,,,,Pseudomonas aeruginosa,3/3,,,,,,,,,,,,,1,{'Pseudomonas aeruginosa': [287]},{'Pseudomonas aeruginosa': [287]},,,1,0,1,,[],[],['Pseudomonas aeruginosa']
111,W68234,127.0,2020-01-22,sonication fluid,saponin 5%,RPB004_66,barcode01,negative,,,,,,negative,,,,,,,,,,,,,,0,{},{},,,1,0,0,,[],[],[]
112,W68289,128.0,2020-01-22,sonication fluid,saponin 5%,RPB004_66,barcode04,negative,,,,,,Enterococcus faecalis,5/6,Klebsiella oxytoca,3/6,Finegoldia magna,1/6,,,,,,,,,0,{},"{'Enterococcus faecalis': [1351], 'Finegoldia magna': [1260], 'Klebsiella oxytoca': [571]}",1.0,,0,1,0,['Escherichia coli'],[],['Escherichia coli'],[]
113,W68290,128.0,2020-01-22,sonication fluid,saponin 5%,RPB004_66,barcode05,negative,,,,,,Enterococcus faecalis,5/6,Klebsiella oxytoca,3/6,Finegoldia magna,1/6,,,,,,,,,0,{},"{'Enterococcus faecalis': [1351], 'Finegoldia magna': [1260], 'Klebsiella oxytoca': [571]}",1.0,1.0,0,1,0,"['Finegoldia magna', 'Peptoniphilus harei']",['Peptoniphilus harei'],['Finegoldia magna'],[]
114,saline_neg_230718,,,negative,saponin 5%,RPB004_1,barcode01,,,,,,,,,,,,,,,,,,,,,0,{},{},,,1,0,0,,[],[],[]
115,PBS_neg_121218,,,negative,none,RPB004_3,barcode10,,,,,,,,,,,,,,,,,,,,,0,{},{},,,1,0,0,,[],[],[]
116,PBS_neg_130219,,,negative,none,RPB004_6,barcode12a,,,,,,,,,,,,,,,,,,,,,0,{},{},2.0,,0,1,0,"['Cutibacterium acnes', 'Escherichia coli']","['Cutibacterium acnes', 'Escherichia coli']",[],[]
117,PBS_neg_250419,,,negative,none,RPB004_10,barcode01,,,,,,,,,,,,,,,,,,,,,0,{},{},2.0,,0,1,0,"['Cutibacterium acnes', 'Escherichia coli']","['Cutibacterium acnes', 'Escherichia coli']",[],[]
118,PBS_neg_090519,,,negative,none,RPB004_11,barcode07,,,,,,,,,,,,,,,,,,,,,0,{},{},,,1,0,0,,[],[],[]
119,saline_neg_090519,,,negative,none,RPB004_11,barcode08,,,,,,,,,,,,,,,,,,,,,0,{},{},1.0,,0,1,0,['Escherichia coli'],['Escherichia coli'],[],[]
120,saline_neg_090519,,,negative,saponin 5%,RPB004_12,barcode11,,,,,,,,,,,,,,,,,,,,,0,{},{},1.0,,0,1,0,['Staphylococcus aureus'],['Staphylococcus aureus'],[],[]
121,PBS_neg_090519,,,negative,saponin 5%,RPB004_13,barcode10,,,,,,,,,,,,,,,,,,,,,0,{},{},2.0,,0,1,0,"['Cutibacterium acnes', 'Streptococcus sp. oral taxon 431']","['Cutibacterium acnes', 'Streptococcus sp. oral taxon 431']",[],[]
122,saline_neg_160519,,,negative,none,RPB004_14,barcode08,,,,,,,,,,,,,,,,,,,,,0,{},{},,,1,0,0,,[],[],[]
123,PBS_neg_160519,,,negative,none,RPB004_15,barcode07,,,,,,,,,,,,,,,,,,,,,0,{},{},,,1,0,0,,[],[],[]
124,PBS_neg_210519,,,negative,saponin 5%,RPB004_18,barcode11,,,,,,,,,,,,,,,,,,,,,0,{},{},,,1,0,0,,[],[],[]
125,PBS_neg_31052019,,,negative,saponin 5%,RPB004_20,barcode11,,,,,,,,,,,,,,,,,,,,,0,{},{},,,1,0,0,,[],[],[]
126,saline_neg_050619,,,negative,saponin 5%,RPB004_22,barcode11,,,,,,,,,,,,,,,,,,,,,0,{},{},,,1,0,0,,[],[],[]
127,saline_neg_220519,,,negative,saponin 5%,RPB004_24,barcode10,,,,,,,,,,,,,,,,,,,,,0,{},{},,,1,0,0,,[],[],[]
128,water_neg_140619,,,negative,none,RPB004_24,barcode07,,,,,,,,,,,,,,,,,,,,,0,{},{},,,1,0,0,,[],[],[]
129,PBS_neg_250619,,,negative,none,RPB004_26,barcode07,,,,,,,,,,,,,,,,,,,,,0,{},{},,,1,0,0,,[],[],[]
130,water_neg_280619,,,negative,none,RPB004_27,barcode08,,,,,,,,,,,,,,,,,,,,,0,{},{},,,1,0,0,,[],[],[]
131,water_neg_090719,,,negative,none,RPB004_30,barcode05,,,,,,,,,,,,,,,,,,,,,0,{},{},,,1,0,0,,[],[],[]
132,PBS_neg_080719,,,negative,none,RPB004_31,barcode11,,,,,,,,,,,,,,,,,,,,,0,{},{},,,1,0,0,,[],[],[]
133,PBS_neg_230719,,,negative,saponin 5%,RPB004_32,barcode10,,,,,,,,,,,,,,,,,,,,,0,{},{},,,1,0,0,,[],[],[]
134,water_neg_020819,,,negative,none,RPB004_33,barcode04,,,,,,,,,,,,,,,,,,,,,0,{},{},,,1,0,0,,[],[],[]
135,PBS_neg_140819,,,negative,none,RPB004_36,barcode11,,,,,,,,,,,,,,,,,,,,,0,{},{},1.0,,0,1,0,['Escherichia coli'],['Escherichia coli'],[],[]
136,water_neg_210819,,,negative,none,RPB004_37,barcode09,,,,,,,,,,,,,,,,,,,,,0,{},{},,,1,0,0,,[],[],[]
137,PBS_neg_020819,,,negative,saponin 5%,RPB004_39,barcode05,,,,,,,,,,,,,,,,,,,,,0,{},{},1.0,,0,1,0,['Escherichia coli'],['Escherichia coli'],[],[]
138,PBS_neg_210619,,,negative,saponin 5%,RPB004_40,barcode10,,,,,,,,,,,,,,,,,,,,,0,{},{},1.0,,0,1,0,['Escherichia coli'],['Escherichia coli'],[],[]
139,water_neg_270819,,,negative,none,RPB004_41,barcode08,,,,,,,,,,,,,,,,,,,,,0,{},{},1.0,,0,1,0,['Escherichia coli'],['Escherichia coli'],[],[]
140,PBS_neg_020919,,,negative,saponin 5%,RPB004_42,barcode09,,,,,,,,,,,,,,,,,,,,,0,{},{},1.0,,0,1,0,['Escherichia coli'],['Escherichia coli'],[],[]
141,PBS_neg_18092019,,,negative,none,RPB004_44,barcode11,,,,,,,,,,,,,,,,,,,,,0,{},{},1.0,,0,1,0,['Escherichia coli'],['Escherichia coli'],[],[]
142,water_neg_19092019,,,negative,none,RPB004_46,barcode11,,,,,,,,,,,,,,,,,,,,,0,{},{},1.0,,0,1,0,['Escherichia coli'],['Escherichia coli'],[],[]
143,PBS_neg_01102019,,,negative,none,RPB004_49,barcode05,,,,,,,,,,,,,,,,,,,,,0,{},{},1.0,,0,1,0,['Escherichia coli'],['Escherichia coli'],[],[]
144,PBS_neg_04102019,,,negative,saponin 5%,RPB004_50,barcode11,,,,,,,,,,,,,,,,,,,,,0,{},{},,,1,0,0,,[],[],[]
145,PBS_negative_251019,,,negative,none,RPB004_55,barcode11,,,,,,,,,,,,,,,,,,,,,0,{},{},1.0,,0,1,0,['Escherichia coli'],['Escherichia coli'],[],[]
146,PBS_negative_081119,,,negative,saponin 5%,RPB004_58,barcode05,,,,,,,,,,,,,,,,,,,,,0,{},{},,,1,0,0,,[],[],[]
147,PBS_negative_081119,,,negative,filter 5uM,RPB004_58,barcode10,,,,,,,,,,,,,,,,,,,,,0,{},{},,,1,0,0,,[],[],[]
148,PBS_negative_151119,,,negative,saponin 5%,RPB004_60,barcode11,,,,,,,,,,,,,,,,,,,,,0,{},{},,,1,0,0,,[],[],[]
149,PBS_negative_151119,,,negative,filter 5uM,RPB004_61,barcode01,,,,,,,,,,,,,,,,,,,,,0,{},{},,,1,0,0,,[],[],[]
150,PBS_negative_201119,,,negative,saponin 5%,RPB004_61,barcode05,,,,,,,,,,,,,,,,,,,,,0,{},{},,,1,0,0,,[],[],[]
151,PBS_negative_201119,,,negative,filter 5uM,RPB004_61,barcode10,,,,,,,,,,,,,,,,,,,,,0,{},{},,,1,0,0,,[],[],[]
152,PBS_negative_130120,,,negative,saponin 5%,RPB004_63,barcode09,,,,,,,,,,,,,,,,,,,,,0,{},{},,,1,0,0,,[],[],[]
153,PBS_negative_130120,,,negative,filter 5uM,RPB004_63,barcode10,,,,,,,,,,,,,,,,,,,,,0,{},{},,,1,0,0,,[],[],[]
154,PBS_negative_101219,,,negative,saponin 5%,RPB004_65,barcode11,,,,,,,,,,,,,,,,,,,,,0,{},{},1.0,,0,1,0,['Escherichia coli'],['Escherichia coli'],[],[]
155,PBS_negative_101219,,,negative,filter 5uM,RPB004_65,barcode12a,,,,,,,,,,,,,,,,,,,,,0,{},{},1.0,,0,1,0,['Escherichia coli'],['Escherichia coli'],[],[]
156,Saline_saponin,,,negative,saponin 5%,RPB004_66,barcode06,,,,,,,,,,,,,,,,,,,,,0,{},{},,,1,0,0,,[],[],[]
157,Saline_filtered,,,negative,filter 5uM,RPB004_66,barcode07,,,,,,,,,,,,,,,,,,,,,0,{},{},2.0,,0,1,0,"['Cutibacterium acnes', 'Escherichia coli']","['Cutibacterium acnes', 'Escherichia coli']",[],[]
158,Saline_PCR,,,negative,none,RPB004_66,barcode08,,,,,,,,,,,,,,,,,,,,,0,{},{},2.0,,0,1,0,"['Cutibacterium acnes', 'Escherichia coli']","['Cutibacterium acnes', 'Escherichia coli']",[],[]
