sample_ID,patient,collection_date,sample_type,treatment,run_ID,barcode,sonication_culture_species1,sonication_quantification_1,sonication_culture_species2,sonication_quantification_2,sonication_culture_species3,sonication_quantification_3,tissue_culture_species1,tissue_quantification_1,tissue_culture_species2,tissue_quantification_2,tissue_culture_species3,tissue_quantification_3,tissue_culture_species4,tissue_quantification_4,tissue_culture_species5,tissue_quantification_5,Synovialfluid_culture_species1,Synovialfluid_culture_species2,pus_culture_species1,notes,leaf,run number,Staph culture,SNPs
F40235,6,2018-11-30,sonication fluid,saponin 5%,RPB004_2,8,Staphylococcus aureus,>49,,,,,Staphylococcus aureus,5/5,,,,,,,,,,,,,R2B08,2,True,0.0
F40235,6,2018-11-30,sonication fluid,filter 5μm,RPB004_2,9,Staphylococcus aureus,>49,,,,,Staphylococcus aureus,5/5,,,,,,,,,,,,,R2B09,2,True,0.0
M14548,10,2019-01-07,sonication fluid,saponin 5%,RPB004_4,1,Staphylococcus aureus,>49,,,,,Staphylococcus aureus,5/5,,,,,,,,,,,,,R4B01,4,True,5687.0
F45588,27,2019-05-10,tissue,saponin 5%,RPB004_12,7,,,,,,,Staphylococcus aureus,6/6,,,,,,,,,,,,,R12B07,12,True,
F45594,27,2019-05-10,tissue,filter 5μm,RPB004_12,5,,,,,,,Staphylococcus aureus,6/6,,,,,,,,,,,,,R12B05,12,True,
F45594,27,2019-05-10,tissue,saponin 5%,RPB004_12,10,,,,,,,Staphylococcus aureus,6/6,,,,,,,,,,,,,R12B10,12,True,
F45596,27,2019-05-10,tissue,filter 5μm,RPB004_12,6,,,,,,,Staphylococcus aureus,6/6,,,,,,,,,,,,,R12B06,12,True,
F45596,27,2019-05-10,tissue,saponin 5%,RPB004_12,9,,,,,,,Staphylococcus aureus,6/6,,,,,,,,,,,,,R12B09,12,True,
F45590,27,2019-05-10,tissue,filter 5μm,RPB004_13,2,,,,,,,Staphylococcus aureus,6/6,,,,,,,,,,,,,R13B02,13,True,
F45590,27,2019-05-10,tissue,saponin 5%,RPB004_13,8,,,,,,,Staphylococcus aureus,6/6,,,,,,,,,,,,,R13B08,13,True,
F45591,27,2019-05-10,tissue,filter 5μm,RPB004_13,4,,,,,,,Staphylococcus aureus,6/6,,,,,,,,,,,,,R13B04,13,True,
F45591,27,2019-05-10,tissue,saponin 5%,RPB004_13,9,,,,,,,Staphylococcus aureus,6/6,,,,,,,,,,,,,R13B09,13,True,
F45595,27,2019-05-10,sonication fluid,saponin 5%,RPB004_13,11,Staphylococcus aureus,>49,,,,,Staphylococcus aureus,6/6,,,,,,,,,,,,,R13B11,13,True,72.0
M18589,29,2019-05-13,tissue,filter 5μm,RPB004_16,4,,,,,,,Staphylococcus aureus,5/5,Pseudomonas aeruginosa ,4/5,Enterobacter cloacae,2/5,,,,,,,,,R16B04,16,True,
M18589,29,2019-05-13,tissue,saponin 5%,RPB004_16,5,,,,,,,Staphylococcus aureus,5/5,Pseudomonas aeruginosa ,4/5,Enterobacter cloacae,2/5,,,,,,,,,R16B05,16,True,
M18590,29,2019-05-13,tissue,saponin 5%,RPB004_16,7,,,,,,,Staphylococcus aureus,5/5,Enterobacter cloacae ,2/5,,,,,,,,,,,R16B07,16,True,
M18703,34,2019-05-13,tissue,saponin 5%,RPB004_23,5,,,,,,,Staphylococcus aureus,5/5,,,,,,,,,,,,,R23B05,23,True,
M19410,38,2019-06-10,sonication fluid,saponin 5%,RPB004_26,11,Staphylococcus aureus,>49,,,,,Staphylococcus aureus,5/5,,,,,,,,,,,,,R26B11,26,True,9874.0
T8853,39,2019-06-18,sonication fluid,saponin 5%,RPB004_27,2,Staphylococcus aureus,<5,,,,,Staphylococcus aureus,5/5,,,,,,,,,,,,,R27B02,27,True,5892.0
T8853,39,2019-06-18,sonication fluid,saponin 1%,RPB004_27,4,Staphylococcus aureus,<5,,,,,Staphylococcus aureus,5/5,,,,,,,,,,,,,R27B04,27,True,
W61172,41,2019-06-19,sonication fluid,saponin 5%,RPB004_28,7,Staphylococcus aureus,>49,,,,,Staphylococcus aureus,5/5,Enterococcus faecium,5/5,,,,,,,,,,,R28B07,28,True,8675.0
F46990,46,2019-06-21,sonication fluid,saponin 5%,RPB004_29,11,negative,,,,,,Staphylococcus aureus,1/6,,,,,,,,,,,,,R29B11,29,True,5921.0
F47895,53,2019-07-19,sonication fluid,saponin 5%,RPB004_33,6,negative,,,,,,Paenibacillus sp,1/5,Peptoniphilus sp,1/5,,,,,,,,,,,R33B06,33,False,5178.0
F47895,53,2019-07-19,sonication fluid,saponin 1%,RPB004_33,7,negative,,,,,,Paenibacillus sp,1/5,Peptoniphilus sp,1/5,,,,,,,,,,,R33B07,33,False,
F47404,54,2019-07-05,sonication fluid,saponin 5%,RPB004_33,9,Staphylococcus aureus,<5,,,,,Staphylococcus aureus,5/6,,,,,,,,,,,,,R33B09,33,True,298.0
F47404,54,2019-07-05,sonication fluid,saponin 1%,RPB004_33,10,Staphylococcus aureus,<5,,,,,Staphylococcus aureus,5/6,,,,,,,,,,,,,R33B10,33,True,
F47404,54,2019-07-05,sonication fluid,saponin 0.1%,RPB004_33,11,Staphylococcus aureus,<5,,,,,Staphylococcus aureus,5/6,,,,,,,,,,,,,R33B11,33,True,
S79219,67,2019-07-20,synovial fluid,saponin 5% + 2*DNase,RPB004_40,2,,,,,,,,,,,,,,,,,Staphylococcus aureus,,,,R40B02,40,True,
W61167,41,2019-06-19,synovial fluid,saponin 5%,RPB004_41,1,,,,,,,,,,,,,,,,,Staphylococcus aureus ,Enterococcus faecium,,"2 morphotypes of S. aureus (1 resistant to all antibiotics, the othe resistant only to methicillin and FQ)",R41B01,41,True,
W61167,41,2019-06-19,synovial fluid,saponin 5% + 2*DNase,RPB004_41,2,,,,,,,,,,,,,,,,,Staphylococcus aureus ,Enterococcus faecium,,"2 morphotypes of S. aureus (1 resistant to all antibiotics, the othe resistant only to methicillin and FQ)",R41B02,41,True,
F50035,78,2019-09-13,sonication fluid,filter 5μm,RPB004_46,9,Staphylococcus aureus,>49,,,,,Staphylococcus aureus,4/4,,,,,,,,,,,,,R46B09,46,True,177.0
W64382,79,2019-09-25,synovial fluid,saponin 5% + 2*DNase,RPB004_47,5,,,,,,,,,,,,,,,,,Staphylococcus aureus,,,,R47B05,47,True,
W64389,79,2019-09-25,sonication fluid,filter 5μm,RPB004_52,1,Staphylococcus aureus,>49,,,,,Staphylococcus aureus,6/6,,,,,,,,,,,,,R52B01,52,True,0.0
W64389,79,2019-09-25,sonication fluid,saponin 5%,RPB004_52,2,Staphylococcus aureus,>49,,,,,Staphylococcus aureus,6/6,,,,,,,,,,,,,R52B02,52,True,0.0
W64389,79,2019-09-25,sonication fluid,saponin 5% + QIAGEN extraction,RPB004_52,4,Staphylococcus aureus,>49,,,,,Staphylococcus aureus,6/6,,,,,,,,,,,,,R52B04,52,True,
T13228,99,2019-10-08,sonication fluid,saponin 5%,RPB004_55,10,Enterobacter cloacae,no quantification,Staphylococcus epidermidis,no quantification,Dermabacter hominis,no quantification,Enterobacter cloacae,4/4,Staphylococcus epidermidis,4/4,Staphylococcus aureus,1/4,Dermabacter hominis,1/4,Aspergillus sp,1/4,,,,,R55B10,55,True,376.0
W65277,103,2019-10-23,sonication fluid,saponin 5%,RPB004_56,8,Staphylococcus aureus,10-24,Staphylococcus aureus,25-49,,,Staphylococcus aureus,5/5,Staphylococcus aureus,5/5,,,,,,,,,,,R56B08,56,True,72.0
M26097,119,2020-01-06,sonication fluid,saponin 5%,RPB004_63,12,Staphylococcus aureus,>49,,,,,Staphylococcus aureus,4/4,,,,,,,,,,,,,R63B12a,63,True,83.0
