Node	Beg	End
R4B01	1	939
R4B01	12261	12327
R4B01	14320	15569
R4B01	18463	19221
R4B01	21817	23015
R4B01	27218	34244
R4B01	61534	62609
R4B01	63471	65172
R4B01	111546	113588
R4B01	114947	116797
R4B01	117905	120411
R4B01	121250	121942
R4B01	123610	125457
R4B01	131887	133221
R4B01	139917	142626
R4B01	147176	147524
R4B01	148815	150254
R4B01	156642	158583
R4B01	159616	161285
R4B01	168544	169761
R4B01	182300	184523
R4B01	189181	190084
R4B01	191145	191351
R4B01	192846	194631
R4B01	204035	204698
R4B01	226478	228115
R4B01	229508	230936
R4B01	235226	236962
R4B01	246000	246230
R4B01	250542	251911
R4B01	256476	259960
R4B01	263002	264455
R4B01	271892	272118
R4B01	273174	273777
R4B01	289807	290917
R4B01	297199	299255
R4B01	306087	307497
R4B01	309196	309578
R4B01	311278	311313
R4B01	314234	317145
R4B01	318426	319531
R4B01	322164	323236
R4B01	327131	328228
R4B01	332996	333419
R4B01	338749	341806
R4B01	342851	344604
R4B01	348035	348495
R4B01	353062	353687
R4B01	355216	356116
R4B01	369692	372019
R4B01	377565	380519
R4B01	383209	384992
R4B01	386596	393942
R4B01	401721	401862
R4B01	403261	403412
R4B01	404674	405727
R4B01	407512	408081
R4B01	417162	421135
R4B01	425643	426615
R4B01	429373	431325
R4B01	432487	432902
R4B01	437196	438210
R4B01	444538	445915
R4B01	449777	454359
R4B01	456085	457464
R4B01	458585	459356
R4B01	460718	468129
R4B01	471894	474236
R4B01	475017	477750
R4B01	479210	480725
R4B01	481551	486947
R4B01	488534	489899
R4B01	491474	492389
R4B01	493775	494896
R4B01	504555	504663
R4B01	535276	535287
R4B01	568230	568269
R4B01	570162	570603
R4B01	616652	618961
R4B01	621229	622636
R4B01	623441	624868
R4B01	631315	631402
R4B01	638555	638585
R4B01	641653	642947
R4B01	651591	651875
R4B01	667923	668798
R4B01	674771	675375
R4B01	712694	714167
R4B01	715724	716532
R4B01	717473	717767
R4B01	722172	722228
R4B01	729005	729122
R4B01	748496	750093
R4B01	771802	771930
R4B01	773465	774387
R4B01	787500	789962
R4B01	797089	797412
R4B01	801050	802864
R4B01	806410	806761
R4B01	817295	817350
R4B01	839800	841195
R29B11	8534	10128
R29B11	20546	21318
R29B11	22179	22338
R29B11	26495	34103
R29B11	102690	110449
R29B11	111653	115911
R29B11	116783	123011
R29B11	124123	124380
R29B11	126764	126888
R29B11	132243	132483
R29B11	135897	136472
R29B11	147402	148825
R29B11	150101	150887
R29B11	182986	183825
R29B11	233844	233978
R29B11	236078	236953
R29B11	239008	239075
R29B11	244174	245181
R29B11	256494	257290
R29B11	258523	261760
R29B11	273273	273877
R29B11	280637	284984
R29B11	288176	290057
R29B11	291247	292367
R29B11	307497	311551
R29B11	314234	315658
R29B11	318834	320120
R29B11	327872	328318
R29B11	331958	334059
R29B11	339442	342274
R29B11	343351	345168
R29B11	353785	354616
R29B11	356806	357373
R29B11	361270	361706
R29B11	363683	364037
R29B11	365084	366221
R29B11	367522	370044
R29B11	373332	373607
R29B11	376741	378346
R29B11	383028	384984
R29B11	388536	393222
R29B11	399674	401862
R29B11	425590	431162
R29B11	432430	432823
R29B11	435110	439246
R29B11	445870	446242
R29B11	449813	459202
R29B11	460607	465829
R29B11	467722	467758
R29B11	471223	477802
R29B11	478883	480323
R29B11	481451	486755
R29B11	488586	490043
R29B11	492200	492672
R29B11	500327	500470
R29B11	503466	504423
R29B11	508456	508969
R29B11	526003	527348
R29B11	531284	532260
R29B11	554960	555139
R29B11	568230	568269
R29B11	570162	570576
R29B11	616290	618376
R29B11	620177	620359
R29B11	622393	624668
R29B11	651230	652458
R29B11	653788	655480
R29B11	656533	660446
R29B11	664374	665331
R29B11	666605	666740
R29B11	667923	668798
R29B11	674295	676054
R29B11	677166	677283
R29B11	684820	684874
R29B11	707343	707427
R29B11	712263	712454
R29B11	726471	727345
R29B11	729016	729720
R29B11	731145	731269
R29B11	747582	749806
R29B11	766711	767045
R29B11	771802	771930
R29B11	772913	773810
R29B11	792128	792430
R29B11	835860	836730
R29B11	840877	842453
R46B09	412795	412820
R46B09	470478	470730
R46B09	618278	618282
R46B09	621643	622456
R40B02	260131	260143
R40B02	467647	467737
R40B02	606099	606214
R12B07	219447	221388
R12B07	248177	248631
R12B07	249674	250946
R12B07	692554	695150
R63B12a	259975	259996
R23B05	27678	27942
R23B05	31215	31401
R23B05	116783	119127
R23B05	286874	288917
R23B05	327179	329690
R23B05	332279	333419
R23B05	339287	340725
R23B05	353608	355591
R23B05	380892	381316
R23B05	388914	392222
R23B05	450741	453195
R23B05	456048	456465
R23B05	475450	477792
R23B05	730941	732653
R23B05	749800	750297
R23B05	773534	773919
R55B10	339878	340166
R55B10	341234	341558
R55B10	413775	420665
R55B10	459368	459411
R16B07	150310	150600
R16B07	163608	164808
R16B07	417185	420172
R16B07	655329	655448
R16B07	747988	749148
R26B11	1	86
R26B11	9320	9454
R26B11	14211	17736
R26B11	18924	19992
R26B11	21639	22618
R26B11	23864	24011
R26B11	26912	34142
R26B11	102102	104539
R26B11	105363	120515
R26B11	121985	128473
R26B11	131809	137553
R26B11	140757	144773
R26B11	146524	154732
R26B11	159498	165407
R26B11	168397	172365
R26B11	173833	175108
R26B11	179711	186808
R26B11	188112	194520
R26B11	196701	210033
R26B11	211450	214713
R26B11	216463	218897
R26B11	221598	221975
R26B11	223492	225036
R26B11	226146	228893
R26B11	230390	231178
R26B11	232865	238012
R26B11	239284	241257
R26B11	242146	244218
R26B11	245381	247508
R26B11	249863	251788
R26B11	257391	263570
R26B11	264881	266858
R26B11	269929	275666
R26B11	276887	277504
R26B11	278572	278713
R26B11	279913	280022
R26B11	283009	283521
R26B11	284814	291791
R26B11	297370	299376
R26B11	301814	303277
R26B11	305989	314050
R26B11	314901	316018
R26B11	316877	319207
R26B11	320250	323884
R26B11	326879	327732
R26B11	332927	333962
R26B11	338213	350564
R26B11	351850	370028
R26B11	371825	373487
R26B11	375753	378442
R26B11	381558	384641
R26B11	386413	397410
R26B11	401300	401721
R26B11	403774	405763
R26B11	407267	407945
R26B11	412481	414546
R26B11	417163	421043
R26B11	425551	435132
R26B11	436197	439927
R26B11	445144	446306
R26B11	450875	479723
R26B11	480842	486377
R26B11	488144	493592
R26B11	496838	500773
R26B11	502771	503634
R26B11	504504	506005
R26B11	508480	510365
R26B11	513387	514005
R26B11	521780	523175
R26B11	536089	537283
R26B11	539537	543920
R26B11	549091	549985
R26B11	552297	552479
R26B11	554535	557904
R26B11	567441	569367
R26B11	574481	575606
R26B11	578924	580491
R26B11	582385	583177
R26B11	584574	586133
R26B11	603092	604111
R26B11	605543	610277
R26B11	612524	612831
R26B11	616131	617812
R26B11	620067	624526
R26B11	626326	629062
R26B11	630038	632033
R26B11	633288	635554
R26B11	637486	638233
R26B11	639463	640393
R26B11	641914	643587
R26B11	646936	647172
R26B11	649562	658850
R26B11	661562	670313
R26B11	671535	672947
R26B11	673750	680788
R26B11	690431	692887
R26B11	694855	695439
R26B11	696342	696949
R26B11	698299	701216
R26B11	702782	709385
R26B11	710240	720116
R26B11	721671	732763
R26B11	766173	766660
R26B11	769188	785528
R26B11	787056	789290
R26B11	791457	792544
R26B11	796873	797644
R26B11	802127	803341
R26B11	807134	810232
R26B11	812472	816210
R26B11	818658	821121
R26B11	822931	831137
R26B11	832681	835329
R26B11	839257	840251
R26B11	841689	842876
NODE_40	413726	414355
NODE_40	470463	472007
NODE_43	124243	124245
NODE_43	341249	341424
NODE_46	340053	340149
NODE_46	341351	341576
NODE_46	413786	420681
NODE_46	459352	459372
NODE_47	1	3531
NODE_47	4532	11793
NODE_47	13841	20510
NODE_47	21753	34136
NODE_47	65811	66044
NODE_47	66950	68111
NODE_47	89628	90113
NODE_47	102124	105166
NODE_47	108781	117192
NODE_47	118925	121295
NODE_47	122878	128746
NODE_47	130671	151076
NODE_47	153741	154918
NODE_47	159801	163247
NODE_47	164066	165803
NODE_47	168378	170339
NODE_47	171351	191520
NODE_47	193145	215478
NODE_47	216355	219973
NODE_47	222030	231259
NODE_47	234169	239257
NODE_47	240220	240555
NODE_47	241638	253349
NODE_47	255680	290917
NODE_47	292150	294188
NODE_47	295808	300768
NODE_47	303182	303280
NODE_47	305997	324376
NODE_47	326150	327407
NODE_47	329246	333221
NODE_47	338749	349791
NODE_47	352146	370361
NODE_47	371707	383020
NODE_47	383950	395102
NODE_47	396007	396948
NODE_47	398493	404233
NODE_47	405046	405748
NODE_47	406934	407806
NODE_47	408611	409152
NODE_47	410209	411151
NODE_47	412481	417036
NODE_47	418085	421043
NODE_47	425908	431162
NODE_47	432522	433327
NODE_47	435110	440078
NODE_47	441004	474155
NODE_47	475155	477738
NODE_47	478959	500605
NODE_47	502840	508969
NODE_47	509825	511906
NODE_47	513347	513917
NODE_47	521686	522305
NODE_47	525053	529651
NODE_47	530888	532674
NODE_47	535263	535336
NODE_47	536145	537477
NODE_47	541072	546064
NODE_47	548040	548755
NODE_47	552000	557037
NODE_47	558249	558961
NODE_47	566841	568569
NODE_47	570081	572820
NODE_47	575273	577130
NODE_47	578702	579560
NODE_47	582421	584977
NODE_47	592633	598275
NODE_47	600308	600734
NODE_47	601682	638234
NODE_47	639907	640165
NODE_47	642098	643831
NODE_47	648362	648656
NODE_47	650381	672989
NODE_47	673827	684985
NODE_47	686938	688090
NODE_47	690473	693580
NODE_47	695068	701273
NODE_47	702388	708928
NODE_47	710058	713465
NODE_47	715631	726002
NODE_47	728184	731456
NODE_47	744468	744998
NODE_47	747002	750358
NODE_47	751285	751309
NODE_47	765508	768597
NODE_47	773333	773761
NODE_47	777317	780757
NODE_47	782296	794573
NODE_47	796289	804912
NODE_47	807141	819696
NODE_47	822034	832149
NODE_47	834520	835568
NODE_47	837942	844124
NODE_58	1	796
NODE_58	5579	5894
NODE_58	9320	11380
NODE_58	14136	15648
NODE_58	16506	19182
NODE_58	20978	24027
NODE_58	27834	34127
NODE_58	89784	90605
NODE_58	97293	105057
NODE_58	109091	114936
NODE_58	115734	117963
NODE_58	118982	119958
NODE_58	121295	121665
NODE_58	126729	127007
NODE_58	130325	130607
NODE_58	131977	133248
NODE_58	134260	140259
NODE_58	142518	143582
NODE_58	145153	145624
NODE_58	148026	149268
NODE_58	150889	151491
NODE_58	154507	156450
NODE_58	158073	158187
NODE_58	161024	161374
NODE_58	163139	163981
NODE_58	168217	170135
NODE_58	171384	172176
NODE_58	173896	174329
NODE_58	180189	181353
NODE_58	182216	184760
NODE_58	187576	188495
NODE_58	189664	191691
NODE_58	193660	194556
NODE_58	196502	200126
NODE_58	202309	205259
NODE_58	206734	210769
NODE_58	211603	215226
NODE_58	220877	224868
NODE_58	226362	228426
NODE_58	230433	238579
NODE_58	240528	241969
NODE_58	243921	246194
NODE_58	247262	250991
NODE_58	255694	261439
NODE_58	263884	264101
NODE_58	265343	266552
NODE_58	270804	274002
NODE_58	275008	275404
NODE_58	277312	278768
NODE_58	279930	282649
NODE_58	285795	293068
NODE_58	297440	299718
NODE_58	301349	301793
NODE_58	303201	318246
NODE_58	320454	322313
NODE_58	323108	323758
NODE_58	328073	334061
NODE_58	339712	346647
NODE_58	352357	366041
NODE_58	368030	372524
NODE_58	374115	374679
NODE_58	379908	394982
NODE_58	397029	403466
NODE_58	405180	405679
NODE_58	407240	407787
NODE_58	425905	427076
NODE_58	428469	433327
NODE_58	434803	435826
NODE_58	436722	446161
NODE_58	447284	448875
NODE_58	449837	473670
NODE_58	475203	478789
NODE_58	480434	493142
NODE_58	494632	500428
NODE_58	502132	509706
NODE_58	513003	514201
NODE_58	515852	516032
NODE_58	533593	534077
NODE_58	536559	537518
NODE_58	540440	542494
NODE_58	545252	546154
NODE_58	554591	556899
NODE_58	568008	568431
NODE_58	591673	591841
NODE_58	603267	603384
NODE_58	604225	607276
NODE_58	608356	614178
NODE_58	615024	618490
NODE_58	619856	626380
NODE_58	627547	629212
NODE_58	630582	632171
NODE_58	633823	637949
NODE_58	643881	643946
NODE_58	648566	649586
NODE_58	651162	659306
NODE_58	662561	662915
NODE_58	665172	668502
NODE_58	669841	670313
NODE_58	671389	671752
NODE_58	672712	672974
NODE_58	673827	675438
NODE_58	680533	682189
NODE_58	690731	691597
NODE_58	695619	696641
NODE_58	698740	699750
NODE_58	703890	704248
NODE_58	707571	713659
NODE_58	716130	720078
NODE_58	721791	726254
NODE_58	728391	729376
NODE_58	766390	767676
NODE_58	772473	773693
NODE_58	775524	778120
NODE_58	780416	780584
NODE_58	783606	789833
NODE_58	791247	792366
NODE_58	796148	797449
NODE_58	800672	803506
NODE_58	807677	810610
NODE_58	813707	813856
NODE_58	814709	820207
NODE_58	824679	825282
NODE_58	828907	830468
NODE_58	833158	834816
NODE_58	841001	843635
NODE_59	1	205
NODE_59	7262	11865
NODE_59	14072	19299
NODE_59	21753	24683
NODE_59	26459	34133
NODE_59	89510	90239
NODE_59	99497	120138
NODE_59	124140	124374
NODE_59	126822	127192
NODE_59	128053	128718
NODE_59	132444	133338
NODE_59	134150	136999
NODE_59	138327	138504
NODE_59	140045	140455
NODE_59	143109	143563
NODE_59	145164	145613
NODE_59	148106	148544
NODE_59	151039	151622
NODE_59	156016	156302
NODE_59	160703	166624
NODE_59	168259	170139
NODE_59	171094	177982
NODE_59	181524	182771
NODE_59	186642	189756
NODE_59	194427	197187
NODE_59	199493	200054
NODE_59	202617	206250
NODE_59	207288	208182
NODE_59	210772	211778
NODE_59	212836	215321
NODE_59	219308	221343
NODE_59	223012	238885
NODE_59	241119	246222
NODE_59	247319	247463
NODE_59	248557	248851
NODE_59	250826	252359
NODE_59	255683	261741
NODE_59	265742	266741
NODE_59	269655	275296
NODE_59	276887	279096
NODE_59	285980	286413
NODE_59	289133	292292
NODE_59	298267	299321
NODE_59	303277	303740
NODE_59	305589	313070
NODE_59	313960	324326
NODE_59	325827	326298
NODE_59	327449	331154
NODE_59	338765	350796
NODE_59	351965	364445
NODE_59	366074	373369
NODE_59	375720	376440
NODE_59	377446	394900
NODE_59	396120	396283
NODE_59	398589	403190
NODE_59	405046	406006
NODE_59	409120	409141
NODE_59	417202	420998
NODE_59	425823	432319
NODE_59	436425	439376
NODE_59	445210	446771
NODE_59	448601	448840
NODE_59	449673	451306
NODE_59	452354	471703
NODE_59	472768	483717
NODE_59	485108	500925
NODE_59	503691	507364
NODE_59	508480	510236
NODE_59	513192	513919
NODE_59	521406	523139
NODE_59	524737	525509
NODE_59	539521	539573
NODE_59	544967	546256
NODE_59	555597	556825
NODE_59	567861	568731
NODE_59	570316	571062
NODE_59	578876	579426
NODE_59	582430	585729
NODE_59	602141	602303
NODE_59	603269	604303
NODE_59	605738	611227
NODE_59	612346	613315
NODE_59	615780	626587
NODE_59	627583	628979
NODE_59	630423	630983
NODE_59	632973	638441
NODE_59	642102	642239
NODE_59	648656	649523
NODE_59	650956	656168
NODE_59	657199	658448
NODE_59	666456	669450
NODE_59	672187	674609
NODE_59	676962	677940
NODE_59	679707	682565
NODE_59	684055	685018
NODE_59	692493	693529
NODE_59	695150	696018
NODE_59	698737	699609
NODE_59	703395	706138
NODE_59	707253	716223
NODE_59	718645	719322
NODE_59	721788	725807
NODE_59	728361	729294
NODE_59	743746	745289
NODE_59	747144	751351
NODE_59	769723	770231
NODE_59	773399	773999
NODE_59	775129	775803
NODE_59	777369	780516
NODE_59	781783	782602
NODE_59	784958	787449
NODE_59	788236	791938
NODE_59	794030	794179
NODE_59	797097	797336
NODE_59	801111	803128
NODE_59	807084	807223
NODE_59	809680	812469
NODE_59	813295	816556
NODE_59	819276	820336
NODE_59	823204	823717
NODE_59	824583	826147
NODE_59	828158	829473
NODE_59	833162	833289
NODE_59	839398	840270
NODE_59	841480	843635
NODE_60	14537	15273
NODE_60	19701	19722
NODE_60	28491	28558
NODE_60	109605	109903
NODE_60	119801	120014
NODE_60	125558	125825
NODE_60	127118	128038
NODE_60	141696	141946
NODE_60	143284	148044
NODE_60	188207	189337
NODE_60	199748	201863
NODE_60	210538	210598
NODE_60	226735	227165
NODE_60	264445	264617
NODE_60	268044	269391
NODE_60	273261	274615
NODE_60	280784	281372
NODE_60	287470	288293
NODE_60	298229	299344
NODE_60	364031	365051
NODE_60	377760	377777
NODE_60	390661	391606
NODE_60	392443	393369
NODE_60	425954	426239
NODE_60	430993	431053
NODE_60	435655	435766
NODE_60	450802	451908
NODE_60	455385	462806
NODE_60	464707	468804
NODE_60	470998	472338
NODE_60	476518	477765
NODE_60	494005	494548
NODE_60	513285	513835
NODE_60	555008	555128
NODE_60	567432	567582
NODE_60	578951	579315
NODE_60	597213	598038
NODE_60	603505	603867
NODE_60	612477	613065
NODE_60	617484	619745
NODE_60	621260	621496
NODE_60	624403	624962
NODE_60	631470	633443
NODE_60	646518	647284
NODE_60	652882	652969
NODE_60	654302	655667
NODE_60	674777	675531
NODE_60	677451	678762
NODE_60	679855	679864
NODE_60	696622	697333
NODE_60	706404	709394
NODE_60	712197	712580
NODE_60	719803	720036
NODE_60	728801	731432
NODE_60	782635	783364
NODE_60	788177	788646
NODE_60	791307	791385
NODE_60	797386	797623
NODE_60	807557	807773
NODE_60	815356	817848
NODE_60	819360	820811
NODE_60	821992	828448
NODE_60	829572	829800
NODE_62	20952	22795
NODE_62	116100	119040
NODE_62	126703	126919
NODE_62	132261	133218
NODE_62	152990	153722
NODE_62	163295	165103
NODE_62	234169	235474
NODE_62	250490	251911
NODE_62	274786	275520
NODE_62	285704	289439
NODE_62	297061	299339
NODE_62	327309	330047
NODE_62	332048	333344
NODE_62	355264	355564
NODE_62	379219	380568
NODE_62	389090	392260
NODE_62	409126	409141
NODE_62	417187	420139
NODE_62	426266	427754
NODE_62	450700	456551
NODE_62	471655	471699
NODE_62	475390	475905
NODE_62	476909	477765
NODE_62	481463	481466
NODE_62	511024	511225
NODE_62	532689	532701
NODE_62	717219	718137
NODE_62	730066	732502
NODE_62	747682	750760
NODE_62	764982	765340
NODE_62	775294	776145
NODE_62	783142	783431
NODE_62	786814	788397
NODE_63	15189	15195
NODE_63	16554	16887
NODE_63	24457	24594
NODE_63	27669	29709
NODE_63	32981	33206
NODE_63	104028	104522
NODE_63	127372	128548
NODE_63	132789	132939
NODE_63	143401	146461
NODE_63	151238	152291
NODE_63	188444	192233
NODE_63	193614	194490
NODE_63	197787	197966
NODE_63	199937	199971
NODE_63	210080	210173
NODE_63	218455	218500
NODE_63	235284	235759
NODE_63	259401	260233
NODE_63	306006	306129
NODE_63	306956	307711
NODE_63	340819	341372
NODE_63	362219	362226
NODE_63	363995	364867
NODE_63	393126	393741
NODE_63	419597	420139
NODE_63	425491	426213
NODE_63	432235	432430
NODE_63	440366	440901
NODE_63	451507	451960
NODE_63	453132	460989
NODE_63	464243	466159
NODE_63	467647	469127
NODE_63	472003	473541
NODE_63	477022	477223
NODE_63	486716	486794
NODE_63	492776	493751
NODE_63	522866	522881
NODE_63	554973	555146
NODE_63	610308	610887
NODE_63	612500	612510
NODE_63	616230	619615
NODE_63	620430	620515
NODE_63	624470	624878
NODE_63	631159	632492
NODE_63	674845	682087
NODE_63	702808	702915
NODE_63	707335	707546
NODE_63	715736	720499
NODE_63	725804	727163
NODE_63	728007	728130
NODE_63	783142	783707
NODE_63	787911	788988
NODE_63	814460	814523
NODE_63	821065	821464
NODE_63	822976	823387
NODE_63	824424	827776
NODE_63	828574	829530
NODE_64	251470	251770
NODE_64	328889	330455
NODE_64	339507	340705
NODE_64	389115	389155
NODE_64	390127	391144
NODE_64	420262	420402
NODE_64	471667	471953
NODE_64	475379	475792
NODE_64	476833	477851
NODE_64	750240	750364
NODE_65	1931	3253
NODE_65	9696	9963
NODE_65	14350	14745
NODE_65	19497	20112
NODE_65	23768	25295
NODE_65	28263	35939
NODE_65	61508	63688
NODE_65	65007	66003
NODE_65	66971	68548
NODE_65	102647	105067
NODE_65	107059	111533
NODE_65	112391	115061
NODE_65	119075	121342
NODE_65	122851	126195
NODE_65	127531	127694
NODE_65	132408	133288
NODE_65	134779	140138
NODE_65	142144	149313
NODE_65	150080	150226
NODE_65	151039	152207
NODE_65	154337	154702
NODE_65	158277	158583
NODE_65	159984	161716
NODE_65	162676	164276
NODE_65	168461	170408
NODE_65	171871	174172
NODE_65	183219	190100
NODE_65	194040	194697
NODE_65	204200	204547
NODE_65	206734	209734
NODE_65	214788	216703
NODE_65	217804	218516
NODE_65	224025	224532
NODE_65	226293	231061
NODE_65	235504	241548
NODE_65	243990	244857
NODE_65	248583	248722
NODE_65	255686	260762
NODE_65	263032	264446
NODE_65	267086	267771
NODE_65	268963	275361
NODE_65	278974	281231
NODE_65	289712	289958
NODE_65	291447	292169
NODE_65	303295	311278
NODE_65	312661	315907
NODE_65	318654	319243
NODE_65	320785	322276
NODE_65	326903	327449
NODE_65	333057	333981
NODE_65	337132	337391
NODE_65	338803	345060
NODE_65	355474	358052
NODE_65	359769	367126
NODE_65	368436	371179
NODE_65	373201	373607
NODE_65	374643	375956
NODE_65	377522	378259
NODE_65	381798	384893
NODE_65	385748	389392
NODE_65	392512	394805
NODE_65	396310	397173
NODE_65	398589	399120
NODE_65	400319	408207
NODE_65	419415	419599
NODE_65	424220	424320
NODE_65	425539	426105
NODE_65	427432	432581
NODE_65	433947	434065
NODE_65	436533	439007
NODE_65	442887	446212
NODE_65	447418	447523
NODE_65	449912	450812
NODE_65	452682	474155
NODE_65	475203	477112
NODE_65	479897	481628
NODE_65	485833	486755
NODE_65	489138	490307
NODE_65	491465	493592
NODE_65	496424	498278
NODE_65	504711	505718
NODE_65	508002	508300
NODE_65	535276	535596
NODE_65	561867	561960
NODE_65	567432	568731
NODE_65	570099	570891
NODE_65	610221	611046
NODE_65	616225	617825
NODE_65	619360	624866
NODE_65	630133	632633
NODE_65	638333	638681
NODE_65	645139	647914
NODE_65	650726	657678
NODE_65	662666	663119
NODE_65	665070	666878
NODE_65	667923	668088
NODE_65	673753	681446
NODE_65	686947	687014
NODE_65	691489	692749
NODE_65	695423	696541
NODE_65	698869	701240
NODE_65	702562	702817
NODE_65	704330	709257
NODE_65	710131	721377
NODE_65	723657	729244
NODE_65	744300	745307
NODE_65	747144	750697
NODE_65	766094	768226
NODE_65	772676	773078
NODE_65	778183	779718
NODE_65	782635	786307
NODE_65	788613	790367
NODE_65	791877	794204
NODE_65	796148	798789
NODE_65	801234	802887
NODE_65	803792	807596
NODE_65	808361	811418
NODE_65	813607	814097
NODE_65	814907	817596
NODE_65	818889	821218
NODE_65	821992	831398
NODE_65	832827	833311
NODE_65	836445	836769
NODE_65	839257	843329
NODE_66	12205	12291
NODE_66	14243	17058
NODE_66	22044	22263
NODE_66	28881	29681
NODE_66	103087	109459
NODE_66	110814	111419
NODE_66	112506	115031
NODE_66	115788	117111
NODE_66	119502	120672
NODE_66	126867	128509
NODE_66	132286	132975
NODE_66	135200	135541
NODE_66	136926	137364
NODE_66	139381	139527
NODE_66	141940	144644
NODE_66	152990	153744
NODE_66	159786	160198
NODE_66	162433	162554
NODE_66	173998	174265
NODE_66	177536	180824
NODE_66	190770	194626
NODE_66	196485	197289
NODE_66	199184	201722
NODE_66	202869	203606
NODE_66	205757	210499
NODE_66	211738	218494
NODE_66	227531	227936
NODE_66	234429	236962
NODE_66	242566	246105
NODE_66	251421	252339
NODE_66	257676	260712
NODE_66	265991	266402
NODE_66	274177	275086
NODE_66	278225	278768
NODE_66	285591	285731
NODE_66	294554	294602
NODE_66	298414	299311
NODE_66	306943	307187
NODE_66	308956	309407
NODE_66	313504	315325
NODE_66	335774	342739
NODE_66	352320	353687
NODE_66	354942	356590
NODE_66	361237	361363
NODE_66	363608	364692
NODE_66	367742	368799
NODE_66	369877	370798
NODE_66	373882	374454
NODE_66	375623	375632
NODE_66	379616	380702
NODE_66	381525	382678
NODE_66	386995	393412
NODE_66	394778	394829
NODE_66	406676	406742
NODE_66	417187	417826
NODE_66	424277	426836
NODE_66	430092	430099
NODE_66	437994	442230
NODE_66	452138	453058
NODE_66	454983	457637
NODE_66	459774	460120
NODE_66	461149	465991
NODE_66	467725	469797
NODE_66	473014	473545
NODE_66	477538	480128
NODE_66	480975	486239
NODE_66	487828	488646
NODE_66	490031	490331
NODE_66	491993	492754
NODE_66	496745	498071
NODE_66	499951	501085
NODE_66	505016	507481
NODE_66	509667	511288
NODE_66	513364	513966
NODE_66	522117	522830
NODE_66	529532	531013
NODE_66	540901	541984
NODE_66	552257	552635
NODE_66	555080	555194
NODE_66	558378	558654
NODE_66	578981	579768
NODE_66	582415	583288
NODE_66	595550	596300
NODE_66	605651	606817
NODE_66	608973	609959
NODE_66	611992	612780
NODE_66	616120	624617
NODE_66	628114	629230
NODE_66	630543	632477
NODE_66	634860	635737
NODE_66	636869	638441
NODE_66	639527	639805
NODE_66	641645	643130
NODE_66	652261	652470
NODE_66	654301	654634
NODE_66	657033	657290
NODE_66	672729	672802
NODE_66	673973	674126
NODE_66	675081	675200
NODE_66	677550	680932
NODE_66	690759	690989
NODE_66	712244	712439
NODE_66	715631	715649
NODE_66	729202	731188
NODE_66	769685	770231
NODE_66	775299	778393
NODE_66	780395	783004
NODE_66	784260	785113
NODE_66	786954	788067
NODE_66	789305	789553
NODE_66	793541	794128
NODE_66	811877	812607
NODE_66	839800	839812
NODE_67	14358	14839
NODE_67	24524	24621
NODE_67	33515	33548
NODE_67	63693	68081
NODE_67	90343	90636
NODE_67	102613	103855
NODE_67	109222	113780
NODE_67	115320	115404
NODE_67	119186	119418
NODE_67	124149	124308
NODE_67	128344	128650
NODE_67	132741	133296
NODE_67	139944	140026
NODE_67	142054	142172
NODE_67	143109	143936
NODE_67	146266	152261
NODE_67	169560	169986
NODE_67	182210	182703
NODE_67	187698	189942
NODE_67	194043	194157
NODE_67	207109	207879
NODE_67	209214	209444
NODE_67	217099	218477
NODE_67	220953	221979
NODE_67	226475	227384
NODE_67	229552	230936
NODE_67	236086	236271
NODE_67	237685	237971
NODE_67	257424	260107
NODE_67	269655	270372
NODE_67	271363	273261
NODE_67	279948	280032
NODE_67	289417	289436
NODE_67	301313	301763
NODE_67	305993	307768
NODE_67	308953	309577
NODE_67	336320	337894
NODE_67	339812	341770
NODE_67	342881	344639
NODE_67	355492	355666
NODE_67	363186	363641
NODE_67	364538	366118
NODE_67	370010	371995
NODE_67	374565	376499
NODE_67	377713	377981
NODE_67	382339	382882
NODE_67	384512	384831
NODE_67	386119	391144
NODE_67	391931	393858
NODE_67	398808	399926
NODE_67	402563	403556
NODE_67	404986	405637
NODE_67	418678	419255
NODE_67	420172	420402
NODE_67	425642	426091
NODE_67	428137	428493
NODE_67	429990	432487
NODE_67	434002	434059
NODE_67	438167	439055
NODE_67	450257	461447
NODE_67	462803	473663
NODE_67	476833	477591
NODE_67	485765	486009
NODE_67	492344	493430
NODE_67	552261	552458
NODE_67	554653	554963
NODE_67	616269	618124
NODE_67	619774	621032
NODE_67	622453	622735
NODE_67	626263	626419
NODE_67	636935	637900
NODE_67	642365	642383
NODE_67	652768	653398
NODE_67	654373	656366
NODE_67	665564	666893
NODE_67	673747	677541
NODE_67	680995	681278
NODE_67	684736	684982
NODE_67	686989	687018
NODE_67	699253	700566
NODE_67	707055	709388
NODE_67	710284	711305
NODE_67	715583	720116
NODE_67	721938	722501
NODE_67	723442	728747
NODE_67	750008	750605
NODE_67	766217	766976
NODE_67	782055	784119
NODE_67	785468	786130
NODE_67	787530	789824
NODE_67	797385	797603
NODE_67	813750	813865
NODE_67	814839	816946
NODE_67	819276	819651
NODE_67	823045	829638
NODE_67	830414	831194
NODE_67	834223	834732
NODE_67	839489	839889
NODE_67	841724	843246
NODE_68	8712	9709
NODE_68	14239	14622
NODE_68	16872	17316
NODE_68	21048	24023
NODE_68	28542	34142
NODE_68	103198	105398
NODE_68	108795	110578
NODE_68	111761	113588
NODE_68	115299	115911
NODE_68	116783	117659
NODE_68	118973	120750
NODE_68	122878	123103
NODE_68	124134	125627
NODE_68	127631	129541
NODE_68	132025	132582
NODE_68	150183	150241
NODE_68	158040	160033
NODE_68	162071	165399
NODE_68	204065	204698
NODE_68	207198	211282
NODE_68	213389	215181
NODE_68	223350	227672
NODE_68	233392	234181
NODE_68	242988	246223
NODE_68	250349	250490
NODE_68	256173	260925
NODE_68	262133	263114
NODE_68	278033	278458
NODE_68	279503	279976
NODE_68	284975	284984
NODE_68	286241	287239
NODE_68	289604	290564
NODE_68	308534	310497
NODE_68	315222	315690
NODE_68	321406	322184
NODE_68	329309	330641
NODE_68	339980	345819
NODE_68	350480	352110
NODE_68	354556	354715
NODE_68	361914	363120
NODE_68	368448	370370
NODE_68	374886	375450
NODE_68	377210	378250
NODE_68	383820	384525
NODE_68	386710	393756
NODE_68	401306	402294
NODE_68	406676	406940
NODE_68	425685	429913
NODE_68	432136	432508
NODE_68	437196	438583
NODE_68	445234	445609
NODE_68	449693	459111
NODE_68	460547	467686
NODE_68	470244	473958
NODE_68	475024	477645
NODE_68	479711	480470
NODE_68	489805	490457
NODE_68	504555	505057
NODE_68	526812	527716
NODE_68	616472	618049
NODE_68	620312	622927
NODE_68	634725	635018
NODE_68	638555	638585
NODE_68	648554	649070
NODE_68	650838	658120
NODE_68	665244	665331
NODE_68	677166	677283
NODE_68	684820	684874
NODE_68	695707	696419
NODE_68	712694	713759
NODE_68	716125	716649
NODE_68	722172	722296
NODE_68	747558	750183
NODE_68	751285	751585
NODE_68	773465	773921
NODE_68	796469	797575
NODE_68	800942	802893
NODE_68	809683	810205
NODE_68	817295	817350
NODE_68	830934	831302
NODE_68	839818	840108
NODE_69	7844	8525
NODE_69	9401	10146
NODE_69	12032	12387
NODE_69	14158	14755
NODE_69	16461	17185
NODE_69	19131	19473
NODE_69	27450	34143
NODE_69	103321	104280
NODE_69	109382	109858
NODE_69	111770	115881
NODE_69	116672	121399
NODE_69	123412	124986
NODE_69	127631	128539
NODE_69	148821	149246
NODE_69	150186	150600
NODE_69	233913	235226
NODE_69	236565	236622
NODE_69	237411	237940
NODE_69	244110	245544
NODE_69	248708	252197
NODE_69	256291	263396
NODE_69	265655	268067
NODE_69	269965	270352
NODE_69	273685	274015
NODE_69	279685	281330
NODE_69	288162	288698
NODE_69	289760	290456
NODE_69	291489	291878
NODE_69	310187	310809
NODE_69	312887	315943
NODE_69	321346	321605
NODE_69	322916	324000
NODE_69	325847	327950
NODE_69	328857	333847
NODE_69	338803	345819
NODE_69	352845	353659
NODE_69	357783	358502
NODE_69	363348	363641
NODE_69	365711	365774
NODE_69	369243	370018
NODE_69	373469	378077
NODE_69	381246	382837
NODE_69	383930	384980
NODE_69	388607	393147
NODE_69	398603	399926
NODE_69	401300	403155
NODE_69	417185	420998
NODE_69	425476	426615
NODE_69	428061	429715
NODE_69	430951	432267
NODE_69	435040	435748
NODE_69	437196	438580
NODE_69	449693	459143
NODE_69	460547	465977
NODE_69	467833	477851
NODE_69	479711	480712
NODE_69	489832	490250
NODE_69	492209	492278
NODE_69	493379	493559
NODE_69	505046	506299
NODE_69	511237	511270
NODE_69	603330	604078
NODE_69	607549	608051
NODE_69	614804	615480
NODE_69	616829	617788
NODE_69	620377	622273
NODE_69	624084	625499
NODE_69	639217	640010
NODE_69	641299	642234
NODE_69	644989	645948
NODE_69	647812	649070
NODE_69	651635	652844
NODE_69	654046	655423
NODE_69	657136	658120
NODE_69	661244	662138
NODE_69	665385	667561
NODE_69	670529	670681
NODE_69	674014	674953
NODE_69	676972	677698
NODE_69	702775	702878
NODE_69	715382	715595
NODE_69	719031	719481
NODE_69	724491	724759
NODE_69	766156	766491
NODE_69	770178	770465
NODE_69	771864	772179
NODE_69	773465	773919
NODE_69	817349	817491
NODE_69	819042	820006
NODE_69	825112	825260
NODE_70	14198	15196
NODE_70	16461	17144
NODE_70	21927	22339
NODE_70	27450	34229
NODE_70	61507	65164
NODE_70	107165	107226
NODE_70	111527	117675
NODE_70	118981	120588
NODE_70	121657	124263
NODE_70	125196	125505
NODE_70	127328	129190
NODE_70	132243	132652
NODE_70	141707	143340
NODE_70	147402	147491
NODE_70	148785	149135
NODE_70	157676	158232
NODE_70	159786	160748
NODE_70	162906	163224
NODE_70	172811	173386
NODE_70	174622	174946
NODE_70	190706	191294
NODE_70	203969	204642
NODE_70	215091	215430
NODE_70	227474	227672
NODE_70	233672	236269
NODE_70	249013	250202
NODE_70	252077	252265
NODE_70	257844	260020
NODE_70	261411	261760
NODE_70	269965	270352
NODE_70	273695	275660
NODE_70	282397	282649
NODE_70	286607	288827
NODE_70	299231	299410
NODE_70	301555	302159
NODE_70	306964	308049
NODE_70	309213	309624
NODE_70	313324	317207
NODE_70	318269	322058
NODE_70	322916	323461
NODE_70	330996	333221
NODE_70	339530	342104
NODE_70	343880	346961
NODE_70	354169	354243
NODE_70	355474	356091
NODE_70	357910	361816
NODE_70	369271	370320
NODE_70	377059	378077
NODE_70	380533	384991
NODE_70	387109	393393
NODE_70	395596	395956
NODE_70	399096	401228
NODE_70	425476	427870
NODE_70	429148	432304
NODE_70	433993	434130
NODE_70	437028	439922
NODE_70	442857	443010
NODE_70	443884	445795
NODE_70	450707	456177
NODE_70	457100	459221
NODE_70	460619	473848
NODE_70	474861	477637
NODE_70	479438	482939
NODE_70	489805	492269
NODE_70	497615	499618
NODE_70	505046	505768
NODE_70	510655	511234
NODE_70	522399	523175
NODE_70	593512	594055
NODE_70	606111	607890
NODE_70	610974	611818
NODE_70	616287	617773
NODE_70	619774	619975
NODE_70	621219	622906
NODE_70	626263	626419
NODE_70	627721	629107
NODE_70	629876	630255
NODE_70	631279	631864
NODE_70	651229	653000
NODE_70	656156	656472
NODE_70	662861	663119
NODE_70	665175	665889
NODE_70	667034	667636
NODE_70	669586	670201
NODE_70	676677	677256
NODE_70	695422	696247
NODE_70	702775	702878
NODE_70	705104	705515
NODE_70	706278	706642
NODE_70	715586	715739
NODE_70	717602	719368
NODE_70	721464	722348
NODE_70	726641	727345
NODE_70	729003	731153
NODE_70	747543	750183
NODE_70	769716	770401
NODE_70	785158	785330
NODE_70	787911	788385
NODE_70	800417	801705
NODE_70	809911	810574
NODE_71	10107	10140
NODE_71	28263	29070
NODE_71	32542	32683
NODE_71	103787	105067
NODE_71	157468	158459
NODE_71	163494	164925
NODE_71	207486	207518
NODE_71	324298	325511
NODE_71	340873	342404
NODE_71	344324	345102
NODE_71	354010	354219
NODE_71	361926	362655
NODE_71	368760	369045
NODE_71	383443	383482
NODE_71	384957	384991
NODE_71	389091	389245
NODE_71	394860	394874
NODE_71	403004	403054
NODE_71	405697	406865
NODE_71	427537	429460
NODE_71	432316	432501
NODE_71	443425	443599
NODE_71	444649	445768
NODE_71	455976	457005
NODE_71	457983	458754
NODE_71	464022	467881
NODE_71	475073	475792
NODE_71	477585	477765
NODE_71	505034	505070
NODE_71	554748	555177
NODE_71	617362	617387
NODE_71	620498	620687
NODE_71	631279	631820
NODE_71	651520	652105
NODE_71	654927	656484
NODE_71	660332	660905
NODE_71	717557	717767
NODE_71	797333	797362
NODE_71	839826	840051
NODE_71	841012	841051
NODE_72	8462	8507
NODE_72	32563	33084
NODE_72	104394	105394
NODE_72	110167	110231
NODE_72	112530	112544
NODE_72	135541	135814
NODE_72	144545	144773
NODE_72	154186	154918
NODE_72	160018	160445
NODE_72	162112	163252
NODE_72	167617	168552
NODE_72	206821	208020
NODE_72	214638	214836
NODE_72	222917	224841
NODE_72	226080	227677
NODE_72	244104	244311
NODE_72	260020	260158
NODE_72	287131	287452
NODE_72	309403	309409
NODE_72	350480	350862
NODE_72	353944	354187
NODE_72	355582	356116
NODE_72	370081	370370
NODE_72	372257	372596
NODE_72	384918	384992
NODE_72	387917	388148
NODE_72	390418	390469
NODE_72	405652	405688
NODE_72	425638	425895
NODE_72	445216	446176
NODE_72	467283	468209
NODE_72	473838	475619
NODE_72	488493	488577
NODE_72	490682	491848
NODE_72	497564	497759
NODE_72	541061	541303
NODE_72	578951	578993
NODE_72	620312	621754
NODE_72	631315	631402
NODE_72	654412	654704
NODE_72	717602	717960
NODE_72	779044	781085
NODE_72	784601	784606
NODE_73	103872	104815
NODE_73	107193	107277
NODE_73	108731	110480
NODE_73	114957	115485
NODE_73	142009	142328
NODE_73	145597	145773
NODE_73	161310	162447
NODE_73	187929	188675
NODE_73	194342	194626
NODE_73	197697	199013
NODE_73	201363	201749
NODE_73	207695	207987
NODE_73	213968	214149
NODE_73	235347	236502
NODE_73	239377	240703
NODE_73	244050	244623
NODE_73	257743	257984
NODE_73	259386	260161
NODE_73	273835	273877
NODE_73	289454	289604
NODE_73	315280	315330
NODE_73	323150	323192
NODE_73	340598	342075
NODE_73	344649	345096
NODE_73	355591	356374
NODE_73	357604	357929
NODE_73	366803	367238
NODE_73	368396	368811
NODE_73	370432	370499
NODE_73	383970	383973
NODE_73	388514	388526
NODE_73	401511	401654
NODE_73	428587	428628
NODE_73	435110	435250
NODE_73	455238	455571
NODE_73	457981	458053
NODE_73	460811	460896
NODE_73	461739	463158
NODE_73	472792	473532
NODE_73	475311	475469
NODE_73	477442	477639
NODE_73	482268	483643
NODE_73	490047	490307
NODE_73	558417	558986
NODE_73	616833	617788
NODE_73	620287	621760
NODE_73	654020	654637
NODE_73	657225	657831
NODE_73	664947	665181
NODE_73	677518	677661
NODE_73	786954	787452
NODE_73	807209	807413
