sample_ID	guuid	barcode	human bases	human reads	bacterial bases	bacterial reads	viral bases	viral reads	total bases	total reads
redo_RPB004_20	5da6abbd5f87b07c58451ac6	barcode06	311349	91	37063840	9455	31694	7	39822250	10220
redo_RPB004_20	5da6abbd5f87b07c58451ac6	barcode11	14294	3	1459493	343	0	0	1728296	427
redo_RPB004_20	5da6abbd5f87b07c58451ac6	barcode08	198572	107	26940061	6248	0	0	27679983	6613
redo_RPB004_20	5da6abbd5f87b07c58451ac6	barcode12a	530	1	0	0	0	0	530	1
redo_RPB004_20	5da6abbd5f87b07c58451ac6	barcode10	446	2	323013	70	0	0	329079	77
redo_RPB004_20	5da6abbd5f87b07c58451ac6	barcode07	4055046	1493	213396	50	0	0	4625529	2041
redo_RPB004_20	5da6abbd5f87b07c58451ac6	barcode05	1978733	711	7451244	1504	3278	1	10925149	2761
redo_RPB004_20	5da6abbd5f87b07c58451ac6	unclassified	499246	398	1346326	411	0	0	2646646	1813
redo_RPB004_20	5da6abbd5f87b07c58451ac6	barcode09	681526	209	63687	13	0	0	835044	295
redo_RPB004_20	5da6abbd5f87b07c58451ac6	barcode02	217	1	0	0	0	0	217	1
