sample,barcode,Species name,chrom,len,covBread_1x_percent,avCov,x1,x5,x10
redo_RPB004_44,barcode01,Acinetobacter guillouiae,NZ_AP014630_1,4648418.0,0.1614097527,4.5804344929,7503.0,3230.0,0.0
redo_RPB004_44,barcode01,Acinetobacter haemolyticus,NZ_CP018871_1,3442728.0,0.0145233664,1.0,500.0,0.0,0.0
redo_RPB004_44,barcode01,Acinetobacter haemolyticus,NZ_CP018872_1,56602.0,0.0,0.0,0.0,0.0,0.0
redo_RPB004_44,barcode01,Acinetobacter haemolyticus,NZ_CP018873_1,39508.0,0.0,0.0,0.0,0.0,0.0
redo_RPB004_44,barcode01,Acinetobacter johnsonii,NZ_CP010350_1,3509795.0,1.319849165,3.2853380537,46324.0,7818.0,1193.0
redo_RPB004_44,barcode01,Acinetobacter johnsonii,NZ_CP010352_1,3978.0,0.0,0.0,0.0,0.0,0.0
redo_RPB004_44,barcode01,Acinetobacter johnsonii,NZ_CP010353_1,4724.0,0.0,0.0,0.0,0.0,0.0
redo_RPB004_44,barcode01,Acinetobacter johnsonii,NZ_CP010354_1,11643.0,0.0,0.0,0.0,0.0,0.0
redo_RPB004_44,barcode01,Acinetobacter johnsonii,NZ_CP010355_1,7579.0,0.0,0.0,0.0,0.0,0.0
redo_RPB004_44,barcode01,Acinetobacter johnsonii,NZ_CP010356_1,13940.0,0.0,0.0,0.0,0.0,0.0
redo_RPB004_44,barcode01,Acinetobacter johnsonii,NZ_CP010357_1,13330.0,0.0,0.0,0.0,0.0,0.0
redo_RPB004_44,barcode01,Acinetobacter johnsonii,NZ_CP010358_1,117483.0,0.0,0.0,0.0,0.0,0.0
redo_RPB004_44,barcode01,Acinetobacter johnsonii,NZ_CP010351_1,398857.0,0.0,0.0,0.0,0.0,0.0
redo_RPB004_44,barcode01,Acinetobacter sp. TTH0-4,NZ_CP012608_1,2962453.0,0.1218584734,3.7656509695,3610.0,1284.0,0.0
redo_RPB004_44,barcode01,Acinetobacter sp. WCHA45,NZ_CP028561_1,2876784.0,0.0678535476,1.0,1952.0,0.0,0.0
redo_RPB004_44,barcode01,Acinetobacter sp. WCHA45,NZ_CP028556_1,7547.0,0.0,0.0,0.0,0.0,0.0
redo_RPB004_44,barcode01,Acinetobacter sp. WCHA45,NZ_CP028557_1,7282.0,0.0,0.0,0.0,0.0,0.0
redo_RPB004_44,barcode01,Acinetobacter sp. WCHA45,NZ_CP028558_1,6132.0,0.0,0.0,0.0,0.0,0.0
redo_RPB004_44,barcode01,Acinetobacter sp. WCHA45,NZ_CP028559_1,4344.0,0.0,0.0,0.0,0.0,0.0
redo_RPB004_44,barcode01,Acinetobacter sp. WCHA45,NZ_CP028560_1,190170.0,0.0,0.0,0.0,0.0,0.0
redo_RPB004_44,barcode01,Acinetobacter ursingii,NZ_AP018824_1,3429552.0,0.0633027288,1.5246430216,2171.0,0.0,0.0
redo_RPB004_44,barcode01,Acinetobacter ursingii,NZ_AP018825_1,105528.0,0.0,0.0,0.0,0.0,0.0
redo_RPB004_44,barcode01,Acinetobacter ursingii,NZ_AP018826_1,33916.0,0.0,0.0,0.0,0.0,0.0
redo_RPB004_44,barcode01,Bacillus krulwichiae,NZ_CP020814_1,4610863.0,0.1659992934,3.4253984845,7654.0,3753.0,0.0
redo_RPB004_44,barcode01,Brevundimonas diminuta,NZ_CP035093_1,3551819.0,0.1296800316,1.0,4606.0,0.0,0.0
redo_RPB004_44,barcode01,Brevundimonas naejangsanensis,NZ_CP015614_1,2971535.0,0.0503780033,1.0,1497.0,0.0,0.0
redo_RPB004_44,barcode01,Brevundimonas sp. LM2,NZ_CP019508_1,3564519.0,0.0277176247,1.0,988.0,0.0,0.0
redo_RPB004_44,barcode01,Brevundimonas subvibrioides,NC_014375_1,3445263.0,0.0289092589,1.0,996.0,0.0,0.0
redo_RPB004_44,barcode01,Cedecea neteri,NZ_CP009451_1,4876443.0,0.0298578287,1.0,1456.0,0.0,0.0
redo_RPB004_44,barcode01,Citrobacter youngae,NZ_CP021963_1,4945156.0,0.053041805,1.0,2623.0,0.0,0.0
redo_RPB004_44,barcode01,Comamonas kerstersii,NZ_CP020121_1,3547915.0,0.0530734248,1.0,1883.0,0.0,0.0
redo_RPB004_44,barcode01,Corallococcus coralloides,NC_017030_1,10080619.0,0.0193242102,1.0,1948.0,0.0,0.0
redo_RPB004_44,barcode01,Cupriavidus gilardii,NZ_CP010516_1,3539530.0,0.0821578006,1.0,2908.0,0.0,0.0
redo_RPB004_44,barcode01,Cupriavidus gilardii,NZ_CP010517_1,2039213.0,0.0,0.0,0.0,0.0,0.0
redo_RPB004_44,barcode01,Cutibacterium acnes,NC_006085_1,2560265.0,0.6886396525,2.2540978958,17631.0,0.0,0.0
redo_RPB004_44,barcode01,Delftia tsuruhatensis,NZ_CP017420_1,7195716.0,0.0236390652,1.0,1701.0,0.0,0.0
redo_RPB004_44,barcode01,Enterobacter asburiae,NC_015968_1,4812833.0,0.0774595753,1.0,3728.0,0.0,0.0
redo_RPB004_44,barcode01,Enterobacter asburiae,NC_015963_1,166725.0,0.0,0.0,0.0,0.0,0.0
redo_RPB004_44,barcode01,Enterobacter asburiae,NC_015969_1,32574.0,0.0,0.0,0.0,0.0,0.0
redo_RPB004_44,barcode01,Escherichia albertii,NZ_CP007025_1,4701875.0,0.2473906686,1.0,11632.0,0.0,0.0
redo_RPB004_44,barcode01,Escherichia coli,NC_000913_3,4641652.0,11.9851940645,2.8924468508,556311.0,105673.0,6288.0
redo_RPB004_44,barcode01,Escherichia fergusonii,NC_011740_1,4588711.0,0.1042122722,1.0,4782.0,0.0,0.0
redo_RPB004_44,barcode01,Escherichia fergusonii,NC_011743_1,55150.0,0.0,0.0,0.0,0.0,0.0
redo_RPB004_44,barcode01,Escherichia marmotae,NZ_CP025979_1,4671322.0,0.0512274684,1.0,2393.0,0.0,0.0
redo_RPB004_44,barcode01,Escherichia marmotae,NZ_CP025980_1,148809.0,0.0,0.0,0.0,0.0,0.0
redo_RPB004_44,barcode01,Escherichia marmotae,NZ_CP025981_1,76160.0,0.0,0.0,0.0,0.0,0.0
redo_RPB004_44,barcode01,Flavobacterium johnsoniae,NC_009441_1,6096872.0,0.2085167607,4.2945803508,12713.0,8137.0,0.0
redo_RPB004_44,barcode01,Flavobacterium sp. HYN0056,NZ_CP029255_1,5877431.0,0.1225195158,1.3923066241,7201.0,0.0,0.0
redo_RPB004_44,barcode01,Flavobacterium sp. HYN0086,NZ_CP030261_1,4839571.0,0.1000915164,1.7314203138,4844.0,0.0,0.0
redo_RPB004_44,barcode01,Flavobacterium sp. KBS0721,NZ_CP042170_1,5867608.0,0.1231847799,1.9146375208,7228.0,0.0,0.0
redo_RPB004_44,barcode01,Klebsiella aerogenes,NC_015663_1,5280350.0,0.0417585955,1.0,2205.0,0.0,0.0
redo_RPB004_44,barcode01,Klebsiella pneumoniae,NC_016845_1,5333942.0,0.0478820355,1.0,2554.0,0.0,0.0
redo_RPB004_44,barcode01,Klebsiella pneumoniae,NC_016838_1,122799.0,0.0,0.0,0.0,0.0,0.0
redo_RPB004_44,barcode01,Klebsiella pneumoniae,NC_016846_1,111195.0,0.0,0.0,0.0,0.0,0.0
redo_RPB004_44,barcode01,Klebsiella pneumoniae,NC_016839_1,105974.0,0.0,0.0,0.0,0.0,0.0
redo_RPB004_44,barcode01,Klebsiella pneumoniae,NC_016840_1,3751.0,0.0,0.0,0.0,0.0,0.0
redo_RPB004_44,barcode01,Klebsiella pneumoniae,NC_016847_1,3353.0,0.0,0.0,0.0,0.0,0.0
redo_RPB004_44,barcode01,Klebsiella pneumoniae,NC_016841_1,1308.0,0.0,0.0,0.0,0.0,0.0
redo_RPB004_44,barcode01,Massilia oculi,NZ_CP029343_1,5844653.0,0.044810188,1.8888888889,2619.0,0.0,0.0
redo_RPB004_44,barcode01,Novibacillus thermophilus,NZ_CP019699_1,3629225.0,0.1221748445,2.5787099684,4434.0,0.0,0.0
redo_RPB004_44,barcode01,Pseudomonas plecoglossicida,NZ_CP010359_1,6233254.0,0.0219628464,1.0,1369.0,0.0,0.0
redo_RPB004_44,barcode01,Pseudomonas putida,NC_002947_4,6181873.0,0.0307026689,1.0,1898.0,0.0,0.0
redo_RPB004_44,barcode01,Pseudomonas sp. TKP,NC_023064_1,7012672.0,0.0842902677,2.3821688378,5911.0,1.0,0.0
redo_RPB004_44,barcode01,Pseudomonas versuta,NZ_CP012676_1,5149788.0,0.0234184397,1.0,1206.0,0.0,0.0
redo_RPB004_44,barcode01,Psychrobacter sp. PRwf-1,NC_009524_1,2978976.0,0.1600214302,2.9211243969,4767.0,0.0,0.0
redo_RPB004_44,barcode01,Psychrobacter sp. PRwf-1,NC_009516_1,13956.0,0.0,0.0,0.0,0.0,0.0
redo_RPB004_44,barcode01,Psychrobacter sp. PRwf-1,NC_009517_1,2117.0,0.0,0.0,0.0,0.0,0.0
redo_RPB004_44,barcode01,Rhizobium leguminosarum,NC_011369_1,4537948.0,0.0201632985,1.7213114754,915.0,0.0,0.0
redo_RPB004_44,barcode01,Rhizobium leguminosarum,NC_011368_1,1266105.0,0.0,0.0,0.0,0.0,0.0
redo_RPB004_44,barcode01,Rhizobium leguminosarum,NC_011366_1,501946.0,0.0,0.0,0.0,0.0,0.0
redo_RPB004_44,barcode01,Rhizobium leguminosarum,NC_011370_1,308747.0,0.0,0.0,0.0,0.0,0.0
redo_RPB004_44,barcode01,Rhizobium leguminosarum,NC_011371_1,257956.0,0.0,0.0,0.0,0.0,0.0
redo_RPB004_44,barcode01,Serratia plymuthica,NC_021591_1,5328010.0,0.0420982693,1.0,2243.0,0.0,0.0
redo_RPB004_44,barcode01,Serratia plymuthica,NC_021594_1,75721.0,0.0,0.0,0.0,0.0,0.0
redo_RPB004_44,barcode01,Shewanella bicestrii,NZ_CP022358_1,4800597.0,0.1366705016,1.0001524158,6561.0,0.0,0.0
redo_RPB004_44,barcode01,Shewanella bicestrii,NZ_CP022360_1,10479.0,0.0,0.0,0.0,0.0,0.0
redo_RPB004_44,barcode01,Shewanella bicestrii,NZ_CP022359_1,193338.0,0.0,0.0,0.0,0.0,0.0
redo_RPB004_44,barcode01,Shewanella putrefaciens,NC_009438_1,4659220.0,0.0497293538,1.9503668537,2317.0,0.0,0.0
redo_RPB004_44,barcode01,Shewanella sp. ANA-3,NC_008577_1,4972204.0,0.0560113785,1.0,2785.0,0.0,0.0
redo_RPB004_44,barcode01,Shewanella sp. ANA-3,NC_008573_1,278942.0,0.0,0.0,0.0,0.0,0.0
redo_RPB004_44,barcode01,Shewanella sp. FDAARGOS_354,NZ_CP022089_2,5031863.0,3.0675914666,2.8995899117,154357.0,33917.0,0.0
redo_RPB004_44,barcode01,Shewanella sp. FDAARGOS_354,NZ_CP022090_2,38118.0,0.0,0.0,0.0,0.0,0.0
redo_RPB004_44,barcode01,Shewanella sp. MR-7,NC_008322_1,4792610.0,0.0,0.0,0.0,0.0,0.0
redo_RPB004_44,barcode01,Shewanella sp. MR-7,NC_008320_1,6499.0,2.1234036006,1.0,138.0,0.0,0.0
redo_RPB004_44,barcode01,Shewanella sp. W3-18-1,NC_008750_1,4708380.0,0.0220245605,1.0,1037.0,0.0,0.0
redo_RPB004_44,barcode01,Shigella dysenteriae,NC_007606_1,4369232.0,0.5233185146,1.113579707,22865.0,0.0,0.0
redo_RPB004_44,barcode01,Shigella dysenteriae,NC_009344_1,8953.0,0.0,0.0,0.0,0.0,0.0
redo_RPB004_44,barcode01,Shigella dysenteriae,NC_007607_1,182726.0,0.0,0.0,0.0,0.0,0.0
redo_RPB004_44,barcode01,Shigella flexneri,NC_004337_2,4607202.0,0.5990186669,1.0438799913,27598.0,0.0,0.0
redo_RPB004_44,barcode01,Shigella flexneri,NC_004851_1,221618.0,0.0,0.0,0.0,0.0,0.0
redo_RPB004_44,barcode01,Sphingobacterium sp. G1-14,NZ_CP021381_1,6325678.0,0.0410865049,2.882647172,2599.0,0.0,0.0
redo_RPB004_44,barcode01,Sphingobium yanoikuyae,NZ_CP020925_1,5260163.0,0.0518805216,1.0,2729.0,0.0,0.0
redo_RPB004_44,barcode01,Sphingobium yanoikuyae,NZ_CP020927_1,189183.0,0.0,0.0,0.0,0.0,0.0
redo_RPB004_44,barcode01,Sphingobium yanoikuyae,NZ_CP020926_1,220037.0,0.0,0.0,0.0,0.0,0.0
redo_RPB004_44,barcode01,Staphylococcus aureus,NC_007795_1,2821361.0,2.474904842,2.983344313,69826.0,15961.0,2070.0
redo_RPB004_44,barcode01,Staphylococcus hominis,NZ_CP020618_1,2253412.0,0.3588336265,2.166213208,8086.0,1057.0,0.0
redo_RPB004_44,barcode01,Staphylococcus phage 3MRA,NC_028917_1,41931.0,3.0669433116,1.0,1286.0,0.0,0.0
redo_RPB004_44,barcode01,Staphylococcus phage StauST398-4,NC_023499_1,42906.0,5.7031650585,1.9632202697,2447.0,0.0,0.0
redo_RPB004_44,barcode01,Streptococcus agalactiae,NC_004116_1,2160267.0,0.100681999,1.0,2175.0,0.0,0.0
redo_RPB004_44,barcode01,Tatumella citrea,NZ_CP015579_1,4487466.0,0.0536160051,1.0,2406.0,0.0,0.0
redo_RPB004_44,barcode01,Tatumella citrea,NZ_CP015580_1,3786.0,0.0,0.0,0.0,0.0,0.0
redo_RPB004_44,barcode01,Tenacibaculum todarodis,NZ_CP018155_1,3019213.0,0.0341810929,1.0,1032.0,0.0,0.0
redo_RPB004_44,barcode02,Acidovorax sp. JS42,NC_008782_1,4448856.0,0.0548905157,1.0,2442.0,0.0,0.0
redo_RPB004_44,barcode02,Acidovorax sp. JS42,NC_008765_1,72689.0,0.0,0.0,0.0,0.0,0.0
redo_RPB004_44,barcode02,Acidovorax sp. JS42,NC_008766_1,63609.0,0.0,0.0,0.0,0.0,0.0
redo_RPB004_44,barcode02,Acinetobacter baumannii,NZ_CP009257_1,4335793.0,0.0395544714,1.3451895044,1715.0,0.0,0.0
redo_RPB004_44,barcode02,Acinetobacter guillouiae,NZ_AP014630_1,4648418.0,0.092418539,5.300744879,4296.0,2743.0,0.0
redo_RPB004_44,barcode02,Acinetobacter haemolyticus,NZ_CP018871_1,3442728.0,0.0371217244,1.965571205,1278.0,0.0,0.0
redo_RPB004_44,barcode02,Acinetobacter haemolyticus,NZ_CP018872_1,56602.0,0.0,0.0,0.0,0.0,0.0
redo_RPB004_44,barcode02,Acinetobacter haemolyticus,NZ_CP018873_1,39508.0,3.2423812899,1.9320843091,1281.0,0.0,0.0
redo_RPB004_44,barcode02,Acinetobacter indicus,NZ_CP024620_2,3157380.0,0.1386592681,10.2380082229,4378.0,3021.0,2838.0
redo_RPB004_44,barcode02,Acinetobacter johnsonii,NZ_CP010350_1,3509795.0,1.5183222952,10.4765434415,53290.0,28520.0,14906.0
redo_RPB004_44,barcode02,Acinetobacter johnsonii,NZ_CP010352_1,3978.0,0.0,0.0,0.0,0.0,0.0
redo_RPB004_44,barcode02,Acinetobacter johnsonii,NZ_CP010353_1,4724.0,0.0,0.0,0.0,0.0,0.0
redo_RPB004_44,barcode02,Acinetobacter johnsonii,NZ_CP010354_1,11643.0,0.0,0.0,0.0,0.0,0.0
redo_RPB004_44,barcode02,Acinetobacter johnsonii,NZ_CP010355_1,7579.0,0.0,0.0,0.0,0.0,0.0
redo_RPB004_44,barcode02,Acinetobacter johnsonii,NZ_CP010356_1,13940.0,0.0,0.0,0.0,0.0,0.0
redo_RPB004_44,barcode02,Acinetobacter johnsonii,NZ_CP010357_1,13330.0,0.0,0.0,0.0,0.0,0.0
redo_RPB004_44,barcode02,Acinetobacter johnsonii,NZ_CP010358_1,117483.0,1.5798030353,1.7160560345,1856.0,0.0,0.0
redo_RPB004_44,barcode02,Acinetobacter johnsonii,NZ_CP010351_1,398857.0,1.465688204,2.0742387958,5846.0,0.0,0.0
redo_RPB004_44,barcode02,Acinetobacter radioresistens,NZ_CP027365_1,3132860.0,0.0380163812,1.0,1191.0,0.0,0.0
redo_RPB004_44,barcode02,Acinetobacter sp. ACNIH2,NZ_CP026412_1,3795065.0,0.0346502629,13.2403041825,1315.0,1314.0,1288.0
redo_RPB004_44,barcode02,Acinetobacter sp. ACNIH2,NZ_CP026414_1,17598.0,0.0,0.0,0.0,0.0,0.0
redo_RPB004_44,barcode02,Acinetobacter sp. ACNIH2,NZ_CP026416_1,127843.0,0.0,0.0,0.0,0.0,0.0
redo_RPB004_44,barcode02,Acinetobacter sp. ACNIH2,NZ_CP026413_1,11959.0,0.0,0.0,0.0,0.0,0.0
redo_RPB004_44,barcode02,Acinetobacter sp. ACNIH2,NZ_CP026415_1,118501.0,0.0,0.0,0.0,0.0,0.0
redo_RPB004_44,barcode02,Acinetobacter sp. ACNIH2,NZ_CP026419_1,41447.0,0.0,0.0,0.0,0.0,0.0
redo_RPB004_44,barcode02,Acinetobacter sp. ACNIH2,NZ_CP026417_1,12933.0,0.0,0.0,0.0,0.0,0.0
redo_RPB004_44,barcode02,Acinetobacter sp. ACNIH2,NZ_CP026418_1,43928.0,0.0,0.0,0.0,0.0,0.0
redo_RPB004_44,barcode02,Acinetobacter sp. TTH0-4,NZ_CP012608_1,2962453.0,0.0436125063,55.0464396285,1292.0,1285.0,1285.0
redo_RPB004_44,barcode02,Acinetobacter sp. WCHA55,NZ_CP032286_1,3415345.0,0.0596133041,1.0,2036.0,0.0,0.0
redo_RPB004_44,barcode02,Acinetobacter sp. WCHA55,NZ_CP032280_1,71539.0,0.0,0.0,0.0,0.0,0.0
redo_RPB004_44,barcode02,Acinetobacter sp. WCHA55,NZ_CP032281_1,16361.0,0.0,0.0,0.0,0.0,0.0
redo_RPB004_44,barcode02,Acinetobacter sp. WCHA55,NZ_CP032282_1,14838.0,0.0,0.0,0.0,0.0,0.0
redo_RPB004_44,barcode02,Acinetobacter sp. WCHA55,NZ_CP032283_1,5624.0,0.0,0.0,0.0,0.0,0.0
redo_RPB004_44,barcode02,Acinetobacter sp. WCHA55,NZ_CP032284_1,71326.0,0.0,0.0,0.0,0.0,0.0
redo_RPB004_44,barcode02,Acinetobacter sp. WCHA55,NZ_CP032285_1,372328.0,0.0,0.0,0.0,0.0,0.0
redo_RPB004_44,barcode02,Acinetobacter ursingii,NZ_AP018824_1,3429552.0,0.0675598446,1.9443245576,2317.0,0.0,0.0
redo_RPB004_44,barcode02,Acinetobacter ursingii,NZ_AP018825_1,105528.0,0.0,0.0,0.0,0.0,0.0
redo_RPB004_44,barcode02,Acinetobacter ursingii,NZ_AP018826_1,33916.0,0.0,0.0,0.0,0.0,0.0
redo_RPB004_44,barcode02,Amycolatopsis albispora,NZ_CP015163_1,9121443.0,0.0030916161,1.0,282.0,0.0,0.0
redo_RPB004_44,barcode02,Bacillus litoralis,NZ_CP033043_1,5230624.0,0.0381025285,1.0,1993.0,0.0,0.0
redo_RPB004_44,barcode02,Bacillus megaterium,NZ_CP009920_1,5343114.0,0.0378618162,1.0,2023.0,0.0,0.0
redo_RPB004_44,barcode02,Bacillus megaterium,NZ_CP009919_1,74772.0,0.0,0.0,0.0,0.0,0.0
redo_RPB004_44,barcode02,Bacillus megaterium,NZ_CP009921_1,301264.0,0.0,0.0,0.0,0.0,0.0
redo_RPB004_44,barcode02,Bacillus megaterium,NZ_CP009915_1,11065.0,0.0,0.0,0.0,0.0,0.0
redo_RPB004_44,barcode02,Bacillus megaterium,NZ_CP009918_1,10610.0,0.0,0.0,0.0,0.0,0.0
redo_RPB004_44,barcode02,Bacillus megaterium,NZ_CP009916_1,3767.0,0.0,0.0,0.0,0.0,0.0
redo_RPB004_44,barcode02,Bacillus megaterium,NZ_CP009917_1,2048.0,0.0,0.0,0.0,0.0,0.0
redo_RPB004_44,barcode02,Bacillus thermoamylovorans,NZ_CP023704_1,4016170.0,0.0394405615,1.0,1584.0,0.0,0.0
redo_RPB004_44,barcode02,Brevundimonas diminuta,NZ_CP035093_1,3551819.0,0.0845200727,1.0,3002.0,0.0,0.0
redo_RPB004_44,barcode02,Brevundimonas naejangsanensis,NZ_CP015614_1,2971535.0,0.19956016,1.9,5930.0,0.0,0.0
redo_RPB004_44,barcode02,Brevundimonas vancanneytii,NZ_LR588407_1,3383349.0,0.0659110248,1.0,2230.0,0.0,0.0
redo_RPB004_44,barcode02,Chryseobacterium haifense,NZ_CP033933_1,2764180.0,0.132986998,3.3114798694,3676.0,0.0,0.0
redo_RPB004_44,barcode02,Citrobacter amalonaticus,NZ_CP011132_1,5584358.0,0.0963763426,1.0,5382.0,0.0,0.0
redo_RPB004_44,barcode02,Citrobacter amalonaticus,NZ_CP011133_1,290993.0,0.0,0.0,0.0,0.0,0.0
redo_RPB004_44,barcode02,Citrobacter freundii,NZ_CP007557_1,5099034.0,0.1199050644,1.0,6114.0,0.0,0.0
redo_RPB004_44,barcode02,Citrobacter freundii,NZ_CP007558_1,272297.0,0.0,0.0,0.0,0.0,0.0
redo_RPB004_44,barcode02,Citrobacter koseri,NC_009792_1,4720462.0,0.0998207379,1.0,4712.0,0.0,0.0
redo_RPB004_44,barcode02,Citrobacter koseri,NC_009794_1,5601.0,0.0,0.0,0.0,0.0,0.0
redo_RPB004_44,barcode02,Citrobacter koseri,NC_009793_1,9294.0,0.0,0.0,0.0,0.0,0.0
redo_RPB004_44,barcode02,Comamonas kerstersii,NZ_CP020121_1,3547915.0,0.0267762897,1.0,950.0,0.0,0.0
redo_RPB004_44,barcode02,Corynebacterium doosanense,NZ_CP006764_1,2671798.0,0.25559567,3.0809781813,6829.0,3192.0,0.0
redo_RPB004_44,barcode02,Corynebacterium doosanense,NZ_CP006765_1,27197.0,0.0,0.0,0.0,0.0,0.0
redo_RPB004_44,barcode02,Cronobacter sakazakii,NZ_CP011047_1,4511265.0,0.0969572836,1.0,4374.0,0.0,0.0
redo_RPB004_44,barcode02,Cronobacter sakazakii,NZ_CP011048_1,93905.0,0.0,0.0,0.0,0.0,0.0
redo_RPB004_44,barcode02,Cronobacter sakazakii,NZ_CP011049_1,4938.0,0.0,0.0,0.0,0.0,0.0
redo_RPB004_44,barcode02,Cronobacter sakazakii,NZ_CP011050_1,53457.0,0.0,0.0,0.0,0.0,0.0
redo_RPB004_44,barcode02,Cutibacterium acnes,NC_006085_1,2560265.0,2.8454085808,10.8542210021,72850.0,38863.0,32280.0
redo_RPB004_44,barcode02,Delftia tsuruhatensis,NZ_CP017420_1,7195716.0,0.0127020021,1.0,914.0,0.0,0.0
redo_RPB004_44,barcode02,Enterobacter bugandensis,NZ_LT992502_1,4717613.0,0.0958959542,1.0,4524.0,0.0,0.0
redo_RPB004_44,barcode02,Enterobacter cloacae,NC_014121_1,5314581.0,0.0055319507,1.0,294.0,0.0,0.0
redo_RPB004_44,barcode02,Enterobacter cloacae,NC_014107_1,199562.0,0.0,0.0,0.0,0.0,0.0
redo_RPB004_44,barcode02,Enterobacter cloacae,NC_014108_1,84653.0,0.0,0.0,0.0,0.0,0.0
redo_RPB004_44,barcode02,Enterobacter cloacae complex sp.,NZ_CP026975_1,4876999.0,0.0830633757,1.0,4051.0,0.0,0.0
redo_RPB004_44,barcode02,Enterobacter cloacae complex sp. ECNIH7,NZ_CP017990_1,5144572.0,0.0496445574,1.0,2554.0,0.0,0.0
redo_RPB004_44,barcode02,Enterobacter cloacae complex sp. ECNIH7,NZ_CP017991_1,144025.0,0.0,0.0,0.0,0.0,0.0
redo_RPB004_44,barcode02,Enterobacter cloacae complex sp. ECNIH7,NZ_CP017992_1,79045.0,0.0,0.0,0.0,0.0,0.0
redo_RPB004_44,barcode02,Enterobacter cloacae complex sp. ECNIH7,NZ_CP017993_1,21186.0,0.0,0.0,0.0,0.0,0.0
redo_RPB004_44,barcode02,Erwinia sp. Ejp617,NC_017445_1,3909168.0,0.1583201336,1.0,6189.0,0.0,0.0
redo_RPB004_44,barcode02,Erwinia sp. Ejp617,NC_017442_1,30866.0,0.0,0.0,0.0,0.0,0.0
redo_RPB004_44,barcode02,Erwinia sp. Ejp617,NC_017446_1,5296.0,0.0,0.0,0.0,0.0,0.0
redo_RPB004_44,barcode02,Erwinia sp. Ejp617,NC_017443_1,6417.0,0.0,0.0,0.0,0.0,0.0
redo_RPB004_44,barcode02,Erwinia sp. Ejp617,NC_017447_1,3237.0,0.0,0.0,0.0,0.0,0.0
redo_RPB004_44,barcode02,Erwinia sp. Ejp617,NC_017444_1,2691.0,0.0,0.0,0.0,0.0,0.0
redo_RPB004_44,barcode02,Escherichia albertii,NZ_CP007025_1,4701875.0,0.6978279942,1.6698058578,32811.0,0.0,0.0
redo_RPB004_44,barcode02,Escherichia coli,NC_000913_3,4641652.0,12.2708682167,9.8393843788,569571.0,270569.0,173348.0
redo_RPB004_44,barcode02,Escherichia fergusonii,NC_011740_1,4588711.0,0.6073165209,1.7124659107,27868.0,0.0,0.0
redo_RPB004_44,barcode02,Escherichia fergusonii,NC_011743_1,55150.0,0.0,0.0,0.0,0.0,0.0
redo_RPB004_44,barcode02,Escherichia marmotae,NZ_CP025979_1,4671322.0,0.472799777,1.2187811283,22086.0,0.0,0.0
redo_RPB004_44,barcode02,Escherichia marmotae,NZ_CP025980_1,148809.0,0.0,0.0,0.0,0.0,0.0
redo_RPB004_44,barcode02,Escherichia marmotae,NZ_CP025981_1,76160.0,0.0,0.0,0.0,0.0,0.0
redo_RPB004_44,barcode02,Escherichia phage D108,NC_013594_1,37235.0,4.1251510675,1.0,1536.0,0.0,0.0
redo_RPB004_44,barcode02,Escherichia virus Mu,NC_000929_1,36717.0,5.4579622518,2.5923153693,2004.0,0.0,0.0
redo_RPB004_44,barcode02,Flavobacterium johnsoniae,NC_009441_1,6096872.0,0.1628047956,4.7718114044,9926.0,3237.0,2375.0
redo_RPB004_44,barcode02,Flavobacterium sp. HYN0056,NZ_CP029255_1,5877431.0,0.1452335212,9.7589034677,8536.0,7842.0,3714.0
redo_RPB004_44,barcode02,Flavobacterium sp. HYN0086,NZ_CP030261_1,4839571.0,0.1628036865,1.0791978677,7879.0,0.0,0.0
redo_RPB004_44,barcode02,Flavobacterium sp. KBS0721,NZ_CP042170_1,5867608.0,0.1651439564,1.0,9690.0,0.0,0.0
redo_RPB004_44,barcode02,Gardnerella vaginalis,NC_013721_1,1617545.0,0.0845726085,1.0,1368.0,0.0,0.0
redo_RPB004_44,barcode02,Gordonia terrae,NZ_CP016594_1,5701501.0,0.0187845271,1.9262371615,1071.0,0.0,0.0
redo_RPB004_44,barcode02,Klebsiella michiganensis,NC_016612_1,5974109.0,0.1034798662,1.0,6182.0,0.0,0.0
redo_RPB004_44,barcode02,Klebsiella pneumoniae,NC_016845_1,5333942.0,0.1188801828,1.0,6341.0,0.0,0.0
redo_RPB004_44,barcode02,Klebsiella pneumoniae,NC_016838_1,122799.0,0.0,0.0,0.0,0.0,0.0
redo_RPB004_44,barcode02,Klebsiella pneumoniae,NC_016846_1,111195.0,0.0,0.0,0.0,0.0,0.0
redo_RPB004_44,barcode02,Klebsiella pneumoniae,NC_016839_1,105974.0,0.0,0.0,0.0,0.0,0.0
redo_RPB004_44,barcode02,Klebsiella pneumoniae,NC_016840_1,3751.0,0.0,0.0,0.0,0.0,0.0
redo_RPB004_44,barcode02,Klebsiella pneumoniae,NC_016847_1,3353.0,0.0,0.0,0.0,0.0,0.0
redo_RPB004_44,barcode02,Klebsiella pneumoniae,NC_016841_1,1308.0,0.0,0.0,0.0,0.0,0.0
redo_RPB004_44,barcode02,Kluyvera intermedia,NZ_CP011602_1,5529134.0,0.0384508677,1.0,2126.0,0.0,0.0
redo_RPB004_44,barcode02,Kluyvera intermedia,NZ_CP011600_1,215092.0,0.0,0.0,0.0,0.0,0.0
redo_RPB004_44,barcode02,Kluyvera intermedia,NZ_CP011601_1,295619.0,0.0,0.0,0.0,0.0,0.0
redo_RPB004_44,barcode02,Kluyvera intermedia,NZ_CP011599_1,82986.0,0.0,0.0,0.0,0.0,0.0
redo_RPB004_44,barcode02,Kluyvera intermedia,NZ_CP011598_1,43621.0,0.0,0.0,0.0,0.0,0.0
redo_RPB004_44,barcode02,Leclercia adecarboxylata,NZ_CP013990_1,4803917.0,0.0973996845,1.0,4679.0,0.0,0.0
redo_RPB004_44,barcode02,Leminorella richardii,NZ_LS483470_1,3976274.0,0.0215779898,1.0,858.0,0.0,0.0
redo_RPB004_44,barcode02,Methylovulum psychrotolerans,NZ_CP022129_1,4923400.0,0.030872974,1.0,1520.0,0.0,0.0
redo_RPB004_44,barcode02,Moraxella osloensis,NZ_CP014234_1,2434688.0,0.0420998502,1.0,1025.0,0.0,0.0
redo_RPB004_44,barcode02,Moraxella osloensis,NZ_CP014238_1,40342.0,0.0,0.0,0.0,0.0,0.0
redo_RPB004_44,barcode02,Moraxella osloensis,NZ_CP014237_1,35189.0,0.0,0.0,0.0,0.0,0.0
redo_RPB004_44,barcode02,Moraxella osloensis,NZ_CP014236_1,57463.0,0.0,0.0,0.0,0.0,0.0
redo_RPB004_44,barcode02,Moraxella osloensis,NZ_CP014235_1,81455.0,0.0,0.0,0.0,0.0,0.0
redo_RPB004_44,barcode02,Neisseria subflava,NZ_CP031251_1,2321871.0,0.1473811422,1.0,3422.0,0.0,0.0
redo_RPB004_44,barcode02,Novibacillus thermophilus,NZ_CP019699_1,3629225.0,0.306566829,6.0425130325,11126.0,5404.0,3006.0
redo_RPB004_44,barcode02,Obesumbacterium proteus,NZ_CP014608_1,5011796.0,0.1226506426,1.0,6147.0,0.0,0.0
redo_RPB004_44,barcode02,Oleispira antarctica,NZ_FO203512_1,4406383.0,0.0173157894,1.9816513761,763.0,0.0,0.0
redo_RPB004_44,barcode02,Pantoea sp. PSNIH1,NZ_CP009880_1,3488376.0,0.1182498676,1.0,4125.0,0.0,0.0
redo_RPB004_44,barcode02,Pantoea sp. PSNIH1,NZ_CP009881_1,50272.0,0.0,0.0,0.0,0.0,0.0
redo_RPB004_44,barcode02,Pantoea sp. PSNIH1,NZ_CP010325_1,107623.0,0.0,0.0,0.0,0.0,0.0
redo_RPB004_44,barcode02,Pantoea sp. PSNIH1,NZ_CP009882_1,87166.0,0.0,0.0,0.0,0.0,0.0
redo_RPB004_44,barcode02,Pantoea sp. PSNIH1,NZ_CP010326_1,329383.0,0.0,0.0,0.0,0.0,0.0
redo_RPB004_44,barcode02,Pantoea sp. PSNIH1,NZ_CP009883_1,331227.0,0.0,0.0,0.0,0.0,0.0
redo_RPB004_44,barcode02,Pantoea sp. PSNIH1,NZ_CP009884_1,16636.0,0.0,0.0,0.0,0.0,0.0
redo_RPB004_44,barcode02,Plautia stali symbiont,NC_022546_1,4035456.0,0.0424735148,1.0,1714.0,0.0,0.0
redo_RPB004_44,barcode02,Plautia stali symbiont,NC_022533_1,19174.0,0.0,0.0,0.0,0.0,0.0
redo_RPB004_44,barcode02,Plautia stali symbiont,NC_022534_1,38222.0,0.0,0.0,0.0,0.0,0.0
redo_RPB004_44,barcode02,Propionibacterium sp. oral taxon 193,NZ_CP017040_1,2571505.0,0.103869135,3.7158367653,2671.0,0.0,0.0
redo_RPB004_44,barcode02,Propionibacterium sp. oral taxon 193,NZ_CP017041_1,77702.0,0.0,0.0,0.0,0.0,0.0
redo_RPB004_44,barcode02,Pseudonocardia dioxanivorans,NC_015312_1,7096571.0,0.0062283601,1.0,442.0,0.0,0.0
redo_RPB004_44,barcode02,Pseudonocardia dioxanivorans,NC_015314_1,192355.0,0.0,0.0,0.0,0.0,0.0
redo_RPB004_44,barcode02,Pseudonocardia dioxanivorans,NC_015313_1,15063.0,0.0,0.0,0.0,0.0,0.0
redo_RPB004_44,barcode02,Raoultella ornithinolytica,NC_021066_1,5398151.0,0.0780081921,1.0,4211.0,0.0,0.0
redo_RPB004_44,barcode02,Rhodococcus sp. B7740,NZ_CP010797_1,5341557.0,0.0423846455,1.0,2264.0,0.0,0.0
redo_RPB004_44,barcode02,Salmonella bongori,NC_015761_1,4460105.0,0.0675993054,1.0,3015.0,0.0,0.0
redo_RPB004_44,barcode02,Salmonella enterica,NC_003197_2,4857450.0,0.398892423,1.5322563997,19376.0,0.0,0.0
redo_RPB004_44,barcode02,Salmonella enterica,NC_003277_2,93933.0,0.0,0.0,0.0,0.0,0.0
redo_RPB004_44,barcode02,Shewanella bicestrii,NZ_CP022358_1,4800597.0,0.0513894418,1.971625456,2467.0,0.0,0.0
redo_RPB004_44,barcode02,Shewanella bicestrii,NZ_CP022360_1,10479.0,0.0,0.0,0.0,0.0,0.0
redo_RPB004_44,barcode02,Shewanella bicestrii,NZ_CP022359_1,193338.0,0.0,0.0,0.0,0.0,0.0
redo_RPB004_44,barcode02,Shewanella sp. FDAARGOS_354,NZ_CP022089_2,5031863.0,0.6885918794,5.5734364628,34649.0,14300.0,4370.0
redo_RPB004_44,barcode02,Shewanella sp. FDAARGOS_354,NZ_CP022090_2,38118.0,0.0,0.0,0.0,0.0,0.0
redo_RPB004_44,barcode02,Shewanella sp. MR-7,NC_008322_1,4792610.0,0.0497432505,1.0,2384.0,0.0,0.0
redo_RPB004_44,barcode02,Shewanella sp. MR-7,NC_008320_1,6499.0,0.0,0.0,0.0,0.0,0.0
redo_RPB004_44,barcode02,Shigella dysenteriae,NC_007606_1,4369232.0,2.3246877254,1.8103297201,101571.0,8691.0,0.0
redo_RPB004_44,barcode02,Shigella dysenteriae,NC_009344_1,8953.0,0.0,0.0,0.0,0.0,0.0
redo_RPB004_44,barcode02,Shigella dysenteriae,NC_007607_1,182726.0,0.0,0.0,0.0,0.0,0.0
redo_RPB004_44,barcode02,Shigella flexneri,NC_004337_2,4607202.0,1.6088289595,1.6809449286,74122.0,0.0,0.0
redo_RPB004_44,barcode02,Shigella flexneri,NC_004851_1,221618.0,0.047378823,2.9238095238,105.0,0.0,0.0
redo_RPB004_44,barcode02,Shigella virus SfMu,NC_027382_1,37146.0,1.8171539331,1.0,675.0,0.0,0.0
redo_RPB004_44,barcode02,Snodgrassella alvi,NZ_CP007446_1,2527978.0,0.0480225698,1.0,1214.0,0.0,0.0
redo_RPB004_44,barcode02,Sphingobium yanoikuyae,NZ_CP020925_1,5260163.0,0.3484112565,1.366835816,18327.0,0.0,0.0
redo_RPB004_44,barcode02,Sphingobium yanoikuyae,NZ_CP020927_1,189183.0,0.0,0.0,0.0,0.0,0.0
redo_RPB004_44,barcode02,Sphingobium yanoikuyae,NZ_CP020926_1,220037.0,0.0,0.0,0.0,0.0,0.0
redo_RPB004_44,barcode02,Sphingomonas melonis,NZ_CP017578_1,4156476.0,0.1532307657,1.4693044434,6369.0,0.0,0.0
redo_RPB004_44,barcode02,Sphingomonas melonis,NZ_CP017579_1,40279.0,0.0,0.0,0.0,0.0,0.0
redo_RPB004_44,barcode02,Staphylococcus aureus,NC_007795_1,2821361.0,2.264758037,8.0999107939,63897.0,25055.0,19449.0
redo_RPB004_44,barcode02,Streptococcus agalactiae,NC_004116_1,2160267.0,0.3072305414,1.0,6637.0,0.0,0.0
redo_RPB004_44,barcode04,Acinetobacter baumannii,NZ_CP009257_1,4335793.0,0.0078417028,1.0,340.0,0.0,0.0
redo_RPB004_44,barcode04,Acinetobacter johnsonii,NZ_CP010350_1,3509795.0,0.4549553464,1.744488978,15968.0,0.0,0.0
redo_RPB004_44,barcode04,Acinetobacter johnsonii,NZ_CP010352_1,3978.0,0.0,0.0,0.0,0.0,0.0
redo_RPB004_44,barcode04,Acinetobacter johnsonii,NZ_CP010353_1,4724.0,0.0,0.0,0.0,0.0,0.0
redo_RPB004_44,barcode04,Acinetobacter johnsonii,NZ_CP010354_1,11643.0,0.0,0.0,0.0,0.0,0.0
redo_RPB004_44,barcode04,Acinetobacter johnsonii,NZ_CP010355_1,7579.0,0.0,0.0,0.0,0.0,0.0
redo_RPB004_44,barcode04,Acinetobacter johnsonii,NZ_CP010356_1,13940.0,0.0,0.0,0.0,0.0,0.0
redo_RPB004_44,barcode04,Acinetobacter johnsonii,NZ_CP010357_1,13330.0,0.0,0.0,0.0,0.0,0.0
redo_RPB004_44,barcode04,Acinetobacter johnsonii,NZ_CP010358_1,117483.0,0.5353966106,1.0,629.0,0.0,0.0
redo_RPB004_44,barcode04,Acinetobacter johnsonii,NZ_CP010351_1,398857.0,0.0,0.0,0.0,0.0,0.0
redo_RPB004_44,barcode04,Acinetobacter radioresistens,NZ_CP027365_1,3132860.0,0.0074372937,1.9570815451,233.0,0.0,0.0
redo_RPB004_44,barcode04,Acinetobacter sp. ACNIH1,NZ_CP026420_1,3307251.0,0.0296923336,1.0,982.0,0.0,0.0
redo_RPB004_44,barcode04,Acinetobacter sp. ACNIH1,NZ_CP026424_1,18295.0,0.0,0.0,0.0,0.0,0.0
redo_RPB004_44,barcode04,Acinetobacter sp. ACNIH1,NZ_CP026421_1,11503.0,0.0,0.0,0.0,0.0,0.0
redo_RPB004_44,barcode04,Acinetobacter sp. ACNIH1,NZ_CP026422_1,13080.0,0.0,0.0,0.0,0.0,0.0
redo_RPB004_44,barcode04,Acinetobacter sp. ACNIH1,NZ_CP026423_1,40249.0,0.0,0.0,0.0,0.0,0.0
redo_RPB004_44,barcode04,Acinetobacter sp. ACNIH1,NZ_CP026426_1,257654.0,0.0,0.0,0.0,0.0,0.0
redo_RPB004_44,barcode04,Acinetobacter sp. ACNIH1,NZ_CP026425_1,39361.0,0.0,0.0,0.0,0.0,0.0
redo_RPB004_44,barcode04,Acinetobacter sp. ACNIH1,NZ_CP026427_1,8765.0,0.0,0.0,0.0,0.0,0.0
redo_RPB004_44,barcode04,Acinetobacter sp. NCu2D-2,NZ_CP015594_1,2738313.0,0.0717595103,1.0,1965.0,0.0,0.0
redo_RPB004_44,barcode04,Acinetobacter sp. NCu2D-2,NZ_CP015595_1,309964.0,0.0,0.0,0.0,0.0,0.0
redo_RPB004_44,barcode04,Citrobacter werkmanii,NZ_CP019986_1,4929789.0,0.0581769321,1.0,2868.0,0.0,0.0
redo_RPB004_44,barcode04,Citrobacter werkmanii,NZ_CP019987_1,212549.0,0.0,0.0,0.0,0.0,0.0
redo_RPB004_44,barcode04,Cutibacterium acnes,NC_006085_1,2560265.0,0.3716021584,3.6150935464,9514.0,3962.0,0.0
redo_RPB004_44,barcode04,Enterobacter asburiae,NC_015968_1,4812833.0,0.0617307935,1.0,2971.0,0.0,0.0
redo_RPB004_44,barcode04,Enterobacter asburiae,NC_015963_1,166725.0,0.0,0.0,0.0,0.0,0.0
redo_RPB004_44,barcode04,Enterobacter asburiae,NC_015969_1,32574.0,0.0,0.0,0.0,0.0,0.0
redo_RPB004_44,barcode04,Enterobacter cancerogenus,NZ_CP025225_1,4796512.0,0.0637963587,1.0,3060.0,0.0,0.0
redo_RPB004_44,barcode04,Enterobacter cloacae complex sp.,NZ_CP026975_1,4876999.0,0.0211605539,1.0,1032.0,0.0,0.0
redo_RPB004_44,barcode04,Enterobacter sp. Crenshaw,NZ_CP020817_1,4630785.0,0.0659283469,1.0,3053.0,0.0,0.0
redo_RPB004_44,barcode04,Escherichia albertii,NZ_CP007025_1,4701875.0,0.0474916921,1.0,2233.0,0.0,0.0
redo_RPB004_44,barcode04,Escherichia coli,NC_000913_3,4641652.0,6.7525096668,4.4427364498,313428.0,81725.0,45144.0
redo_RPB004_44,barcode04,Escherichia fergusonii,NC_011740_1,4588711.0,0.0325799555,1.0,1495.0,0.0,0.0
redo_RPB004_44,barcode04,Escherichia fergusonii,NC_011743_1,55150.0,0.0,0.0,0.0,0.0,0.0
redo_RPB004_44,barcode04,Escherichia virus Mu,NC_000929_1,36717.0,5.4525151837,1.9535464535,2002.0,0.0,0.0
redo_RPB004_44,barcode04,Klebsiella pneumoniae,NC_016845_1,5333942.0,0.0501317787,1.0,2674.0,0.0,0.0
redo_RPB004_44,barcode04,Klebsiella pneumoniae,NC_016838_1,122799.0,0.0,0.0,0.0,0.0,0.0
redo_RPB004_44,barcode04,Klebsiella pneumoniae,NC_016846_1,111195.0,0.0,0.0,0.0,0.0,0.0
redo_RPB004_44,barcode04,Klebsiella pneumoniae,NC_016839_1,105974.0,0.0,0.0,0.0,0.0,0.0
redo_RPB004_44,barcode04,Klebsiella pneumoniae,NC_016840_1,3751.0,0.0,0.0,0.0,0.0,0.0
redo_RPB004_44,barcode04,Klebsiella pneumoniae,NC_016847_1,3353.0,0.0,0.0,0.0,0.0,0.0
redo_RPB004_44,barcode04,Klebsiella pneumoniae,NC_016841_1,1308.0,0.0,0.0,0.0,0.0,0.0
redo_RPB004_44,barcode04,Pseudomonas putida,NC_002947_4,6181873.0,0.1135739929,1.0,7021.0,0.0,0.0
redo_RPB004_44,barcode04,Shewanella sp. FDAARGOS_354,NZ_CP022089_2,5031863.0,0.1698376923,3.073016616,8546.0,3048.0,0.0
redo_RPB004_44,barcode04,Shewanella sp. FDAARGOS_354,NZ_CP022090_2,38118.0,0.0,0.0,0.0,0.0,0.0
redo_RPB004_44,barcode04,Shigella dysenteriae,NC_007606_1,4369232.0,0.6111829264,1.0,26704.0,0.0,0.0
redo_RPB004_44,barcode04,Shigella dysenteriae,NC_009344_1,8953.0,0.0,0.0,0.0,0.0,0.0
redo_RPB004_44,barcode04,Shigella dysenteriae,NC_007607_1,182726.0,0.0,0.0,0.0,0.0,0.0
redo_RPB004_44,barcode04,Shigella flexneri,NC_004337_2,4607202.0,0.3705719871,1.0,17073.0,0.0,0.0
redo_RPB004_44,barcode04,Shigella flexneri,NC_004851_1,221618.0,0.0,0.0,0.0,0.0,0.0
redo_RPB004_44,barcode04,Staphylococcus aureus,NC_007795_1,2821361.0,2.9800156733,7.8120532369,84077.0,30972.0,16208.0
redo_RPB004_44,barcode04,Xanthomonas campestris,NC_003902_1,5076188.0,0.0145187688,1.0,737.0,0.0,0.0
redo_RPB004_44,barcode05,Acinetobacter baumannii,NZ_CP009257_1,4335793.0,0.0300291089,1.0975422427,1302.0,0.0,0.0
redo_RPB004_44,barcode05,Anoxybacillus gonensis,NZ_CP012152_1,2803668.0,0.0841397769,1.0,2359.0,0.0,0.0
redo_RPB004_44,barcode05,Bacillus subtilis,NC_000964_3,4215606.0,0.0096783238,1.0,408.0,0.0,0.0
redo_RPB004_44,barcode05,Bacillus thuringiensis,NC_022873_1,6002284.0,0.0411176812,1.0,2468.0,0.0,0.0
redo_RPB004_44,barcode05,Bacillus thuringiensis,NC_020124_1,17706.0,0.0,0.0,0.0,0.0,0.0
redo_RPB004_44,barcode05,Bacillus thuringiensis,NC_022874_1,45206.0,0.0,0.0,0.0,0.0,0.0
redo_RPB004_44,barcode05,Bacillus thuringiensis,NC_022875_1,49195.0,0.0,0.0,0.0,0.0,0.0
redo_RPB004_44,barcode05,Bacillus thuringiensis,NC_022876_1,146276.0,0.0,0.0,0.0,0.0,0.0
redo_RPB004_44,barcode05,Bacillus thuringiensis,NC_022877_1,171593.0,0.0,0.0,0.0,0.0,0.0
redo_RPB004_44,barcode05,Bacillus thuringiensis,NC_022882_1,240661.0,0.0,0.0,0.0,0.0,0.0
redo_RPB004_44,barcode05,Bacillus velezensis,NC_009725_1,3918589.0,0.0043638156,1.0,171.0,0.0,0.0
redo_RPB004_44,barcode05,Clostridioides difficile,NC_009089_1,4290252.0,0.1576830452,1.5686622321,6765.0,0.0,0.0
redo_RPB004_44,barcode05,Clostridioides difficile,NC_008226_2,7881.0,0.0,0.0,0.0,0.0,0.0
redo_RPB004_44,barcode05,Cutibacterium acnes,NC_006085_1,2560265.0,0.0699536962,1.0,1791.0,0.0,0.0
redo_RPB004_44,barcode05,Enterococcus faecium,NC_017960_1,2698137.0,0.0879866367,1.0,2374.0,0.0,0.0
redo_RPB004_44,barcode05,Enterococcus faecium,NC_017961_1,36262.0,11.1742319784,1.3659921027,4052.0,0.0,0.0
redo_RPB004_44,barcode05,Enterococcus faecium,NC_017962_1,66247.0,0.0,0.0,0.0,0.0,0.0
redo_RPB004_44,barcode05,Enterococcus faecium,NC_017963_1,251926.0,0.0,0.0,0.0,0.0,0.0
redo_RPB004_44,barcode05,Escherichia albertii,NZ_CP007025_1,4701875.0,0.0509796624,1.0,2397.0,0.0,0.0
redo_RPB004_44,barcode05,Escherichia coli,NC_000913_3,4641652.0,3.4528008562,1.1506610843,160267.0,0.0,0.0
redo_RPB004_44,barcode05,Filifactor alocis,NC_016630_1,1931012.0,0.1305533057,1.0,2521.0,0.0,0.0
redo_RPB004_44,barcode05,Human endogenous retrovirus K,NC_022518_1,9472.0,18.6972128378,1.0,1771.0,0.0,0.0
redo_RPB004_44,barcode05,Jeotgalibacillus malaysiensis,NZ_CP009416_1,3516439.0,0.0516431538,1.0,1816.0,0.0,0.0
redo_RPB004_44,barcode05,Jeotgalibacillus malaysiensis,NZ_CP009417_1,603070.0,0.0,0.0,0.0,0.0,0.0
redo_RPB004_44,barcode05,Lactobacillus paracasei,NZ_AP012541_1,2995875.0,0.052739183,1.0,1580.0,0.0,0.0
redo_RPB004_44,barcode05,Lactobacillus paracasei,NZ_AP012542_1,11154.0,0.0,0.0,0.0,0.0,0.0
redo_RPB004_44,barcode05,Lactobacillus paracasei,NZ_AP012543_1,10775.0,0.0,0.0,0.0,0.0,0.0
redo_RPB004_44,barcode05,Lactococcus raffinolactis,NZ_CP023392_1,2217417.0,0.0356721356,1.0,791.0,0.0,0.0
redo_RPB004_44,barcode05,Lactococcus raffinolactis,NZ_CP023393_1,47753.0,0.0,0.0,0.0,0.0,0.0
redo_RPB004_44,barcode05,Lactococcus raffinolactis,NZ_CP023394_1,27065.0,0.0,0.0,0.0,0.0,0.0
redo_RPB004_44,barcode05,Moraxella osloensis,NZ_CP014234_1,2434688.0,0.2280374323,1.1197766571,5552.0,0.0,0.0
redo_RPB004_44,barcode05,Moraxella osloensis,NZ_CP014238_1,40342.0,0.0,0.0,0.0,0.0,0.0
redo_RPB004_44,barcode05,Moraxella osloensis,NZ_CP014237_1,35189.0,0.0,0.0,0.0,0.0,0.0
redo_RPB004_44,barcode05,Moraxella osloensis,NZ_CP014236_1,57463.0,0.0,0.0,0.0,0.0,0.0
redo_RPB004_44,barcode05,Moraxella osloensis,NZ_CP014235_1,81455.0,0.0,0.0,0.0,0.0,0.0
redo_RPB004_44,barcode05,Paraburkholderia caribensis,NZ_CP012746_1,3575012.0,0.0022097828,1.0,79.0,0.0,0.0
redo_RPB004_44,barcode05,Paraburkholderia caribensis,NZ_CP012747_1,3352623.0,0.0,0.0,0.0,0.0,0.0
redo_RPB004_44,barcode05,Paraburkholderia caribensis,NZ_CP012748_1,2555069.0,0.0,0.0,0.0,0.0,0.0
redo_RPB004_44,barcode05,Peptoniphilus harei,NZ_LR134524_1,1739102.0,0.1243745335,1.0,2163.0,0.0,0.0
redo_RPB004_44,barcode05,Pseudomonas stutzeri,NC_015740_1,4547930.0,0.0466366017,1.0,2121.0,0.0,0.0
redo_RPB004_44,barcode05,Shigella dysenteriae,NC_007606_1,4369232.0,0.0343767509,1.0,1502.0,0.0,0.0
redo_RPB004_44,barcode05,Shigella dysenteriae,NC_009344_1,8953.0,0.0,0.0,0.0,0.0,0.0
redo_RPB004_44,barcode05,Shigella dysenteriae,NC_007607_1,182726.0,0.0,0.0,0.0,0.0,0.0
redo_RPB004_44,barcode05,Shigella flexneri,NC_004337_2,4607202.0,0.1787853018,1.0,8237.0,0.0,0.0
redo_RPB004_44,barcode05,Shigella flexneri,NC_004851_1,221618.0,0.0,0.0,0.0,0.0,0.0
redo_RPB004_44,barcode05,Shigella sp. PAMC 28760,NZ_CP014768_1,4558287.0,0.1201328482,1.0,5476.0,0.0,0.0
redo_RPB004_44,barcode05,Staphylococcus pseudintermedius,NC_014925_1,2617381.0,0.1212662581,1.6275992439,3174.0,0.0,0.0
redo_RPB004_44,barcode05,Staphylococcus warneri,NC_020164_1,2486042.0,0.075139519,1.0,1868.0,0.0,0.0
redo_RPB004_44,barcode05,Staphylococcus warneri,NC_020165_1,4374.0,0.0,0.0,0.0,0.0,0.0
redo_RPB004_44,barcode05,Staphylococcus warneri,NC_020274_1,13186.0,0.0,0.0,0.0,0.0,0.0
redo_RPB004_44,barcode05,Staphylococcus warneri,NC_020264_1,8232.0,0.0,0.0,0.0,0.0,0.0
redo_RPB004_44,barcode05,Staphylococcus warneri,NC_020265_1,3352.0,0.0,0.0,0.0,0.0,0.0
redo_RPB004_44,barcode05,Staphylococcus warneri,NC_020266_1,19866.0,0.0,0.0,0.0,0.0,0.0
redo_RPB004_44,barcode05,Staphylococcus warneri,NC_020267_1,16515.0,0.0,0.0,0.0,0.0,0.0
redo_RPB004_44,barcode05,Staphylococcus warneri,NC_020268_1,6212.0,0.0,0.0,0.0,0.0,0.0
redo_RPB004_44,barcode05,Staphylococcus warneri,NC_020269_1,2937.0,0.0,0.0,0.0,0.0,0.0
redo_RPB004_44,barcode05,Streptococcus agalactiae,NC_004116_1,2160267.0,86.1662470426,6.433363006,1861421.0,972266.0,356770.0
redo_RPB004_44,barcode05,Streptococcus anginosus,NC_022239_1,2233640.0,0.0791980803,1.0,1769.0,0.0,0.0
redo_RPB004_44,barcode05,Streptococcus cristatus,NC_021175_1,2142100.0,0.1340273563,1.0,2871.0,0.0,0.0
redo_RPB004_44,barcode05,Streptococcus dysgalactiae,NC_019042_1,2179445.0,0.4614936371,1.0432491549,10058.0,0.0,0.0
redo_RPB004_44,barcode05,Streptococcus equi,NC_012470_1,2149868.0,0.2046637282,1.0,4400.0,0.0,0.0
redo_RPB004_44,barcode05,Streptococcus equinus,NZ_CP020438_1,2074978.0,0.1413990895,1.0,2934.0,0.0,0.0
redo_RPB004_44,barcode05,Streptococcus equinus,NZ_CP020439_1,236564.0,0.0,0.0,0.0,0.0,0.0
redo_RPB004_44,barcode05,Streptococcus ferus,NZ_LS483343_1,1872314.0,0.0206162001,1.0,386.0,0.0,0.0
redo_RPB004_44,barcode05,Streptococcus intermedius,NC_022246_1,1996214.0,0.3851791441,1.0,7689.0,0.0,0.0
redo_RPB004_44,barcode05,Streptococcus pluranimalium,NZ_CP025536_1,2065522.0,0.0618245654,1.0,1277.0,0.0,0.0
redo_RPB004_44,barcode05,Streptococcus pneumoniae,NC_003098_1,2038615.0,0.2720964969,1.2159725978,5547.0,0.0,0.0
redo_RPB004_44,barcode05,Streptococcus pseudoporcinus,NZ_LR134341_1,2156061.0,0.0716120741,1.0,1544.0,0.0,0.0
redo_RPB004_44,barcode05,Streptococcus pyogenes,NC_002737_2,1852433.0,1.0851674527,2.3690677545,20102.0,3129.0,0.0
redo_RPB004_44,barcode05,Streptococcus salivarius,NZ_CP009913_1,2188923.0,0.1225260094,1.0,2682.0,0.0,0.0
redo_RPB004_44,barcode05,Streptococcus sanguinis,NC_009009_1,2388435.0,0.1133796817,1.0,2708.0,0.0,0.0
redo_RPB004_44,barcode05,Streptococcus sp. 'group B',NZ_CP020432_1,2178261.0,0.216732522,1.120737132,4721.0,0.0,0.0
redo_RPB004_44,barcode05,Streptococcus suis,NC_012926_1,2146229.0,0.4874596327,1.2792965016,10462.0,0.0,0.0
redo_RPB004_44,barcode05,Streptococcus suis,NC_012923_1,24579.0,0.0,0.0,0.0,0.0,0.0
redo_RPB004_44,barcode05,Streptococcus thermophilus,NC_017581_1,1929905.0,0.5681108656,1.235589201,10964.0,0.0,0.0
redo_RPB004_44,barcode05,Streptococcus uberis,NC_012004_1,1852352.0,0.1712957364,1.0,3173.0,0.0,0.0
redo_RPB004_44,barcode05,Streptococcus urinalis,NZ_LR134323_1,2144000.0,0.0742070896,1.0,1591.0,0.0,0.0
redo_RPB004_44,barcode05,Weissella cibaria,NZ_CP012873_1,2466961.0,0.0770178369,1.0,1900.0,0.0,0.0
redo_RPB004_44,barcode05,Weissella cibaria,NZ_CP012874_1,45949.0,0.0,0.0,0.0,0.0,0.0
redo_RPB004_44,barcode05,Weissella cibaria,NZ_CP012875_1,24074.0,0.0,0.0,0.0,0.0,0.0
redo_RPB004_44,barcode05,Weissella cibaria,NZ_CP012876_1,22930.0,0.0,0.0,0.0,0.0,0.0
redo_RPB004_44,barcode05,Weissella cibaria,NZ_CP012877_1,9484.0,0.0,0.0,0.0,0.0,0.0
redo_RPB004_44,barcode05,Weissella cibaria,NZ_CP012878_1,5472.0,0.0,0.0,0.0,0.0,0.0
redo_RPB004_44,barcode05,Weissella cibaria,NZ_CP012880_1,2861.0,0.0,0.0,0.0,0.0,0.0
redo_RPB004_44,barcode06,Acinetobacter johnsonii,NZ_CP010350_1,3509795.0,0.0808879151,3.9105318774,2839.0,0.0,0.0
redo_RPB004_44,barcode06,Acinetobacter johnsonii,NZ_CP010352_1,3978.0,0.0,0.0,0.0,0.0,0.0
redo_RPB004_44,barcode06,Acinetobacter johnsonii,NZ_CP010353_1,4724.0,0.0,0.0,0.0,0.0,0.0
redo_RPB004_44,barcode06,Acinetobacter johnsonii,NZ_CP010354_1,11643.0,0.0,0.0,0.0,0.0,0.0
redo_RPB004_44,barcode06,Acinetobacter johnsonii,NZ_CP010355_1,7579.0,0.0,0.0,0.0,0.0,0.0
redo_RPB004_44,barcode06,Acinetobacter johnsonii,NZ_CP010356_1,13940.0,0.0,0.0,0.0,0.0,0.0
redo_RPB004_44,barcode06,Acinetobacter johnsonii,NZ_CP010357_1,13330.0,0.0,0.0,0.0,0.0,0.0
redo_RPB004_44,barcode06,Acinetobacter johnsonii,NZ_CP010358_1,117483.0,0.0,0.0,0.0,0.0,0.0
redo_RPB004_44,barcode06,Acinetobacter johnsonii,NZ_CP010351_1,398857.0,0.0,0.0,0.0,0.0,0.0
redo_RPB004_44,barcode06,Aerococcus urinae,NZ_CP014161_1,1974262.0,0.1785983826,1.0,3526.0,0.0,0.0
redo_RPB004_44,barcode06,Anaerostipes hadrus,NZ_CP012098_1,3172613.0,0.0356173287,1.0,1130.0,0.0,0.0
redo_RPB004_44,barcode06,Bacillus altitudinis,NZ_CP022319_1,3812576.0,0.0972570776,1.0,3708.0,0.0,0.0
redo_RPB004_44,barcode06,Bacillus altitudinis,NZ_CP022320_1,32110.0,0.0,0.0,0.0,0.0,0.0
redo_RPB004_44,barcode06,Bacillus thuringiensis,NC_022873_1,6002284.0,0.0660748475,1.2251638931,3966.0,0.0,0.0
redo_RPB004_44,barcode06,Bacillus thuringiensis,NC_020124_1,17706.0,0.0,0.0,0.0,0.0,0.0
redo_RPB004_44,barcode06,Bacillus thuringiensis,NC_022874_1,45206.0,0.0,0.0,0.0,0.0,0.0
redo_RPB004_44,barcode06,Bacillus thuringiensis,NC_022875_1,49195.0,0.0,0.0,0.0,0.0,0.0
redo_RPB004_44,barcode06,Bacillus thuringiensis,NC_022876_1,146276.0,0.0,0.0,0.0,0.0,0.0
redo_RPB004_44,barcode06,Bacillus thuringiensis,NC_022877_1,171593.0,0.0,0.0,0.0,0.0,0.0
redo_RPB004_44,barcode06,Bacillus thuringiensis,NC_022882_1,240661.0,0.0,0.0,0.0,0.0,0.0
redo_RPB004_44,barcode06,Citrobacter koseri,NC_009792_1,4720462.0,0.1017485153,1.0,4803.0,0.0,0.0
redo_RPB004_44,barcode06,Citrobacter koseri,NC_009794_1,5601.0,0.0,0.0,0.0,0.0,0.0
redo_RPB004_44,barcode06,Citrobacter koseri,NC_009793_1,9294.0,0.0,0.0,0.0,0.0,0.0
redo_RPB004_44,barcode06,Clostridioides difficile,NC_009089_1,4290252.0,0.194627262,3.4462275449,8350.0,2431.0,0.0
redo_RPB004_44,barcode06,Clostridioides difficile,NC_008226_2,7881.0,0.0,0.0,0.0,0.0,0.0
redo_RPB004_44,barcode06,Cutibacterium acnes,NC_006085_1,2560265.0,0.5100253294,11.1336345535,13058.0,9929.0,9831.0
redo_RPB004_44,barcode06,Enterococcus cecorum,NZ_LS483306_1,2421598.0,0.0139577254,1.0,338.0,0.0,0.0
redo_RPB004_44,barcode06,Enterococcus faecium,NC_017960_1,2698137.0,0.1945787038,1.1144761905,5250.0,0.0,0.0
redo_RPB004_44,barcode06,Enterococcus faecium,NC_017961_1,36262.0,37.7861121836,2.2132535396,13702.0,0.0,0.0
redo_RPB004_44,barcode06,Enterococcus faecium,NC_017962_1,66247.0,0.0,0.0,0.0,0.0,0.0
redo_RPB004_44,barcode06,Enterococcus faecium,NC_017963_1,251926.0,0.0,0.0,0.0,0.0,0.0
redo_RPB004_44,barcode06,Escherichia albertii,NZ_CP007025_1,4701875.0,0.4872098897,1.0,22908.0,0.0,0.0
redo_RPB004_44,barcode06,Escherichia coli,NC_000913_3,4641652.0,19.7095775383,8.7513603323,914850.0,522843.0,272740.0
redo_RPB004_44,barcode06,Escherichia fergusonii,NC_011740_1,4588711.0,0.2636688168,1.1100917431,12099.0,0.0,0.0
redo_RPB004_44,barcode06,Escherichia fergusonii,NC_011743_1,55150.0,0.0,0.0,0.0,0.0,0.0
redo_RPB004_44,barcode06,Escherichia marmotae,NZ_CP025979_1,4671322.0,0.209020059,1.0,9764.0,0.0,0.0
redo_RPB004_44,barcode06,Escherichia marmotae,NZ_CP025980_1,148809.0,0.0,0.0,0.0,0.0,0.0
redo_RPB004_44,barcode06,Escherichia marmotae,NZ_CP025981_1,76160.0,0.0,0.0,0.0,0.0,0.0
redo_RPB004_44,barcode06,Escherichia virus Mu,NC_000929_1,36717.0,3.3526704251,1.8765231519,1231.0,0.0,0.0
redo_RPB004_44,barcode06,Escherichia virus T7,NC_001604_1,39937.0,0.2228509903,1.0,89.0,0.0,0.0
redo_RPB004_44,barcode06,Flavobacterium sp. HYN0056,NZ_CP029255_1,5877431.0,0.0566403927,2.3193151096,3329.0,0.0,0.0
redo_RPB004_44,barcode06,Gemmatimonas aurantiaca,NC_012489_1,4636964.0,0.0621311703,1.0,2881.0,0.0,0.0
redo_RPB004_44,barcode06,Lactobacillus bombi,NZ_CP031513_1,1842084.0,0.1207328222,1.0,2224.0,0.0,0.0
redo_RPB004_44,barcode06,Lactobacillus hokkaidonensis,NZ_AP014680_1,2277985.0,0.1098339102,1.0,2502.0,0.0,0.0
redo_RPB004_44,barcode06,Lactobacillus hokkaidonensis,NZ_AP014681_1,81630.0,0.0,0.0,0.0,0.0,0.0
redo_RPB004_44,barcode06,Lactobacillus hokkaidonensis,NZ_AP014682_1,40971.0,0.0,0.0,0.0,0.0,0.0
redo_RPB004_44,barcode06,Lactobacillus plantarum,NC_004567_2,3308273.0,0.0661976808,1.0,2190.0,0.0,0.0
redo_RPB004_44,barcode06,Lactobacillus plantarum,NC_006375_1,1917.0,0.0,0.0,0.0,0.0,0.0
redo_RPB004_44,barcode06,Lactobacillus plantarum,NC_006376_1,2365.0,0.0,0.0,0.0,0.0,0.0
redo_RPB004_44,barcode06,Lactobacillus plantarum,NC_006377_1,36069.0,0.0,0.0,0.0,0.0,0.0
redo_RPB004_44,barcode06,Lactococcus garvieae,NC_015930_1,1950135.0,0.1181456668,1.0,2304.0,0.0,0.0
redo_RPB004_44,barcode06,Lactococcus lactis,NC_002662_1,2365589.0,0.253594348,1.0,5999.0,0.0,0.0
redo_RPB004_44,barcode06,Lactococcus piscium,NZ_LN774769_1,2394138.0,0.0494958937,1.0,1185.0,0.0,0.0
redo_RPB004_44,barcode06,Lactococcus piscium,NZ_LN774770_1,55671.0,0.0,0.0,0.0,0.0,0.0
redo_RPB004_44,barcode06,Lactococcus piscium,NZ_LN774771_1,53257.0,0.0,0.0,0.0,0.0,0.0
redo_RPB004_44,barcode06,Lactococcus raffinolactis,NZ_CP023392_1,2217417.0,0.1713705631,1.0,3800.0,0.0,0.0
redo_RPB004_44,barcode06,Lactococcus raffinolactis,NZ_CP023393_1,47753.0,0.0,0.0,0.0,0.0,0.0
redo_RPB004_44,barcode06,Lactococcus raffinolactis,NZ_CP023394_1,27065.0,0.0,0.0,0.0,0.0,0.0
redo_RPB004_44,barcode06,Lelliottia amnigena,NZ_CP015774_2,4616122.0,0.1235452616,1.0,5703.0,0.0,0.0
redo_RPB004_44,barcode06,Paenibacillus polymyxa,NC_014622_2,5728392.0,0.0025661652,1.0,147.0,0.0,0.0
redo_RPB004_44,barcode06,Paenibacillus polymyxa,NC_014628_2,510118.0,0.0,0.0,0.0,0.0,0.0
redo_RPB004_44,barcode06,Paenibacillus sp. IHB B 3084,NZ_CP013203_1,5508564.0,0.0148677586,1.0,819.0,0.0,0.0
redo_RPB004_44,barcode06,Paenibacillus sp. IHB B 3084,NZ_CP013204_1,115513.0,0.0,0.0,0.0,0.0,0.0
redo_RPB004_44,barcode06,Paenibacillus sp. IHB B 3084,NZ_CP013205_1,100758.0,0.0,0.0,0.0,0.0,0.0
redo_RPB004_44,barcode06,Paenibacillus sp. IHB B 3084,NZ_CP013206_1,61492.0,0.0,0.0,0.0,0.0,0.0
redo_RPB004_44,barcode06,Paenibacillus sp. IHB B 3084,NZ_CP013207_1,55914.0,0.0,0.0,0.0,0.0,0.0
redo_RPB004_44,barcode06,Paenibacillus sp. IHB B 3084,NZ_CP013208_1,39609.0,0.0,0.0,0.0,0.0,0.0
redo_RPB004_44,barcode06,Paenibacillus sp. IHB B 3084,NZ_CP013209_1,2943.0,0.0,0.0,0.0,0.0,0.0
redo_RPB004_44,barcode06,Pelosinus sp. UFO1,NZ_CP008852_1,5115410.0,0.003127804,1.0,160.0,0.0,0.0
redo_RPB004_44,barcode06,Photorhabdus thracensis,NZ_CP011104_1,5147098.0,0.0168638716,1.0,868.0,0.0,0.0
redo_RPB004_44,barcode06,Proteus mirabilis,NC_010554_1,4063606.0,0.0553941499,1.0,2251.0,0.0,0.0
redo_RPB004_44,barcode06,Proteus mirabilis,NC_010555_1,36289.0,0.0,0.0,0.0,0.0,0.0
redo_RPB004_44,barcode06,Providencia rettgeri,NZ_CP017671_1,4780676.0,0.0863476211,1.0,4128.0,0.0,0.0
redo_RPB004_44,barcode06,Providencia rettgeri,NZ_CP017672_1,108417.0,0.0,0.0,0.0,0.0,0.0
redo_RPB004_44,barcode06,Pseudomonas aeruginosa,NC_002516_2,6264404.0,0.0405784812,1.0,2542.0,0.0,0.0
redo_RPB004_44,barcode06,Pseudomonas sp. TKP,NC_023064_1,7012672.0,0.0729251275,4.8781775518,5114.0,4558.0,0.0
redo_RPB004_44,barcode06,Rhodospirillum centenum,NC_011420_2,4355543.0,0.0043392982,1.0,189.0,0.0,0.0
redo_RPB004_44,barcode06,Salinivibrio sp. YCSC6,NZ_CP039516_1,2952600.0,0.0960848066,1.0,2837.0,0.0,0.0
redo_RPB004_44,barcode06,Salinivibrio sp. YCSC6,NZ_CP039517_1,743312.0,0.0,0.0,0.0,0.0,0.0
redo_RPB004_44,barcode06,Salmonella enterica,NC_003197_2,4857450.0,0.0089964899,1.0,437.0,0.0,0.0
redo_RPB004_44,barcode06,Salmonella enterica,NC_003277_2,93933.0,0.0,0.0,0.0,0.0,0.0
redo_RPB004_44,barcode06,Serratia rubidaea,NZ_CP014474_1,4922834.0,0.0636422028,1.0,3133.0,0.0,0.0
redo_RPB004_44,barcode06,Shigella dysenteriae,NC_007606_1,4369232.0,2.1826032584,1.4574730241,95363.0,0.0,0.0
redo_RPB004_44,barcode06,Shigella dysenteriae,NC_009344_1,8953.0,0.0,0.0,0.0,0.0,0.0
redo_RPB004_44,barcode06,Shigella dysenteriae,NC_007607_1,182726.0,0.0,0.0,0.0,0.0,0.0
redo_RPB004_44,barcode06,Shigella flexneri,NC_004337_2,4607202.0,1.4788802401,1.2187568797,68135.0,1099.0,0.0
redo_RPB004_44,barcode06,Shigella flexneri,NC_004851_1,221618.0,0.3569204667,1.9709228824,791.0,0.0,0.0
redo_RPB004_44,barcode06,Shigella sp. PAMC 28760,NZ_CP014768_1,4558287.0,0.3819856012,4.6158970825,17412.0,7649.0,0.0
redo_RPB004_44,barcode06,Solibacillus silvestris,NZ_CP014609_1,3991226.0,0.0986413698,1.0,3937.0,0.0,0.0
redo_RPB004_44,barcode06,Staphylococcus aureus,NC_007795_1,2821361.0,0.0656420784,1.0,1852.0,0.0,0.0
redo_RPB004_44,barcode06,Staphylococcus pseudintermedius,NC_014925_1,2617381.0,0.1760538492,2.2046440972,4608.0,0.0,0.0
redo_RPB004_44,barcode06,Streptococcus acidominimus,NZ_LT906454_1,2330811.0,0.0330357116,1.0,770.0,0.0,0.0
redo_RPB004_44,barcode06,Streptococcus agalactiae,NC_004116_1,2160267.0,93.9774111256,54.066655239,2030163.0,1929552.0,1730172.0
redo_RPB004_44,barcode06,Streptococcus anginosus,NC_022239_1,2233640.0,0.1199835247,1.0608208955,2680.0,0.0,0.0
redo_RPB004_44,barcode06,Streptococcus cristatus,NC_021175_1,2142100.0,0.3042808459,9.7396440626,6518.0,4619.0,3409.0
redo_RPB004_44,barcode06,Streptococcus dysgalactiae,NC_019042_1,2179445.0,1.3666782139,2.9975156114,29786.0,1008.0,893.0
redo_RPB004_44,barcode06,Streptococcus equi,NC_012470_1,2149868.0,0.3963499154,1.0,8521.0,0.0,0.0
redo_RPB004_44,barcode06,Streptococcus equinus,NZ_CP020438_1,2074978.0,0.171037958,1.0,3549.0,0.0,0.0
redo_RPB004_44,barcode06,Streptococcus equinus,NZ_CP020439_1,236564.0,0.0,0.0,0.0,0.0,0.0
redo_RPB004_44,barcode06,Streptococcus gordonii,NC_009785_1,2196662.0,0.0912293289,1.0,2004.0,0.0,0.0
redo_RPB004_44,barcode06,Streptococcus iniae,NZ_CP010783_1,2086959.0,0.1932956038,1.8532473971,4034.0,0.0,0.0
redo_RPB004_44,barcode06,Streptococcus intermedius,NC_022246_1,1996214.0,0.177485981,1.0378210556,3543.0,0.0,0.0
redo_RPB004_44,barcode06,Streptococcus mitis,NC_013853_1,2146611.0,0.3082533351,1.3069366783,6617.0,0.0,0.0
redo_RPB004_44,barcode06,Streptococcus parasanguinis,NC_015678_1,2153652.0,0.1218859872,1.0,2625.0,0.0,0.0
redo_RPB004_44,barcode06,Streptococcus pasteurianus,NC_015600_1,2100077.0,0.1700413842,1.0,3571.0,0.0,0.0
redo_RPB004_44,barcode06,Streptococcus pneumoniae,NC_003098_1,2038615.0,0.6546110963,2.0995129262,13345.0,0.0,0.0
redo_RPB004_44,barcode06,Streptococcus porcinus,NZ_LS483388_1,2033046.0,0.0441209889,1.0,897.0,0.0,0.0
redo_RPB004_44,barcode06,Streptococcus pseudopneumoniae,NC_015875_1,2190731.0,0.0925261933,1.0,2027.0,0.0,0.0
redo_RPB004_44,barcode06,Streptococcus pseudopneumoniae,NC_015876_1,4727.0,0.0,0.0,0.0,0.0,0.0
redo_RPB004_44,barcode06,Streptococcus pseudoporcinus,NZ_LR134341_1,2156061.0,0.1150245749,1.0,2480.0,0.0,0.0
redo_RPB004_44,barcode06,Streptococcus pyogenes,NC_002737_2,1852433.0,2.3784395981,2.8954356658,44059.0,9171.0,3888.0
redo_RPB004_44,barcode06,Streptococcus salivarius,NZ_CP009913_1,2188923.0,0.0185022497,1.6148148148,405.0,0.0,0.0
redo_RPB004_44,barcode06,Streptococcus sobrinus,NZ_CP029491_1,2145290.0,0.1383962075,1.0,2969.0,0.0,0.0
redo_RPB004_44,barcode06,Streptococcus sp. 'group B',NZ_CP020432_1,2178261.0,3.0193351485,1.4912800864,65769.0,0.0,0.0
redo_RPB004_44,barcode06,Streptococcus sp. ChDC B345,NZ_CP032621_1,1972481.0,0.1838294006,1.9558742416,3626.0,0.0,0.0
redo_RPB004_44,barcode06,Streptococcus sp. oral taxon 431,NZ_CP014264_1,2177905.0,0.1923408046,1.0,4189.0,0.0,0.0
redo_RPB004_44,barcode06,Streptococcus suis,NC_012926_1,2146229.0,0.8433396436,2.2571823204,18100.0,0.0,0.0
redo_RPB004_44,barcode06,Streptococcus suis,NC_012923_1,24579.0,0.0,0.0,0.0,0.0,0.0
redo_RPB004_44,barcode06,Streptococcus thermophilus,NC_017581_1,1929905.0,0.5434982551,1.7717608924,10489.0,0.0,0.0
redo_RPB004_44,barcode06,Streptococcus urinalis,NZ_LR134323_1,2144000.0,0.5181902985,5.4812781278,11110.0,4975.0,1402.0
redo_RPB004_44,barcode06,Vagococcus teuberi,NZ_CP017267_1,2169060.0,0.1011498068,1.0,2194.0,0.0,0.0
redo_RPB004_44,barcode06,Vagococcus teuberi,NZ_CP017268_1,15225.0,0.0,0.0,0.0,0.0,0.0
redo_RPB004_44,barcode06,Weissella ceti,NZ_CP009224_1,1390397.0,0.2564015889,1.0,3565.0,0.0,0.0
redo_RPB004_44,barcode08,Streptococcus agalactiae,NC_004116_1,2160267.0,0.2560331663,1.0,5531.0,0.0,0.0
redo_RPB004_44,barcode09,Streptococcus agalactiae,NC_004116_1,2160267.0,0.2153437515,1.0,4652.0,0.0,0.0
redo_RPB004_44,barcode11,Acinetobacter baumannii,NZ_CP009257_1,4335793.0,0.005350809,1.0,232.0,0.0,0.0
redo_RPB004_44,barcode11,Acinetobacter haemolyticus,NZ_CP018871_1,3442728.0,0.0,0.0,0.0,0.0,0.0
redo_RPB004_44,barcode11,Acinetobacter haemolyticus,NZ_CP018872_1,56602.0,0.0,0.0,0.0,0.0,0.0
redo_RPB004_44,barcode11,Acinetobacter haemolyticus,NZ_CP018873_1,39508.0,1.0099220411,1.0,399.0,0.0,0.0
redo_RPB004_44,barcode11,Acinetobacter johnsonii,NZ_CP010350_1,3509795.0,1.9576072107,4.2000494848,68708.0,15023.0,6916.0
redo_RPB004_44,barcode11,Acinetobacter johnsonii,NZ_CP010352_1,3978.0,0.0,0.0,0.0,0.0,0.0
redo_RPB004_44,barcode11,Acinetobacter johnsonii,NZ_CP010353_1,4724.0,0.0,0.0,0.0,0.0,0.0
redo_RPB004_44,barcode11,Acinetobacter johnsonii,NZ_CP010354_1,11643.0,0.0,0.0,0.0,0.0,0.0
redo_RPB004_44,barcode11,Acinetobacter johnsonii,NZ_CP010355_1,7579.0,0.0,0.0,0.0,0.0,0.0
redo_RPB004_44,barcode11,Acinetobacter johnsonii,NZ_CP010356_1,13940.0,0.0,0.0,0.0,0.0,0.0
redo_RPB004_44,barcode11,Acinetobacter johnsonii,NZ_CP010357_1,13330.0,0.0,0.0,0.0,0.0,0.0
redo_RPB004_44,barcode11,Acinetobacter johnsonii,NZ_CP010358_1,117483.0,0.0,0.0,0.0,0.0,0.0
redo_RPB004_44,barcode11,Acinetobacter johnsonii,NZ_CP010351_1,398857.0,0.2750359151,1.0,1097.0,0.0,0.0
redo_RPB004_44,barcode11,Acinetobacter radioresistens,NZ_CP027365_1,3132860.0,0.0090651992,1.0,284.0,0.0,0.0
redo_RPB004_44,barcode11,Acinetobacter sp. NCu2D-2,NZ_CP015594_1,2738313.0,0.0389290779,1.0,1066.0,0.0,0.0
redo_RPB004_44,barcode11,Acinetobacter sp. NCu2D-2,NZ_CP015595_1,309964.0,0.0,0.0,0.0,0.0,0.0
redo_RPB004_44,barcode11,Acinetobacter sp. SWBY1,NZ_CP026616_1,2914878.0,0.0,0.0,0.0,0.0,0.0
redo_RPB004_44,barcode11,Acinetobacter sp. SWBY1,NZ_CP026617_1,38161.0,0.3196981211,1.0,122.0,0.0,0.0
redo_RPB004_44,barcode11,Acinetobacter ursingii,NZ_AP018824_1,3429552.0,0.0,0.0,0.0,0.0,0.0
redo_RPB004_44,barcode11,Acinetobacter ursingii,NZ_AP018825_1,105528.0,0.0,0.0,0.0,0.0,0.0
redo_RPB004_44,barcode11,Acinetobacter ursingii,NZ_AP018826_1,33916.0,3.5027715532,1.0,1188.0,0.0,0.0
redo_RPB004_44,barcode11,Bacteroides uniformis,NZ_AP019724_1,4734883.0,0.0607617971,1.9440389294,2877.0,0.0,0.0
redo_RPB004_44,barcode11,Bacteroides uniformis,NZ_AP019725_1,124183.0,0.0,0.0,0.0,0.0,0.0
redo_RPB004_44,barcode11,Bacteroides uniformis,NZ_AP019726_1,119377.0,0.0,0.0,0.0,0.0,0.0
redo_RPB004_44,barcode11,Bacteroides uniformis,NZ_AP019727_1,6783.0,0.0,0.0,0.0,0.0,0.0
redo_RPB004_44,barcode11,Bacteroides uniformis,NZ_AP019728_1,4306.0,0.0,0.0,0.0,0.0,0.0
redo_RPB004_44,barcode11,Brevundimonas diminuta,NZ_CP035093_1,3551819.0,0.0815075318,1.0,2895.0,0.0,0.0
redo_RPB004_44,barcode11,Brevundimonas naejangsanensis,NZ_CP015614_1,2971535.0,0.1139478418,1.2356763142,3386.0,0.0,0.0
redo_RPB004_44,barcode11,Citrobacter farmeri,NZ_CP022695_1,5130228.0,0.0491596085,1.0,2522.0,0.0,0.0
redo_RPB004_44,barcode11,Citrobacter farmeri,NZ_CP022696_1,328945.0,0.0,0.0,0.0,0.0,0.0
redo_RPB004_44,barcode11,Citrobacter farmeri,NZ_CP022697_1,149207.0,0.0,0.0,0.0,0.0,0.0
redo_RPB004_44,barcode11,Citrobacter farmeri,NZ_CP022698_1,107249.0,0.0,0.0,0.0,0.0,0.0
redo_RPB004_44,barcode11,Citrobacter rodentium,NC_013716_1,5346659.0,0.0879988793,1.0,4705.0,0.0,0.0
redo_RPB004_44,barcode11,Citrobacter rodentium,NC_013717_1,54449.0,0.0,0.0,0.0,0.0,0.0
redo_RPB004_44,barcode11,Citrobacter rodentium,NC_013718_1,39265.0,0.0,0.0,0.0,0.0,0.0
redo_RPB004_44,barcode11,Citrobacter rodentium,NC_013719_1,3910.0,0.0,0.0,0.0,0.0,0.0
redo_RPB004_44,barcode11,Comamonas kerstersii,NZ_CP020121_1,3547915.0,0.0489583319,1.0,1737.0,0.0,0.0
redo_RPB004_44,barcode11,Cutibacterium acnes,NC_006085_1,2560265.0,0.7118013174,7.5788520632,18224.0,3706.0,3706.0
redo_RPB004_44,barcode11,Edwardsiella ictaluri,NC_012779_2,3812301.0,0.0455105722,1.0,1735.0,0.0,0.0
redo_RPB004_44,barcode11,Enterobacter cloacae,NC_014121_1,5314581.0,0.0747001504,1.0,3970.0,0.0,0.0
redo_RPB004_44,barcode11,Enterobacter cloacae,NC_014107_1,199562.0,0.0,0.0,0.0,0.0,0.0
redo_RPB004_44,barcode11,Enterobacter cloacae,NC_014108_1,84653.0,0.0,0.0,0.0,0.0,0.0
redo_RPB004_44,barcode11,Enterobacter hormaechei,NZ_CP017179_1,4782480.0,0.0865241465,1.0,4138.0,0.0,0.0
redo_RPB004_44,barcode11,Enterobacter kobei,NZ_CP017181_1,4880257.0,0.1007324,1.0,4916.0,0.0,0.0
redo_RPB004_44,barcode11,Enterobacter kobei,NZ_CP017182_1,47221.0,0.0,0.0,0.0,0.0,0.0
redo_RPB004_44,barcode11,Enterobacter sp. FY-07,NZ_CP012487_1,5118646.0,0.0426089243,1.0,2181.0,0.0,0.0
redo_RPB004_44,barcode11,Enterobacter sp. FY-07,NZ_CP012488_1,13955.0,0.0,0.0,0.0,0.0,0.0
redo_RPB004_44,barcode11,Enterobacter sp. FY-07,NZ_CP012489_1,3776.0,0.0,0.0,0.0,0.0,0.0
redo_RPB004_44,barcode11,Enterobacter sp. FY-07,NZ_CP012490_1,2324.0,0.0,0.0,0.0,0.0,0.0
redo_RPB004_44,barcode11,Erwinia tasmaniensis,NC_010694_1,3883467.0,0.0928036726,1.0,3604.0,0.0,0.0
redo_RPB004_44,barcode11,Erwinia tasmaniensis,NC_010695_1,9299.0,0.0,0.0,0.0,0.0,0.0
redo_RPB004_44,barcode11,Erwinia tasmaniensis,NC_010696_1,35494.0,0.0,0.0,0.0,0.0,0.0
redo_RPB004_44,barcode11,Erwinia tasmaniensis,NC_010699_1,44694.0,0.0,0.0,0.0,0.0,0.0
redo_RPB004_44,barcode11,Erwinia tasmaniensis,NC_010693_1,46159.0,0.0,0.0,0.0,0.0,0.0
redo_RPB004_44,barcode11,Erwinia tasmaniensis,NC_010697_1,48751.0,0.0,0.0,0.0,0.0,0.0
redo_RPB004_44,barcode11,Escherichia albertii,NZ_CP007025_1,4701875.0,0.4265532367,1.0001495812,20056.0,0.0,0.0
redo_RPB004_44,barcode11,Escherichia coli,NC_000913_3,4641652.0,12.1910259537,8.5620775273,565865.0,251323.0,138073.0
redo_RPB004_44,barcode11,Escherichia fergusonii,NC_011740_1,4588711.0,0.2467577496,1.0,11323.0,0.0,0.0
redo_RPB004_44,barcode11,Escherichia fergusonii,NC_011743_1,55150.0,0.0,0.0,0.0,0.0,0.0
redo_RPB004_44,barcode11,Escherichia marmotae,NZ_CP025979_1,4671322.0,0.1347156116,1.0,6293.0,0.0,0.0
redo_RPB004_44,barcode11,Escherichia marmotae,NZ_CP025980_1,148809.0,0.0,0.0,0.0,0.0,0.0
redo_RPB004_44,barcode11,Escherichia marmotae,NZ_CP025981_1,76160.0,0.0,0.0,0.0,0.0,0.0
redo_RPB004_44,barcode11,Escherichia virus Lambda,NC_001416_1,48502.0,8.2408972826,1.0,3997.0,0.0,0.0
redo_RPB004_44,barcode11,Escherichia virus Mu,NC_000929_1,36717.0,5.4334504453,2.0912280702,1995.0,0.0,0.0
redo_RPB004_44,barcode11,Escherichia virus T7,NC_001604_1,39937.0,0.225354934,1.0,90.0,0.0,0.0
redo_RPB004_44,barcode11,Flavisolibacter ginsenosidimutans,NZ_CP042433_1,5079621.0,0.0074415001,1.0,378.0,0.0,0.0
redo_RPB004_44,barcode11,Flavisolibacter tropicus,NZ_CP011390_1,5940863.0,0.0128095868,1.0,761.0,0.0,0.0
redo_RPB004_44,barcode11,Flavobacterium faecale,NZ_CP020918_1,4621116.0,0.0367660106,1.0,1699.0,0.0,0.0
redo_RPB004_44,barcode11,Flavobacterium johnsoniae,NC_009441_1,6096872.0,0.060818072,1.950377562,3708.0,0.0,0.0
redo_RPB004_44,barcode11,Flavobacterium sp. HYN0056,NZ_CP029255_1,5877431.0,0.0664235786,1.9387807377,3904.0,0.0,0.0
redo_RPB004_44,barcode11,Flavobacterium sp. HYN0086,NZ_CP030261_1,4839571.0,0.0340319421,1.0,1647.0,0.0,0.0
redo_RPB004_44,barcode11,Herbaspirillum huttiense,NZ_CP037993_1,5691775.0,0.0233319132,1.0,1328.0,0.0,0.0
redo_RPB004_44,barcode11,Hymenobacter sp. DG25A,NZ_CP012623_1,3777136.0,0.0193797629,1.0,732.0,0.0,0.0
redo_RPB004_44,barcode11,Klebsiella pneumoniae,NC_016845_1,5333942.0,0.1466270162,1.0,7821.0,0.0,0.0
redo_RPB004_44,barcode11,Klebsiella pneumoniae,NC_016838_1,122799.0,0.0,0.0,0.0,0.0,0.0
redo_RPB004_44,barcode11,Klebsiella pneumoniae,NC_016846_1,111195.0,0.0,0.0,0.0,0.0,0.0
redo_RPB004_44,barcode11,Klebsiella pneumoniae,NC_016839_1,105974.0,0.8577575632,1.0,909.0,0.0,0.0
redo_RPB004_44,barcode11,Klebsiella pneumoniae,NC_016840_1,3751.0,0.0,0.0,0.0,0.0,0.0
redo_RPB004_44,barcode11,Klebsiella pneumoniae,NC_016847_1,3353.0,15.3295556218,1.0,514.0,0.0,0.0
redo_RPB004_44,barcode11,Klebsiella pneumoniae,NC_016841_1,1308.0,0.0,0.0,0.0,0.0,0.0
redo_RPB004_44,barcode11,Kluyvera intermedia,NZ_CP011602_1,5529134.0,0.0333325255,1.0,1843.0,0.0,0.0
redo_RPB004_44,barcode11,Kluyvera intermedia,NZ_CP011600_1,215092.0,0.0,0.0,0.0,0.0,0.0
redo_RPB004_44,barcode11,Kluyvera intermedia,NZ_CP011601_1,295619.0,0.0,0.0,0.0,0.0,0.0
redo_RPB004_44,barcode11,Kluyvera intermedia,NZ_CP011599_1,82986.0,0.0,0.0,0.0,0.0,0.0
redo_RPB004_44,barcode11,Kluyvera intermedia,NZ_CP011598_1,43621.0,0.0,0.0,0.0,0.0,0.0
redo_RPB004_44,barcode11,Leminorella richardii,NZ_LS483470_1,3976274.0,0.0954411089,3.3660079051,3795.0,1851.0,0.0
redo_RPB004_44,barcode11,Massilia oculi,NZ_CP029343_1,5844653.0,0.0599522333,1.9449200913,3504.0,0.0,0.0
redo_RPB004_44,barcode11,Moraxella osloensis,NZ_CP014234_1,2434688.0,0.3708483387,26.6306346218,9029.0,4521.0,4518.0
redo_RPB004_44,barcode11,Moraxella osloensis,NZ_CP014238_1,40342.0,0.0,0.0,0.0,0.0,0.0
redo_RPB004_44,barcode11,Moraxella osloensis,NZ_CP014237_1,35189.0,0.0,0.0,0.0,0.0,0.0
redo_RPB004_44,barcode11,Moraxella osloensis,NZ_CP014236_1,57463.0,0.0,0.0,0.0,0.0,0.0
redo_RPB004_44,barcode11,Moraxella osloensis,NZ_CP014235_1,81455.0,0.0,0.0,0.0,0.0,0.0
redo_RPB004_44,barcode11,Niabella soli,NZ_CP007035_1,4697343.0,0.0032997377,1.0,155.0,0.0,0.0
redo_RPB004_44,barcode11,Novosphingobium sp. PP1Y,NC_015580_1,3911486.0,0.0340535541,1.0,1332.0,0.0,0.0
redo_RPB004_44,barcode11,Novosphingobium sp. PP1Y,NC_015579_1,192103.0,0.0,0.0,0.0,0.0,0.0
redo_RPB004_44,barcode11,Novosphingobium sp. PP1Y,NC_015583_1,1161602.0,0.0,0.0,0.0,0.0,0.0
redo_RPB004_44,barcode11,Novosphingobium sp. PP1Y,NC_015582_1,48714.0,0.0,0.0,0.0,0.0,0.0
redo_RPB004_44,barcode11,Pseudomonas oryzihabitans,NZ_CP013987_1,4834356.0,0.1436799441,1.0,6946.0,0.0,0.0
redo_RPB004_44,barcode11,Pseudomonas sp. phDV1,NZ_CP031606_1,4727682.0,0.0317068703,1.0,1499.0,0.0,0.0
redo_RPB004_44,barcode11,Salmonella enterica,NC_003197_2,4857450.0,0.3148565605,1.2140054923,15294.0,0.0,0.0
redo_RPB004_44,barcode11,Salmonella enterica,NC_003277_2,93933.0,0.0,0.0,0.0,0.0,0.0
redo_RPB004_44,barcode11,Shewanella bicestrii,NZ_CP022358_1,4800597.0,0.1360247486,2.9384379786,6530.0,2582.0,0.0
redo_RPB004_44,barcode11,Shewanella bicestrii,NZ_CP022360_1,10479.0,0.0,0.0,0.0,0.0,0.0
redo_RPB004_44,barcode11,Shewanella bicestrii,NZ_CP022359_1,193338.0,0.0,0.0,0.0,0.0,0.0
redo_RPB004_44,barcode11,Shewanella oneidensis,NC_004347_2,4969811.0,0.035554672,1.0,1767.0,0.0,0.0
redo_RPB004_44,barcode11,Shewanella oneidensis,NC_004349_1,161613.0,0.0,0.0,0.0,0.0,0.0
redo_RPB004_44,barcode11,Shewanella sp. ANA-3,NC_008577_1,4972204.0,0.0538191917,4.2896113602,2676.0,970.0,0.0
redo_RPB004_44,barcode11,Shewanella sp. ANA-3,NC_008573_1,278942.0,0.0,0.0,0.0,0.0,0.0
redo_RPB004_44,barcode11,Shewanella sp. FDAARGOS_354,NZ_CP022089_2,5031863.0,2.0205438821,4.7377324901,101671.0,30097.0,14884.0
redo_RPB004_44,barcode11,Shewanella sp. FDAARGOS_354,NZ_CP022090_2,38118.0,0.0,0.0,0.0,0.0,0.0
redo_RPB004_44,barcode11,Shewanella sp. MR-4,NC_008321_1,4706287.0,0.1296563512,1.0,6102.0,0.0,0.0
redo_RPB004_44,barcode11,Shewanella sp. MR-7,NC_008322_1,4792610.0,0.0518506617,4.9106639839,2485.0,2294.0,0.0
redo_RPB004_44,barcode11,Shewanella sp. MR-7,NC_008320_1,6499.0,0.0,0.0,0.0,0.0,0.0
redo_RPB004_44,barcode11,Shewanella sp. W3-18-1,NC_008750_1,4708380.0,0.0214723535,1.0,1011.0,0.0,0.0
redo_RPB004_44,barcode11,Shigella dysenteriae,NC_007606_1,4369232.0,1.7334167652,1.2837318616,75737.0,0.0,0.0
redo_RPB004_44,barcode11,Shigella dysenteriae,NC_009344_1,8953.0,0.0,0.0,0.0,0.0,0.0
redo_RPB004_44,barcode11,Shigella dysenteriae,NC_007607_1,182726.0,0.4881626041,1.0,892.0,0.0,0.0
redo_RPB004_44,barcode11,Shigella flexneri,NC_004337_2,4607202.0,1.2810161135,1.1816025348,59019.0,0.0,0.0
redo_RPB004_44,barcode11,Shigella flexneri,NC_004851_1,221618.0,0.0,0.0,0.0,0.0,0.0
redo_RPB004_44,barcode11,Sphingobacterium sp. B29,NZ_CP019158_1,6357185.0,0.0571007451,1.8696969697,3630.0,0.0,0.0
redo_RPB004_44,barcode11,Sphingobacterium sp. G1-14,NZ_CP021381_1,6325678.0,0.1540862497,12.1797476147,9747.0,3644.0,3643.0
redo_RPB004_44,barcode11,Sphingobium yanoikuyae,NZ_CP020925_1,5260163.0,0.1149774256,1.0,6048.0,0.0,0.0
redo_RPB004_44,barcode11,Sphingobium yanoikuyae,NZ_CP020927_1,189183.0,0.0,0.0,0.0,0.0,0.0
redo_RPB004_44,barcode11,Sphingobium yanoikuyae,NZ_CP020926_1,220037.0,0.0,0.0,0.0,0.0,0.0
redo_RPB004_44,barcode11,Sphingomonas sanxanigenens,NZ_CP006644_1,6205897.0,0.0073800774,2.9475982533,458.0,0.0,0.0
redo_RPB004_44,barcode11,Sphingomonas sanxanigenens,NZ_CP011450_1,374401.0,0.0,0.0,0.0,0.0,0.0
redo_RPB004_44,barcode11,Staphylococcus aureus,NC_007795_1,2821361.0,0.0483809055,1.2271062271,1365.0,0.0,0.0
redo_RPB004_44,barcode11,Staphylococcus epidermidis,NC_004461_1,2499279.0,0.3051680105,4.6189851842,7627.0,3950.0,502.0
redo_RPB004_44,barcode11,Staphylococcus epidermidis,NC_005008_1,4439.0,0.0,0.0,0.0,0.0,0.0
redo_RPB004_44,barcode11,Staphylococcus epidermidis,NC_005007_1,4679.0,0.0,0.0,0.0,0.0,0.0
redo_RPB004_44,barcode11,Staphylococcus epidermidis,NC_005006_1,8007.0,0.0,0.0,0.0,0.0,0.0
redo_RPB004_44,barcode11,Staphylococcus epidermidis,NC_005005_1,17261.0,0.0,0.0,0.0,0.0,0.0
redo_RPB004_44,barcode11,Staphylococcus epidermidis,NC_005004_1,24365.0,0.0,0.0,0.0,0.0,0.0
redo_RPB004_44,barcode11,Staphylococcus epidermidis,NC_005003_1,6585.0,0.0,0.0,0.0,0.0,0.0
redo_RPB004_44,barcode11,Staphylococcus haemolyticus,NC_007168_1,2685015.0,0.1081185766,2.4743368929,2903.0,0.0,0.0
redo_RPB004_44,barcode11,Staphylococcus haemolyticus,NC_007169_1,2300.0,0.0,0.0,0.0,0.0,0.0
redo_RPB004_44,barcode11,Staphylococcus haemolyticus,NC_007170_1,2366.0,0.0,0.0,0.0,0.0,0.0
redo_RPB004_44,barcode11,Staphylococcus haemolyticus,NC_007171_1,8180.0,0.0,0.0,0.0,0.0,0.0
redo_RPB004_44,barcode11,Staphylococcus hominis,NZ_CP020618_1,2253412.0,6.7564653068,12.5654741184,152251.0,78089.0,52290.0
redo_RPB004_44,barcode11,Staphylococcus sciuri,NZ_CP022046_2,2764040.0,0.1037973401,1.0,2869.0,0.0,0.0
redo_RPB004_44,barcode11,Staphylococcus sciuri,NZ_CP022047_2,89775.0,0.0,0.0,0.0,0.0,0.0
redo_RPB004_44,barcode11,Streptococcus parasanguinis,NC_015678_1,2153652.0,0.0820931144,2.850678733,1768.0,0.0,0.0
redo_RPB004_44,barcode11,Vibrio alfacsensis,NZ_CP032093_1,3136974.0,0.0474023693,1.0,1487.0,0.0,0.0
redo_RPB004_44,barcode11,Vibrio alfacsensis,NZ_CP032094_1,1596877.0,0.0,0.0,0.0,0.0,0.0
redo_RPB004_44,barcode11,Vibrio alfacsensis,NZ_CP032095_1,176380.0,0.0,0.0,0.0,0.0,0.0
redo_RPB004_44,unclassified,Acinetobacter johnsonii,NZ_CP010350_1,3509795.0,0.6915218695,1.0,24271.0,0.0,0.0
redo_RPB004_44,unclassified,Acinetobacter johnsonii,NZ_CP010352_1,3978.0,0.0,0.0,0.0,0.0,0.0
redo_RPB004_44,unclassified,Acinetobacter johnsonii,NZ_CP010353_1,4724.0,0.0,0.0,0.0,0.0,0.0
redo_RPB004_44,unclassified,Acinetobacter johnsonii,NZ_CP010354_1,11643.0,0.0,0.0,0.0,0.0,0.0
redo_RPB004_44,unclassified,Acinetobacter johnsonii,NZ_CP010355_1,7579.0,0.0,0.0,0.0,0.0,0.0
redo_RPB004_44,unclassified,Acinetobacter johnsonii,NZ_CP010356_1,13940.0,0.0,0.0,0.0,0.0,0.0
redo_RPB004_44,unclassified,Acinetobacter johnsonii,NZ_CP010357_1,13330.0,0.0,0.0,0.0,0.0,0.0
redo_RPB004_44,unclassified,Acinetobacter johnsonii,NZ_CP010358_1,117483.0,0.5336942366,1.0,627.0,0.0,0.0
redo_RPB004_44,unclassified,Acinetobacter johnsonii,NZ_CP010351_1,398857.0,0.4344915596,1.0,1733.0,0.0,0.0
redo_RPB004_44,unclassified,Acinetobacter sp. ACNIH1,NZ_CP026420_1,3307251.0,0.042270756,1.0,1398.0,0.0,0.0
redo_RPB004_44,unclassified,Acinetobacter sp. ACNIH1,NZ_CP026424_1,18295.0,0.0,0.0,0.0,0.0,0.0
redo_RPB004_44,unclassified,Acinetobacter sp. ACNIH1,NZ_CP026421_1,11503.0,0.0,0.0,0.0,0.0,0.0
redo_RPB004_44,unclassified,Acinetobacter sp. ACNIH1,NZ_CP026422_1,13080.0,0.0,0.0,0.0,0.0,0.0
redo_RPB004_44,unclassified,Acinetobacter sp. ACNIH1,NZ_CP026423_1,40249.0,0.0,0.0,0.0,0.0,0.0
redo_RPB004_44,unclassified,Acinetobacter sp. ACNIH1,NZ_CP026426_1,257654.0,0.0970293494,1.0,250.0,0.0,0.0
redo_RPB004_44,unclassified,Acinetobacter sp. ACNIH1,NZ_CP026425_1,39361.0,0.0,0.0,0.0,0.0,0.0
redo_RPB004_44,unclassified,Acinetobacter sp. ACNIH1,NZ_CP026427_1,8765.0,0.0,0.0,0.0,0.0,0.0
redo_RPB004_44,unclassified,Acinetobacter sp. TTH0-4,NZ_CP012608_1,2962453.0,0.0403719485,1.0,1196.0,0.0,0.0
redo_RPB004_44,unclassified,Acinetobacter sp. WCHA55,NZ_CP032286_1,3415345.0,0.1006633298,1.0,3438.0,0.0,0.0
redo_RPB004_44,unclassified,Acinetobacter sp. WCHA55,NZ_CP032280_1,71539.0,0.0,0.0,0.0,0.0,0.0
redo_RPB004_44,unclassified,Acinetobacter sp. WCHA55,NZ_CP032281_1,16361.0,0.0,0.0,0.0,0.0,0.0
redo_RPB004_44,unclassified,Acinetobacter sp. WCHA55,NZ_CP032282_1,14838.0,0.0,0.0,0.0,0.0,0.0
redo_RPB004_44,unclassified,Acinetobacter sp. WCHA55,NZ_CP032283_1,5624.0,0.0,0.0,0.0,0.0,0.0
redo_RPB004_44,unclassified,Acinetobacter sp. WCHA55,NZ_CP032284_1,71326.0,0.0,0.0,0.0,0.0,0.0
redo_RPB004_44,unclassified,Acinetobacter sp. WCHA55,NZ_CP032285_1,372328.0,0.0,0.0,0.0,0.0,0.0
redo_RPB004_44,unclassified,Arcanobacterium haemolyticum,NC_014218_1,1986154.0,0.1382068057,1.0,2745.0,0.0,0.0
redo_RPB004_44,unclassified,Citrobacter freundii,NZ_CP007557_1,5099034.0,0.0145713874,1.0,743.0,0.0,0.0
redo_RPB004_44,unclassified,Citrobacter freundii,NZ_CP007558_1,272297.0,0.0,0.0,0.0,0.0,0.0
redo_RPB004_44,unclassified,Cutibacterium acnes,NC_006085_1,2560265.0,0.3116474271,1.0,7979.0,0.0,0.0
redo_RPB004_44,unclassified,Enterococcus faecium,NC_017960_1,2698137.0,0.0451422593,1.0,1218.0,0.0,0.0
redo_RPB004_44,unclassified,Enterococcus faecium,NC_017961_1,36262.0,0.0,0.0,0.0,0.0,0.0
redo_RPB004_44,unclassified,Enterococcus faecium,NC_017962_1,66247.0,0.0,0.0,0.0,0.0,0.0
redo_RPB004_44,unclassified,Enterococcus faecium,NC_017963_1,251926.0,0.0,0.0,0.0,0.0,0.0
redo_RPB004_44,unclassified,Escherichia albertii,NZ_CP007025_1,4701875.0,0.1286508042,1.0,6049.0,0.0,0.0
redo_RPB004_44,unclassified,Escherichia coli,NC_000913_3,4641652.0,5.6619496679,1.1411068156,262808.0,0.0,0.0
redo_RPB004_44,unclassified,Escherichia fergusonii,NC_011740_1,4588711.0,0.0467451535,1.0,2145.0,0.0,0.0
redo_RPB004_44,unclassified,Escherichia fergusonii,NC_011743_1,55150.0,0.0,0.0,0.0,0.0,0.0
redo_RPB004_44,unclassified,Exiguobacterium mexicanum,NZ_CP040676_1,2615862.0,0.0675112066,1.0,1766.0,0.0,0.0
redo_RPB004_44,unclassified,Exiguobacterium mexicanum,NZ_CP040675_1,68746.0,0.0,0.0,0.0,0.0,0.0
redo_RPB004_44,unclassified,Exiguobacterium mexicanum,NZ_CP040674_1,4590.0,0.0,0.0,0.0,0.0,0.0
redo_RPB004_44,unclassified,Exiguobacterium mexicanum,NZ_CP040673_1,4267.0,0.0,0.0,0.0,0.0,0.0
redo_RPB004_44,unclassified,Flavobacterium sp. HYN0056,NZ_CP029255_1,5877431.0,0.082365918,1.0,4841.0,0.0,0.0
redo_RPB004_44,unclassified,Macrococcus sp. IME1552,NZ_CP017156_1,2391700.0,0.0057699544,1.0,138.0,0.0,0.0
redo_RPB004_44,unclassified,Moraxella osloensis,NZ_CP014234_1,2434688.0,0.1844589533,1.8773101759,4491.0,0.0,0.0
redo_RPB004_44,unclassified,Moraxella osloensis,NZ_CP014238_1,40342.0,0.0,0.0,0.0,0.0,0.0
redo_RPB004_44,unclassified,Moraxella osloensis,NZ_CP014237_1,35189.0,0.0,0.0,0.0,0.0,0.0
redo_RPB004_44,unclassified,Moraxella osloensis,NZ_CP014236_1,57463.0,0.0,0.0,0.0,0.0,0.0
redo_RPB004_44,unclassified,Moraxella osloensis,NZ_CP014235_1,81455.0,0.0,0.0,0.0,0.0,0.0
redo_RPB004_44,unclassified,Paenibacillus polymyxa,NC_014622_2,5728392.0,0.0030375016,1.0,174.0,0.0,0.0
redo_RPB004_44,unclassified,Paenibacillus polymyxa,NC_014628_2,510118.0,0.0,0.0,0.0,0.0,0.0
redo_RPB004_44,unclassified,Shewanella bicestrii,NZ_CP022358_1,4800597.0,0.0247052606,1.0,1186.0,0.0,0.0
redo_RPB004_44,unclassified,Shewanella bicestrii,NZ_CP022360_1,10479.0,0.0,0.0,0.0,0.0,0.0
redo_RPB004_44,unclassified,Shewanella bicestrii,NZ_CP022359_1,193338.0,0.0,0.0,0.0,0.0,0.0
redo_RPB004_44,unclassified,Shewanella sp. FDAARGOS_354,NZ_CP022089_2,5031863.0,0.2775314034,1.0,13965.0,0.0,0.0
redo_RPB004_44,unclassified,Shewanella sp. FDAARGOS_354,NZ_CP022090_2,38118.0,0.0,0.0,0.0,0.0,0.0
redo_RPB004_44,unclassified,Shigella dysenteriae,NC_007606_1,4369232.0,0.4262076264,1.0,18622.0,0.0,0.0
redo_RPB004_44,unclassified,Shigella dysenteriae,NC_009344_1,8953.0,0.0,0.0,0.0,0.0,0.0
redo_RPB004_44,unclassified,Shigella dysenteriae,NC_007607_1,182726.0,0.0,0.0,0.0,0.0,0.0
redo_RPB004_44,unclassified,Shigella flexneri,NC_004337_2,4607202.0,0.4072102764,1.0,18761.0,0.0,0.0
redo_RPB004_44,unclassified,Shigella flexneri,NC_004851_1,221618.0,0.0,0.0,0.0,0.0,0.0
redo_RPB004_44,unclassified,Staphylococcus aureus,NC_007795_1,2821361.0,0.9395465522,1.1798702279,26508.0,0.0,0.0
redo_RPB004_44,unclassified,Staphylococcus hominis,NZ_CP020618_1,2253412.0,1.1748850188,1.0811331445,26475.0,0.0,0.0
redo_RPB004_44,unclassified,Streptococcus agalactiae,NC_004116_1,2160267.0,50.9421289128,2.1061058478,1100486.0,100563.0,2420.0
redo_RPB004_44,unclassified,Streptococcus dysgalactiae,NC_019042_1,2179445.0,0.1108080268,1.1084886128,2415.0,0.0,0.0
redo_RPB004_44,unclassified,Streptococcus pneumoniae,NC_003098_1,2038615.0,0.1638367225,1.0,3340.0,0.0,0.0
redo_RPB004_44,unclassified,Streptococcus pyogenes,NC_002737_2,1852433.0,0.3325896267,1.0,6161.0,0.0,0.0
redo_RPB004_44,unclassified,Streptococcus troglodytae,NZ_AP014612_1,2097874.0,0.0149675338,1.0,314.0,0.0,0.0
redo_RPB004_44,unclassified,Streptococcus urinalis,NZ_LR134323_1,2144000.0,0.1685634328,1.0,3614.0,0.0,0.0
