Run_name,Barcode,Taxid,Bases,Reads
redo_RPB004_51,barcode10,Escherichia coli,1912152,583
redo_RPB004_51,barcode10,Bacillus subtilis,1552868,508
redo_RPB004_51,barcode08,Staphylococcus epidermidis,3905496,1589
redo_RPB004_51,barcode06,Staphylococcus epidermidis,4991,2
redo_RPB004_51,barcode02,Escherichia coli,111059,41
redo_RPB004_51,barcode02,Bacillus subtilis,144524,32
redo_RPB004_51,barcode07,Staphylococcus epidermidis,280799,71
redo_RPB004_51,barcode07,Escherichia coli,405373,85
redo_RPB004_51,barcode07,Bacillus subtilis,543296,106
redo_RPB004_51,barcode04,Cutibacterium acnes,3022780,867
redo_RPB004_51,barcode04,Escherichia coli,3057729,908
redo_RPB004_51,barcode04,Bacillus subtilis,2661085,875
redo_RPB004_51,barcode11,Escherichia coli,5242078,1025
redo_RPB004_51,barcode11,Bacillus subtilis,3231874,660
redo_RPB004_51,barcode01,Staphylococcus capitis,470919,150
redo_RPB004_51,barcode01,Escherichia coli,1489588,365
redo_RPB004_51,barcode01,Bacillus subtilis,941529,230
redo_RPB004_51,unclassified,Cutibacterium acnes,83444,22
redo_RPB004_51,unclassified,Staphylococcus epidermidis,222801,100
redo_RPB004_51,unclassified,Escherichia coli,164909,55
redo_RPB004_51,unclassified,Bacillus subtilis,86771,28
redo_RPB004_51,barcode10,Escherichia virus T7,2701,1
redo_RPB004_51,barcode10,Human endogenous retrovirus K,2326,1
redo_RPB004_51,barcode10,Escherichia virus Mu,2312,1
redo_RPB004_51,barcode08,Staphylococcus virus IPLA5,29328,13
redo_RPB004_51,barcode08,Staphylococcus virus PH15,57669,22
redo_RPB004_51,barcode08,Staphylococcus virus IPLA7,86219,32
redo_RPB004_51,barcode07,Staphylococcus virus IPLA7,14992,4
redo_RPB004_51,barcode04,Propionibacterium virus PHL041M10,37047,11
redo_RPB004_51,barcode04,Escherichia virus Mu,6439,3
redo_RPB004_51,barcode11,Escherichia virus Mu,17381,3
redo_RPB004_51,barcode01,Staphylococcus phage IME-SA4,7187,3
redo_RPB004_51,barcode01,Escherichia virus T7,2130,1
redo_RPB004_51,unclassified,Propionibacterium virus PHL041M10,3563,1
redo_RPB004_51,unclassified,Staphylococcus virus PH15,2179,1
redo_RPB004_51,unclassified,Staphylococcus virus IPLA7,5546,2
