Run_name,Barcode,Taxid,Bases,Reads
redo_RPB004_26,barcode07,Acinetobacter sp. ACNIH1,2783,1
redo_RPB004_26,barcode07,Agrobacterium tumefaciens,13299,4
redo_RPB004_26,barcode07,Cutibacterium acnes,75377,28
redo_RPB004_26,barcode07,Shigella dysenteriae,3167,1
redo_RPB004_26,barcode07,Staphylococcus aureus,31375,11
redo_RPB004_26,barcode07,Acinetobacter schindleri,19880,8
redo_RPB004_26,barcode07,Acinetobacter baumannii,1704,1
redo_RPB004_26,barcode07,Escherichia coli,70856,34
redo_RPB004_26,barcode07,Shigella boydii,3161,1
redo_RPB004_26,barcode07,Moraxella osloensis,352292,92
redo_RPB004_26,barcode07,Shigella flexneri,5501,2
redo_RPB004_26,barcode07,Streptomyces lydicus,3308,1
redo_RPB004_26,barcode07,Aromatoleum aromaticum,1863,1
redo_RPB004_26,barcode07,Escherichia marmotae,3122,1
redo_RPB004_26,barcode07,Delftia tsuruhatensis,2558,2
redo_RPB004_26,barcode07,Streptococcus sanguinis,8199,4
redo_RPB004_26,barcode07,Corynebacterium kroppenstedtii,525219,99
redo_RPB004_26,unclassified,Staphylococcus xylosus,2241,2
redo_RPB004_26,unclassified,Lactobacillus plantarum,178,1
redo_RPB004_26,unclassified,Staphylococcus schweitzeri,53196,26
redo_RPB004_26,unclassified,Staphylococcus aureus,80194438,31270
redo_RPB004_26,unclassified,Cutibacterium acnes,3196,1
redo_RPB004_26,unclassified,Herbaspirillum huttiense,3541,1
redo_RPB004_26,unclassified,Cardiobacterium hominis,2180,1
redo_RPB004_26,unclassified,Staphylococcus pettenkoferi,2271,2
redo_RPB004_26,unclassified,Enterococcus faecium,4340,1
redo_RPB004_26,unclassified,Lysinibacillus fusiformis,4069,1
redo_RPB004_26,unclassified,Rickettsiales bacterium Ac37b,1235,1
redo_RPB004_26,unclassified,Staphylococcus felis,1330,1
redo_RPB004_26,unclassified,Staphylococcus lugdunensis,12244,5
redo_RPB004_26,unclassified,Staphylococcus argenteus,34469,25
redo_RPB004_26,unclassified,Veillonella dispar,323,1
redo_RPB004_26,unclassified,Staphylococcus sciuri,1495,3
redo_RPB004_26,unclassified,Staphylococcus nepalensis,838,2
redo_RPB004_26,unclassified,Bacillus velezensis,2868,1
redo_RPB004_26,unclassified,Sporosarcina ureae,1244,1
redo_RPB004_26,unclassified,Bacillus cereus,4414,2
redo_RPB004_26,unclassified,Streptococcus pneumoniae,4468,1
redo_RPB004_26,unclassified,Moraxella osloensis,7028,2
redo_RPB004_26,unclassified,Staphylococcus warneri,2823,2
redo_RPB004_26,unclassified,Mesoplasma lactucae,2337,1
redo_RPB004_26,unclassified,Aerococcus urinaehominis,159,1
redo_RPB004_26,unclassified,Planococcus sp. MB-3u-03,6654,2
redo_RPB004_26,unclassified,Streptococcus oralis,4107,1
redo_RPB004_26,unclassified,Staphylococcus simiae,4766,6
redo_RPB004_26,unclassified,Cyanobacterium aponinum,4161,1
redo_RPB004_26,unclassified,Enterococcus hirae,684,1
redo_RPB004_26,unclassified,Scardovia inopinata,324,1
redo_RPB004_26,unclassified,Staphylococcus muscae,2245,2
redo_RPB004_26,unclassified,Staphylococcus epidermidis,17883,6
redo_RPB004_26,unclassified,Vibrio parahaemolyticus,1002,1
redo_RPB004_26,unclassified,Staphylococcus haemolyticus,14865,7
redo_RPB004_26,unclassified,Lactobacillus salivarius,690,1
redo_RPB004_26,unclassified,Staphylococcus hominis,9737,4
redo_RPB004_26,unclassified,Ochrobactrum anthropi,2087,1
redo_RPB004_26,unclassified,Paenisporosarcina antarctica,1038,1
redo_RPB004_26,unclassified,Staphylococcus chromogenes,366,1
redo_RPB004_26,unclassified,Aerococcus urinaeequi,1315,1
redo_RPB004_26,unclassified,Staphylococcus sp. AntiMn-1,8095,2
redo_RPB004_26,unclassified,Staphylococcus piscifermentans,1338,1
redo_RPB004_26,unclassified,Staphylococcus kloosii,4592,3
redo_RPB004_26,unclassified,Limnohabitans sp. 103DPR2,260,1
redo_RPB004_26,unclassified,Corynebacterium kroppenstedtii,17187,4
redo_RPB004_26,unclassified,Staphylococcus cohnii,11862,4
redo_RPB004_26,unclassified,Macrococcus caseolyticus,830,2
redo_RPB004_26,unclassified,Staphylococcus saprophyticus,399,1
redo_RPB004_26,unclassified,Leptotrichia hongkongensis,202,1
redo_RPB004_26,unclassified,Chryseobacterium sp. StRB126,1232,1
redo_RPB004_26,unclassified,Staphylococcus capitis,7837,3
redo_RPB004_26,unclassified,Staphylococcus equorum,2361,2
redo_RPB004_26,unclassified,Staphylococcus pseudintermedius,4347,1
redo_RPB004_26,unclassified,Klebsiella pneumoniae,622,1
redo_RPB004_26,unclassified,Staphylococcus pasteuri,5050,3
redo_RPB004_26,unclassified,Bacillus smithii,271,1
redo_RPB004_26,unclassified,Finegoldia magna,3309,1
redo_RPB004_26,unclassified,Bacillus thuringiensis,2336,1
redo_RPB004_26,unclassified,Staphylococcus caprae,2291,2
redo_RPB004_26,unclassified,Aerococcus sanguinicola,188,1
redo_RPB004_26,barcode12a,Staphylococcus aureus,4224,1
redo_RPB004_26,barcode06,Staphylococcus aureus,6422,2
redo_RPB004_26,barcode09,Acinetobacter johnsonii,348,1
redo_RPB004_26,barcode09,Pseudomonas chlororaphis,4918,1
redo_RPB004_26,barcode09,Streptococcus suis,11929,4
redo_RPB004_26,barcode09,Parvimonas micra,2612,1
redo_RPB004_26,barcode09,Leminorella richardii,11484,4
redo_RPB004_26,barcode09,Staphylococcus aureus,7556,1
redo_RPB004_26,barcode09,Streptococcus pneumoniae,72091,19
redo_RPB004_26,barcode09,Cutibacterium acnes,120938,19
redo_RPB004_26,barcode09,Streptococcus mitis,72930,17
redo_RPB004_26,barcode09,Escherichia coli,16867,9
redo_RPB004_26,barcode09,Peptostreptococcaceae bacterium oral taxon 929,3553,1
redo_RPB004_26,barcode09,Streptococcus oralis,12776,3
redo_RPB004_26,barcode09,Corynebacterium kroppenstedtii,91838,14
redo_RPB004_26,barcode11,Peptostreptococcaceae bacterium oral taxon 929,12987,4
redo_RPB004_26,barcode11,Staphylococcus schweitzeri,544829,229
redo_RPB004_26,barcode11,Staphylococcus aureus,3619095226,1052103
redo_RPB004_26,barcode11,Bacillus flexus,3220,2
redo_RPB004_26,barcode11,Bacillus pseudofirmus,2149,1
redo_RPB004_26,barcode11,Bacillus licheniformis,2704,1
redo_RPB004_26,barcode11,Streptococcus pseudoporcinus,2741,1
redo_RPB004_26,barcode11,Bacillus cereus,90149,32
redo_RPB004_26,barcode11,Salinicoccus halodurans,6947,4
redo_RPB004_26,barcode11,Sulfitobacter donghicola,9083,3
redo_RPB004_26,barcode11,Enterococcus faecalis,6582,2
redo_RPB004_26,barcode11,Bacteriovorax stolpii,6296,2
redo_RPB004_26,barcode11,Bacillus marisflavi,447,1
redo_RPB004_26,barcode11,Corynebacterium segmentosum,10125,3
redo_RPB004_26,barcode11,Parvimonas micra,6766,2
redo_RPB004_26,barcode11,Bacillus cellulosilyticus,3089,1
redo_RPB004_26,barcode11,Listeria monocytogenes,4128,1
redo_RPB004_26,barcode11,Bacillus pseudomycoides,3305,1
redo_RPB004_26,barcode11,Bacillus subtilis,2103,1
redo_RPB004_26,barcode11,Staphylococcus hominis,70108,28
redo_RPB004_26,barcode11,Paenisporosarcina antarctica,7181,3
redo_RPB004_26,barcode11,Staphylococcus chromogenes,2916,2
redo_RPB004_26,barcode11,Escherichia coli,56476,14
redo_RPB004_26,barcode11,Ureibacillus thermosphaericus,1874,1
redo_RPB004_26,barcode11,Staphylococcus sp. AntiMn-1,37030,13
redo_RPB004_26,barcode11,Aerococcus urinae,3492,1
redo_RPB004_26,barcode11,Fabibacter pacificus,1841,1
redo_RPB004_26,barcode11,Streptococcus salivarius,5059,2
redo_RPB004_26,barcode11,Bacillus sp. Y1,558,1
redo_RPB004_26,barcode11,Macrococcus caseolyticus,6847,2
redo_RPB004_26,barcode11,Staphylococcus saprophyticus,98569,33
redo_RPB004_26,barcode11,Staphylococcus carnosus,13383,4
redo_RPB004_26,barcode11,Halobacillus halophilus,835,1
redo_RPB004_26,barcode11,Leptospira weilii,2215,1
redo_RPB004_26,barcode11,Turicibacter sp. H121,1490,1
redo_RPB004_26,barcode11,Streptococcus gallolyticus,5804,2
redo_RPB004_26,barcode11,Staphylococcus pseudintermedius,57076,21
redo_RPB004_26,barcode11,Anaerostipes hadrus,4237,2
redo_RPB004_26,barcode11,Sporosarcina sp. P33,9105,3
redo_RPB004_26,barcode11,Staphylococcus caprae,50220,19
redo_RPB004_26,barcode11,Streptococcus pyogenes,101383,24
redo_RPB004_26,barcode11,Staphylococcus xylosus,30922,12
redo_RPB004_26,barcode11,Lactobacillus plantarum,463,1
redo_RPB004_26,barcode11,Caminibacter mediatlanticus,2042,1
redo_RPB004_26,barcode11,Thermosediminibacter oceani,3449,1
redo_RPB004_26,barcode11,Kocuria indica,7858,2
redo_RPB004_26,barcode11,Enterococcus faecium,38311,15
redo_RPB004_26,barcode11,Sporolactobacillus terrae,2222,2
redo_RPB004_26,barcode11,Staphylococcus lutrae,12311,3
redo_RPB004_26,barcode11,Staphylococcus nepalensis,12124,5
redo_RPB004_26,barcode11,Virgibacillus halodenitrificans,569,1
redo_RPB004_26,barcode11,Macrococcus sp. IME1552,11318,4
redo_RPB004_26,barcode11,Sebaldella termitidis,295,1
redo_RPB004_26,barcode11,Clostridioides difficile,13049,5
redo_RPB004_26,barcode11,Macrococcus canis,972,1
redo_RPB004_26,barcode11,Moorella thermoacetica,2818,1
redo_RPB004_26,barcode11,Weissella ceti,2170,2
redo_RPB004_26,barcode11,Planococcus sp. MB-3u-03,14558,5
redo_RPB004_26,barcode11,Arcticibacterium luteifluviistationis,1628,1
redo_RPB004_26,barcode11,Staphylococcus simiae,154993,63
redo_RPB004_26,barcode11,Ezakiella massiliensis,56973,19
redo_RPB004_26,barcode11,Fictibacillus phosphorivorans,4483,1
redo_RPB004_26,barcode11,Bacillus anthracis,31217,12
redo_RPB004_26,barcode11,Erysipelothrix rhusiopathiae,3823,1
redo_RPB004_26,barcode11,Lactobacillus farciminis,1565,1
redo_RPB004_26,barcode11,Streptococcus gordonii,2476,1
redo_RPB004_26,barcode11,Anaerococcus mediterraneensis,174128,40
redo_RPB004_26,barcode11,Paenibacillus lentus,2021,1
redo_RPB004_26,barcode11,Carnobacterium maltaromaticum,3879,1
redo_RPB004_26,barcode11,Aerococcus urinaeequi,22199,8
redo_RPB004_26,barcode11,Anaerococcus prevotii,49025,15
redo_RPB004_26,barcode11,Bacillus sp. Lzh-5,7419,2
redo_RPB004_26,barcode11,Staphylococcus schleiferi,31719,11
redo_RPB004_26,barcode11,Staphylococcus cohnii,52468,19
redo_RPB004_26,barcode11,Vibrio coralliilyticus,2517,1
redo_RPB004_26,barcode11,Thermoclostridium stercorarium,5826,2
redo_RPB004_26,barcode11,Desulfofarcimen acetoxidans,251,1
redo_RPB004_26,barcode11,Staphylococcus delphini,10106,3
redo_RPB004_26,barcode11,Geobacillus thermocatenulatus,3128,1
redo_RPB004_26,barcode11,Klebsiella pneumoniae,2413,2
redo_RPB004_26,barcode11,Staphylococcus agnetis,9395,8
redo_RPB004_26,barcode11,Brevundimonas naejangsanensis,447,1
redo_RPB004_26,barcode11,Paenibacillus xylanexedens,1199,2
redo_RPB004_26,barcode11,Enterococcus thailandicus,1790,2
redo_RPB004_26,barcode11,Staphylococcus pettenkoferi,37455,13
redo_RPB004_26,barcode11,Bacillus ciccensis,2253,1
redo_RPB004_26,barcode11,Bacillus halodurans,1756,1
redo_RPB004_26,barcode11,Planococcus halocryophilus,6594,2
redo_RPB004_26,barcode11,Salmonella enterica,1219,1
redo_RPB004_26,barcode11,Proteus mirabilis,4153,2
redo_RPB004_26,barcode11,Shigella boydii,5189,2
redo_RPB004_26,barcode11,Sneathia amnii,3504,1
redo_RPB004_26,barcode11,Kocuria rosea,4617,1
redo_RPB004_26,barcode11,Algibacter alginicilyticus,1773,1
redo_RPB004_26,barcode11,Aerococcus christensenii,13052,4
redo_RPB004_26,barcode11,Staphylococcus sciuri,11946,4
redo_RPB004_26,barcode11,Mycoplasma arginini,1330,1
redo_RPB004_26,barcode11,Lysinibacillus sp. YS11,306,1
redo_RPB004_26,barcode11,Dolosigranulum pigrum,10608,3
redo_RPB004_26,barcode11,Pseudomonas veronii,549,1
redo_RPB004_26,barcode11,Fusobacterium necrophorum,1826,1
redo_RPB004_26,barcode11,Peptoniphilus harei,19049,7
redo_RPB004_26,barcode11,Modestobacter marinus,2345,1
redo_RPB004_26,barcode11,Enterococcus hirae,3360,1
redo_RPB004_26,barcode11,Pandoraea thiooxydans,3411,1
redo_RPB004_26,barcode11,Clostridium tyrobutyricum,440,1
redo_RPB004_26,barcode11,Bacillus amyloliquefaciens,2611,1
redo_RPB004_26,barcode11,Streptococcus pneumoniae,7659,4
redo_RPB004_26,barcode11,Staphylococcus simulans,70206,25
redo_RPB004_26,barcode11,Bacillus kochii,5421,1
redo_RPB004_26,barcode11,Lactobacillus salivarius,6093,2
redo_RPB004_26,barcode11,Staphylococcus epidermidis,263342,92
redo_RPB004_26,barcode11,Staphylococcus capitis,137896,47
redo_RPB004_26,barcode11,Serratia marcescens,2674,1
redo_RPB004_26,barcode11,Caldisericum exile,752,1
redo_RPB004_26,barcode11,Staphylococcus hyicus,480,1
redo_RPB004_26,barcode11,Staphylococcus piscifermentans,8459,5
redo_RPB004_26,barcode11,Bacillus sp. FJAT-14266,219,1
redo_RPB004_26,barcode11,Vagococcus teuberi,466,1
redo_RPB004_26,barcode11,Ralstonia solanacearum,7898,1
redo_RPB004_26,barcode11,Paeniclostridium sordellii,5820,1
redo_RPB004_26,barcode11,Geobacillus sp. Y4.1MC1,569,1
redo_RPB004_26,barcode11,Finegoldia magna,478585,145
redo_RPB004_26,barcode11,Pseudomonas aeruginosa,4824,2
redo_RPB004_26,barcode11,Staphylococcus pasteuri,80352,28
redo_RPB004_26,barcode11,Staphylococcus auricularis,38950,13
redo_RPB004_26,barcode11,Bacillus thuringiensis,116675,35
redo_RPB004_26,barcode11,Auricoccus indicus,17226,7
redo_RPB004_26,barcode11,Ahniella affigens,2162,1
redo_RPB004_26,barcode11,Streptococcus equinus,2472,1
redo_RPB004_26,barcode11,Exiguobacterium sp. AT1b,3833,1
redo_RPB004_26,barcode11,Staphylococcus condimenti,13379,3
redo_RPB004_26,barcode11,Gemella haemolysans,27834,8
redo_RPB004_26,barcode11,Cutibacterium acnes,23909,7
redo_RPB004_26,barcode11,Mycoplasma hominis,580,1
redo_RPB004_26,barcode11,Desulfotomaculum nigrificans,1768,1
redo_RPB004_26,barcode11,Staphylococcus succinus,13766,5
redo_RPB004_26,barcode11,Staphylococcus equorum,25030,8
redo_RPB004_26,barcode11,Heliobacterium modesticaldum,1601,1
redo_RPB004_26,barcode11,Geobacillus subterraneus,2398,1
redo_RPB004_26,barcode11,Staphylococcus felis,29783,10
redo_RPB004_26,barcode11,Staphylococcus lugdunensis,264514,88
redo_RPB004_26,barcode11,Staphylococcus argenteus,910051,369
redo_RPB004_26,barcode11,Fusobacterium hwasookii,2982,1
redo_RPB004_26,barcode11,Lautropia mirabilis,4471,1
redo_RPB004_26,barcode11,Bacillus velezensis,13300,6
redo_RPB004_26,barcode11,Flavobacterium johnsoniae,3631,1
redo_RPB004_26,barcode11,Solibacillus silvestris,1099,1
redo_RPB004_26,barcode11,Bacillus cohnii,3769,1
redo_RPB004_26,barcode11,Brochothrix thermosphacta,7658,4
redo_RPB004_26,barcode11,Corynebacterium simulans,21425,6
redo_RPB004_26,barcode11,Staphylococcus warneri,28078,10
redo_RPB004_26,barcode11,Clostridium perfringens,2818,1
redo_RPB004_26,barcode11,Laceyella sacchari,1134,1
redo_RPB004_26,barcode11,Staphylococcus muscae,41794,13
redo_RPB004_26,barcode11,Acinetobacter baumannii,2667,1
redo_RPB004_26,barcode11,Lentibacillus amyloliquefaciens,4510,1
redo_RPB004_26,barcode11,Staphylococcus haemolyticus,177729,72
redo_RPB004_26,barcode11,Mycoplasma anseris,2652,1
redo_RPB004_26,barcode11,Lysinibacillus sp. SGAir0095,889,1
redo_RPB004_26,barcode11,Staphylococcus kloosii,13164,7
redo_RPB004_26,barcode11,Candidatus Planktophila sulfonica,695,1
redo_RPB004_26,barcode11,Anaerotignum propionicum,3323,1
redo_RPB004_26,barcode11,Corynebacterium striatum,3727,1
redo_RPB004_26,barcode11,Lactobacillus sakei,2203,1
redo_RPB004_26,barcode11,Lactobacillus sp. CBA3606,2474,1
redo_RPB004_26,barcode11,Sodalis endosymbiont of Henestaris halophilus,2793,1
redo_RPB004_26,barcode11,Bacillus sp. ABP14,881,1
redo_RPB004_26,barcode11,Burkholderia multivorans,4604,1
redo_RPB004_26,barcode11,Bacillus cytotoxicus,7658,2
redo_RPB004_26,barcode11,Bacillus sp. FJAT-25496,3644,1
redo_RPB004_26,barcode11,Negativicoccus massiliensis,3321,1
redo_RPB004_26,barcode11,Gardnerella vaginalis,22515,6
redo_RPB004_26,barcode11,Streptococcus agalactiae,8670,3
redo_RPB004_26,barcode05,Staphylococcus aureus,4025,1
redo_RPB004_26,barcode03,Staphylococcus aureus,9179,3
redo_RPB004_26,barcode10,Nostocales cyanobacterium HT-58-2,2061,1
redo_RPB004_26,barcode10,Acinetobacter johnsonii,45243,12
redo_RPB004_26,barcode10,Staphylococcus schweitzeri,7854,4
redo_RPB004_26,barcode10,Staphylococcus capitis,6403,2
redo_RPB004_26,barcode10,Staphylococcus aureus,24965694,7769
redo_RPB004_26,barcode10,Cutibacterium acnes,29593,9
redo_RPB004_26,barcode10,Finegoldia magna,22994,8
redo_RPB004_26,barcode10,Staphylococcus felis,2410,1
redo_RPB004_26,barcode10,Staphylococcus pseudintermedius,3159,1
redo_RPB004_26,barcode10,Herbaspirillum huttiense,3277,1
redo_RPB004_26,barcode10,Bradyrhizobium sp. CCBAU 51778,2821,1
redo_RPB004_26,barcode10,Escherichia coli,4720,2
redo_RPB004_26,barcode10,Staphylococcus pasteuri,2956,1
redo_RPB004_26,barcode10,Lentzea guizhouensis,9062,1
redo_RPB004_26,barcode10,Nostoc flagelliforme,8108,2
redo_RPB004_26,barcode10,Staphylococcus sp. AntiMn-1,1507,1
redo_RPB004_26,barcode10,Staphylococcus epidermidis,4055,2
redo_RPB004_26,barcode10,Shewanella sp. FDAARGOS_354,45832,8
redo_RPB004_26,barcode10,Staphylococcus argenteus,12480,5
redo_RPB004_26,barcode04,Staphylococcus aureus,5818,2
redo_RPB004_26,barcode04,Escherichia coli,185,1
redo_RPB004_26,barcode08,Staphylococcus aureus,137103,24
redo_RPB004_26,barcode08,Shewanella sp. FDAARGOS_354,2779,1
redo_RPB004_26,barcode08,Cutibacterium acnes,3703,1
redo_RPB004_26,barcode08,Escherichia coli,7512,2
redo_RPB004_26,barcode08,Corynebacterium kroppenstedtii,15532,3
redo_RPB004_26,unclassified,Staphylococcus phage 23MRA,11404,4
redo_RPB004_26,unclassified,Proteus phage VB_PmiS-Isfahan,4046,1
redo_RPB004_26,barcode09,Proteus phage VB_PmiS-Isfahan,288,1
redo_RPB004_26,barcode11,Staphylococcus virus 71,2482,1
redo_RPB004_26,barcode11,Staphylococcus prophage phiPV83,4078,3
redo_RPB004_26,barcode11,Staphylococcus phage 23MRA,361979,126
redo_RPB004_26,barcode11,Staphylococcus phage tp310-3,5074,2
redo_RPB004_26,barcode10,Staphylococcus phage 23MRA,1264,1
redo_RPB004_26,barcode08,Human endogenous retrovirus K,3340,1
redo_RPB004_26,barcode08,Proteus phage VB_PmiS-Isfahan,294,1
