sample_ID	guuid	barcode	human bases	human reads	bacterial bases	bacterial reads	viral bases	viral reads	total bases	total reads
redo_RPB004_16	5da6a1e55f87b0a870d06910	barcode07	456412	109	3009229959	883474	1947422	558	3031170479	893075
redo_RPB004_16	5da6a1e55f87b0a870d06910	barcode11	0	0	8843	2	0	0	8843	2
redo_RPB004_16	5da6a1e55f87b0a870d06910	barcode02	199971	132	31145202	8972	20732	6	31629729	9312
redo_RPB004_16	5da6a1e55f87b0a870d06910	barcode04	1443529	974	130934114	38315	93092	24	133654091	40251
redo_RPB004_16	5da6a1e55f87b0a870d06910	unclassified	2041700	1391	100105698	33906	73926	21	105046799	38721
redo_RPB004_16	5da6a1e55f87b0a870d06910	barcode05	195314	48	902190864	223367	624249	145	907229038	226382
redo_RPB004_16	5da6a1e55f87b0a870d06910	barcode09	0	0	23418	7	0	0	23418	7
redo_RPB004_16	5da6a1e55f87b0a870d06910	barcode08	0	0	24352	7	0	0	24352	7
redo_RPB004_16	5da6a1e55f87b0a870d06910	barcode03	0	0	24215	6	0	0	26003	8
redo_RPB004_16	5da6a1e55f87b0a870d06910	barcode12a	0	0	16040	9	0	0	16040	9
redo_RPB004_16	5da6a1e55f87b0a870d06910	barcode06	897978	496	55089207	13922	24040	8	58892359	15403
redo_RPB004_16	5da6a1e55f87b0a870d06910	barcode10	0	0	96045	26	0	0	97782	27
redo_RPB004_16	5da6a1e55f87b0a870d06910	barcode01	1261446	871	1786678	416	205	1	3426600	1692
