sample_ID	guuid	barcode	human bases	human reads	bacterial bases	bacterial reads	viral bases	viral reads	total bases	total reads
redo_RPB004_41	5da8dbc65f87b0827e7c0594	barcode11	8745	6	22519906	4316	3439	1	26353248	5165
redo_RPB004_41	5da8dbc65f87b0827e7c0594	barcode12	0	0	6042	2	0	0	6042	2
redo_RPB004_41	5da8dbc65f87b0827e7c0594	barcode07	0	0	35328	12	0	0	35581	13
redo_RPB004_41	5da8dbc65f87b0827e7c0594	barcode06	91802	40	136421951	28637	120511	32	163298112	34937
redo_RPB004_41	5da8dbc65f87b0827e7c0594	barcode04	2283442	1323	1268583	362	0	0	4107569	2553
redo_RPB004_41	5da8dbc65f87b0827e7c0594	barcode12a	0	0	34413	12	0	0	34413	12
redo_RPB004_41	5da8dbc65f87b0827e7c0594	barcode05	75683	41	44112544	8279	49562	11	52835322	10116
redo_RPB004_41	5da8dbc65f87b0827e7c0594	unclassified	398047	320	135368124	47792	116568	38	141546217	53293
redo_RPB004_41	5da8dbc65f87b0827e7c0594	barcode09	139047	57	22258207	4230	19048	4	28294459	5503
redo_RPB004_41	5da8dbc65f87b0827e7c0594	barcode10	58092	39	95945646	22502	115090	31	116660246	28067
redo_RPB004_41	5da8dbc65f87b0827e7c0594	barcode03	0	0	56976	17	0	0	57314	18
redo_RPB004_41	5da8dbc65f87b0827e7c0594	barcode01	14252	14	104229517	22895	6444	2	105278846	23241
redo_RPB004_41	5da8dbc65f87b0827e7c0594	barcode02	558082	180	5946012293	1878996	3371065	1106	5973646341	1896716
redo_RPB004_41	5da8dbc65f87b0827e7c0594	barcode08	0	0	16186271	3145	20885	4	19752742	3913
