Run_name,Barcode,Taxid,Bases,Reads
redo_RPB004_42,barcode09,Escherichia coli,32838248,6971
redo_RPB004_42,barcode09,Bacillus subtilis,29569984,6389
redo_RPB004_42,barcode04,Escherichia coli,2606986,525
redo_RPB004_42,barcode04,Bacillus subtilis,2001098,410
redo_RPB004_42,barcode12a,Streptococcus dysgalactiae,30028,8
redo_RPB004_42,barcode12,Bacillus subtilis,4784,1
redo_RPB004_42,barcode05,Escherichia coli,3879244,724
redo_RPB004_42,barcode05,Bacillus subtilis,4020898,704
redo_RPB004_42,barcode01,Escherichia coli,1252635,216
redo_RPB004_42,barcode01,Bacillus subtilis,808850,140
redo_RPB004_42,barcode02,Escherichia coli,13124594,2678
redo_RPB004_42,barcode02,Bacillus subtilis,12153151,2383
redo_RPB004_42,barcode10,Escherichia coli,29116,7
redo_RPB004_42,barcode10,Bacillus subtilis,35851,10
redo_RPB004_42,barcode10,Streptococcus dysgalactiae,48589,12
redo_RPB004_42,barcode22,Streptococcus dysgalactiae,391,1
redo_RPB004_42,barcode08,Streptococcus dysgalactiae,8566,2
redo_RPB004_42,barcode08,Streptococcus agalactiae,3874,1
redo_RPB004_42,barcode08,Bacillus subtilis,2649,1
redo_RPB004_42,barcode11,Streptococcus dysgalactiae,19083,4
redo_RPB004_42,barcode07,Streptococcus dysgalactiae,4431883295,1052226
redo_RPB004_42,unclassified,Streptococcus dysgalactiae,87123241,23569
redo_RPB004_42,barcode06,Streptococcus dysgalactiae,112383859,27126
redo_RPB004_42,barcode03,Streptococcus dysgalactiae,3716,1
redo_RPB004_42,barcode03,Streptococcus pyogenes,5375,1
redo_RPB004_42,barcode09,Escherichia virus Mu,44640,10
redo_RPB004_42,barcode04,Escherichia virus Mu,2871,1
redo_RPB004_42,barcode05,Streptococcus phage phiNJ2,3669,1
redo_RPB004_42,barcode02,Shigella virus SfMu,4219,1
redo_RPB004_42,barcode02,Escherichia virus Mu,10222,2
redo_RPB004_42,barcode02,Escherichia virus T7,2574,2
redo_RPB004_42,barcode07,Streptococcus phage A25,55293249,13050
redo_RPB004_42,unclassified,Streptococcus phage A25,1136099,301
redo_RPB004_42,barcode06,Streptococcus phage A25,1448744,340
