Run_name,Barcode,Taxid,Bases,Reads
redo_RPB004_5,barcode01,Cutibacterium acnes,9617,3
redo_RPB004_5,barcode12a,Cutibacterium acnes,278,1
redo_RPB004_5,barcode11,Escherichia coli,377174,117
redo_RPB004_5,barcode11,Acinetobacter schindleri,3257,1
redo_RPB004_5,barcode11,Proteus mirabilis,10025,3
redo_RPB004_5,barcode11,Bacillus mycoides,74790,29
redo_RPB004_5,barcode11,Streptomyces sp. SirexAA-E,5717,1
redo_RPB004_5,barcode11,Chlamydia suis,3856,1
redo_RPB004_5,barcode11,Propionibacterium freudenreichii,1567,1
redo_RPB004_5,barcode11,Pseudomonas putida,16902,5
redo_RPB004_5,barcode11,Pseudomonas aeruginosa,3915,1
redo_RPB004_5,barcode11,Acinetobacter ursingii,7131,2
redo_RPB004_5,barcode11,Zymomonas mobilis,24634,11
redo_RPB004_5,barcode11,Escherichia marmotae,4285,2
redo_RPB004_5,barcode11,Shigella sonnei,3007,1
redo_RPB004_5,barcode11,Acinetobacter johnsonii,276324,72
redo_RPB004_5,barcode11,Salmonella enterica,11792,2
redo_RPB004_5,barcode11,Paenibacillus xylanexedens,6166,1
redo_RPB004_5,barcode11,Acinetobacter baumannii,4977,1
redo_RPB004_5,barcode11,Propionibacterium sp. oral taxon 193,12206,4
redo_RPB004_5,barcode11,Shewanella sp. FDAARGOS_354,8969,3
redo_RPB004_5,barcode11,Leuconostoc lactis,6210,1
redo_RPB004_5,barcode11,Magnetospirillum magneticum,3601,1
redo_RPB004_5,barcode11,Klebsiella pneumoniae,2995,1
redo_RPB004_5,barcode11,Shigella boydii,8644,4
redo_RPB004_5,barcode11,Pseudomonas sp. phDV1,10893,4
redo_RPB004_5,barcode11,Bacillus subtilis,1427833,407
redo_RPB004_5,barcode11,Shigella dysenteriae,2378,1
redo_RPB004_5,barcode11,Cutibacterium acnes,57199724,16246
redo_RPB004_5,barcode11,Luteimonas sp. Gr-4,4077,1
redo_RPB004_5,barcode11,Geobacillus sp. E263,6238,1
redo_RPB004_5,barcode11,Burkholderia cepacia,3911,1
redo_RPB004_5,barcode11,Agrobacterium fabrum,2834,1
redo_RPB004_5,barcode11,Shigella flexneri,8595,3
redo_RPB004_5,barcode10,Peptoclostridium acidaminophilum,918,1
redo_RPB004_5,barcode10,Aeromonas hydrophila,437,1
redo_RPB004_5,barcode10,Acidipropionibacterium jensenii,134,1
redo_RPB004_5,barcode10,Acinetobacter ursingii,7051,4
redo_RPB004_5,barcode10,Propionibacterium australiense,1072,2
redo_RPB004_5,barcode10,Staphylococcus epidermidis,123816,30
redo_RPB004_5,barcode10,Acinetobacter junii,2999,1
redo_RPB004_5,barcode10,Desulfovibrio fairfieldensis,4418,1
redo_RPB004_5,barcode10,Bacillus mycoides,526761,182
redo_RPB004_5,barcode10,Pediococcus acidilactici,20159,4
redo_RPB004_5,barcode10,Acinetobacter radioresistens,35866,11
redo_RPB004_5,barcode10,Pseudomonas stutzeri,24658,8
redo_RPB004_5,barcode10,Dolosigranulum pigrum,5017,1
redo_RPB004_5,barcode10,Propionibacterium freudenreichii,6248,2
redo_RPB004_5,barcode10,Bifidobacterium catenulatum,2621,1
redo_RPB004_5,barcode10,Zymomonas mobilis,206702,72
redo_RPB004_5,barcode10,Escherichia marmotae,10400,3
redo_RPB004_5,barcode10,Nocardiopsis gilva,305,1
redo_RPB004_5,barcode10,Bifidobacterium bifidum,314,1
redo_RPB004_5,barcode10,Salmonella enterica,3648,2
redo_RPB004_5,barcode10,Tessaracoccus flavescens,4153,2
redo_RPB004_5,barcode10,Acinetobacter indicus,2397,1
redo_RPB004_5,barcode10,Aerococcus viridans,10075,2
redo_RPB004_5,barcode10,Sulfuricella denitrificans,3223,1
redo_RPB004_5,barcode10,Chloroflexus aggregans,3457,1
redo_RPB004_5,barcode10,Proteus mirabilis,14401,5
redo_RPB004_5,barcode10,Pseudomonas sp. phDV1,3492,1
redo_RPB004_5,barcode10,Acinetobacter sp. WCHAc010052,4622,1
redo_RPB004_5,barcode10,Streptococcus pneumoniae,4065,1
redo_RPB004_5,barcode10,Acinetobacter sp. ACNIH1,151858,34
redo_RPB004_5,barcode10,Propionibacterium sp. oral taxon 193,355470,110
redo_RPB004_5,barcode10,Flavobacterium psychrophilum,5072,1
redo_RPB004_5,barcode10,Micropruina glycogenica,1760,1
redo_RPB004_5,barcode10,Azospirillum lipoferum,4248,2
redo_RPB004_5,barcode10,Flavobacterium gilvum,9218,3
redo_RPB004_5,barcode10,Chlamydia suis,5107,2
redo_RPB004_5,barcode10,Marinilactibacillus sp. 15R,8472,2
redo_RPB004_5,barcode10,Mobiluncus curtisii,2446,1
redo_RPB004_5,barcode10,Escherichia coli,2431517,779
redo_RPB004_5,barcode10,Acinetobacter baumannii,64897,23
redo_RPB004_5,barcode10,Streptococcus sp. ChDC B345,37893,10
redo_RPB004_5,barcode10,Shigella boydii,62723,25
redo_RPB004_5,barcode10,Corynebacterium striatum,1671,1
redo_RPB004_5,barcode10,Streptococcus mitis,101447,26
redo_RPB004_5,barcode10,Staphylococcus hominis,6920,4
redo_RPB004_5,barcode10,Pseudomonas aeruginosa,35079,9
redo_RPB004_5,barcode10,Acidipropionibacterium acidipropionici,3849,1
redo_RPB004_5,barcode10,Acinetobacter johnsonii,177134,70
redo_RPB004_5,barcode10,Escherichia albertii,7056,3
redo_RPB004_5,barcode10,Heliobacterium modesticaldum,3026,1
redo_RPB004_5,barcode10,Shewanella sp. FDAARGOS_354,245110,76
redo_RPB004_5,barcode10,Flavobacterium indicum,157148,31
redo_RPB004_5,barcode10,Acinetobacter wuhouensis,3006,1
redo_RPB004_5,barcode10,Bifidobacterium breve,2546,1
redo_RPB004_5,barcode10,Gordonia sp. YC-JH1,2332,1
redo_RPB004_5,barcode10,Acinetobacter tandoii,5005,2
redo_RPB004_5,barcode10,Gramella sp. SH35,2150,1
redo_RPB004_5,barcode10,Pseudomonas mendocina,52028,19
redo_RPB004_5,barcode10,Tessaracoccus sp. T2.5-30,2115,1
redo_RPB004_5,barcode10,Comamonas kerstersii,2042,1
redo_RPB004_5,barcode10,Bosea sp. PAMC 26642,3054,1
redo_RPB004_5,barcode10,Acinetobacter sp. SWBY1,17750,6
redo_RPB004_5,barcode10,Cutibacterium avidum,22705,13
redo_RPB004_5,barcode10,Bacillus subtilis,8509378,2579
redo_RPB004_5,barcode10,Shigella dysenteriae,2400,2
redo_RPB004_5,barcode10,Cutibacterium acnes,1746137668,515442
redo_RPB004_5,barcode10,Paraburkholderia fungorum,8859,2
redo_RPB004_5,barcode10,Shigella flexneri,12480,4
redo_RPB004_5,barcode10,Trueperella pyogenes,250,1
redo_RPB004_5,barcode10,Acinetobacter sp. TTH0-4,2924,1
redo_RPB004_5,barcode10,Cutibacterium granulosum,6999,3
redo_RPB004_5,barcode05,Shewanella oneidensis,26146,8
redo_RPB004_5,barcode05,Escherichia coli,410469,122
redo_RPB004_5,barcode05,Acinetobacter baumannii,42491,10
redo_RPB004_5,barcode05,Shigella boydii,8930,2
redo_RPB004_5,barcode05,Bacillus mycoides,66519,23
redo_RPB004_5,barcode05,Streptococcus mitis,1131,1
redo_RPB004_5,barcode05,Pseudomonas putida,72168,15
redo_RPB004_5,barcode05,Tumebacillus algifaecis,3106,1
redo_RPB004_5,barcode05,Acinetobacter ursingii,12783,3
redo_RPB004_5,barcode05,Zymomonas mobilis,20471,7
redo_RPB004_5,barcode05,Escherichia marmotae,2181,1
redo_RPB004_5,barcode05,Cupriavidus metallidurans,2901,1
redo_RPB004_5,barcode05,Shewanella sp. ANA-3,313,1
redo_RPB004_5,barcode05,Acinetobacter sp. WCHA55,29356,7
redo_RPB004_5,barcode05,Klebsiella pneumoniae,3749,1
redo_RPB004_5,barcode05,Moraxella osloensis,17367,5
redo_RPB004_5,barcode05,Acinetobacter johnsonii,167662,41
redo_RPB004_5,barcode05,Rubrobacter xylanophilus,13341,3
redo_RPB004_5,barcode05,Klebsiella michiganensis,4096,1
redo_RPB004_5,barcode05,Bacillus subtilis,1463121,407
redo_RPB004_5,barcode05,Cutibacterium acnes,92698,21
redo_RPB004_5,barcode05,Staphylococcus aureus,5944,2
redo_RPB004_5,barcode05,Burkholderia cepacia,2308,1
redo_RPB004_5,barcode05,Clavibacter michiganensis subsp. capsici,2189,1
redo_RPB004_5,barcode04,Acinetobacter ursingii,4246,1
redo_RPB004_5,barcode04,Pseudomonas sp. ATCC 13867,41486,13
redo_RPB004_5,barcode04,Staphylococcus epidermidis,7761,4
redo_RPB004_5,barcode04,Mesorhizobium oceanicum,2627,1
redo_RPB004_5,barcode04,Bacillus mycoides,299944,104
redo_RPB004_5,barcode04,Stenotrophomonas sp. KCTC 12332,48950,11
redo_RPB004_5,barcode04,Propionibacterium freudenreichii,4324,2
redo_RPB004_5,barcode04,Klebsiella pneumoniae,80486,27
redo_RPB004_5,barcode04,Acinetobacter sp. ACNIH2,3010,1
redo_RPB004_5,barcode04,Escherichia marmotae,14714,5
redo_RPB004_5,barcode04,Pseudoxanthomonas suwonensis,8917,2
redo_RPB004_5,barcode04,Acinetobacter schindleri,4187,1
redo_RPB004_5,barcode04,Stenotrophomonas nitritireducens,26626,6
redo_RPB004_5,barcode04,Salmonella enterica,10367,4
redo_RPB004_5,barcode04,Rhodopseudomonas palustris,4454,1
redo_RPB004_5,barcode04,Citrobacter koseri,2216,1
redo_RPB004_5,barcode04,Acinetobacter indicus,1635,1
redo_RPB004_5,barcode04,Sphaerobacter thermophilus,4492,1
redo_RPB004_5,barcode04,Rubrobacter xylanophilus,5750,3
redo_RPB004_5,barcode04,Candidatus Mycoplasma haemolamae,8808,2
redo_RPB004_5,barcode04,Klebsiella michiganensis,1773,1
redo_RPB004_5,barcode04,Gemmatirosa kalamazoonesis,7137,2
redo_RPB004_5,barcode04,Serratia sp. YD25,935,1
redo_RPB004_5,barcode04,Acinetobacter sp. WCHAc010034,4353,1
redo_RPB004_5,barcode04,Sphingobium yanoikuyae,2188,1
redo_RPB004_5,barcode04,Acidovorax sp. RAC01,3370,1
redo_RPB004_5,barcode04,Rubrobacter indicoceani,5072,2
redo_RPB004_5,barcode04,Shigella flexneri,5811,2
redo_RPB004_5,barcode04,Escherichia coli,1262027,411
redo_RPB004_5,barcode04,Acinetobacter baumannii,232815,62
redo_RPB004_5,barcode04,Shigella boydii,38158,12
redo_RPB004_5,barcode04,Aeromonas sp. ASNIH2,328,1
redo_RPB004_5,barcode04,Citrobacter freundii,22310,6
redo_RPB004_5,barcode04,Chlamydia suis,1295,1
redo_RPB004_5,barcode04,Acinetobacter calcoaceticus,65114,14
redo_RPB004_5,barcode04,Pseudomonas putida,3633,2
redo_RPB004_5,barcode04,Rubrobacter radiotolerans,10938,4
redo_RPB004_5,barcode04,Acinetobacter haemolyticus,6465,1
redo_RPB004_5,barcode04,Acinetobacter johnsonii,443726,115
redo_RPB004_5,barcode04,Acinetobacter sp. TGL-Y2,23916,8
redo_RPB004_5,barcode04,Escherichia albertii,2483,1
redo_RPB004_5,barcode04,Shewanella sp. FDAARGOS_354,9153,5
redo_RPB004_5,barcode04,Spirosoma montaniterrae,7310,3
redo_RPB004_5,barcode04,Comamonas kerstersii,56375,10
redo_RPB004_5,barcode04,Winogradskyella sp. PG-2,1882,1
redo_RPB004_5,barcode04,Pseudomonas aeruginosa,7813,2
redo_RPB004_5,barcode04,Bacillus subtilis,4151474,1250
redo_RPB004_5,barcode04,Shigella dysenteriae,3010,1
redo_RPB004_5,barcode04,Cutibacterium acnes,571159,138
redo_RPB004_5,barcode04,Mycoplasma mycoides,2371,1
redo_RPB004_5,barcode04,Zymomonas mobilis,145105,52
redo_RPB004_5,unclassified,Escherichia coli,91714,41
redo_RPB004_5,unclassified,Acinetobacter baumannii,7146,2
redo_RPB004_5,unclassified,Staphylococcus epidermidis,314,1
redo_RPB004_5,unclassified,Shigella boydii,6392,2
redo_RPB004_5,unclassified,Bacillus mycoides,23128,10
redo_RPB004_5,unclassified,Streptococcus mitis,4134,1
redo_RPB004_5,unclassified,Dolosigranulum pigrum,195,1
redo_RPB004_5,unclassified,Klebsiella pneumoniae,3798,1
redo_RPB004_5,unclassified,Zymomonas mobilis,14157,5
redo_RPB004_5,unclassified,Amycolatopsis orientalis,168,1
redo_RPB004_5,unclassified,Acinetobacter johnsonii,30091,10
redo_RPB004_5,unclassified,Acinetobacter sp. WCHA55,2052,1
redo_RPB004_5,unclassified,Propionibacterium sp. oral taxon 193,1943,4
redo_RPB004_5,unclassified,Shewanella sp. FDAARGOS_354,360,1
redo_RPB004_5,unclassified,Flavobacterium indicum,4438,1
redo_RPB004_5,unclassified,Enterobacter bugandensis,169,1
redo_RPB004_5,unclassified,Cutibacterium avidum,292,1
redo_RPB004_5,unclassified,Klebsiella michiganensis,1016,1
redo_RPB004_5,unclassified,Pseudomonas sp. phDV1,1915,3
redo_RPB004_5,unclassified,Bacillus subtilis,225734,83
redo_RPB004_5,unclassified,Acinetobacter sp. ACNIH1,8249,2
redo_RPB004_5,unclassified,Acinetobacter sp. WCHAc010034,3490,1
redo_RPB004_5,unclassified,Cutibacterium acnes,25674208,10883
redo_RPB004_5,unclassified,Verrucosispora maris,195,1
redo_RPB004_5,unclassified,Zymobacter palmae,265,1
redo_RPB004_5,barcode02,Vibrio cholerae,73372,23
redo_RPB004_5,barcode02,Flavobacterium columnare,23188,5
redo_RPB004_5,barcode02,Staphylococcus epidermidis,1698,1
redo_RPB004_5,barcode02,Leptotrichia sp. oral taxon 498,5606,2
redo_RPB004_5,barcode02,Achromobacter denitrificans,1482,1
redo_RPB004_5,barcode02,Bacillus mycoides,229062,85
redo_RPB004_5,barcode02,Enterobacter hormaechei,21128,7
redo_RPB004_5,barcode02,Thermoanaerobacterium thermosaccharolyticum,4630,1
redo_RPB004_5,barcode02,Pseudomonas stutzeri,6447,1
redo_RPB004_5,barcode02,Propionibacterium freudenreichii,3652,1
redo_RPB004_5,barcode02,Klebsiella pneumoniae,8292,2
redo_RPB004_5,barcode02,Zymomonas mobilis,120280,43
redo_RPB004_5,barcode02,Proteus mirabilis,12537,3
redo_RPB004_5,barcode02,Bradyrhizobium sp. ORS 278,3487,1
redo_RPB004_5,barcode02,Acinetobacter indicus,64130,18
redo_RPB004_5,barcode02,Cellvibrio japonicus,23265,5
redo_RPB004_5,barcode02,Acinetobacter sp. NCu2D-2,27003,5
redo_RPB004_5,barcode02,Enterobacter cloacae,16366,5
redo_RPB004_5,barcode02,Snodgrassella alvi,5939,2
redo_RPB004_5,barcode02,Leisingera aquaemixtae,3139,1
redo_RPB004_5,barcode02,Klebsiella michiganensis,5405,2
redo_RPB004_5,barcode02,Yersinia aldovae,1872,1
redo_RPB004_5,barcode02,Acinetobacter sp. ACNIH1,15729,3
redo_RPB004_5,barcode02,Serratia sp. YD25,1591,2
redo_RPB004_5,barcode02,Shewanella bicestrii,1451,1
redo_RPB004_5,barcode02,Pseudomonas fluorescens,6651,1
redo_RPB004_5,barcode02,Shigella flexneri,2173,2
redo_RPB004_5,barcode02,Mesorhizobium opportunistum,3049,1
redo_RPB004_5,barcode02,Pseudomonas entomophila,6481,1
redo_RPB004_5,barcode02,Escherichia coli,1222371,385
redo_RPB004_5,barcode02,Acinetobacter baumannii,169952,43
redo_RPB004_5,barcode02,Shigella boydii,36438,13
redo_RPB004_5,barcode02,Chlamydia suis,3746,1
redo_RPB004_5,barcode02,Pseudomonas putida,2146,1
redo_RPB004_5,barcode02,Pseudomonas aeruginosa,25616,8
redo_RPB004_5,barcode02,Acinetobacter haemolyticus,8924,4
redo_RPB004_5,barcode02,Vibrio nigripulchritudo,9525,2
redo_RPB004_5,barcode02,Acinetobacter johnsonii,587981,182
redo_RPB004_5,barcode02,Acinetobacter sp. WCHA55,2660,1
redo_RPB004_5,barcode02,Pseudoalteromonas rubra,5571,1
redo_RPB004_5,barcode02,Chelatococcus sp. CO-6,3088,1
redo_RPB004_5,barcode02,Aquimarina sp. BL5,26460,6
redo_RPB004_5,barcode02,Acinetobacter sp. SWBY1,2958,1
redo_RPB004_5,barcode02,Acidovorax sp. JS42,2237,1
redo_RPB004_5,barcode02,Bacillus subtilis,3888116,1185
redo_RPB004_5,barcode02,Shigella dysenteriae,4268,2
redo_RPB004_5,barcode02,Cutibacterium acnes,372679,103
redo_RPB004_5,barcode02,Mycoplasma mycoides,1456,1
redo_RPB004_5,barcode02,Pseudarthrobacter sulfonivorans,3417,1
redo_RPB004_5,barcode11,Escherichia virus Mu,4249,1
redo_RPB004_5,barcode11,Escherichia virus T7,12032,4
redo_RPB004_5,barcode11,Proteus phage VB_PmiS-Isfahan,533,3
redo_RPB004_5,barcode10,Staphylococcus phage StB20-like,5381,2
redo_RPB004_5,barcode10,Escherichia virus Mu,42706,13
redo_RPB004_5,barcode10,Escherichia virus T7,21847,7
redo_RPB004_5,barcode10,Shigella virus SfMu,2283,1
redo_RPB004_5,barcode10,Staphylococcus phage StB20,2720,1
redo_RPB004_5,barcode05,Escherichia virus Lambda,44772,12
redo_RPB004_5,barcode05,Escherichia virus Mu,1739,1
redo_RPB004_5,barcode05,Escherichia virus T7,602,2
redo_RPB004_5,barcode04,Shigella virus SfMu,3137,1
redo_RPB004_5,barcode04,Escherichia virus Mu,6425,2
redo_RPB004_5,barcode04,Escherichia virus T7,456,1
redo_RPB004_5,barcode04,Aeromonas phage PX29,4400,1
redo_RPB004_5,barcode04,Escherichia phage D108,2171,1
redo_RPB004_5,barcode02,Escherichia virus Mu,13493,4
redo_RPB004_5,barcode02,Escherichia virus T7,50324,15
