sample,barcode,Species name,chrom,len,covBread_1x_percent,avCov,x1,x5,x10
redo_RPB004_40,barcode01,Cutibacterium acnes,NC_006085_1,2560265.0,0.1733804899,1.0,4439.0,0.0,0.0
redo_RPB004_40,barcode01,Escherichia coli,NC_000913_3,4641652.0,1.4205933577,1.0874899528,65939.0,0.0,0.0
redo_RPB004_40,barcode01,Staphylococcus aureus,NC_007795_1,2821361.0,6.5288702864,1.1925050081,184203.0,0.0,0.0
redo_RPB004_40,barcode02,Acinetobacter baumannii,NZ_CP009257_1,4335793.0,0.0178975334,1.0,776.0,0.0,0.0
redo_RPB004_40,barcode02,Bacillus anthracis,NC_003997_3,5227293.0,0.0849005403,1.0,4438.0,0.0,0.0
redo_RPB004_40,barcode02,Bacillus cereus,NC_004722_1,5411809.0,0.0942014029,1.7283248333,5098.0,0.0,0.0
redo_RPB004_40,barcode02,Bacillus cereus,NC_004721_2,15274.0,0.0,0.0,0.0,0.0,0.0
redo_RPB004_40,barcode02,Bacillus litoralis,NZ_CP033043_1,5230624.0,0.0368024924,1.0,1925.0,0.0,0.0
redo_RPB004_40,barcode02,Bacillus subtilis,NC_000964_3,4215606.0,0.0463753017,1.0,1955.0,0.0,0.0
redo_RPB004_40,barcode02,Bacillus thuringiensis,NC_022873_1,6002284.0,0.0610934104,1.0,3667.0,0.0,0.0
redo_RPB004_40,barcode02,Bacillus thuringiensis,NC_020124_1,17706.0,0.0,0.0,0.0,0.0,0.0
redo_RPB004_40,barcode02,Bacillus thuringiensis,NC_022874_1,45206.0,0.0,0.0,0.0,0.0,0.0
redo_RPB004_40,barcode02,Bacillus thuringiensis,NC_022875_1,49195.0,0.0,0.0,0.0,0.0,0.0
redo_RPB004_40,barcode02,Bacillus thuringiensis,NC_022876_1,146276.0,0.0,0.0,0.0,0.0,0.0
redo_RPB004_40,barcode02,Bacillus thuringiensis,NC_022877_1,171593.0,0.0,0.0,0.0,0.0,0.0
redo_RPB004_40,barcode02,Bacillus thuringiensis,NC_022882_1,240661.0,0.0,0.0,0.0,0.0,0.0
redo_RPB004_40,barcode02,Brevibacillus brevis,NC_012491_1,6296436.0,0.0237912368,1.0,1498.0,0.0,0.0
redo_RPB004_40,barcode02,Brochothrix thermosphacta,NZ_CP023483_1,2647794.0,0.0129164127,1.0,342.0,0.0,0.0
redo_RPB004_40,barcode02,Caminibacter mediatlanticus,NZ_CP040463_1,1685887.0,0.0929481039,1.0,1567.0,0.0,0.0
redo_RPB004_40,barcode02,Citrobacter freundii,NZ_CP007557_1,5099034.0,0.0482444322,1.0,2460.0,0.0,0.0
redo_RPB004_40,barcode02,Citrobacter freundii,NZ_CP007558_1,272297.0,0.0,0.0,0.0,0.0,0.0
redo_RPB004_40,barcode02,Citrobacter youngae,NZ_CP021963_1,4945156.0,0.118358248,1.0,5853.0,0.0,0.0
redo_RPB004_40,barcode02,Enterobacter roggenkampii,NZ_CP017184_1,4748414.0,0.0229339733,1.0,1089.0,0.0,0.0
redo_RPB004_40,barcode02,Enterobacter roggenkampii,NZ_CP017185_1,151583.0,0.0,0.0,0.0,0.0,0.0
redo_RPB004_40,barcode02,Enterobacter sp. SA187,NZ_CP019113_1,4429597.0,0.1240067663,1.0,5493.0,0.0,0.0
redo_RPB004_40,barcode02,Enterococcus durans,NZ_CP012366_1,2867028.0,0.0309030815,1.0,886.0,0.0,0.0
redo_RPB004_40,barcode02,Enterococcus durans,NZ_CP012367_1,163286.0,0.0,0.0,0.0,0.0,0.0
redo_RPB004_40,barcode02,Enterococcus durans,NZ_CP012368_1,41490.0,0.0,0.0,0.0,0.0,0.0
redo_RPB004_40,barcode02,Erwinia pyrifoliae,NC_012214_1,4026322.0,0.130317446,1.0,5247.0,0.0,0.0
redo_RPB004_40,barcode02,Erwinia pyrifoliae,NC_013264_1,3070.0,0.0,0.0,0.0,0.0,0.0
redo_RPB004_40,barcode02,Erwinia pyrifoliae,NC_013265_1,4955.0,0.0,0.0,0.0,0.0,0.0
redo_RPB004_40,barcode02,Erwinia pyrifoliae,NC_013954_1,2590.0,0.0,0.0,0.0,0.0,0.0
redo_RPB004_40,barcode02,Erwinia pyrifoliae,NC_013263_1,35909.0,0.0,0.0,0.0,0.0,0.0
redo_RPB004_40,barcode02,Escherichia albertii,NZ_CP007025_1,4701875.0,0.3542841951,1.1720494657,16658.0,0.0,0.0
redo_RPB004_40,barcode02,Escherichia coli,NC_000913_3,4641652.0,14.6311054771,2.510445058,679125.0,80948.0,12364.0
redo_RPB004_40,barcode02,Escherichia virus Mu,NC_000929_1,36717.0,5.4062151047,1.0,1985.0,0.0,0.0
redo_RPB004_40,barcode02,Exiguobacterium sp. AT1b,NC_012673_1,2999895.0,0.1007368591,1.0,3022.0,0.0,0.0
redo_RPB004_40,barcode02,Jeotgalibacillus malaysiensis,NZ_CP009416_1,3516439.0,0.060942334,1.0,2143.0,0.0,0.0
redo_RPB004_40,barcode02,Jeotgalibacillus malaysiensis,NZ_CP009417_1,603070.0,0.0,0.0,0.0,0.0,0.0
redo_RPB004_40,barcode02,Lactobacillus bombi,NZ_CP031513_1,1842084.0,0.1042297745,1.0,1920.0,0.0,0.0
redo_RPB004_40,barcode02,Lelliottia sp. WB101,NZ_CP028520_1,4607442.0,0.1162901237,1.0,5358.0,0.0,0.0
redo_RPB004_40,barcode02,Lelliottia sp. WB101,NZ_CP028521_1,126628.0,0.0,0.0,0.0,0.0,0.0
redo_RPB004_40,barcode02,Planococcus sp. MB-3u-03,NZ_CP025135_1,3378540.0,0.0433027284,1.0,1463.0,0.0,0.0
redo_RPB004_40,barcode02,Planococcus sp. MB-3u-03,NZ_CP025124_1,70808.0,0.0,0.0,0.0,0.0,0.0
redo_RPB004_40,barcode02,Planococcus sp. MB-3u-03,NZ_CP025133_1,1329.0,0.0,0.0,0.0,0.0,0.0
redo_RPB004_40,barcode02,Planococcus sp. MB-3u-03,NZ_CP025134_1,1226.0,0.0,0.0,0.0,0.0,0.0
redo_RPB004_40,barcode02,Planococcus sp. MB-3u-03,NZ_CP025123_1,129321.0,0.0,0.0,0.0,0.0,0.0
redo_RPB004_40,barcode02,Planococcus sp. MB-3u-03,NZ_CP025125_1,7275.0,0.0,0.0,0.0,0.0,0.0
redo_RPB004_40,barcode02,Planococcus sp. MB-3u-03,NZ_CP025126_1,7049.0,0.0,0.0,0.0,0.0,0.0
redo_RPB004_40,barcode02,Planococcus sp. MB-3u-03,NZ_CP025127_1,6800.0,0.0,0.0,0.0,0.0,0.0
redo_RPB004_40,barcode02,Planococcus sp. MB-3u-03,NZ_CP025130_1,1636.0,0.0,0.0,0.0,0.0,0.0
redo_RPB004_40,barcode02,Planococcus sp. MB-3u-03,NZ_CP025128_1,5115.0,0.0,0.0,0.0,0.0,0.0
redo_RPB004_40,barcode02,Planococcus sp. MB-3u-03,NZ_CP025129_1,2168.0,0.0,0.0,0.0,0.0,0.0
redo_RPB004_40,barcode02,Planococcus sp. MB-3u-03,NZ_CP025131_1,1598.0,0.0,0.0,0.0,0.0,0.0
redo_RPB004_40,barcode02,Planococcus sp. MB-3u-03,NZ_CP025132_1,1566.0,0.0,0.0,0.0,0.0,0.0
redo_RPB004_40,barcode02,Pseudomonas sp. TKP,NC_023064_1,7012672.0,0.0326979502,1.0,2293.0,0.0,0.0
redo_RPB004_40,barcode02,Salinicoccus halodurans,NZ_CP011366_1,2778379.0,0.0185719803,1.0,516.0,0.0,0.0
redo_RPB004_40,barcode02,Shigella dysenteriae,NC_007606_1,4369232.0,0.5885244821,1.0,25714.0,0.0,0.0
redo_RPB004_40,barcode02,Shigella dysenteriae,NC_009344_1,8953.0,0.0,0.0,0.0,0.0,0.0
redo_RPB004_40,barcode02,Shigella dysenteriae,NC_007607_1,182726.0,0.0,0.0,0.0,0.0,0.0
redo_RPB004_40,barcode02,Shigella flexneri,NC_004337_2,4607202.0,0.2545579725,1.0,11728.0,0.0,0.0
redo_RPB004_40,barcode02,Shigella flexneri,NC_004851_1,221618.0,0.0,0.0,0.0,0.0,0.0
redo_RPB004_40,barcode02,Staphylococcus argenteus,NC_016941_1,2762785.0,1.4814761192,1.2671145859,40930.0,0.0,0.0
redo_RPB004_40,barcode02,Staphylococcus argenteus,NC_016942_1,24853.0,0.0,0.0,0.0,0.0,0.0
redo_RPB004_40,barcode02,Staphylococcus aureus,NC_007795_1,2821361.0,92.0280318612,214.7632796098,2596443.0,2579509.0,2573579.0
redo_RPB004_40,barcode02,Staphylococcus carnosus,NC_012121_1,2566424.0,0.1086726122,1.0,2789.0,0.0,0.0
redo_RPB004_40,barcode02,Staphylococcus cohnii,NZ_CP027422_1,2557319.0,0.1562182895,1.0,3995.0,0.0,0.0
redo_RPB004_40,barcode02,Staphylococcus cohnii,NZ_CP027420_1,36910.0,1.3031698727,1.0,481.0,0.0,0.0
redo_RPB004_40,barcode02,Staphylococcus cohnii,NZ_CP027419_1,32058.0,9.0055524362,1.3779009352,2887.0,0.0,0.0
redo_RPB004_40,barcode02,Staphylococcus cohnii,NZ_CP027421_1,29852.0,0.0,0.0,0.0,0.0,0.0
redo_RPB004_40,barcode02,Staphylococcus cohnii,NZ_CP027423_1,2670.0,0.0,0.0,0.0,0.0,0.0
redo_RPB004_40,barcode02,Staphylococcus cohnii,NZ_CP027424_1,2473.0,0.0,0.0,0.0,0.0,0.0
redo_RPB004_40,barcode02,Staphylococcus delphini,NZ_LR134263_1,2798161.0,0.0473882668,1.0,1326.0,0.0,0.0
redo_RPB004_40,barcode02,Staphylococcus epidermidis,NC_004461_1,2499279.0,0.4892210914,1.6928109921,12227.0,0.0,0.0
redo_RPB004_40,barcode02,Staphylococcus epidermidis,NC_005008_1,4439.0,0.0,0.0,0.0,0.0,0.0
redo_RPB004_40,barcode02,Staphylococcus epidermidis,NC_005007_1,4679.0,0.0,0.0,0.0,0.0,0.0
redo_RPB004_40,barcode02,Staphylococcus epidermidis,NC_005006_1,8007.0,0.0,0.0,0.0,0.0,0.0
redo_RPB004_40,barcode02,Staphylococcus epidermidis,NC_005005_1,17261.0,0.0,0.0,0.0,0.0,0.0
redo_RPB004_40,barcode02,Staphylococcus epidermidis,NC_005004_1,24365.0,28.8733839524,89.5894811656,7035.0,5271.0,4653.0
redo_RPB004_40,barcode02,Staphylococcus epidermidis,NC_005003_1,6585.0,0.0,0.0,0.0,0.0,0.0
redo_RPB004_40,barcode02,Staphylococcus haemolyticus,NC_007168_1,2685015.0,0.7795114739,20.721978022,20930.0,4896.0,4622.0
redo_RPB004_40,barcode02,Staphylococcus haemolyticus,NC_007169_1,2300.0,0.0,0.0,0.0,0.0,0.0
redo_RPB004_40,barcode02,Staphylococcus haemolyticus,NC_007170_1,2366.0,0.0,0.0,0.0,0.0,0.0
redo_RPB004_40,barcode02,Staphylococcus haemolyticus,NC_007171_1,8180.0,0.0,0.0,0.0,0.0,0.0
redo_RPB004_40,barcode02,Staphylococcus hominis,NZ_CP020618_1,2253412.0,0.3137908203,1.1656059963,7071.0,0.0,0.0
redo_RPB004_40,barcode02,Staphylococcus kloosii,NZ_CP027846_1,2630191.0,0.0919705071,1.0,2419.0,0.0,0.0
redo_RPB004_40,barcode02,Staphylococcus kloosii,NZ_CP027847_1,8847.0,0.0,0.0,0.0,0.0,0.0
redo_RPB004_40,barcode02,Staphylococcus lugdunensis,NC_013893_1,2658366.0,0.8528923406,2.8463370529,22673.0,3263.0,0.0
redo_RPB004_40,barcode02,Staphylococcus lutrae,NZ_CP020773_1,2533115.0,0.0662425512,1.0,1678.0,0.0,0.0
redo_RPB004_40,barcode02,Staphylococcus phage 23MRA,NC_028775_1,43098.0,20.9824121769,28.4081610085,9043.0,7075.0,5940.0
redo_RPB004_40,barcode02,Staphylococcus phage P954,NC_013195_1,40761.0,4.111773509,1.0,1676.0,0.0,0.0
redo_RPB004_40,barcode02,Staphylococcus phage PVL,NC_002321_1,41401.0,8.2413468274,2.7315357562,3412.0,0.0,0.0
redo_RPB004_40,barcode02,Staphylococcus pseudintermedius,NC_014925_1,2617381.0,0.5646484024,5.7645984167,14779.0,3900.0,3056.0
redo_RPB004_40,barcode02,Staphylococcus saprophyticus,NC_007350_1,2516575.0,0.0406107507,1.0,1022.0,0.0,0.0
redo_RPB004_40,barcode02,Staphylococcus saprophyticus,NC_007351_1,38454.0,0.0,0.0,0.0,0.0,0.0
redo_RPB004_40,barcode02,Staphylococcus saprophyticus,NC_007352_1,22870.0,0.0,0.0,0.0,0.0,0.0
redo_RPB004_40,barcode02,Staphylococcus schleiferi,NZ_CP009470_1,2435632.0,0.0890939189,1.0,2170.0,0.0,0.0
redo_RPB004_40,barcode02,Staphylococcus schweitzeri,NZ_LR134304_1,2784939.0,1.1282832407,1.1652663739,31422.0,0.0,0.0
redo_RPB004_40,barcode02,Staphylococcus simiae,NZ_LT906460_1,2643976.0,0.5844228541,1.3198938649,15452.0,0.0,0.0
redo_RPB004_40,barcode02,Staphylococcus sp. AntiMn-1,NZ_CP012968_1,2721344.0,0.2199280944,1.0,5985.0,0.0,0.0
redo_RPB004_40,barcode02,Staphylococcus sp. AntiMn-1,NZ_CP013300_1,17052.0,0.0,0.0,0.0,0.0,0.0
redo_RPB004_40,barcode02,Staphylococcus stepanovicii,NZ_LT906462_1,2439098.0,0.1211513437,1.0,2955.0,0.0,0.0
redo_RPB004_40,barcode02,Staphylococcus xylosus,NZ_CP007208_1,2836901.0,0.1022242228,1.0,2900.0,0.0,0.0
redo_RPB004_40,barcode02,Staphylococcus xylosus,NZ_CP007209_1,30062.0,0.0,0.0,0.0,0.0,0.0
redo_RPB004_40,barcode02,Streptococcus oralis,NC_015291_1,1958690.0,0.3416569238,6.9680215182,6692.0,4248.0,2200.0
redo_RPB004_40,barcode02,Streptococcus sp. ChDC B345,NZ_CP032621_1,1972481.0,0.1605085169,1.9709412508,3166.0,0.0,0.0
redo_RPB004_40,barcode04,Cutibacterium acnes,NC_006085_1,2560265.0,0.2468885057,4.3083372884,6321.0,4280.0,0.0
redo_RPB004_40,barcode04,Enterobacter asburiae,NC_015968_1,4812833.0,0.0805970205,1.0,3879.0,0.0,0.0
redo_RPB004_40,barcode04,Enterobacter asburiae,NC_015963_1,166725.0,0.0,0.0,0.0,0.0,0.0
redo_RPB004_40,barcode04,Enterobacter asburiae,NC_015969_1,32574.0,0.0,0.0,0.0,0.0,0.0
redo_RPB004_40,barcode04,Enterobacter roggenkampii,NZ_CP017184_1,4748414.0,0.1279163948,1.0,6074.0,0.0,0.0
redo_RPB004_40,barcode04,Enterobacter roggenkampii,NZ_CP017185_1,151583.0,0.0,0.0,0.0,0.0,0.0
redo_RPB004_40,barcode04,Escherichia albertii,NZ_CP007025_1,4701875.0,0.520962382,1.1567666871,24495.0,0.0,0.0
redo_RPB004_40,barcode04,Escherichia coli,NC_000913_3,4641652.0,14.0328917377,3.3318958238,651358.0,174151.0,13045.0
redo_RPB004_40,barcode04,Escherichia fergusonii,NC_011740_1,4588711.0,0.0781047227,1.0,3584.0,0.0,0.0
redo_RPB004_40,barcode04,Escherichia fergusonii,NC_011743_1,55150.0,0.0,0.0,0.0,0.0,0.0
redo_RPB004_40,barcode04,Escherichia marmotae,NZ_CP025979_1,4671322.0,0.1126019572,1.0,5260.0,0.0,0.0
redo_RPB004_40,barcode04,Escherichia marmotae,NZ_CP025980_1,148809.0,0.0,0.0,0.0,0.0,0.0
redo_RPB004_40,barcode04,Escherichia marmotae,NZ_CP025981_1,76160.0,0.0,0.0,0.0,0.0,0.0
redo_RPB004_40,barcode04,Escherichia virus Mu,NC_000929_1,36717.0,5.3462973554,1.0,1963.0,0.0,0.0
redo_RPB004_40,barcode04,Klebsiella pneumoniae,NC_016845_1,5333942.0,0.1084001288,1.0,5782.0,0.0,0.0
redo_RPB004_40,barcode04,Klebsiella pneumoniae,NC_016838_1,122799.0,0.0,0.0,0.0,0.0,0.0
redo_RPB004_40,barcode04,Klebsiella pneumoniae,NC_016846_1,111195.0,0.0,0.0,0.0,0.0,0.0
redo_RPB004_40,barcode04,Klebsiella pneumoniae,NC_016839_1,105974.0,0.0,0.0,0.0,0.0,0.0
redo_RPB004_40,barcode04,Klebsiella pneumoniae,NC_016840_1,3751.0,0.0,0.0,0.0,0.0,0.0
redo_RPB004_40,barcode04,Klebsiella pneumoniae,NC_016847_1,3353.0,0.0,0.0,0.0,0.0,0.0
redo_RPB004_40,barcode04,Klebsiella pneumoniae,NC_016841_1,1308.0,0.0,0.0,0.0,0.0,0.0
redo_RPB004_40,barcode04,Moraxella osloensis,NZ_CP014234_1,2434688.0,0.137224975,2.7563603711,3341.0,0.0,0.0
redo_RPB004_40,barcode04,Moraxella osloensis,NZ_CP014238_1,40342.0,0.0,0.0,0.0,0.0,0.0
redo_RPB004_40,barcode04,Moraxella osloensis,NZ_CP014237_1,35189.0,0.0,0.0,0.0,0.0,0.0
redo_RPB004_40,barcode04,Moraxella osloensis,NZ_CP014236_1,57463.0,0.0,0.0,0.0,0.0,0.0
redo_RPB004_40,barcode04,Moraxella osloensis,NZ_CP014235_1,81455.0,0.0,0.0,0.0,0.0,0.0
redo_RPB004_40,barcode04,Pseudomonas sp. TKP,NC_023064_1,7012672.0,0.0572677576,2.9158366534,4016.0,0.0,0.0
redo_RPB004_40,barcode04,Salmonella enterica,NC_003197_2,4857450.0,0.1423998188,1.9350874657,6917.0,0.0,0.0
redo_RPB004_40,barcode04,Salmonella enterica,NC_003277_2,93933.0,0.0,0.0,0.0,0.0,0.0
redo_RPB004_40,barcode04,Shigella dysenteriae,NC_007606_1,4369232.0,1.0088271806,1.0564000181,44078.0,0.0,0.0
redo_RPB004_40,barcode04,Shigella dysenteriae,NC_009344_1,8953.0,0.0,0.0,0.0,0.0,0.0
redo_RPB004_40,barcode04,Shigella dysenteriae,NC_007607_1,182726.0,0.0,0.0,0.0,0.0,0.0
redo_RPB004_40,barcode04,Shigella flexneri,NC_004337_2,4607202.0,0.5083996751,1.7013192162,23423.0,0.0,0.0
redo_RPB004_40,barcode04,Shigella flexneri,NC_004851_1,221618.0,0.0,0.0,0.0,0.0,0.0
redo_RPB004_40,barcode04,Staphylococcus aureus,NC_007795_1,2821361.0,0.4779962578,1.0,13486.0,0.0,0.0
redo_RPB004_40,barcode05,Cutibacterium acnes,NC_006085_1,2560265.0,1.9581176167,2.5844852692,50133.0,8413.0,0.0
redo_RPB004_40,barcode05,Escherichia albertii,NZ_CP007025_1,4701875.0,0.262958926,1.5429472663,12364.0,0.0,0.0
redo_RPB004_40,barcode05,Escherichia coli,NC_000913_3,4641652.0,12.1215679245,3.2761210079,562641.0,146320.0,15369.0
redo_RPB004_40,barcode05,Escherichia marmotae,NZ_CP025979_1,4671322.0,0.036435082,1.0,1702.0,0.0,0.0
redo_RPB004_40,barcode05,Escherichia marmotae,NZ_CP025980_1,148809.0,0.0,0.0,0.0,0.0,0.0
redo_RPB004_40,barcode05,Escherichia marmotae,NZ_CP025981_1,76160.0,0.0,0.0,0.0,0.0,0.0
redo_RPB004_40,barcode05,Escherichia virus Mu,NC_000929_1,36717.0,5.4988152627,2.912332838,2019.0,0.0,0.0
redo_RPB004_40,barcode05,Klebsiella quasipneumoniae,NZ_CP014696_2,5284734.0,0.0722269087,1.0,3817.0,0.0,0.0
redo_RPB004_40,barcode05,Klebsiella quasipneumoniae,NZ_CP014697_2,152001.0,0.0,0.0,0.0,0.0,0.0
redo_RPB004_40,barcode05,Klebsiella quasipneumoniae,NZ_CP014698_2,77127.0,0.0,0.0,0.0,0.0,0.0
redo_RPB004_40,barcode05,Leclercia adecarboxylata,NZ_CP013990_1,4803917.0,0.0915294748,1.0,4397.0,0.0,0.0
redo_RPB004_40,barcode05,Massilia oculi,NZ_CP029343_1,5844653.0,0.0478214874,1.0,2795.0,0.0,0.0
redo_RPB004_40,barcode05,Shigella dysenteriae,NC_007606_1,4369232.0,0.5965350432,1.0,26064.0,0.0,0.0
redo_RPB004_40,barcode05,Shigella dysenteriae,NC_009344_1,8953.0,0.0,0.0,0.0,0.0,0.0
redo_RPB004_40,barcode05,Shigella dysenteriae,NC_007607_1,182726.0,0.2243796723,1.0,410.0,0.0,0.0
redo_RPB004_40,barcode05,Shigella flexneri,NC_004337_2,4607202.0,0.6327050561,1.2599313894,29150.0,0.0,0.0
redo_RPB004_40,barcode05,Shigella flexneri,NC_004851_1,221618.0,0.0,0.0,0.0,0.0,0.0
redo_RPB004_40,barcode05,Shigella sp. PAMC 28760,NZ_CP014768_1,4558287.0,0.1687476019,1.0,7692.0,0.0,0.0
redo_RPB004_40,barcode05,Staphylococcus aureus,NC_007795_1,2821361.0,1.6243578897,1.0292609483,45829.0,0.0,0.0
redo_RPB004_40,barcode05,Staphylococcus capitis,NZ_CP007601_1,2443604.0,7.8171831442,4.5040911732,191021.0,67247.0,24135.0
redo_RPB004_40,barcode05,Staphylococcus capitis,NZ_CP007602_1,59661.0,0.0,0.0,0.0,0.0,0.0
redo_RPB004_40,barcode05,Staphylococcus haemolyticus,NC_007168_1,2685015.0,0.0654000071,3.6719817768,1756.0,393.0,0.0
redo_RPB004_40,barcode05,Staphylococcus haemolyticus,NC_007169_1,2300.0,0.0,0.0,0.0,0.0,0.0
redo_RPB004_40,barcode05,Staphylococcus haemolyticus,NC_007170_1,2366.0,100.0,6.7831783601,2366.0,2335.0,7.0
redo_RPB004_40,barcode05,Staphylococcus haemolyticus,NC_007171_1,8180.0,40.1589242054,12.1847792998,3285.0,3239.0,3064.0
redo_RPB004_40,barcode06,Acinetobacter sp. ACNIH1,NZ_CP026420_1,3307251.0,0.0909214329,1.0,3007.0,0.0,0.0
redo_RPB004_40,barcode06,Acinetobacter sp. ACNIH1,NZ_CP026424_1,18295.0,0.0,0.0,0.0,0.0,0.0
redo_RPB004_40,barcode06,Acinetobacter sp. ACNIH1,NZ_CP026421_1,11503.0,0.0,0.0,0.0,0.0,0.0
redo_RPB004_40,barcode06,Acinetobacter sp. ACNIH1,NZ_CP026422_1,13080.0,0.0,0.0,0.0,0.0,0.0
redo_RPB004_40,barcode06,Acinetobacter sp. ACNIH1,NZ_CP026423_1,40249.0,0.0,0.0,0.0,0.0,0.0
redo_RPB004_40,barcode06,Acinetobacter sp. ACNIH1,NZ_CP026426_1,257654.0,0.0,0.0,0.0,0.0,0.0
redo_RPB004_40,barcode06,Acinetobacter sp. ACNIH1,NZ_CP026425_1,39361.0,0.0,0.0,0.0,0.0,0.0
redo_RPB004_40,barcode06,Acinetobacter sp. ACNIH1,NZ_CP026427_1,8765.0,0.0,0.0,0.0,0.0,0.0
redo_RPB004_40,barcode06,Arthrobacter sp. PAMC 25486,NZ_CP007595_1,4593579.0,0.037878961,1.0,1740.0,0.0,0.0
redo_RPB004_40,barcode06,Arthrobacter sp. PGP41,NZ_CP026514_1,4270237.0,0.0423395704,1.0,1808.0,0.0,0.0
redo_RPB004_40,barcode06,Bifidobacterium bifidum,NC_014638_1,2214656.0,0.023570252,1.0,522.0,0.0,0.0
redo_RPB004_40,barcode06,Chryseobacterium haifense,NZ_CP033933_1,2764180.0,0.0539762244,1.0,1492.0,0.0,0.0
redo_RPB004_40,barcode06,Citrobacter freundii,NZ_CP007557_1,5099034.0,0.062933489,1.0,3209.0,0.0,0.0
redo_RPB004_40,barcode06,Citrobacter freundii,NZ_CP007558_1,272297.0,0.0,0.0,0.0,0.0,0.0
redo_RPB004_40,barcode06,Citrobacter rodentium,NC_013716_1,5346659.0,0.0806859012,1.0,4314.0,0.0,0.0
redo_RPB004_40,barcode06,Citrobacter rodentium,NC_013717_1,54449.0,0.0,0.0,0.0,0.0,0.0
redo_RPB004_40,barcode06,Citrobacter rodentium,NC_013718_1,39265.0,0.0,0.0,0.0,0.0,0.0
redo_RPB004_40,barcode06,Citrobacter rodentium,NC_013719_1,3910.0,0.0,0.0,0.0,0.0,0.0
redo_RPB004_40,barcode06,Corynebacterium renale,NZ_LS483404_1,2338129.0,0.0112910793,1.0,264.0,0.0,0.0
redo_RPB004_40,barcode06,Cutibacterium acnes,NC_006085_1,2560265.0,0.4527656317,3.9752415459,11592.0,4441.0,0.0
redo_RPB004_40,barcode06,Enterobacter asburiae,NC_015968_1,4812833.0,0.0796827981,1.0,3835.0,0.0,0.0
redo_RPB004_40,barcode06,Enterobacter asburiae,NC_015963_1,166725.0,0.0,0.0,0.0,0.0,0.0
redo_RPB004_40,barcode06,Enterobacter asburiae,NC_015969_1,32574.0,0.0,0.0,0.0,0.0,0.0
redo_RPB004_40,barcode06,Enterobacter ludwigii,NZ_CP017279_1,4857439.0,0.0803715703,1.0,3904.0,0.0,0.0
redo_RPB004_40,barcode06,Enterobacter ludwigii,NZ_CP017280_1,95331.0,0.0,0.0,0.0,0.0,0.0
redo_RPB004_40,barcode06,Escherichia albertii,NZ_CP007025_1,4701875.0,0.1462820683,1.0,6878.0,0.0,0.0
redo_RPB004_40,barcode06,Escherichia coli,NC_000913_3,4641652.0,17.3824965766,7.4886426593,806835.0,434139.0,217045.0
redo_RPB004_40,barcode06,Escherichia fergusonii,NC_011740_1,4588711.0,0.1157623568,1.0,5312.0,0.0,0.0
redo_RPB004_40,barcode06,Escherichia fergusonii,NC_011743_1,55150.0,0.0,0.0,0.0,0.0,0.0
redo_RPB004_40,barcode06,Escherichia marmotae,NZ_CP025979_1,4671322.0,0.0367775974,2.2916181607,1718.0,0.0,0.0
redo_RPB004_40,barcode06,Escherichia marmotae,NZ_CP025980_1,148809.0,0.0,0.0,0.0,0.0,0.0
redo_RPB004_40,barcode06,Escherichia marmotae,NZ_CP025981_1,76160.0,0.0,0.0,0.0,0.0,0.0
redo_RPB004_40,barcode06,Escherichia virus Mu,NC_000929_1,36717.0,5.4552387178,5.2086869695,2003.0,1814.0,0.0
redo_RPB004_40,barcode06,Escherichia virus T7,NC_001604_1,39937.0,0.858852693,1.0,343.0,0.0,0.0
redo_RPB004_40,barcode06,Flavobacterium johnsoniae,NC_009441_1,6096872.0,0.0651809649,1.9038751887,3974.0,0.0,0.0
redo_RPB004_40,barcode06,Isoptericola dokdonensis,NZ_CP014209_1,3826972.0,0.0341523272,1.0,1307.0,0.0,0.0
redo_RPB004_40,barcode06,Klebsiella pneumoniae,NC_016845_1,5333942.0,0.0577996536,1.0,3083.0,0.0,0.0
redo_RPB004_40,barcode06,Klebsiella pneumoniae,NC_016838_1,122799.0,0.0,0.0,0.0,0.0,0.0
redo_RPB004_40,barcode06,Klebsiella pneumoniae,NC_016846_1,111195.0,0.0,0.0,0.0,0.0,0.0
redo_RPB004_40,barcode06,Klebsiella pneumoniae,NC_016839_1,105974.0,0.0,0.0,0.0,0.0,0.0
redo_RPB004_40,barcode06,Klebsiella pneumoniae,NC_016840_1,3751.0,0.0,0.0,0.0,0.0,0.0
redo_RPB004_40,barcode06,Klebsiella pneumoniae,NC_016847_1,3353.0,0.0,0.0,0.0,0.0,0.0
redo_RPB004_40,barcode06,Klebsiella pneumoniae,NC_016841_1,1308.0,0.0,0.0,0.0,0.0,0.0
redo_RPB004_40,barcode06,Klebsiella quasipneumoniae,NZ_CP014696_2,5284734.0,0.0725864348,1.0,3836.0,0.0,0.0
redo_RPB004_40,barcode06,Klebsiella quasipneumoniae,NZ_CP014697_2,152001.0,0.0,0.0,0.0,0.0,0.0
redo_RPB004_40,barcode06,Klebsiella quasipneumoniae,NZ_CP014698_2,77127.0,0.0,0.0,0.0,0.0,0.0
redo_RPB004_40,barcode06,Moraxella osloensis,NZ_CP014234_1,2434688.0,4.5067376189,5.2426976532,109725.0,37096.0,16086.0
redo_RPB004_40,barcode06,Moraxella osloensis,NZ_CP014238_1,40342.0,0.0,0.0,0.0,0.0,0.0
redo_RPB004_40,barcode06,Moraxella osloensis,NZ_CP014237_1,35189.0,0.0,0.0,0.0,0.0,0.0
redo_RPB004_40,barcode06,Moraxella osloensis,NZ_CP014236_1,57463.0,0.0,0.0,0.0,0.0,0.0
redo_RPB004_40,barcode06,Moraxella osloensis,NZ_CP014235_1,81455.0,0.0,0.0,0.0,0.0,0.0
redo_RPB004_40,barcode06,Pseudomonas sp. TKP,NC_023064_1,7012672.0,0.0445907067,1.956507835,3127.0,0.0,0.0
redo_RPB004_40,barcode06,Raoultella terrigena,NZ_LR131271_1,6073951.0,0.0736917371,1.0,4476.0,0.0,0.0
redo_RPB004_40,barcode06,Salmonella bongori,NC_015761_1,4460105.0,0.1200644379,1.0,5355.0,0.0,0.0
redo_RPB004_40,barcode06,Salmonella enterica,NC_003197_2,4857450.0,0.2147834769,1.2297517493,10433.0,0.0,0.0
redo_RPB004_40,barcode06,Salmonella enterica,NC_003277_2,93933.0,0.0,0.0,0.0,0.0,0.0
redo_RPB004_40,barcode06,Shigella dysenteriae,NC_007606_1,4369232.0,2.4651243056,1.5643922865,107707.0,4835.0,11.0
redo_RPB004_40,barcode06,Shigella dysenteriae,NC_009344_1,8953.0,0.0,0.0,0.0,0.0,0.0
redo_RPB004_40,barcode06,Shigella dysenteriae,NC_007607_1,182726.0,0.0,0.0,0.0,0.0,0.0
redo_RPB004_40,barcode06,Shigella flexneri,NC_004337_2,4607202.0,0.8531642416,1.3918386038,39307.0,0.0,0.0
redo_RPB004_40,barcode06,Shigella flexneri,NC_004851_1,221618.0,0.0,0.0,0.0,0.0,0.0
redo_RPB004_40,barcode06,Shigella sp. PAMC 28760,NZ_CP014768_1,4558287.0,0.1741443661,1.9703955656,7938.0,0.0,0.0
redo_RPB004_40,barcode06,Staphylococcus aureus,NC_007795_1,2821361.0,0.0508974215,1.0,1436.0,0.0,0.0
redo_RPB004_40,barcode06,Staphylococcus capitis,NZ_CP007601_1,2443604.0,6.5078466069,6.9969816256,159026.0,75188.0,33090.0
redo_RPB004_40,barcode06,Staphylococcus capitis,NZ_CP007602_1,59661.0,0.0,0.0,0.0,0.0,0.0
redo_RPB004_40,barcode06,Staphylococcus epidermidis,NC_004461_1,2499279.0,0.2415896745,3.7888373634,6038.0,3099.0,0.0
redo_RPB004_40,barcode06,Staphylococcus epidermidis,NC_005008_1,4439.0,0.0,0.0,0.0,0.0,0.0
redo_RPB004_40,barcode06,Staphylococcus epidermidis,NC_005007_1,4679.0,0.0,0.0,0.0,0.0,0.0
redo_RPB004_40,barcode06,Staphylococcus epidermidis,NC_005006_1,8007.0,0.0,0.0,0.0,0.0,0.0
redo_RPB004_40,barcode06,Staphylococcus epidermidis,NC_005005_1,17261.0,0.0,0.0,0.0,0.0,0.0
redo_RPB004_40,barcode06,Staphylococcus epidermidis,NC_005004_1,24365.0,0.0,0.0,0.0,0.0,0.0
redo_RPB004_40,barcode06,Staphylococcus epidermidis,NC_005003_1,6585.0,0.0,0.0,0.0,0.0,0.0
redo_RPB004_40,barcode06,Staphylococcus haemolyticus,NC_007168_1,2685015.0,0.0665173193,1.2558790594,1786.0,0.0,0.0
redo_RPB004_40,barcode06,Staphylococcus haemolyticus,NC_007169_1,2300.0,3.2608695652,1.0,75.0,0.0,0.0
redo_RPB004_40,barcode06,Staphylococcus haemolyticus,NC_007170_1,2366.0,0.0,0.0,0.0,0.0,0.0
redo_RPB004_40,barcode06,Staphylococcus haemolyticus,NC_007171_1,8180.0,25.6479217604,5.2707340324,2098.0,1789.0,0.0
redo_RPB004_40,barcode06,Staphylococcus simulans,NZ_CP014016_2,2647556.0,0.0553340515,1.0,1465.0,0.0,0.0
redo_RPB004_40,barcode06,Vibrio coralliilyticus,NZ_CP009264_1,3463115.0,0.0811119469,1.0,2809.0,0.0,0.0
redo_RPB004_40,barcode06,Vibrio coralliilyticus,NZ_CP009265_1,1888898.0,0.0,0.0,0.0,0.0,0.0
redo_RPB004_40,barcode06,Vibrio coralliilyticus,NZ_CP009266_1,380781.0,0.0,0.0,0.0,0.0,0.0
redo_RPB004_40,barcode06,Yersinia pestis,NC_003143_1,4653728.0,0.0145045005,1.0,675.0,0.0,0.0
redo_RPB004_40,barcode06,Yersinia pestis,NC_003131_1,70305.0,0.0,0.0,0.0,0.0,0.0
redo_RPB004_40,barcode06,Yersinia pestis,NC_003134_1,96210.0,0.0,0.0,0.0,0.0,0.0
redo_RPB004_40,barcode06,Yersinia pestis,NC_003132_1,9612.0,0.0,0.0,0.0,0.0,0.0
redo_RPB004_40,barcode07,Citrobacter koseri,NC_009792_1,4720462.0,0.0851399715,1.0,4019.0,0.0,0.0
redo_RPB004_40,barcode07,Citrobacter koseri,NC_009794_1,5601.0,0.0,0.0,0.0,0.0,0.0
redo_RPB004_40,barcode07,Citrobacter koseri,NC_009793_1,9294.0,0.0,0.0,0.0,0.0,0.0
redo_RPB004_40,barcode07,Cronobacter condimenti,NZ_CP012264_1,4347991.0,0.0330497464,1.0,1437.0,0.0,0.0
redo_RPB004_40,barcode07,Cronobacter condimenti,NZ_CP012265_1,151491.0,0.0,0.0,0.0,0.0,0.0
redo_RPB004_40,barcode07,Cupriavidus metallidurans,NC_007973_1,3928089.0,0.1018561443,2.9390152462,4001.0,0.0,0.0
redo_RPB004_40,barcode07,Cupriavidus metallidurans,NC_007974_2,2580084.0,0.0,0.0,0.0,0.0,0.0
redo_RPB004_40,barcode07,Cupriavidus metallidurans,NC_007972_2,171459.0,0.0,0.0,0.0,0.0,0.0
redo_RPB004_40,barcode07,Cupriavidus metallidurans,NC_007971_2,233720.0,0.0,0.0,0.0,0.0,0.0
redo_RPB004_40,barcode07,Cutibacterium acnes,NC_006085_1,2560265.0,0.2795413756,5.0525359788,7157.0,4275.0,0.0
redo_RPB004_40,barcode07,Enterobacter cloacae,NC_014121_1,5314581.0,0.0798934102,1.0,4246.0,0.0,0.0
redo_RPB004_40,barcode07,Enterobacter cloacae,NC_014107_1,199562.0,0.0,0.0,0.0,0.0,0.0
redo_RPB004_40,barcode07,Enterobacter cloacae,NC_014108_1,84653.0,0.0,0.0,0.0,0.0,0.0
redo_RPB004_40,barcode07,Enterobacter hormaechei,NZ_CP017179_1,4782480.0,0.4510630468,1.9900333766,21572.0,0.0,0.0
redo_RPB004_40,barcode07,Escherichia albertii,NZ_CP007025_1,4701875.0,0.2937976871,1.0,13814.0,0.0,0.0
redo_RPB004_40,barcode07,Escherichia coli,NC_000913_3,4641652.0,20.1749506426,2.9966853578,936451.0,181521.0,18411.0
redo_RPB004_40,barcode07,Escherichia fergusonii,NC_011740_1,4588711.0,0.0729180809,1.0,3346.0,0.0,0.0
redo_RPB004_40,barcode07,Escherichia fergusonii,NC_011743_1,55150.0,0.0,0.0,0.0,0.0,0.0
redo_RPB004_40,barcode07,Escherichia marmotae,NZ_CP025979_1,4671322.0,0.1273729364,1.0,5950.0,0.0,0.0
redo_RPB004_40,barcode07,Escherichia marmotae,NZ_CP025980_1,148809.0,0.0,0.0,0.0,0.0,0.0
redo_RPB004_40,barcode07,Escherichia marmotae,NZ_CP025981_1,76160.0,0.0,0.0,0.0,0.0,0.0
redo_RPB004_40,barcode07,Escherichia virus Mu,NC_000929_1,36717.0,5.4307269112,1.6990972919,1994.0,0.0,0.0
redo_RPB004_40,barcode07,Escherichia virus T7,NC_001604_1,39937.0,0.1677642287,1.0,67.0,0.0,0.0
redo_RPB004_40,barcode07,Klebsiella pneumoniae,NC_016845_1,5333942.0,0.0,0.0,0.0,0.0,0.0
redo_RPB004_40,barcode07,Klebsiella pneumoniae,NC_016838_1,122799.0,0.0,0.0,0.0,0.0,0.0
redo_RPB004_40,barcode07,Klebsiella pneumoniae,NC_016846_1,111195.0,0.5773640901,1.9813084112,642.0,0.0,0.0
redo_RPB004_40,barcode07,Klebsiella pneumoniae,NC_016839_1,105974.0,0.0,0.0,0.0,0.0,0.0
redo_RPB004_40,barcode07,Klebsiella pneumoniae,NC_016840_1,3751.0,0.0,0.0,0.0,0.0,0.0
redo_RPB004_40,barcode07,Klebsiella pneumoniae,NC_016847_1,3353.0,0.0,0.0,0.0,0.0,0.0
redo_RPB004_40,barcode07,Klebsiella pneumoniae,NC_016841_1,1308.0,0.0,0.0,0.0,0.0,0.0
redo_RPB004_40,barcode07,Moraxella osloensis,NZ_CP014234_1,2434688.0,0.4871260712,2.8100337268,11860.0,3813.0,0.0
redo_RPB004_40,barcode07,Moraxella osloensis,NZ_CP014238_1,40342.0,0.0,0.0,0.0,0.0,0.0
redo_RPB004_40,barcode07,Moraxella osloensis,NZ_CP014237_1,35189.0,0.0,0.0,0.0,0.0,0.0
redo_RPB004_40,barcode07,Moraxella osloensis,NZ_CP014236_1,57463.0,0.0,0.0,0.0,0.0,0.0
redo_RPB004_40,barcode07,Moraxella osloensis,NZ_CP014235_1,81455.0,0.0,0.0,0.0,0.0,0.0
redo_RPB004_40,barcode07,Salmonella enterica,NC_003197_2,4857450.0,0.0739070912,1.0,3590.0,0.0,0.0
redo_RPB004_40,barcode07,Salmonella enterica,NC_003277_2,93933.0,0.0,0.0,0.0,0.0,0.0
redo_RPB004_40,barcode07,Shigella dysenteriae,NC_007606_1,4369232.0,0.6353519337,1.1425072046,27760.0,0.0,0.0
redo_RPB004_40,barcode07,Shigella dysenteriae,NC_009344_1,8953.0,0.0,0.0,0.0,0.0,0.0
redo_RPB004_40,barcode07,Shigella dysenteriae,NC_007607_1,182726.0,0.0,0.0,0.0,0.0,0.0
redo_RPB004_40,barcode07,Shigella flexneri,NC_004337_2,4607202.0,0.7580739894,1.0,34926.0,0.0,0.0
redo_RPB004_40,barcode07,Shigella flexneri,NC_004851_1,221618.0,0.0,0.0,0.0,0.0,0.0
redo_RPB004_40,barcode07,Staphylococcus aureus,NC_007795_1,2821361.0,0.7543876874,1.0999342229,21284.0,0.0,0.0
redo_RPB004_40,barcode07,Staphylococcus epidermidis,NC_004461_1,2499279.0,3.9796677362,3.5705538743,99463.0,32212.0,3699.0
redo_RPB004_40,barcode07,Staphylococcus epidermidis,NC_005008_1,4439.0,0.0,0.0,0.0,0.0,0.0
redo_RPB004_40,barcode07,Staphylococcus epidermidis,NC_005007_1,4679.0,0.0,0.0,0.0,0.0,0.0
redo_RPB004_40,barcode07,Staphylococcus epidermidis,NC_005006_1,8007.0,0.0,0.0,0.0,0.0,0.0
redo_RPB004_40,barcode07,Staphylococcus epidermidis,NC_005005_1,17261.0,0.0,0.0,0.0,0.0,0.0
redo_RPB004_40,barcode07,Staphylococcus epidermidis,NC_005004_1,24365.0,0.0,0.0,0.0,0.0,0.0
redo_RPB004_40,barcode07,Staphylococcus epidermidis,NC_005003_1,6585.0,0.0,0.0,0.0,0.0,0.0
redo_RPB004_40,barcode08,Acinetobacter baumannii,NZ_CP009257_1,4335793.0,0.0071036602,1.0,308.0,0.0,0.0
redo_RPB004_40,barcode08,Aeromonas sp. ASNIH2,NZ_CP026406_1,4801408.0,0.0235764176,1.0,1132.0,0.0,0.0
redo_RPB004_40,barcode08,Aeromonas sp. ASNIH2,NZ_CP026411_1,4613.0,0.0,0.0,0.0,0.0,0.0
redo_RPB004_40,barcode08,Aeromonas sp. ASNIH2,NZ_CP026407_1,13512.0,0.0,0.0,0.0,0.0,0.0
redo_RPB004_40,barcode08,Aeromonas sp. ASNIH2,NZ_CP026409_1,8238.0,0.0,0.0,0.0,0.0,0.0
redo_RPB004_40,barcode08,Aeromonas sp. ASNIH2,NZ_CP026410_1,6782.0,0.0,0.0,0.0,0.0,0.0
redo_RPB004_40,barcode08,Aeromonas sp. ASNIH2,NZ_CP026408_1,29979.0,0.0,0.0,0.0,0.0,0.0
redo_RPB004_40,barcode08,Citrobacter sp. CFNIH10,NZ_CP026216_1,5246201.0,0.0809347564,3.8711728686,4246.0,0.0,0.0
redo_RPB004_40,barcode08,Citrobacter sp. CFNIH10,NZ_CP026212_1,126940.0,0.0,0.0,0.0,0.0,0.0
redo_RPB004_40,barcode08,Citrobacter sp. CFNIH10,NZ_CP026215_1,7304.0,0.0,0.0,0.0,0.0,0.0
redo_RPB004_40,barcode08,Citrobacter sp. CFNIH10,NZ_CP026214_1,6974.0,0.0,0.0,0.0,0.0,0.0
redo_RPB004_40,barcode08,Citrobacter sp. CFNIH10,NZ_CP026211_1,51267.0,0.0,0.0,0.0,0.0,0.0
redo_RPB004_40,barcode08,Citrobacter sp. CFNIH10,NZ_CP026210_1,77585.0,0.0,0.0,0.0,0.0,0.0
redo_RPB004_40,barcode08,Citrobacter sp. CFNIH10,NZ_CP026213_1,221962.0,0.0,0.0,0.0,0.0,0.0
redo_RPB004_40,barcode08,Cutibacterium acnes,NC_006085_1,2560265.0,0.4007788256,1.8584933242,10261.0,0.0,0.0
redo_RPB004_40,barcode08,Enterobacter cloacae,NC_014121_1,5314581.0,2.7045029514,1.8392088108,143733.0,13920.0,0.0
redo_RPB004_40,barcode08,Enterobacter cloacae,NC_014107_1,199562.0,0.2555596757,1.9549019608,510.0,0.0,0.0
redo_RPB004_40,barcode08,Enterobacter cloacae,NC_014108_1,84653.0,0.0,0.0,0.0,0.0,0.0
redo_RPB004_40,barcode08,Enterobacter cloacae complex sp.,NZ_CP026975_1,4876999.0,0.0814025182,1.0,3970.0,0.0,0.0
redo_RPB004_40,barcode08,Enterobacter hormaechei,NZ_CP017179_1,4782480.0,8.3808609759,2.9007592069,400813.0,74809.0,8277.0
redo_RPB004_40,barcode08,Enterobacter kobei,NZ_CP017181_1,4880257.0,0.0301418552,1.0,1471.0,0.0,0.0
redo_RPB004_40,barcode08,Enterobacter kobei,NZ_CP017182_1,47221.0,0.0,0.0,0.0,0.0,0.0
redo_RPB004_40,barcode08,Enterobacter sp. CRENT-193,NZ_CP024812_1,4852690.0,0.1328335418,1.0,6446.0,0.0,0.0
redo_RPB004_40,barcode08,Enterobacter sp. CRENT-193,NZ_CP024813_1,298989.0,0.0866252605,1.0,259.0,0.0,0.0
redo_RPB004_40,barcode08,Enterobacter sp. CRENT-193,NZ_CP024814_1,44962.0,0.0,0.0,0.0,0.0,0.0
redo_RPB004_40,barcode08,Escherichia albertii,NZ_CP007025_1,4701875.0,0.1678904692,1.3935900684,7894.0,0.0,0.0
redo_RPB004_40,barcode08,Escherichia coli,NC_000913_3,4641652.0,16.1830313862,5.3430068161,751160.0,310231.0,106517.0
redo_RPB004_40,barcode08,Escherichia marmotae,NZ_CP025979_1,4671322.0,0.0918369575,1.3631701632,4290.0,0.0,0.0
redo_RPB004_40,barcode08,Escherichia marmotae,NZ_CP025980_1,148809.0,0.0,0.0,0.0,0.0,0.0
redo_RPB004_40,barcode08,Escherichia marmotae,NZ_CP025981_1,76160.0,0.0,0.0,0.0,0.0,0.0
redo_RPB004_40,barcode08,Escherichia virus Mu,NC_000929_1,36717.0,4.2677778686,1.938098277,1567.0,0.0,0.0
redo_RPB004_40,barcode08,Klebsiella pneumoniae,NC_016845_1,5333942.0,0.1966275599,1.0624523265,10488.0,0.0,0.0
redo_RPB004_40,barcode08,Klebsiella pneumoniae,NC_016838_1,122799.0,0.0,0.0,0.0,0.0,0.0
redo_RPB004_40,barcode08,Klebsiella pneumoniae,NC_016846_1,111195.0,0.0,0.0,0.0,0.0,0.0
redo_RPB004_40,barcode08,Klebsiella pneumoniae,NC_016839_1,105974.0,1.8900862476,2.9340988517,2003.0,0.0,0.0
redo_RPB004_40,barcode08,Klebsiella pneumoniae,NC_016840_1,3751.0,0.0,0.0,0.0,0.0,0.0
redo_RPB004_40,barcode08,Klebsiella pneumoniae,NC_016847_1,3353.0,0.0,0.0,0.0,0.0,0.0
redo_RPB004_40,barcode08,Klebsiella pneumoniae,NC_016841_1,1308.0,0.0,0.0,0.0,0.0,0.0
redo_RPB004_40,barcode08,Kocuria palustris,NZ_CP012507_1,2854447.0,0.0718177637,1.0,2050.0,0.0,0.0
redo_RPB004_40,barcode08,Micrococcus luteus,NC_012803_1,2501097.0,0.0540562801,1.0,1352.0,0.0,0.0
redo_RPB004_40,barcode08,Pectobacterium carotovorum,NC_012917_1,4862913.0,0.0468443503,1.0,2278.0,0.0,0.0
redo_RPB004_40,barcode08,Salmonella enterica,NC_003197_2,4857450.0,0.1747007175,1.6592033938,8486.0,0.0,0.0
redo_RPB004_40,barcode08,Salmonella enterica,NC_003277_2,93933.0,0.0,0.0,0.0,0.0,0.0
redo_RPB004_40,barcode08,Shigella dysenteriae,NC_007606_1,4369232.0,0.9820032445,1.2345825759,42906.0,0.0,0.0
redo_RPB004_40,barcode08,Shigella dysenteriae,NC_009344_1,8953.0,0.0,0.0,0.0,0.0,0.0
redo_RPB004_40,barcode08,Shigella dysenteriae,NC_007607_1,182726.0,0.0,0.0,0.0,0.0,0.0
redo_RPB004_40,barcode08,Shigella flexneri,NC_004337_2,4607202.0,0.6613775563,1.1450231368,30471.0,0.0,0.0
redo_RPB004_40,barcode08,Shigella flexneri,NC_004851_1,221618.0,0.0,0.0,0.0,0.0,0.0
redo_RPB004_40,barcode08,Staphylococcus aureus,NC_007795_1,2821361.0,0.3790723697,1.0,10695.0,0.0,0.0
redo_RPB004_40,barcode09,Acinetobacter guillouiae,NZ_AP014630_1,4648418.0,0.0582994042,1.0,2710.0,0.0,0.0
redo_RPB004_40,barcode09,Cyanothece sp. PCC 7425,NC_011884_1,5374574.0,0.0285604031,1.0,1535.0,0.0,0.0
redo_RPB004_40,barcode09,Cyanothece sp. PCC 7425,NC_011880_1,196837.0,0.0,0.0,0.0,0.0,0.0
redo_RPB004_40,barcode09,Cyanothece sp. PCC 7425,NC_011885_1,179973.0,0.0,0.0,0.0,0.0,0.0
redo_RPB004_40,barcode09,Cyanothece sp. PCC 7425,NC_011882_1,34726.0,0.0,0.0,0.0,0.0,0.0
redo_RPB004_40,barcode09,Enterobacter cloacae,NC_014121_1,5314581.0,0.1310357298,1.0,6964.0,0.0,0.0
redo_RPB004_40,barcode09,Enterobacter cloacae,NC_014107_1,199562.0,0.0,0.0,0.0,0.0,0.0
redo_RPB004_40,barcode09,Enterobacter cloacae,NC_014108_1,84653.0,0.0,0.0,0.0,0.0,0.0
redo_RPB004_40,barcode09,Enterobacter hormaechei,NZ_CP017179_1,4782480.0,0.4026571988,1.0,19257.0,0.0,0.0
redo_RPB004_40,barcode09,Escherichia coli,NC_000913_3,4641652.0,4.1858372838,1.3783274659,194292.0,0.0,0.0
redo_RPB004_40,barcode09,Pantoea agglomerans,NZ_CP016889_1,4182028.0,0.1221656096,1.0,5109.0,0.0,0.0
redo_RPB004_40,barcode09,Pantoea agglomerans,NZ_CP016890_1,543504.0,0.0,0.0,0.0,0.0,0.0
redo_RPB004_40,barcode09,Pantoea agglomerans,NZ_CP016891_1,216117.0,0.0,0.0,0.0,0.0,0.0
redo_RPB004_40,barcode09,Pantoea agglomerans,NZ_CP016892_1,173592.0,0.0,0.0,0.0,0.0,0.0
redo_RPB004_40,barcode09,Salmonella enterica,NC_003197_2,4857450.0,0.1242833174,1.0,6037.0,0.0,0.0
redo_RPB004_40,barcode09,Salmonella enterica,NC_003277_2,93933.0,0.0,0.0,0.0,0.0,0.0
redo_RPB004_40,barcode09,Shigella dysenteriae,NC_007606_1,4369232.0,0.3564928573,1.0,15576.0,0.0,0.0
redo_RPB004_40,barcode09,Shigella dysenteriae,NC_009344_1,8953.0,0.0,0.0,0.0,0.0,0.0
redo_RPB004_40,barcode09,Shigella dysenteriae,NC_007607_1,182726.0,0.0,0.0,0.0,0.0,0.0
redo_RPB004_40,barcode09,Shigella flexneri,NC_004337_2,4607202.0,0.1404323058,1.0,6470.0,0.0,0.0
redo_RPB004_40,barcode09,Shigella flexneri,NC_004851_1,221618.0,0.0,0.0,0.0,0.0,0.0
redo_RPB004_40,barcode09,Staphylococcus aureus,NC_007795_1,2821361.0,0.1095924981,1.0,3092.0,0.0,0.0
redo_RPB004_40,barcode09,Yersinia enterocolitica,NC_008800_1,4615899.0,0.0807210036,1.0,3726.0,0.0,0.0
redo_RPB004_40,barcode09,Yersinia enterocolitica,NC_008791_1,67721.0,0.0,0.0,0.0,0.0,0.0
redo_RPB004_40,barcode10,Azotobacter chroococcum,NZ_CP010415_1,4591803.0,0.018184578,1.0,835.0,0.0,0.0
redo_RPB004_40,barcode10,Azotobacter chroococcum,NZ_CP010416_1,10435.0,0.0,0.0,0.0,0.0,0.0
redo_RPB004_40,barcode10,Azotobacter chroococcum,NZ_CP010417_1,13852.0,0.0,0.0,0.0,0.0,0.0
redo_RPB004_40,barcode10,Azotobacter chroococcum,NZ_CP010418_1,62783.0,0.0,0.0,0.0,0.0,0.0
redo_RPB004_40,barcode10,Azotobacter chroococcum,NZ_CP010419_1,69317.0,0.0,0.0,0.0,0.0,0.0
redo_RPB004_40,barcode10,Azotobacter chroococcum,NZ_CP010420_1,132372.0,0.0,0.0,0.0,0.0,0.0
redo_RPB004_40,barcode10,Azotobacter chroococcum,NZ_CP010421_1,311724.0,0.0,0.0,0.0,0.0,0.0
redo_RPB004_40,barcode10,Candidatus Thiodictyon syntrophicum,NZ_CP020370_1,6837296.0,0.0021499727,1.0,147.0,0.0,0.0
redo_RPB004_40,barcode10,Candidatus Thiodictyon syntrophicum,NZ_CP020371_1,416864.0,0.0,0.0,0.0,0.0,0.0
redo_RPB004_40,barcode10,Candidatus Thiodictyon syntrophicum,NZ_CP020372_1,484824.0,0.0,0.0,0.0,0.0,0.0
redo_RPB004_40,barcode10,Citrobacter amalonaticus,NZ_CP011132_1,5584358.0,0.0730791257,1.0,4081.0,0.0,0.0
redo_RPB004_40,barcode10,Citrobacter amalonaticus,NZ_CP011133_1,290993.0,0.0,0.0,0.0,0.0,0.0
redo_RPB004_40,barcode10,Citrobacter farmeri,NZ_CP022695_1,5130228.0,0.0509334088,1.0,2613.0,0.0,0.0
redo_RPB004_40,barcode10,Citrobacter farmeri,NZ_CP022696_1,328945.0,0.4292510906,1.0,1412.0,0.0,0.0
redo_RPB004_40,barcode10,Citrobacter farmeri,NZ_CP022697_1,149207.0,0.0,0.0,0.0,0.0,0.0
redo_RPB004_40,barcode10,Citrobacter farmeri,NZ_CP022698_1,107249.0,0.0,0.0,0.0,0.0,0.0
redo_RPB004_40,barcode10,Citrobacter freundii,NZ_CP007557_1,5099034.0,0.0379483643,1.0,1935.0,0.0,0.0
redo_RPB004_40,barcode10,Citrobacter freundii,NZ_CP007558_1,272297.0,0.0,0.0,0.0,0.0,0.0
redo_RPB004_40,barcode10,Citrobacter koseri,NC_009792_1,4720462.0,0.1549848299,1.0,7316.0,0.0,0.0
redo_RPB004_40,barcode10,Citrobacter koseri,NC_009794_1,5601.0,0.0,0.0,0.0,0.0,0.0
redo_RPB004_40,barcode10,Citrobacter koseri,NC_009793_1,9294.0,0.0,0.0,0.0,0.0,0.0
redo_RPB004_40,barcode10,Citrobacter werkmanii,NZ_CP019986_1,4929789.0,0.0612805132,1.0,3021.0,0.0,0.0
redo_RPB004_40,barcode10,Citrobacter werkmanii,NZ_CP019987_1,212549.0,0.0,0.0,0.0,0.0,0.0
redo_RPB004_40,barcode10,Citrobacter youngae,NZ_CP021963_1,4945156.0,0.0709381059,1.0,3508.0,0.0,0.0
redo_RPB004_40,barcode10,Cutibacterium acnes,NC_006085_1,2560265.0,2.8657970952,4.7854631194,73372.0,25720.0,7941.0
redo_RPB004_40,barcode10,Enterobacter sp. 638,NC_009436_1,4518712.0,0.0629604188,1.0,2845.0,0.0,0.0
redo_RPB004_40,barcode10,Enterobacter sp. 638,NC_009425_1,157749.0,0.0,0.0,0.0,0.0,0.0
redo_RPB004_40,barcode10,Enterobacter sp. CRENT-193,NZ_CP024812_1,4852690.0,0.017330594,1.0,841.0,0.0,0.0
redo_RPB004_40,barcode10,Enterobacter sp. CRENT-193,NZ_CP024813_1,298989.0,0.0,0.0,0.0,0.0,0.0
redo_RPB004_40,barcode10,Enterobacter sp. CRENT-193,NZ_CP024814_1,44962.0,0.0,0.0,0.0,0.0,0.0
redo_RPB004_40,barcode10,Enterobacteriaceae bacterium strain FGI 57,NC_020063_1,4762179.0,0.0845831289,1.0,4028.0,0.0,0.0
redo_RPB004_40,barcode10,Escherichia albertii,NZ_CP007025_1,4701875.0,0.6724764057,1.0313735412,31619.0,0.0,0.0
redo_RPB004_40,barcode10,Escherichia coli,NC_000913_3,4641652.0,25.0882659881,10.9515504375,1164510.0,719565.0,478611.0
redo_RPB004_40,barcode10,Escherichia fergusonii,NC_011740_1,4588711.0,0.3627380325,1.0632622409,16645.0,0.0,0.0
redo_RPB004_40,barcode10,Escherichia fergusonii,NC_011743_1,55150.0,0.0,0.0,0.0,0.0,0.0
redo_RPB004_40,barcode10,Escherichia marmotae,NZ_CP025979_1,4671322.0,0.5902611723,1.0,27573.0,0.0,0.0
redo_RPB004_40,barcode10,Escherichia marmotae,NZ_CP025980_1,148809.0,0.0,0.0,0.0,0.0,0.0
redo_RPB004_40,barcode10,Escherichia marmotae,NZ_CP025981_1,76160.0,0.0,0.0,0.0,0.0,0.0
redo_RPB004_40,barcode10,Escherichia virus Mu,NC_000929_1,36717.0,5.4552387178,10.8901647529,2003.0,2001.0,1245.0
redo_RPB004_40,barcode10,Klebsiella pneumoniae,NC_016845_1,5333942.0,0.2039204776,1.0,10877.0,0.0,0.0
redo_RPB004_40,barcode10,Klebsiella pneumoniae,NC_016838_1,122799.0,0.0,0.0,0.0,0.0,0.0
redo_RPB004_40,barcode10,Klebsiella pneumoniae,NC_016846_1,111195.0,0.0,0.0,0.0,0.0,0.0
redo_RPB004_40,barcode10,Klebsiella pneumoniae,NC_016839_1,105974.0,0.0,0.0,0.0,0.0,0.0
redo_RPB004_40,barcode10,Klebsiella pneumoniae,NC_016840_1,3751.0,0.0,0.0,0.0,0.0,0.0
redo_RPB004_40,barcode10,Klebsiella pneumoniae,NC_016847_1,3353.0,0.0,0.0,0.0,0.0,0.0
redo_RPB004_40,barcode10,Klebsiella pneumoniae,NC_016841_1,1308.0,0.0,0.0,0.0,0.0,0.0
redo_RPB004_40,barcode10,Kluyvera intermedia,NZ_CP011602_1,5529134.0,0.0393189964,1.0,2174.0,0.0,0.0
redo_RPB004_40,barcode10,Kluyvera intermedia,NZ_CP011600_1,215092.0,0.0,0.0,0.0,0.0,0.0
redo_RPB004_40,barcode10,Kluyvera intermedia,NZ_CP011601_1,295619.0,0.0,0.0,0.0,0.0,0.0
redo_RPB004_40,barcode10,Kluyvera intermedia,NZ_CP011599_1,82986.0,0.0,0.0,0.0,0.0,0.0
redo_RPB004_40,barcode10,Kluyvera intermedia,NZ_CP011598_1,43621.0,0.0,0.0,0.0,0.0,0.0
redo_RPB004_40,barcode10,Leclercia adecarboxylata,NZ_CP013990_1,4803917.0,0.0387600369,1.0,1862.0,0.0,0.0
redo_RPB004_40,barcode10,Lelliottia jeotgali,NZ_CP018628_1,4603334.0,0.0460970245,1.0,2122.0,0.0,0.0
redo_RPB004_40,barcode10,Magnetospirillum sp. XM-1,NZ_LN997848_1,4825187.0,0.0099270764,1.0,479.0,0.0,0.0
redo_RPB004_40,barcode10,Magnetospirillum sp. XM-1,NZ_LN997849_1,167290.0,0.0,0.0,0.0,0.0,0.0
redo_RPB004_40,barcode10,Moraxella osloensis,NZ_CP014234_1,2434688.0,2.5859576258,5.9546855146,62960.0,14714.0,6873.0
redo_RPB004_40,barcode10,Moraxella osloensis,NZ_CP014238_1,40342.0,7.451291458,5.2285429142,3006.0,1862.0,0.0
redo_RPB004_40,barcode10,Moraxella osloensis,NZ_CP014237_1,35189.0,0.0,0.0,0.0,0.0,0.0
redo_RPB004_40,barcode10,Moraxella osloensis,NZ_CP014236_1,57463.0,0.0,0.0,0.0,0.0,0.0
redo_RPB004_40,barcode10,Moraxella osloensis,NZ_CP014235_1,81455.0,0.6297955927,1.0,513.0,0.0,0.0
redo_RPB004_40,barcode10,Psychrobacter sp. AntiMn-1,NZ_CP012969_1,3138120.0,0.0428919226,1.0,1346.0,0.0,0.0
redo_RPB004_40,barcode10,Ralstonia solanacearum,NC_003295_1,3716413.0,0.0102249131,1.0,380.0,0.0,0.0
redo_RPB004_40,barcode10,Ralstonia solanacearum,NC_003296_1,2094509.0,0.0,0.0,0.0,0.0,0.0
redo_RPB004_40,barcode10,Raoultella ornithinolytica,NC_021066_1,5398151.0,0.060483673,1.0,3265.0,0.0,0.0
redo_RPB004_40,barcode10,Salmonella bongori,NC_015761_1,4460105.0,0.0740565525,1.0,3303.0,0.0,0.0
redo_RPB004_40,barcode10,Salmonella enterica,NC_003197_2,4857450.0,0.5641849118,1.3345739828,27405.0,0.0,0.0
redo_RPB004_40,barcode10,Salmonella enterica,NC_003277_2,93933.0,0.0,0.0,0.0,0.0,0.0
redo_RPB004_40,barcode10,Serratia sp. FGI94,NC_020064_1,4858216.0,0.0831375139,1.0,4039.0,0.0,0.0
redo_RPB004_40,barcode10,Shigella dysenteriae,NC_007606_1,4369232.0,3.6417155235,1.3800081702,159115.0,0.0,0.0
redo_RPB004_40,barcode10,Shigella dysenteriae,NC_009344_1,8953.0,0.0,0.0,0.0,0.0,0.0
redo_RPB004_40,barcode10,Shigella dysenteriae,NC_007607_1,182726.0,0.0,0.0,0.0,0.0,0.0
redo_RPB004_40,barcode10,Shigella flexneri,NC_004337_2,4607202.0,2.4340152657,1.2826556091,112140.0,0.0,0.0
redo_RPB004_40,barcode10,Shigella flexneri,NC_004851_1,221618.0,0.0,0.0,0.0,0.0,0.0
redo_RPB004_40,barcode10,Shimwellia blattae,NC_017910_1,4158725.0,0.0191645276,1.0,797.0,0.0,0.0
redo_RPB004_40,barcode10,Staphylococcus aureus,NC_007795_1,2821361.0,0.6291289913,1.0,17750.0,0.0,0.0
redo_RPB004_40,barcode10,Staphylococcus epidermidis,NC_004461_1,2499279.0,0.3050479758,22.2019937041,7624.0,7612.0,4695.0
redo_RPB004_40,barcode10,Staphylococcus epidermidis,NC_005008_1,4439.0,0.0,0.0,0.0,0.0,0.0
redo_RPB004_40,barcode10,Staphylococcus epidermidis,NC_005007_1,4679.0,0.0,0.0,0.0,0.0,0.0
redo_RPB004_40,barcode10,Staphylococcus epidermidis,NC_005006_1,8007.0,0.0,0.0,0.0,0.0,0.0
redo_RPB004_40,barcode10,Staphylococcus epidermidis,NC_005005_1,17261.0,0.0,0.0,0.0,0.0,0.0
redo_RPB004_40,barcode10,Staphylococcus epidermidis,NC_005004_1,24365.0,0.0,0.0,0.0,0.0,0.0
redo_RPB004_40,barcode10,Staphylococcus epidermidis,NC_005003_1,6585.0,0.0,0.0,0.0,0.0,0.0
redo_RPB004_40,barcode10,Staphylococcus virus SEP9,NC_023582_1,92417.0,1.6295703171,7.7011952191,1506.0,1479.0,0.0
redo_RPB004_40,barcode10,Woeseia oceani,NZ_CP016268_1,4059891.0,0.0019212338,1.0,78.0,0.0,0.0
redo_RPB004_40,barcode10,Yersinia pestis,NC_003143_1,4653728.0,0.0864038466,1.0,4021.0,0.0,0.0
redo_RPB004_40,barcode10,Yersinia pestis,NC_003131_1,70305.0,0.0,0.0,0.0,0.0,0.0
redo_RPB004_40,barcode10,Yersinia pestis,NC_003134_1,96210.0,0.0,0.0,0.0,0.0,0.0
redo_RPB004_40,barcode10,Yersinia pestis,NC_003132_1,9612.0,0.0,0.0,0.0,0.0,0.0
redo_RPB004_40,unclassified,Acinetobacter baumannii,NZ_CP009257_1,4335793.0,0.0103787243,1.0,450.0,0.0,0.0
redo_RPB004_40,unclassified,Citrobacter koseri,NC_009792_1,4720462.0,0.0163543314,1.0,772.0,0.0,0.0
redo_RPB004_40,unclassified,Citrobacter koseri,NC_009794_1,5601.0,0.0,0.0,0.0,0.0,0.0
redo_RPB004_40,unclassified,Citrobacter koseri,NC_009793_1,9294.0,0.0,0.0,0.0,0.0,0.0
redo_RPB004_40,unclassified,Cutibacterium acnes,NC_006085_1,2560265.0,0.243841946,1.0,6243.0,0.0,0.0
redo_RPB004_40,unclassified,Enterobacter cloacae,NC_014121_1,5314581.0,0.1017577867,1.0,5408.0,0.0,0.0
redo_RPB004_40,unclassified,Enterobacter cloacae,NC_014107_1,199562.0,0.0,0.0,0.0,0.0,0.0
redo_RPB004_40,unclassified,Enterobacter cloacae,NC_014108_1,84653.0,0.0,0.0,0.0,0.0,0.0
redo_RPB004_40,unclassified,Enterobacter hormaechei,NZ_CP017179_1,4782480.0,0.4945551262,1.0,23652.0,0.0,0.0
redo_RPB004_40,unclassified,Enterobacteriaceae bacterium w17,NZ_CP031101_1,4811348.0,0.0138630588,1.0,667.0,0.0,0.0
redo_RPB004_40,unclassified,Enterobacteriaceae bacterium w17,NZ_CP031102_1,221681.0,0.0,0.0,0.0,0.0,0.0
redo_RPB004_40,unclassified,Enterobacteriaceae bacterium w17,NZ_CP031103_1,92616.0,0.0,0.0,0.0,0.0,0.0
redo_RPB004_40,unclassified,Escherichia coli,NC_000913_3,4641652.0,12.5271131916,1.1489341577,581465.0,306.0,0.0
redo_RPB004_40,unclassified,Escherichia fergusonii,NC_011740_1,4588711.0,0.200186937,1.0,9186.0,0.0,0.0
redo_RPB004_40,unclassified,Escherichia fergusonii,NC_011743_1,55150.0,0.0,0.0,0.0,0.0,0.0
redo_RPB004_40,unclassified,Escherichia marmotae,NZ_CP025979_1,4671322.0,0.0481020148,1.0,2247.0,0.0,0.0
redo_RPB004_40,unclassified,Escherichia marmotae,NZ_CP025980_1,148809.0,0.0,0.0,0.0,0.0,0.0
redo_RPB004_40,unclassified,Escherichia marmotae,NZ_CP025981_1,76160.0,0.0,0.0,0.0,0.0,0.0
redo_RPB004_40,unclassified,Escherichia virus T7,NC_001604_1,39937.0,1.0566642462,1.0,422.0,0.0,0.0
redo_RPB004_40,unclassified,Lactobacillus salivarius,NC_007929_1,1827111.0,0.1461323368,1.0,2670.0,0.0,0.0
redo_RPB004_40,unclassified,Lactobacillus salivarius,NC_007930_1,242436.0,0.0,0.0,0.0,0.0,0.0
redo_RPB004_40,unclassified,Lactobacillus salivarius,NC_006529_1,20417.0,0.0,0.0,0.0,0.0,0.0
redo_RPB004_40,unclassified,Lactobacillus salivarius,NC_006530_1,44013.0,0.0,0.0,0.0,0.0,0.0
redo_RPB004_40,unclassified,Moraxella osloensis,NZ_CP014234_1,2434688.0,0.5311563535,1.0,12932.0,0.0,0.0
redo_RPB004_40,unclassified,Moraxella osloensis,NZ_CP014238_1,40342.0,5.6120172525,1.0,2264.0,0.0,0.0
redo_RPB004_40,unclassified,Moraxella osloensis,NZ_CP014237_1,35189.0,0.0,0.0,0.0,0.0,0.0
redo_RPB004_40,unclassified,Moraxella osloensis,NZ_CP014236_1,57463.0,0.0,0.0,0.0,0.0,0.0
redo_RPB004_40,unclassified,Moraxella osloensis,NZ_CP014235_1,81455.0,0.0,0.0,0.0,0.0,0.0
redo_RPB004_40,unclassified,Paenibacillus sp. IHBB 10380,NZ_CP010976_1,5770242.0,0.0381439808,1.0,2201.0,0.0,0.0
redo_RPB004_40,unclassified,Paenibacillus sp. IHBB 10380,NZ_CP010977_1,17061.0,0.0,0.0,0.0,0.0,0.0
redo_RPB004_40,unclassified,Salmonella bongori,NC_015761_1,4460105.0,0.0226452068,1.0,1010.0,0.0,0.0
redo_RPB004_40,unclassified,Serratia marcescens,NZ_HG326223_1,5113802.0,0.047479351,1.0,2428.0,0.0,0.0
redo_RPB004_40,unclassified,Shigella dysenteriae,NC_007606_1,4369232.0,0.2268362037,1.0,9911.0,0.0,0.0
redo_RPB004_40,unclassified,Shigella dysenteriae,NC_009344_1,8953.0,0.0,0.0,0.0,0.0,0.0
redo_RPB004_40,unclassified,Shigella dysenteriae,NC_007607_1,182726.0,0.0,0.0,0.0,0.0,0.0
redo_RPB004_40,unclassified,Shigella flexneri,NC_004337_2,4607202.0,0.5454503623,1.0,25130.0,0.0,0.0
redo_RPB004_40,unclassified,Shigella flexneri,NC_004851_1,221618.0,0.0,0.0,0.0,0.0,0.0
redo_RPB004_40,unclassified,Staphylococcus argenteus,NC_016941_1,2762785.0,0.8040799411,1.0,22215.0,0.0,0.0
redo_RPB004_40,unclassified,Staphylococcus argenteus,NC_016942_1,24853.0,0.0,0.0,0.0,0.0,0.0
redo_RPB004_40,unclassified,Staphylococcus aureus,NC_007795_1,2821361.0,89.5138551926,4.1491200388,2525509.0,981065.0,10380.0
redo_RPB004_40,unclassified,Staphylococcus capitis,NZ_CP007601_1,2443604.0,1.9411492206,1.0461483324,47434.0,0.0,0.0
redo_RPB004_40,unclassified,Staphylococcus capitis,NZ_CP007602_1,59661.0,0.0,0.0,0.0,0.0,0.0
redo_RPB004_40,unclassified,Staphylococcus epidermidis,NC_004461_1,2499279.0,0.3140505722,1.5478404892,7849.0,0.0,0.0
redo_RPB004_40,unclassified,Staphylococcus epidermidis,NC_005008_1,4439.0,0.0,0.0,0.0,0.0,0.0
redo_RPB004_40,unclassified,Staphylococcus epidermidis,NC_005007_1,4679.0,0.0,0.0,0.0,0.0,0.0
redo_RPB004_40,unclassified,Staphylococcus epidermidis,NC_005006_1,8007.0,0.0,0.0,0.0,0.0,0.0
redo_RPB004_40,unclassified,Staphylococcus epidermidis,NC_005005_1,17261.0,0.0,0.0,0.0,0.0,0.0
redo_RPB004_40,unclassified,Staphylococcus epidermidis,NC_005004_1,24365.0,14.2827826801,2.2347701149,3480.0,0.0,0.0
redo_RPB004_40,unclassified,Staphylococcus epidermidis,NC_005003_1,6585.0,0.0,0.0,0.0,0.0,0.0
redo_RPB004_40,unclassified,Staphylococcus lugdunensis,NC_013893_1,2658366.0,0.1393713281,1.0,3705.0,0.0,0.0
redo_RPB004_40,unclassified,Staphylococcus pseudintermedius,NC_014925_1,2617381.0,0.1548112407,1.0,4052.0,0.0,0.0
redo_RPB004_40,unclassified,Staphylococcus schweitzeri,NZ_LR134304_1,2784939.0,0.1178840901,1.0,3283.0,0.0,0.0
redo_RPB004_40,unclassified,Staphylococcus xylosus,NZ_CP007208_1,2836901.0,0.1084634254,1.0,3077.0,0.0,0.0
redo_RPB004_40,unclassified,Staphylococcus xylosus,NZ_CP007209_1,30062.0,0.0,0.0,0.0,0.0,0.0
redo_RPB004_40,unclassified,Streptococcus oralis,NC_015291_1,1958690.0,0.2121315777,1.0,4155.0,0.0,0.0
