sample,barcode,Species name,chrom,len,covBread_1x_percent,avCov,x1,x5,x10
redo_RPB004_51,barcode01,Acinetobacter baumannii,NZ_CP009257_1,4335793.0,0.0159140439,1.0,690.0,0.0,0.0
redo_RPB004_51,barcode01,Acinetobacter guillouiae,NZ_AP014630_1,4648418.0,0.0670335585,1.9329268293,3116.0,0.0,0.0
redo_RPB004_51,barcode01,Acinetobacter sp. WCHA55,NZ_CP032280_1,71539.0,0.0,0.0,0.0,0.0,0.0
redo_RPB004_51,barcode01,Acinetobacter sp. WCHA55,NZ_CP032281_1,16361.0,0.0,0.0,0.0,0.0,0.0
redo_RPB004_51,barcode01,Acinetobacter sp. WCHA55,NZ_CP032282_1,14838.0,0.0,0.0,0.0,0.0,0.0
redo_RPB004_51,barcode01,Acinetobacter sp. WCHA55,NZ_CP032283_1,5624.0,0.0,0.0,0.0,0.0,0.0
redo_RPB004_51,barcode01,Acinetobacter sp. WCHA55,NZ_CP032284_1,71326.0,0.0,0.0,0.0,0.0,0.0
redo_RPB004_51,barcode01,Acinetobacter sp. WCHA55,NZ_CP032285_1,372328.0,0.0,0.0,0.0,0.0,0.0
redo_RPB004_51,barcode01,Acinetobacter sp. WCHA55,NZ_CP032286_1,3415345.0,0.0630682991,1.0,2154.0,0.0,0.0
redo_RPB004_51,barcode01,Brevundimonas vancanneytii,NZ_LR588407_1,3383349.0,0.0132117615,1.0,447.0,0.0,0.0
redo_RPB004_51,barcode01,Cutibacterium acnes,NC_006085_1,2560265.0,0.3951934663,1.3255584108,10118.0,0.0,0.0
redo_RPB004_51,barcode01,Edwardsiella ictaluri,NC_012779_2,3812301.0,0.0678855106,1.0,2588.0,0.0,0.0
redo_RPB004_51,barcode01,Escherichia coli,NC_000913_3,4641652.0,12.8970676819,2.0511395052,598637.0,47787.0,0.0
redo_RPB004_51,barcode01,Escherichia marmotae,NZ_CP025979_1,4671322.0,0.0688456073,1.0,3216.0,0.0,0.0
redo_RPB004_51,barcode01,Escherichia marmotae,NZ_CP025980_1,148809.0,0.0,0.0,0.0,0.0,0.0
redo_RPB004_51,barcode01,Escherichia marmotae,NZ_CP025981_1,76160.0,0.0,0.0,0.0,0.0,0.0
redo_RPB004_51,barcode01,Escherichia virus T7,NC_001604_1,39937.0,0.2128352155,1.0,85.0,0.0,0.0
redo_RPB004_51,barcode01,Klebsiella aerogenes,NC_015663_1,5280350.0,0.0422131109,1.0,2229.0,0.0,0.0
redo_RPB004_51,barcode01,Pseudomonas sp. TKP,NC_023064_1,7012672.0,0.152124611,1.5464004499,10668.0,0.0,0.0
redo_RPB004_51,barcode01,Salmonella enterica,NC_003197_2,4857450.0,0.0826771248,1.0,4016.0,0.0,0.0
redo_RPB004_51,barcode01,Salmonella enterica,NC_003277_2,93933.0,0.0,0.0,0.0,0.0,0.0
redo_RPB004_51,barcode01,Shewanella baltica,NC_016901_1,5288069.0,0.0415085355,1.0,2195.0,0.0,0.0
redo_RPB004_51,barcode01,Shewanella baltica,NC_016905_1,80698.0,0.0,0.0,0.0,0.0,0.0
redo_RPB004_51,barcode01,Shewanella sp. FDAARGOS_354,NZ_CP022089_2,5031863.0,0.0950741306,2.2840719064,4784.0,0.0,0.0
redo_RPB004_51,barcode01,Shewanella sp. FDAARGOS_354,NZ_CP022090_2,38118.0,0.0,0.0,0.0,0.0,0.0
redo_RPB004_51,barcode01,Shigella dysenteriae,NC_007606_1,4369232.0,0.7781687949,1.1491470588,34000.0,0.0,0.0
redo_RPB004_51,barcode01,Shigella dysenteriae,NC_007607_1,182726.0,0.0,0.0,0.0,0.0,0.0
redo_RPB004_51,barcode01,Shigella dysenteriae,NC_009344_1,8953.0,0.0,0.0,0.0,0.0,0.0
redo_RPB004_51,barcode01,Staphylococcus capitis,NZ_CP007601_1,2443604.0,7.867191247,2.2928533159,192243.0,21512.0,0.0
redo_RPB004_51,barcode01,Staphylococcus capitis,NZ_CP007602_1,59661.0,0.0,0.0,0.0,0.0,0.0
redo_RPB004_51,barcode01,Staphylococcus cohnii,NZ_CP027419_1,32058.0,1.3226027825,1.0,424.0,0.0,0.0
redo_RPB004_51,barcode01,Staphylococcus cohnii,NZ_CP027420_1,36910.0,2.137632078,1.0,789.0,0.0,0.0
redo_RPB004_51,barcode01,Staphylococcus cohnii,NZ_CP027421_1,29852.0,0.0,0.0,0.0,0.0,0.0
redo_RPB004_51,barcode01,Staphylococcus cohnii,NZ_CP027422_1,2557319.0,0.0,0.0,0.0,0.0,0.0
redo_RPB004_51,barcode01,Staphylococcus cohnii,NZ_CP027423_1,2670.0,0.0,0.0,0.0,0.0,0.0
redo_RPB004_51,barcode01,Staphylococcus cohnii,NZ_CP027424_1,2473.0,0.0,0.0,0.0,0.0,0.0
redo_RPB004_51,barcode01,Staphylococcus epidermidis,NC_004461_1,2499279.0,0.0730610708,1.0,1826.0,0.0,0.0
redo_RPB004_51,barcode01,Staphylococcus epidermidis,NC_005003_1,6585.0,0.0,0.0,0.0,0.0,0.0
redo_RPB004_51,barcode01,Staphylococcus epidermidis,NC_005004_1,24365.0,13.4332033655,1.0,3273.0,0.0,0.0
redo_RPB004_51,barcode01,Staphylococcus epidermidis,NC_005005_1,17261.0,8.7712183535,1.0,1514.0,0.0,0.0
redo_RPB004_51,barcode01,Staphylococcus epidermidis,NC_005006_1,8007.0,0.0,0.0,0.0,0.0,0.0
redo_RPB004_51,barcode01,Staphylococcus epidermidis,NC_005007_1,4679.0,0.0,0.0,0.0,0.0,0.0
redo_RPB004_51,barcode01,Staphylococcus epidermidis,NC_005008_1,4439.0,0.0,0.0,0.0,0.0,0.0
redo_RPB004_51,barcode01,Staphylococcus haemolyticus,NC_007168_1,2685015.0,0.0617128768,1.1913095957,1657.0,0.0,0.0
redo_RPB004_51,barcode01,Staphylococcus haemolyticus,NC_007169_1,2300.0,0.0,0.0,0.0,0.0,0.0
redo_RPB004_51,barcode01,Staphylococcus haemolyticus,NC_007170_1,2366.0,0.0,0.0,0.0,0.0,0.0
redo_RPB004_51,barcode01,Staphylococcus haemolyticus,NC_007171_1,8180.0,0.0,0.0,0.0,0.0,0.0
redo_RPB004_51,barcode01,Staphylococcus lugdunensis,NC_013893_1,2658366.0,0.0126769602,1.0,337.0,0.0,0.0
redo_RPB004_51,barcode01,Staphylococcus phage IME-SA4,NC_029025_1,41843.0,1.8856200559,2.9100126743,789.0,0.0,0.0
redo_RPB004_51,barcode01,Staphylococcus saprophyticus,NC_007350_1,2516575.0,0.0,0.0,0.0,0.0,0.0
redo_RPB004_51,barcode01,Staphylococcus saprophyticus,NC_007351_1,38454.0,0.0,0.0,0.0,0.0,0.0
redo_RPB004_51,barcode01,Staphylococcus saprophyticus,NC_007352_1,22870.0,6.7949278531,1.2947232947,1554.0,0.0,0.0
redo_RPB004_51,barcode01,Staphylococcus warneri,NC_020164_1,2486042.0,0.018181511,1.0,452.0,0.0,0.0
redo_RPB004_51,barcode01,Staphylococcus warneri,NC_020165_1,4374.0,0.0,0.0,0.0,0.0,0.0
redo_RPB004_51,barcode01,Staphylococcus warneri,NC_020264_1,8232.0,0.0,0.0,0.0,0.0,0.0
redo_RPB004_51,barcode01,Staphylococcus warneri,NC_020265_1,3352.0,0.0,0.0,0.0,0.0,0.0
redo_RPB004_51,barcode01,Staphylococcus warneri,NC_020266_1,19866.0,0.0,0.0,0.0,0.0,0.0
redo_RPB004_51,barcode01,Staphylococcus warneri,NC_020267_1,16515.0,0.0,0.0,0.0,0.0,0.0
redo_RPB004_51,barcode01,Staphylococcus warneri,NC_020268_1,6212.0,0.0,0.0,0.0,0.0,0.0
redo_RPB004_51,barcode01,Staphylococcus warneri,NC_020269_1,2937.0,0.0,0.0,0.0,0.0,0.0
redo_RPB004_51,barcode01,Staphylococcus warneri,NC_020274_1,13186.0,0.0,0.0,0.0,0.0,0.0
redo_RPB004_51,barcode01,Streptomyces sp. Mg1,NZ_CP011664_1,7868178.0,0.0089093053,1.0,701.0,0.0,0.0
redo_RPB004_51,barcode01,Streptomyces sp. Mg1,NZ_CP011665_1,529571.0,0.0,0.0,0.0,0.0,0.0
redo_RPB004_51,barcode01,Streptomyces sp. Mg1,NZ_CP011666_1,134791.0,0.0,0.0,0.0,0.0,0.0
redo_RPB004_51,barcode01,Streptomyces sp. Mg1,NZ_CP011667_1,183653.0,0.0,0.0,0.0,0.0,0.0
redo_RPB004_51,barcode01,Thermobacillus composti,NC_019897_1,4206343.0,0.0227038071,1.0,955.0,0.0,0.0
redo_RPB004_51,barcode01,Thermobacillus composti,NC_019898_1,149182.0,0.0,0.0,0.0,0.0,0.0
redo_RPB004_51,barcode01,Yersinia pseudotuberculosis,NC_009704_1,58679.0,0.0,0.0,0.0,0.0,0.0
redo_RPB004_51,barcode01,Yersinia pseudotuberculosis,NC_009705_1,153140.0,0.0,0.0,0.0,0.0,0.0
redo_RPB004_51,barcode01,Yersinia pseudotuberculosis,NC_009708_1,4723306.0,0.0479748718,1.0,2266.0,0.0,0.0
redo_RPB004_51,barcode02,Escherichia coli,NC_000913_3,4641652.0,0.6411294944,2.7021069256,29759.0,5016.0,0.0
redo_RPB004_51,barcode02,Micrococcus sp. KBS0714,NZ_CP042169_1,2522703.0,0.1022712543,1.0,2580.0,0.0,0.0
redo_RPB004_51,barcode04,Acidovorax sp. RAC01,NZ_CP016447_1,4574859.0,0.0264926198,1.0,1212.0,0.0,0.0
redo_RPB004_51,barcode04,Acinetobacter baumannii,NZ_CP009257_1,4335793.0,0.0056737026,1.0,246.0,0.0,0.0
redo_RPB004_51,barcode04,Acinetobacter guillouiae,NZ_AP014630_1,4648418.0,0.0333016523,1.0,1548.0,0.0,0.0
redo_RPB004_51,barcode04,Acinetobacter haemolyticus,NZ_CP018871_1,3442728.0,0.0545788108,1.0,1879.0,0.0,0.0
redo_RPB004_51,barcode04,Acinetobacter haemolyticus,NZ_CP018872_1,56602.0,0.0,0.0,0.0,0.0,0.0
redo_RPB004_51,barcode04,Acinetobacter haemolyticus,NZ_CP018873_1,39508.0,0.0,0.0,0.0,0.0,0.0
redo_RPB004_51,barcode04,Acinetobacter indicus,NZ_CP024620_2,3157380.0,0.0521951745,1.0,1648.0,0.0,0.0
redo_RPB004_51,barcode04,Acinetobacter johnsonii,NZ_CP010350_1,3509795.0,1.2402718677,3.5596241759,43531.0,14220.0,1600.0
redo_RPB004_51,barcode04,Acinetobacter johnsonii,NZ_CP010351_1,398857.0,0.0,0.0,0.0,0.0,0.0
redo_RPB004_51,barcode04,Acinetobacter johnsonii,NZ_CP010352_1,3978.0,0.0,0.0,0.0,0.0,0.0
redo_RPB004_51,barcode04,Acinetobacter johnsonii,NZ_CP010353_1,4724.0,0.0,0.0,0.0,0.0,0.0
redo_RPB004_51,barcode04,Acinetobacter johnsonii,NZ_CP010354_1,11643.0,0.0,0.0,0.0,0.0,0.0
redo_RPB004_51,barcode04,Acinetobacter johnsonii,NZ_CP010355_1,7579.0,0.0,0.0,0.0,0.0,0.0
redo_RPB004_51,barcode04,Acinetobacter johnsonii,NZ_CP010356_1,13940.0,0.0,0.0,0.0,0.0,0.0
redo_RPB004_51,barcode04,Acinetobacter johnsonii,NZ_CP010357_1,13330.0,0.0,0.0,0.0,0.0,0.0
redo_RPB004_51,barcode04,Acinetobacter johnsonii,NZ_CP010358_1,117483.0,0.0,0.0,0.0,0.0,0.0
redo_RPB004_51,barcode04,Acinetobacter junii,NZ_CP019041_1,3378307.0,0.1115943578,1.2326259947,3770.0,0.0,0.0
redo_RPB004_51,barcode04,Acinetobacter schindleri,NZ_CP015615_1,3001209.0,0.0662732919,1.0,1989.0,0.0,0.0
redo_RPB004_51,barcode04,Acinetobacter schindleri,NZ_CP015616_1,179461.0,0.0,0.0,0.0,0.0,0.0
redo_RPB004_51,barcode04,Acinetobacter schindleri,NZ_CP015617_1,45079.0,0.0,0.0,0.0,0.0,0.0
redo_RPB004_51,barcode04,Acinetobacter schindleri,NZ_CP015618_1,14058.0,0.0,0.0,0.0,0.0,0.0
redo_RPB004_51,barcode04,Acinetobacter schindleri,NZ_CP015619_1,10218.0,0.0,0.0,0.0,0.0,0.0
redo_RPB004_51,barcode04,Acinetobacter schindleri,NZ_CP015620_1,10085.0,0.0,0.0,0.0,0.0,0.0
redo_RPB004_51,barcode04,Acinetobacter schindleri,NZ_CP015621_1,7943.0,0.0,0.0,0.0,0.0,0.0
redo_RPB004_51,barcode04,Acinetobacter sp. SWBY1,NZ_CP026616_1,2914878.0,0.94810143,5.309813287,27636.0,17032.0,2499.0
redo_RPB004_51,barcode04,Acinetobacter sp. SWBY1,NZ_CP026617_1,38161.0,0.0,0.0,0.0,0.0,0.0
redo_RPB004_51,barcode04,Acinetobacter sp. WCHA55,NZ_CP032280_1,71539.0,0.0,0.0,0.0,0.0,0.0
redo_RPB004_51,barcode04,Acinetobacter sp. WCHA55,NZ_CP032281_1,16361.0,0.0,0.0,0.0,0.0,0.0
redo_RPB004_51,barcode04,Acinetobacter sp. WCHA55,NZ_CP032282_1,14838.0,0.0,0.0,0.0,0.0,0.0
redo_RPB004_51,barcode04,Acinetobacter sp. WCHA55,NZ_CP032283_1,5624.0,0.0,0.0,0.0,0.0,0.0
redo_RPB004_51,barcode04,Acinetobacter sp. WCHA55,NZ_CP032284_1,71326.0,0.0,0.0,0.0,0.0,0.0
redo_RPB004_51,barcode04,Acinetobacter sp. WCHA55,NZ_CP032285_1,372328.0,0.0,0.0,0.0,0.0,0.0
redo_RPB004_51,barcode04,Acinetobacter sp. WCHA55,NZ_CP032286_1,3415345.0,0.0308899979,1.0,1055.0,0.0,0.0
redo_RPB004_51,barcode04,Actinomyces pacaensis,NZ_LT635457_1,1892549.0,0.0134210528,1.0,254.0,0.0,0.0
redo_RPB004_51,barcode04,Aeromonas sp. ASNIH2,NZ_CP026406_1,4801408.0,0.0210563235,1.0,1011.0,0.0,0.0
redo_RPB004_51,barcode04,Aeromonas sp. ASNIH2,NZ_CP026407_1,13512.0,0.0,0.0,0.0,0.0,0.0
redo_RPB004_51,barcode04,Aeromonas sp. ASNIH2,NZ_CP026408_1,29979.0,0.0,0.0,0.0,0.0,0.0
redo_RPB004_51,barcode04,Aeromonas sp. ASNIH2,NZ_CP026409_1,8238.0,0.0,0.0,0.0,0.0,0.0
redo_RPB004_51,barcode04,Aeromonas sp. ASNIH2,NZ_CP026410_1,6782.0,0.0,0.0,0.0,0.0,0.0
redo_RPB004_51,barcode04,Aeromonas sp. ASNIH2,NZ_CP026411_1,4613.0,0.0,0.0,0.0,0.0,0.0
redo_RPB004_51,barcode04,Amycolatopsis mediterranei,NC_014318_1,10236715.0,0.0026571024,1.0,272.0,0.0,0.0
redo_RPB004_51,barcode04,Brachybacterium faecium,NC_013172_1,3614992.0,0.0428769967,1.0,1550.0,0.0,0.0
redo_RPB004_51,barcode04,Brachybacterium sp. P6-10-X1,NZ_CP017297_1,4385603.0,0.0304177099,1.0,1334.0,0.0,0.0
redo_RPB004_51,barcode04,Brevundimonas diminuta,NZ_CP035093_1,3551819.0,0.0155131779,1.0,551.0,0.0,0.0
redo_RPB004_51,barcode04,Citrobacter koseri,NC_009792_1,4720462.0,0.0218198981,1.0,1030.0,0.0,0.0
redo_RPB004_51,barcode04,Citrobacter koseri,NC_009793_1,9294.0,0.0,0.0,0.0,0.0,0.0
redo_RPB004_51,barcode04,Citrobacter koseri,NC_009794_1,5601.0,0.0,0.0,0.0,0.0,0.0
redo_RPB004_51,barcode04,Citrobacter werkmanii,NZ_CP019986_1,4929789.0,0.0564730052,1.0,2784.0,0.0,0.0
redo_RPB004_51,barcode04,Citrobacter werkmanii,NZ_CP019987_1,212549.0,0.0,0.0,0.0,0.0,0.0
redo_RPB004_51,barcode04,Comamonas thiooxydans,NC_013446_2,5373644.0,0.0283234245,1.0,1522.0,0.0,0.0
redo_RPB004_51,barcode04,Corynebacterium callunae,NC_020506_1,2839551.0,0.0241939659,1.9723435226,687.0,0.0,0.0
redo_RPB004_51,barcode04,Corynebacterium callunae,NC_020523_1,4109.0,0.0,0.0,0.0,0.0,0.0
redo_RPB004_51,barcode04,Corynebacterium callunae,NC_020553_1,85023.0,0.0,0.0,0.0,0.0,0.0
redo_RPB004_51,barcode04,Corynebacterium efficiens,NC_004319_1,23743.0,0.0,0.0,0.0,0.0,0.0
redo_RPB004_51,barcode04,Corynebacterium efficiens,NC_004320_1,48672.0,0.0,0.0,0.0,0.0,0.0
redo_RPB004_51,barcode04,Corynebacterium efficiens,NC_004369_1,3147090.0,0.0133456622,1.0,420.0,0.0,0.0
redo_RPB004_51,barcode04,Corynebacterium flavescens,NZ_CP009246_1,2758653.0,0.0776465906,1.0,2142.0,0.0,0.0
redo_RPB004_51,barcode04,Corynebacterium glutamicum,NC_003450_3,3309401.0,0.0058318711,1.0,193.0,0.0,0.0
redo_RPB004_51,barcode04,Corynebacterium kroppenstedtii,NC_012704_1,2446804.0,1.1173351033,4.2224294963,27339.0,6570.0,3647.0
redo_RPB004_51,barcode04,Corynebacterium segmentosum,NZ_LR134408_1,2373440.0,0.9060688284,2.5408509649,21505.0,2426.0,0.0
redo_RPB004_51,barcode04,Corynebacterium testudinoris,NZ_CP011545_1,2721226.0,0.0447224891,1.0,1217.0,0.0,0.0
redo_RPB004_51,barcode04,Cronobacter sakazakii,NZ_CP011047_1,4511265.0,0.0193737233,1.0,874.0,0.0,0.0
redo_RPB004_51,barcode04,Cronobacter sakazakii,NZ_CP011048_1,93905.0,0.0,0.0,0.0,0.0,0.0
redo_RPB004_51,barcode04,Cronobacter sakazakii,NZ_CP011049_1,4938.0,0.0,0.0,0.0,0.0,0.0
redo_RPB004_51,barcode04,Cronobacter sakazakii,NZ_CP011050_1,53457.0,0.0,0.0,0.0,0.0,0.0
redo_RPB004_51,barcode04,Cupriavidus metallidurans,NC_007971_2,233720.0,0.0,0.0,0.0,0.0,0.0
redo_RPB004_51,barcode04,Cupriavidus metallidurans,NC_007972_2,171459.0,0.0,0.0,0.0,0.0,0.0
redo_RPB004_51,barcode04,Cupriavidus metallidurans,NC_007973_1,3928089.0,0.052722838,1.9323998069,2071.0,0.0,0.0
redo_RPB004_51,barcode04,Cupriavidus metallidurans,NC_007974_2,2580084.0,0.0,0.0,0.0,0.0,0.0
redo_RPB004_51,barcode04,Cutibacterium acnes,NC_006085_1,2560265.0,31.9347801888,3.4268011228,817615.0,205603.0,37596.0
redo_RPB004_51,barcode04,Cutibacterium avidum,NC_021064_1,2526138.0,0.2696210579,2.3472324181,6811.0,0.0,0.0
redo_RPB004_51,barcode04,Cutibacterium granulosum,NZ_LT906441_1,2175244.0,0.5621898049,1.6577806853,12229.0,0.0,0.0
redo_RPB004_51,barcode04,Edwardsiella ictaluri,NC_012779_2,3812301.0,0.043412102,1.0,1655.0,0.0,0.0
redo_RPB004_51,barcode04,Enterobacter hormaechei,NZ_CP017179_1,4782480.0,0.034584567,1.0,1654.0,0.0,0.0
redo_RPB004_51,barcode04,Enterobacter kobei,NZ_CP017181_1,4880257.0,0.0275190425,1.0,1343.0,0.0,0.0
redo_RPB004_51,barcode04,Enterobacter kobei,NZ_CP017182_1,47221.0,0.0,0.0,0.0,0.0,0.0
redo_RPB004_51,barcode04,Enterobacter roggenkampii,NZ_CP017184_1,4748414.0,0.0654534335,1.0,3108.0,0.0,0.0
redo_RPB004_51,barcode04,Enterobacter roggenkampii,NZ_CP017185_1,151583.0,0.0,0.0,0.0,0.0,0.0
redo_RPB004_51,barcode04,Escherichia albertii,NZ_CP007025_1,4701875.0,0.301050113,1.0,14155.0,0.0,0.0
redo_RPB004_51,barcode04,Escherichia coli,NC_000913_3,4641652.0,17.865169556,2.8736612726,829239.0,152405.0,20081.0
redo_RPB004_51,barcode04,Escherichia fergusonii,NC_011740_1,4588711.0,0.0397279323,1.0,1823.0,0.0,0.0
redo_RPB004_51,barcode04,Escherichia fergusonii,NC_011743_1,55150.0,0.0,0.0,0.0,0.0,0.0
redo_RPB004_51,barcode04,Escherichia marmotae,NZ_CP025979_1,4671322.0,0.0502855509,1.0,2349.0,0.0,0.0
redo_RPB004_51,barcode04,Escherichia marmotae,NZ_CP025980_1,148809.0,0.0,0.0,0.0,0.0,0.0
redo_RPB004_51,barcode04,Escherichia marmotae,NZ_CP025981_1,76160.0,0.0,0.0,0.0,0.0,0.0
redo_RPB004_51,barcode04,Escherichia virus Mu,NC_000929_1,36717.0,5.419832775,1.8618090452,1990.0,0.0,0.0
redo_RPB004_51,barcode04,Gemella haemolysans,NZ_LR134484_1,1926227.0,0.0301625925,1.0,581.0,0.0,0.0
redo_RPB004_51,barcode04,Granulosicoccus antarcticus,NZ_CP018632_1,7783862.0,0.0058968157,1.0,459.0,0.0,0.0
redo_RPB004_51,barcode04,Janibacter indicus,NZ_CP013290_1,3401189.0,0.1731747339,2.6322580645,5890.0,0.0,0.0
redo_RPB004_51,barcode04,Klebsiella sp. M5al,NZ_CP020657_1,5800138.0,0.0478436892,6.7459459459,2775.0,2757.0,0.0
redo_RPB004_51,barcode04,Kluyvera intermedia,NZ_CP011598_1,43621.0,0.0,0.0,0.0,0.0,0.0
redo_RPB004_51,barcode04,Kluyvera intermedia,NZ_CP011599_1,82986.0,0.0,0.0,0.0,0.0,0.0
redo_RPB004_51,barcode04,Kluyvera intermedia,NZ_CP011600_1,215092.0,0.0,0.0,0.0,0.0,0.0
redo_RPB004_51,barcode04,Kluyvera intermedia,NZ_CP011601_1,295619.0,0.0,0.0,0.0,0.0,0.0
redo_RPB004_51,barcode04,Kluyvera intermedia,NZ_CP011602_1,5529134.0,0.0532633139,1.0,2945.0,0.0,0.0
redo_RPB004_51,barcode04,Kocuria palustris,NZ_CP012507_1,2854447.0,0.1193576199,1.0,3407.0,0.0,0.0
redo_RPB004_51,barcode04,Kocuria sp. BT304,NZ_CP030039_1,2763150.0,0.0378191557,1.966507177,1045.0,0.0,0.0
redo_RPB004_51,barcode04,Kribbella flavida,NC_013729_1,7579488.0,0.006055818,1.0,459.0,0.0,0.0
redo_RPB004_51,barcode04,Lawsonella clevelandensis,NZ_CP009312_1,1860551.0,3.0496879688,2.3127191978,56741.0,8727.0,0.0
redo_RPB004_51,barcode04,Leifsonia xyli,NC_022438_1,2686418.0,0.0026801488,1.0,72.0,0.0,0.0
redo_RPB004_51,barcode04,Lelliottia amnigena,NZ_CP015774_2,4616122.0,0.0295702757,1.0,1365.0,0.0,0.0
redo_RPB004_51,barcode04,Methylobacterium sp. C1,NZ_CP017640_1,6459145.0,0.0259322248,1.9211940299,1675.0,0.0,0.0
redo_RPB004_51,barcode04,Micrococcus luteus,NC_012803_1,2501097.0,0.0672904729,1.0,1683.0,0.0,0.0
redo_RPB004_51,barcode04,Micrococcus sp. KBS0714,NZ_CP042169_1,2522703.0,0.0472112651,1.7539882452,1191.0,0.0,0.0
redo_RPB004_51,barcode04,Morganella morganii,NC_020418_1,3799539.0,0.0580859941,1.0,2207.0,0.0,0.0
redo_RPB004_51,barcode04,Paracoccus sp. CBA4604,NZ_CP025583_1,3121136.0,0.085097221,1.9243222892,2656.0,0.0,0.0
redo_RPB004_51,barcode04,Paracoccus sp. CBA4604,NZ_CP025584_1,149225.0,0.0,0.0,0.0,0.0,0.0
redo_RPB004_51,barcode04,Paracoccus sp. CBA4604,NZ_CP025585_1,28805.0,0.0,0.0,0.0,0.0,0.0
redo_RPB004_51,barcode04,Pimelobacter simplex,NZ_CP009896_1,5637360.0,0.011778563,1.0,664.0,0.0,0.0
redo_RPB004_51,barcode04,Plautia stali symbiont,NC_022533_1,19174.0,0.0,0.0,0.0,0.0,0.0
redo_RPB004_51,barcode04,Plautia stali symbiont,NC_022534_1,38222.0,0.0,0.0,0.0,0.0,0.0
redo_RPB004_51,barcode04,Plautia stali symbiont,NC_022546_1,4035456.0,0.0016107226,1.0,65.0,0.0,0.0
redo_RPB004_51,barcode04,Propionibacterium sp. oral taxon 193,NZ_CP017040_1,2571505.0,0.2865637049,1.2651648799,7369.0,0.0,0.0
redo_RPB004_51,barcode04,Propionibacterium sp. oral taxon 193,NZ_CP017041_1,77702.0,0.0,0.0,0.0,0.0,0.0
redo_RPB004_51,barcode04,Pseudomonas mendocina,NC_009439_1,5072807.0,0.023734394,1.0,1204.0,0.0,0.0
redo_RPB004_51,barcode04,Pseudomonas sp. NC02,NZ_CP025624_1,6890566.0,0.0392275468,1.0,2703.0,0.0,0.0
redo_RPB004_51,barcode04,Pseudomonas sp. TKP,NC_023064_1,7012672.0,0.0085559399,1.0,600.0,0.0,0.0
redo_RPB004_51,barcode04,Pseudomonas sp. phDV1,NZ_CP031606_1,4727682.0,0.0210039508,1.0,993.0,0.0,0.0
redo_RPB004_51,barcode04,Rothia aeria,NZ_AP017895_1,2588680.0,0.0994329156,3.0621600622,2574.0,1215.0,0.0
redo_RPB004_51,barcode04,Salmonella enterica,NC_003197_2,4857450.0,0.1875057901,1.0,9108.0,0.0,0.0
redo_RPB004_51,barcode04,Salmonella enterica,NC_003277_2,93933.0,0.0,0.0,0.0,0.0,0.0
redo_RPB004_51,barcode04,Serratia sp. ATCC 39006,NZ_CP025084_1,4971757.0,0.0326443951,1.0,1623.0,0.0,0.0
redo_RPB004_51,barcode04,Shewanella sp. FDAARGOS_354,NZ_CP022089_2,5031863.0,0.0498821212,1.0,2510.0,0.0,0.0
redo_RPB004_51,barcode04,Shewanella sp. FDAARGOS_354,NZ_CP022090_2,38118.0,0.0,0.0,0.0,0.0,0.0
redo_RPB004_51,barcode04,Shewanella sp. MR-4,NC_008321_1,4706287.0,0.0095191815,2.9464285714,448.0,0.0,0.0
redo_RPB004_51,barcode04,Shewanella sp. W3-18-1,NC_008750_1,4708380.0,0.0090476979,1.0,426.0,0.0,0.0
redo_RPB004_51,barcode04,Shigella dysenteriae,NC_007606_1,4369232.0,1.2991985777,1.0218092134,56765.0,0.0,0.0
redo_RPB004_51,barcode04,Shigella dysenteriae,NC_007607_1,182726.0,0.0,0.0,0.0,0.0,0.0
redo_RPB004_51,barcode04,Shigella dysenteriae,NC_009344_1,8953.0,0.0,0.0,0.0,0.0,0.0
redo_RPB004_51,barcode04,Shigella flexneri,NC_004337_2,4607202.0,0.667216241,1.1515940143,30740.0,0.0,0.0
redo_RPB004_51,barcode04,Shigella flexneri,NC_004851_1,221618.0,0.0,0.0,0.0,0.0,0.0
redo_RPB004_51,barcode04,Staphylococcus auricularis,NZ_LS483491_1,2216666.0,0.2062105883,8.7510391599,4571.0,4558.0,0.0
redo_RPB004_51,barcode04,Staphylococcus capitis,NZ_CP007601_1,2443604.0,2.0902322962,4.7728331734,51077.0,21747.0,4854.0
redo_RPB004_51,barcode04,Staphylococcus capitis,NZ_CP007602_1,59661.0,0.0,0.0,0.0,0.0,0.0
redo_RPB004_51,barcode04,Staphylococcus epidermidis,NC_004461_1,2499279.0,3.0506398045,3.6019883532,76244.0,26552.0,7.0
redo_RPB004_51,barcode04,Staphylococcus epidermidis,NC_005003_1,6585.0,0.0,0.0,0.0,0.0,0.0
redo_RPB004_51,barcode04,Staphylococcus epidermidis,NC_005004_1,24365.0,0.0,0.0,0.0,0.0,0.0
redo_RPB004_51,barcode04,Staphylococcus epidermidis,NC_005005_1,17261.0,0.0,0.0,0.0,0.0,0.0
redo_RPB004_51,barcode04,Staphylococcus epidermidis,NC_005006_1,8007.0,0.0,0.0,0.0,0.0,0.0
redo_RPB004_51,barcode04,Staphylococcus epidermidis,NC_005007_1,4679.0,0.0,0.0,0.0,0.0,0.0
redo_RPB004_51,barcode04,Staphylococcus epidermidis,NC_005008_1,4439.0,3.7395809867,1.9096385542,166.0,0.0,0.0
redo_RPB004_51,barcode04,Streptococcus mitis,NC_013853_1,2146611.0,0.7428919352,4.5638051044,15947.0,9341.0,0.0
redo_RPB004_51,barcode04,Streptococcus oralis,NC_015291_1,1958690.0,0.5002322981,1.9724433558,9798.0,0.0,0.0
redo_RPB004_51,barcode04,Streptococcus pneumoniae,NC_003098_1,2038615.0,0.1225341715,1.0,2498.0,0.0,0.0
redo_RPB004_51,barcode04,Streptococcus sanguinis,NC_009009_1,2388435.0,0.3306767821,3.9151683971,7898.0,3726.0,0.0
redo_RPB004_51,barcode04,Streptococcus sp. oral taxon 431,NZ_CP014264_1,2177905.0,0.0284677247,1.8983870968,620.0,0.0,0.0
redo_RPB004_51,barcode04,Vibrio nigripulchritudo,NC_022528_1,4109740.0,0.0379342732,1.0,1559.0,0.0,0.0
redo_RPB004_51,barcode04,Vibrio nigripulchritudo,NC_022543_1,2212415.0,0.0,0.0,0.0,0.0,0.0
redo_RPB004_51,barcode04,[Enterobacter] lignolyticus,NC_014618_1,4814049.0,0.1460724642,1.0,7032.0,0.0,0.0
redo_RPB004_51,barcode06,Staphylococcus epidermidis,NC_004461_1,2499279.0,0.1835329309,1.0,4587.0,0.0,0.0
redo_RPB004_51,barcode06,Staphylococcus epidermidis,NC_005003_1,6585.0,0.0,0.0,0.0,0.0,0.0
redo_RPB004_51,barcode06,Staphylococcus epidermidis,NC_005004_1,24365.0,0.0,0.0,0.0,0.0,0.0
redo_RPB004_51,barcode06,Staphylococcus epidermidis,NC_005005_1,17261.0,0.0,0.0,0.0,0.0,0.0
redo_RPB004_51,barcode06,Staphylococcus epidermidis,NC_005006_1,8007.0,0.0,0.0,0.0,0.0,0.0
redo_RPB004_51,barcode06,Staphylococcus epidermidis,NC_005007_1,4679.0,0.0,0.0,0.0,0.0,0.0
redo_RPB004_51,barcode06,Staphylococcus epidermidis,NC_005008_1,4439.0,0.0,0.0,0.0,0.0,0.0
redo_RPB004_51,barcode07,Cutibacterium acnes,NC_006085_1,2560265.0,0.1735367237,1.0,4443.0,0.0,0.0
redo_RPB004_51,barcode07,Escherichia albertii,NZ_CP007025_1,4701875.0,0.0613585006,1.0,2885.0,0.0,0.0
redo_RPB004_51,barcode07,Escherichia coli,NC_000913_3,4641652.0,5.2285263953,1.2605958218,242690.0,0.0,0.0
redo_RPB004_51,barcode07,Escherichia marmotae,NZ_CP025979_1,4671322.0,0.1173757664,1.0,5483.0,0.0,0.0
redo_RPB004_51,barcode07,Escherichia marmotae,NZ_CP025980_1,148809.0,0.0,0.0,0.0,0.0,0.0
redo_RPB004_51,barcode07,Escherichia marmotae,NZ_CP025981_1,76160.0,0.0,0.0,0.0,0.0,0.0
redo_RPB004_51,barcode07,Shigella dysenteriae,NC_007606_1,4369232.0,0.5610825884,1.0,24515.0,0.0,0.0
redo_RPB004_51,barcode07,Shigella dysenteriae,NC_007607_1,182726.0,0.0,0.0,0.0,0.0,0.0
redo_RPB004_51,barcode07,Shigella dysenteriae,NC_009344_1,8953.0,0.0,0.0,0.0,0.0,0.0
redo_RPB004_51,barcode07,Shigella flexneri,NC_004337_2,4607202.0,0.0060123259,1.0,277.0,0.0,0.0
redo_RPB004_51,barcode07,Shigella flexneri,NC_004851_1,221618.0,0.0,0.0,0.0,0.0,0.0
redo_RPB004_51,barcode07,Staphylococcus epidermidis,NC_004461_1,2499279.0,4.6090092383,2.1450621571,115192.0,7781.0,4390.0
redo_RPB004_51,barcode07,Staphylococcus epidermidis,NC_005003_1,6585.0,0.0,0.0,0.0,0.0,0.0
redo_RPB004_51,barcode07,Staphylococcus epidermidis,NC_005004_1,24365.0,0.0,0.0,0.0,0.0,0.0
redo_RPB004_51,barcode07,Staphylococcus epidermidis,NC_005005_1,17261.0,0.0,0.0,0.0,0.0,0.0
redo_RPB004_51,barcode07,Staphylococcus epidermidis,NC_005006_1,8007.0,0.0,0.0,0.0,0.0,0.0
redo_RPB004_51,barcode07,Staphylococcus epidermidis,NC_005007_1,4679.0,0.0,0.0,0.0,0.0,0.0
redo_RPB004_51,barcode07,Staphylococcus epidermidis,NC_005008_1,4439.0,0.0,0.0,0.0,0.0,0.0
redo_RPB004_51,barcode07,Staphylococcus haemolyticus,NC_007168_1,2685015.0,0.0289011421,1.0,776.0,0.0,0.0
redo_RPB004_51,barcode07,Staphylococcus haemolyticus,NC_007169_1,2300.0,0.0,0.0,0.0,0.0,0.0
redo_RPB004_51,barcode07,Staphylococcus haemolyticus,NC_007170_1,2366.0,0.0,0.0,0.0,0.0,0.0
redo_RPB004_51,barcode07,Staphylococcus haemolyticus,NC_007171_1,8180.0,0.0,0.0,0.0,0.0,0.0
redo_RPB004_51,barcode07,Staphylococcus virus IPLA7,NC_018284_1,42123.0,22.6764475465,1.479480737,9552.0,0.0,0.0
redo_RPB004_51,barcode08,Acinetobacter johnsonii,NZ_CP010350_1,3509795.0,0.0577811525,1.0,2028.0,0.0,0.0
redo_RPB004_51,barcode08,Acinetobacter johnsonii,NZ_CP010351_1,398857.0,0.0,0.0,0.0,0.0,0.0
redo_RPB004_51,barcode08,Acinetobacter johnsonii,NZ_CP010352_1,3978.0,0.0,0.0,0.0,0.0,0.0
redo_RPB004_51,barcode08,Acinetobacter johnsonii,NZ_CP010353_1,4724.0,0.0,0.0,0.0,0.0,0.0
redo_RPB004_51,barcode08,Acinetobacter johnsonii,NZ_CP010354_1,11643.0,0.0,0.0,0.0,0.0,0.0
redo_RPB004_51,barcode08,Acinetobacter johnsonii,NZ_CP010355_1,7579.0,0.0,0.0,0.0,0.0,0.0
redo_RPB004_51,barcode08,Acinetobacter johnsonii,NZ_CP010356_1,13940.0,0.0,0.0,0.0,0.0,0.0
redo_RPB004_51,barcode08,Acinetobacter johnsonii,NZ_CP010357_1,13330.0,0.0,0.0,0.0,0.0,0.0
redo_RPB004_51,barcode08,Acinetobacter johnsonii,NZ_CP010358_1,117483.0,0.0,0.0,0.0,0.0,0.0
redo_RPB004_51,barcode08,Cutibacterium acnes,NC_006085_1,2560265.0,0.2219692102,1.0,5683.0,0.0,0.0
redo_RPB004_51,barcode08,Dolosigranulum pigrum,NZ_CP041626_1,2082055.0,0.1167596437,1.0,2431.0,0.0,0.0
redo_RPB004_51,barcode08,Escherichia coli,NC_000913_3,4641652.0,2.5965539855,1.014320918,120523.0,0.0,0.0
redo_RPB004_51,barcode08,Escherichia fergusonii,NC_011740_1,4588711.0,0.071000331,1.0,3258.0,0.0,0.0
redo_RPB004_51,barcode08,Escherichia fergusonii,NC_011743_1,55150.0,0.0,0.0,0.0,0.0,0.0
redo_RPB004_51,barcode08,Escherichia marmotae,NZ_CP025979_1,4671322.0,0.1656704462,1.0,7739.0,0.0,0.0
redo_RPB004_51,barcode08,Escherichia marmotae,NZ_CP025980_1,148809.0,0.0,0.0,0.0,0.0,0.0
redo_RPB004_51,barcode08,Escherichia marmotae,NZ_CP025981_1,76160.0,0.0,0.0,0.0,0.0,0.0
redo_RPB004_51,barcode08,Glaesserella parasuis,NC_011852_1,2269156.0,0.0966438623,1.0,2193.0,0.0,0.0
redo_RPB004_51,barcode08,Glaesserella sp. 15-184,NZ_CP023057_1,2384333.0,0.0957500483,1.0,2283.0,0.0,0.0
redo_RPB004_51,barcode08,Glaesserella sp. 15-184,NZ_CP023058_1,10207.0,0.0,0.0,0.0,0.0,0.0
redo_RPB004_51,barcode08,Glaesserella sp. 15-184,NZ_CP023059_1,2645.0,0.0,0.0,0.0,0.0,0.0
redo_RPB004_51,barcode08,Glaesserella sp. 15-184,NZ_CP023060_1,2365.0,0.0,0.0,0.0,0.0,0.0
redo_RPB004_51,barcode08,Lactococcus lactis,NC_002662_1,2365589.0,0.0904637281,1.0,2140.0,0.0,0.0
redo_RPB004_51,barcode08,Shigella flexneri,NC_004337_2,4607202.0,0.0777478391,1.0,3582.0,0.0,0.0
redo_RPB004_51,barcode08,Shigella flexneri,NC_004851_1,221618.0,0.0,0.0,0.0,0.0,0.0
redo_RPB004_51,barcode08,Staphylococcus aureus,NC_007795_1,2821361.0,0.1795587307,1.2856296881,5066.0,0.0,0.0
redo_RPB004_51,barcode08,Staphylococcus cohnii,NZ_CP027419_1,32058.0,0.0,0.0,0.0,0.0,0.0
redo_RPB004_51,barcode08,Staphylococcus cohnii,NZ_CP027420_1,36910.0,0.0,0.0,0.0,0.0,0.0
redo_RPB004_51,barcode08,Staphylococcus cohnii,NZ_CP027421_1,29852.0,0.7939166555,1.0,237.0,0.0,0.0
redo_RPB004_51,barcode08,Staphylococcus cohnii,NZ_CP027422_1,2557319.0,0.0,0.0,0.0,0.0,0.0
redo_RPB004_51,barcode08,Staphylococcus cohnii,NZ_CP027423_1,2670.0,0.0,0.0,0.0,0.0,0.0
redo_RPB004_51,barcode08,Staphylococcus cohnii,NZ_CP027424_1,2473.0,0.0,0.0,0.0,0.0,0.0
redo_RPB004_51,barcode08,Staphylococcus epidermidis,NC_004461_1,2499279.0,68.0040123572,1.9929366149,1699610.0,66945.0,0.0
redo_RPB004_51,barcode08,Staphylococcus epidermidis,NC_005003_1,6585.0,0.0,0.0,0.0,0.0,0.0
redo_RPB004_51,barcode08,Staphylococcus epidermidis,NC_005004_1,24365.0,12.0459675764,1.1195911414,2935.0,0.0,0.0
redo_RPB004_51,barcode08,Staphylococcus epidermidis,NC_005005_1,17261.0,9.026128266,1.8677792041,1558.0,0.0,0.0
redo_RPB004_51,barcode08,Staphylococcus epidermidis,NC_005006_1,8007.0,0.0,0.0,0.0,0.0,0.0
redo_RPB004_51,barcode08,Staphylococcus epidermidis,NC_005007_1,4679.0,0.0,0.0,0.0,0.0,0.0
redo_RPB004_51,barcode08,Staphylococcus epidermidis,NC_005008_1,4439.0,0.0,0.0,0.0,0.0,0.0
redo_RPB004_51,barcode08,Staphylococcus haemolyticus,NC_007168_1,2685015.0,0.2782852237,1.6464132762,7472.0,428.0,0.0
redo_RPB004_51,barcode08,Staphylococcus haemolyticus,NC_007169_1,2300.0,0.0,0.0,0.0,0.0,0.0
redo_RPB004_51,barcode08,Staphylococcus haemolyticus,NC_007170_1,2366.0,0.0,0.0,0.0,0.0,0.0
redo_RPB004_51,barcode08,Staphylococcus haemolyticus,NC_007171_1,8180.0,0.0,0.0,0.0,0.0,0.0
redo_RPB004_51,barcode08,Staphylococcus saprophyticus,NC_007350_1,2516575.0,0.0,0.0,0.0,0.0,0.0
redo_RPB004_51,barcode08,Staphylococcus saprophyticus,NC_007351_1,38454.0,2.9411764706,1.5729442971,1131.0,0.0,0.0
redo_RPB004_51,barcode08,Staphylococcus saprophyticus,NC_007352_1,22870.0,0.0,0.0,0.0,0.0,0.0
redo_RPB004_51,barcode08,Staphylococcus virus CNPH82,NC_008722_1,43420.0,19.4334408107,1.4669352927,8438.0,0.0,0.0
redo_RPB004_51,barcode08,Staphylococcus virus IPLA5,NC_018281_1,43581.0,27.344484982,1.9523369976,11917.0,0.0,0.0
redo_RPB004_51,barcode08,Staphylococcus virus IPLA7,NC_018284_1,42123.0,48.3583790328,3.4839469809,20370.0,5880.0,0.0
redo_RPB004_51,barcode08,Staphylococcus virus PH15,NC_008723_1,44041.0,40.5803682932,2.4077887198,17872.0,2741.0,0.0
redo_RPB004_51,barcode08,Sulfitobacter donghicola,NZ_CP026367_1,2469323.0,0.0261205197,1.0,645.0,0.0,0.0
redo_RPB004_51,barcode08,Variovorax paradoxus,NC_014931_1,6550056.0,0.0430988682,1.0,2823.0,0.0,0.0
redo_RPB004_51,barcode10,Acinetobacter baumannii,NZ_CP009257_1,4335793.0,0.0249550659,1.0,1082.0,0.0,0.0
redo_RPB004_51,barcode10,Arthrobacter sp. YC-RL1,NZ_CP013297_1,3846272.0,0.0223593131,1.0,860.0,0.0,0.0
redo_RPB004_51,barcode10,Arthrobacter sp. YC-RL1,NZ_CP013298_1,112763.0,0.0,0.0,0.0,0.0,0.0
redo_RPB004_51,barcode10,Arthrobacter sp. YC-RL1,NZ_CP013299_1,59604.0,0.0,0.0,0.0,0.0,0.0
redo_RPB004_51,barcode10,Brochothrix thermosphacta,NZ_CP023483_1,2647794.0,0.446069445,7.3410380154,11811.0,9077.0,4317.0
redo_RPB004_51,barcode10,Corynebacterium kroppenstedtii,NC_012704_1,2446804.0,0.0615496787,1.0,1506.0,0.0,0.0
redo_RPB004_51,barcode10,Corynebacterium segmentosum,NZ_LR134408_1,2373440.0,0.0972006876,1.0,2307.0,0.0,0.0
redo_RPB004_51,barcode10,Cronobacter muytjensii,NZ_CP012268_1,4364114.0,0.0480509904,1.0,2097.0,0.0,0.0
redo_RPB004_51,barcode10,Cutibacterium acnes,NC_006085_1,2560265.0,2.3553811812,2.4763531441,60304.0,10857.0,0.0
redo_RPB004_51,barcode10,Delftia acidovorans,NC_010002_1,6767514.0,0.0145696041,1.0,986.0,0.0,0.0
redo_RPB004_51,barcode10,Delftia tsuruhatensis,NZ_CP017420_1,7195716.0,0.0334087671,1.0,2404.0,0.0,0.0
redo_RPB004_51,barcode10,Enterobacter sp. R4-368,NC_021492_1,116007.0,0.0,0.0,0.0,0.0,0.0
redo_RPB004_51,barcode10,Enterobacter sp. R4-368,NC_021500_1,5039027.0,0.0404244708,1.0,2037.0,0.0,0.0
redo_RPB004_51,barcode10,Enterococcus casseliflavus,NC_020995_1,3427276.0,0.0569548528,2.9415983607,1952.0,0.0,0.0
redo_RPB004_51,barcode10,Escherichia albertii,NZ_CP007025_1,4701875.0,0.044790642,1.0,2106.0,0.0,0.0
redo_RPB004_51,barcode10,Escherichia coli,NC_000913_3,4641652.0,10.5615199071,2.8226298322,490229.0,81581.0,4393.0
redo_RPB004_51,barcode10,Escherichia virus Mu,NC_000929_1,36717.0,3.1129994281,1.0,1143.0,0.0,0.0
redo_RPB004_51,barcode10,Escherichia virus T7,NC_001604_1,39937.0,0.2178431029,1.0,87.0,0.0,0.0
redo_RPB004_51,barcode10,Gardnerella vaginalis,NC_013721_1,1617545.0,0.0927331233,1.0,1500.0,0.0,0.0
redo_RPB004_51,barcode10,Human endogenous retrovirus K,NC_022518_1,9472.0,22.265625,1.0,2109.0,0.0,0.0
redo_RPB004_51,barcode10,Klebsiella pneumoniae,NC_016838_1,122799.0,0.0,0.0,0.0,0.0,0.0
redo_RPB004_51,barcode10,Klebsiella pneumoniae,NC_016839_1,105974.0,0.0,0.0,0.0,0.0,0.0
redo_RPB004_51,barcode10,Klebsiella pneumoniae,NC_016840_1,3751.0,0.0,0.0,0.0,0.0,0.0
redo_RPB004_51,barcode10,Klebsiella pneumoniae,NC_016841_1,1308.0,0.0,0.0,0.0,0.0,0.0
redo_RPB004_51,barcode10,Klebsiella pneumoniae,NC_016845_1,5333942.0,0.0442449505,1.0,2360.0,0.0,0.0
redo_RPB004_51,barcode10,Klebsiella pneumoniae,NC_016846_1,111195.0,0.0,0.0,0.0,0.0,0.0
redo_RPB004_51,barcode10,Klebsiella pneumoniae,NC_016847_1,3353.0,11.3331345064,1.0,380.0,0.0,0.0
redo_RPB004_51,barcode10,Kocuria indica,NZ_CP035504_1,2809846.0,0.0269053891,1.0,756.0,0.0,0.0
redo_RPB004_51,barcode10,Kocuria indica,NZ_CP035505_1,32758.0,0.0,0.0,0.0,0.0,0.0
redo_RPB004_51,barcode10,Moraxella osloensis,NZ_CP014234_1,2434688.0,0.0946733216,10.7010845987,2305.0,2296.0,1853.0
redo_RPB004_51,barcode10,Moraxella osloensis,NZ_CP014235_1,81455.0,0.0,0.0,0.0,0.0,0.0
redo_RPB004_51,barcode10,Moraxella osloensis,NZ_CP014236_1,57463.0,0.0,0.0,0.0,0.0,0.0
redo_RPB004_51,barcode10,Moraxella osloensis,NZ_CP014237_1,35189.0,0.0,0.0,0.0,0.0,0.0
redo_RPB004_51,barcode10,Moraxella osloensis,NZ_CP014238_1,40342.0,0.0,0.0,0.0,0.0,0.0
redo_RPB004_51,barcode10,Paracoccus aminovorans,NZ_LN832559_1,3108335.0,0.0794315928,1.0,2469.0,0.0,0.0
redo_RPB004_51,barcode10,Paracoccus aminovorans,NZ_LN832560_1,185256.0,0.0,0.0,0.0,0.0,0.0
redo_RPB004_51,barcode10,Paracoccus aminovorans,NZ_LN832561_1,4158.0,0.0,0.0,0.0,0.0,0.0
redo_RPB004_51,barcode10,Paracoccus aminovorans,NZ_LN832562_1,740381.0,0.0,0.0,0.0,0.0,0.0
redo_RPB004_51,barcode10,Paracoccus sp. SC2-6,NZ_CP030918_1,3250998.0,0.0126115119,1.0,410.0,0.0,0.0
redo_RPB004_51,barcode10,Propionibacterium sp. oral taxon 193,NZ_CP017040_1,2571505.0,0.0533539698,1.0,1372.0,0.0,0.0
redo_RPB004_51,barcode10,Propionibacterium sp. oral taxon 193,NZ_CP017041_1,77702.0,0.0,0.0,0.0,0.0,0.0
redo_RPB004_51,barcode10,Pseudomonas sp. TKP,NC_023064_1,7012672.0,0.0408831327,1.9368678061,2867.0,0.0,0.0
redo_RPB004_51,barcode10,Rothia dentocariosa,NC_014643_1,2506025.0,0.1233028402,2.2223300971,3090.0,0.0,0.0
redo_RPB004_51,barcode10,Salmonella bongori,NC_015761_1,4460105.0,0.0859845228,1.0,3835.0,0.0,0.0
redo_RPB004_51,barcode10,Salmonella enterica,NC_003197_2,4857450.0,0.1798680378,1.86871924,8737.0,0.0,0.0
redo_RPB004_51,barcode10,Salmonella enterica,NC_003277_2,93933.0,0.0,0.0,0.0,0.0,0.0
redo_RPB004_51,barcode10,Shewanella putrefaciens,NC_009438_1,4659220.0,0.0037130679,1.0,173.0,0.0,0.0
redo_RPB004_51,barcode10,Shewanella sp. FDAARGOS_354,NZ_CP022089_2,5031863.0,0.0910398395,1.9030779306,4581.0,0.0,0.0
redo_RPB004_51,barcode10,Shewanella sp. FDAARGOS_354,NZ_CP022090_2,38118.0,0.0,0.0,0.0,0.0,0.0
redo_RPB004_51,barcode10,Shigella dysenteriae,NC_007606_1,4369232.0,0.719279727,1.0,31427.0,0.0,0.0
redo_RPB004_51,barcode10,Shigella dysenteriae,NC_007607_1,182726.0,0.0,0.0,0.0,0.0,0.0
redo_RPB004_51,barcode10,Shigella dysenteriae,NC_009344_1,8953.0,0.0,0.0,0.0,0.0,0.0
redo_RPB004_51,barcode10,Shigella flexneri,NC_004337_2,4607202.0,0.621374969,1.1616599134,28628.0,0.0,0.0
redo_RPB004_51,barcode10,Shigella flexneri,NC_004851_1,221618.0,0.0,0.0,0.0,0.0,0.0
redo_RPB004_51,barcode10,Shigella sp. PAMC 28760,NZ_CP014768_1,4558287.0,0.1008054122,2.9175190424,4595.0,0.0,0.0
redo_RPB004_51,barcode10,Staphylococcus epidermidis,NC_004461_1,2499279.0,0.2389089013,1.9403784961,5971.0,0.0,0.0
redo_RPB004_51,barcode10,Staphylococcus epidermidis,NC_005003_1,6585.0,0.0,0.0,0.0,0.0,0.0
redo_RPB004_51,barcode10,Staphylococcus epidermidis,NC_005004_1,24365.0,0.0,0.0,0.0,0.0,0.0
redo_RPB004_51,barcode10,Staphylococcus epidermidis,NC_005005_1,17261.0,0.0,0.0,0.0,0.0,0.0
redo_RPB004_51,barcode10,Staphylococcus epidermidis,NC_005006_1,8007.0,0.0,0.0,0.0,0.0,0.0
redo_RPB004_51,barcode10,Staphylococcus epidermidis,NC_005007_1,4679.0,0.0,0.0,0.0,0.0,0.0
redo_RPB004_51,barcode10,Staphylococcus epidermidis,NC_005008_1,4439.0,0.0,0.0,0.0,0.0,0.0
redo_RPB004_51,barcode10,Staphylococcus hominis,NZ_CP020618_1,2253412.0,0.1306463265,1.0,2944.0,0.0,0.0
redo_RPB004_51,barcode10,Staphylococcus pettenkoferi,NZ_CP022096_2,2502360.0,0.0673763967,1.9430604982,1686.0,0.0,0.0
redo_RPB004_51,barcode10,Staphylococcus sciuri,NZ_CP022046_2,2764040.0,0.0673651611,1.9398496241,1862.0,0.0,0.0
redo_RPB004_51,barcode10,Staphylococcus sciuri,NZ_CP022047_2,89775.0,0.0,0.0,0.0,0.0,0.0
redo_RPB004_51,barcode10,Streptococcus mitis,NC_013853_1,2146611.0,0.1697559549,2.1443468716,3644.0,4.0,0.0
redo_RPB004_51,barcode11,Bifidobacterium breve,NZ_AP012324_1,2269415.0,0.1296809971,1.0,2943.0,0.0,0.0
redo_RPB004_51,barcode11,Citrobacter braakii,NZ_CP020448_2,5244290.0,0.1286351441,1.0,6746.0,0.0,0.0
redo_RPB004_51,barcode11,Clostridium perfringens,NC_008261_1,3256683.0,0.4380223682,13.2722747985,14265.0,8948.0,5320.0
redo_RPB004_51,barcode11,Cutibacterium acnes,NC_006085_1,2560265.0,0.3555491326,2.5510271339,9103.0,0.0,0.0
redo_RPB004_51,barcode11,Enterobacter cancerogenus,NZ_CP025225_1,4796512.0,0.0968829016,1.0,4647.0,0.0,0.0
redo_RPB004_51,barcode11,Enterobacter soli,NC_015963_1,166725.0,0.0,0.0,0.0,0.0,0.0
redo_RPB004_51,barcode11,Enterobacter soli,NC_015968_1,4812833.0,0.0273227847,1.0,1315.0,0.0,0.0
redo_RPB004_51,barcode11,Enterobacter soli,NC_015969_1,32574.0,0.0,0.0,0.0,0.0,0.0
redo_RPB004_51,barcode11,Escherichia albertii,NZ_CP007025_1,4701875.0,0.551397049,1.0,25926.0,0.0,0.0
redo_RPB004_51,barcode11,Escherichia coli,NC_000913_3,4641652.0,14.9642411796,6.1972046738,694588.0,309075.0,134658.0
redo_RPB004_51,barcode11,Escherichia fergusonii,NC_011740_1,4588711.0,0.2218923789,1.0,10182.0,0.0,0.0
redo_RPB004_51,barcode11,Escherichia fergusonii,NC_011743_1,55150.0,0.0,0.0,0.0,0.0,0.0
redo_RPB004_51,barcode11,Escherichia marmotae,NZ_CP025979_1,4671322.0,0.0375696644,2.6188034188,1755.0,0.0,0.0
redo_RPB004_51,barcode11,Escherichia marmotae,NZ_CP025980_1,148809.0,0.0,0.0,0.0,0.0,0.0
redo_RPB004_51,barcode11,Escherichia marmotae,NZ_CP025981_1,76160.0,0.0,0.0,0.0,0.0,0.0
redo_RPB004_51,barcode11,Escherichia virus Mu,NC_000929_1,36717.0,5.4579622518,2.9211576846,2004.0,0.0,0.0
redo_RPB004_51,barcode11,Finegoldia magna,NC_010371_1,189163.0,0.0,0.0,0.0,0.0,0.0
redo_RPB004_51,barcode11,Finegoldia magna,NC_010376_1,1797577.0,0.1787962352,1.0,3214.0,0.0,0.0
redo_RPB004_51,barcode11,Gardnerella vaginalis,NC_013721_1,1617545.0,0.1657450025,13.148079075,2681.0,2570.0,2366.0
redo_RPB004_51,barcode11,Klebsiella oxytoca,NZ_CP011625_1,1919.0,0.0,0.0,0.0,0.0,0.0
redo_RPB004_51,barcode11,Klebsiella oxytoca,NZ_CP011626_1,6538.0,0.0,0.0,0.0,0.0,0.0
redo_RPB004_51,barcode11,Klebsiella oxytoca,NZ_CP011627_1,14274.0,0.0,0.0,0.0,0.0,0.0
redo_RPB004_51,barcode11,Klebsiella oxytoca,NZ_CP011628_1,16069.0,0.0,0.0,0.0,0.0,0.0
redo_RPB004_51,barcode11,Klebsiella oxytoca,NZ_CP011629_1,33610.0,0.0,0.0,0.0,0.0,0.0
redo_RPB004_51,barcode11,Klebsiella oxytoca,NZ_CP011630_1,49200.0,0.0,0.0,0.0,0.0,0.0
redo_RPB004_51,barcode11,Klebsiella oxytoca,NZ_CP011631_1,53596.0,0.0,0.0,0.0,0.0,0.0
redo_RPB004_51,barcode11,Klebsiella oxytoca,NZ_CP011632_1,83652.0,0.0,0.0,0.0,0.0,0.0
redo_RPB004_51,barcode11,Klebsiella oxytoca,NZ_CP011633_1,150318.0,0.0,0.0,0.0,0.0,0.0
redo_RPB004_51,barcode11,Klebsiella oxytoca,NZ_CP011634_1,227680.0,0.0,0.0,0.0,0.0,0.0
redo_RPB004_51,barcode11,Klebsiella oxytoca,NZ_CP011635_1,332956.0,0.0,0.0,0.0,0.0,0.0
redo_RPB004_51,barcode11,Klebsiella oxytoca,NZ_CP011636_1,6257473.0,0.0412626631,1.0,2582.0,0.0,0.0
redo_RPB004_51,barcode11,Kosakonia radicincitans,NZ_CP018016_1,5817639.0,0.0631699561,1.0,3675.0,0.0,0.0
redo_RPB004_51,barcode11,Kosakonia radicincitans,NZ_CP018017_1,290108.0,0.0,0.0,0.0,0.0,0.0
redo_RPB004_51,barcode11,Kosakonia radicincitans,NZ_CP018018_1,14706.0,0.0,0.0,0.0,0.0,0.0
redo_RPB004_51,barcode11,Salmonella enterica,NC_003197_2,4857450.0,0.0613696487,1.0,2981.0,0.0,0.0
redo_RPB004_51,barcode11,Salmonella enterica,NC_003277_2,93933.0,0.0,0.0,0.0,0.0,0.0
redo_RPB004_51,barcode11,Serratia fonticola,NZ_CP011254_1,6000511.0,0.0402132418,1.0,2413.0,0.0,0.0
redo_RPB004_51,barcode11,Shewanella bicestrii,NZ_CP022358_1,4800597.0,0.0138107823,1.9532428356,663.0,0.0,0.0
redo_RPB004_51,barcode11,Shewanella bicestrii,NZ_CP022359_1,193338.0,0.0,0.0,0.0,0.0,0.0
redo_RPB004_51,barcode11,Shewanella bicestrii,NZ_CP022360_1,10479.0,0.0,0.0,0.0,0.0,0.0
redo_RPB004_51,barcode11,Shewanella sp. ANA-3,NC_008573_1,278942.0,0.0,0.0,0.0,0.0,0.0
redo_RPB004_51,barcode11,Shewanella sp. ANA-3,NC_008577_1,4972204.0,0.0126302139,1.0,628.0,0.0,0.0
redo_RPB004_51,barcode11,Shewanella sp. MR-4,NC_008321_1,4706287.0,0.0137050715,1.0,645.0,0.0,0.0
redo_RPB004_51,barcode11,Shewanella sp. MR-7,NC_008320_1,6499.0,0.0,0.0,0.0,0.0,0.0
redo_RPB004_51,barcode11,Shewanella sp. MR-7,NC_008322_1,4792610.0,0.017151406,1.0,822.0,0.0,0.0
redo_RPB004_51,barcode11,Shigella dysenteriae,NC_007606_1,4369232.0,2.097508212,1.349304381,91645.0,6577.0,0.0
redo_RPB004_51,barcode11,Shigella dysenteriae,NC_007607_1,182726.0,0.0,0.0,0.0,0.0,0.0
redo_RPB004_51,barcode11,Shigella dysenteriae,NC_009344_1,8953.0,0.0,0.0,0.0,0.0,0.0
redo_RPB004_51,barcode11,Shigella flexneri,NC_004337_2,4607202.0,0.4523352785,1.0,20840.0,0.0,0.0
redo_RPB004_51,barcode11,Shigella flexneri,NC_004851_1,221618.0,0.0,0.0,0.0,0.0,0.0
redo_RPB004_51,barcode11,Staphylococcus epidermidis,NC_004461_1,2499279.0,0.1866938425,2.084226318,4666.0,0.0,0.0
redo_RPB004_51,barcode11,Staphylococcus epidermidis,NC_005003_1,6585.0,0.0,0.0,0.0,0.0,0.0
redo_RPB004_51,barcode11,Staphylococcus epidermidis,NC_005004_1,24365.0,0.0,0.0,0.0,0.0,0.0
redo_RPB004_51,barcode11,Staphylococcus epidermidis,NC_005005_1,17261.0,0.0,0.0,0.0,0.0,0.0
redo_RPB004_51,barcode11,Staphylococcus epidermidis,NC_005006_1,8007.0,0.0,0.0,0.0,0.0,0.0
redo_RPB004_51,barcode11,Staphylococcus epidermidis,NC_005007_1,4679.0,0.0,0.0,0.0,0.0,0.0
redo_RPB004_51,barcode11,Staphylococcus epidermidis,NC_005008_1,4439.0,0.0,0.0,0.0,0.0,0.0
redo_RPB004_51,barcode11,Staphylococcus pettenkoferi,NZ_CP022096_2,2502360.0,0.1120542208,1.0,2804.0,0.0,0.0
redo_RPB004_51,unclassified,Acinetobacter johnsonii,NZ_CP010350_1,3509795.0,0.0228503374,1.0,802.0,0.0,0.0
redo_RPB004_51,unclassified,Acinetobacter johnsonii,NZ_CP010351_1,398857.0,0.0,0.0,0.0,0.0,0.0
redo_RPB004_51,unclassified,Acinetobacter johnsonii,NZ_CP010352_1,3978.0,0.0,0.0,0.0,0.0,0.0
redo_RPB004_51,unclassified,Acinetobacter johnsonii,NZ_CP010353_1,4724.0,0.0,0.0,0.0,0.0,0.0
redo_RPB004_51,unclassified,Acinetobacter johnsonii,NZ_CP010354_1,11643.0,0.0,0.0,0.0,0.0,0.0
redo_RPB004_51,unclassified,Acinetobacter johnsonii,NZ_CP010355_1,7579.0,0.0,0.0,0.0,0.0,0.0
redo_RPB004_51,unclassified,Acinetobacter johnsonii,NZ_CP010356_1,13940.0,0.0,0.0,0.0,0.0,0.0
redo_RPB004_51,unclassified,Acinetobacter johnsonii,NZ_CP010357_1,13330.0,0.0,0.0,0.0,0.0,0.0
redo_RPB004_51,unclassified,Acinetobacter johnsonii,NZ_CP010358_1,117483.0,0.0,0.0,0.0,0.0,0.0
redo_RPB004_51,unclassified,Acinetobacter sp. SWBY1,NZ_CP026616_1,2914878.0,0.1101932911,1.0,3212.0,0.0,0.0
redo_RPB004_51,unclassified,Acinetobacter sp. SWBY1,NZ_CP026617_1,38161.0,0.0,0.0,0.0,0.0,0.0
redo_RPB004_51,unclassified,Brochothrix thermosphacta,NZ_CP023483_1,2647794.0,0.0608053346,1.0,1610.0,0.0,0.0
redo_RPB004_51,unclassified,Corynebacterium kroppenstedtii,NC_012704_1,2446804.0,0.1318863301,1.0,3227.0,0.0,0.0
redo_RPB004_51,unclassified,Cutibacterium acnes,NC_006085_1,2560265.0,2.3706530379,1.2811598978,60695.0,0.0,0.0
redo_RPB004_51,unclassified,Escherichia coli,NC_000913_3,4641652.0,2.2316192597,1.0178019771,103584.0,0.0,0.0
redo_RPB004_51,unclassified,Escherichia fergusonii,NC_011740_1,4588711.0,0.1847359749,1.0,8477.0,0.0,0.0
redo_RPB004_51,unclassified,Escherichia fergusonii,NC_011743_1,55150.0,0.0,0.0,0.0,0.0,0.0
redo_RPB004_51,unclassified,Gardnerella vaginalis,NC_013721_1,1617545.0,0.0384533351,1.0,622.0,0.0,0.0
redo_RPB004_51,unclassified,Lawsonella clevelandensis,NZ_CP009312_1,1860551.0,0.1844077373,1.0,3431.0,0.0,0.0
redo_RPB004_51,unclassified,Macrococcus caseolyticus,NC_011995_1,15667.0,0.0,0.0,0.0,0.0,0.0
redo_RPB004_51,unclassified,Macrococcus caseolyticus,NC_011996_1,80545.0,0.0,0.0,0.0,0.0,0.0
redo_RPB004_51,unclassified,Macrococcus caseolyticus,NC_011997_1,2131.0,0.0,0.0,0.0,0.0,0.0
redo_RPB004_51,unclassified,Macrococcus caseolyticus,NC_011998_1,3417.0,0.0,0.0,0.0,0.0,0.0
redo_RPB004_51,unclassified,Macrococcus caseolyticus,NC_011999_1,2102324.0,0.0586493804,1.0,1233.0,0.0,0.0
redo_RPB004_51,unclassified,Macrococcus caseolyticus,NC_012000_1,4398.0,0.0,0.0,0.0,0.0,0.0
redo_RPB004_51,unclassified,Macrococcus caseolyticus,NC_012001_1,4226.0,0.0,0.0,0.0,0.0,0.0
redo_RPB004_51,unclassified,Macrococcus caseolyticus,NC_012002_1,4061.0,0.0,0.0,0.0,0.0,0.0
redo_RPB004_51,unclassified,Macrococcus caseolyticus,NC_012003_1,2968.0,0.0,0.0,0.0,0.0,0.0
redo_RPB004_51,unclassified,Methylobacterium sp. C1,NZ_CP017640_1,6459145.0,0.0212566834,1.0,1373.0,0.0,0.0
redo_RPB004_51,unclassified,Moraxella osloensis,NZ_CP014234_1,2434688.0,0.0887998791,1.0,2162.0,0.0,0.0
redo_RPB004_51,unclassified,Moraxella osloensis,NZ_CP014235_1,81455.0,0.0,0.0,0.0,0.0,0.0
redo_RPB004_51,unclassified,Moraxella osloensis,NZ_CP014236_1,57463.0,0.0,0.0,0.0,0.0,0.0
redo_RPB004_51,unclassified,Moraxella osloensis,NZ_CP014237_1,35189.0,0.0,0.0,0.0,0.0,0.0
redo_RPB004_51,unclassified,Moraxella osloensis,NZ_CP014238_1,40342.0,0.0,0.0,0.0,0.0,0.0
redo_RPB004_51,unclassified,Shigella dysenteriae,NC_007606_1,4369232.0,0.0757570209,1.0,3310.0,0.0,0.0
redo_RPB004_51,unclassified,Shigella dysenteriae,NC_007607_1,182726.0,0.0,0.0,0.0,0.0,0.0
redo_RPB004_51,unclassified,Shigella dysenteriae,NC_009344_1,8953.0,0.0,0.0,0.0,0.0,0.0
redo_RPB004_51,unclassified,Shigella flexneri,NC_004337_2,4607202.0,0.0992793457,1.0,4574.0,0.0,0.0
redo_RPB004_51,unclassified,Shigella flexneri,NC_004851_1,221618.0,0.0,0.0,0.0,0.0,0.0
redo_RPB004_51,unclassified,Staphylococcus auricularis,NZ_LS483491_1,2216666.0,0.0144812074,1.0,321.0,0.0,0.0
redo_RPB004_51,unclassified,Staphylococcus capitis,NZ_CP007601_1,2443604.0,0.5235299991,1.2019072931,12793.0,0.0,0.0
redo_RPB004_51,unclassified,Staphylococcus capitis,NZ_CP007602_1,59661.0,0.0,0.0,0.0,0.0,0.0
redo_RPB004_51,unclassified,Staphylococcus epidermidis,NC_004461_1,2499279.0,7.1596248358,1.0383091445,178939.0,0.0,0.0
redo_RPB004_51,unclassified,Staphylococcus epidermidis,NC_005003_1,6585.0,0.0,0.0,0.0,0.0,0.0
redo_RPB004_51,unclassified,Staphylococcus epidermidis,NC_005004_1,24365.0,12.300430946,1.0,2997.0,0.0,0.0
redo_RPB004_51,unclassified,Staphylococcus epidermidis,NC_005005_1,17261.0,8.3946468918,1.0,1449.0,0.0,0.0
redo_RPB004_51,unclassified,Staphylococcus epidermidis,NC_005006_1,8007.0,0.0,0.0,0.0,0.0,0.0
redo_RPB004_51,unclassified,Staphylococcus epidermidis,NC_005007_1,4679.0,0.0,0.0,0.0,0.0,0.0
redo_RPB004_51,unclassified,Staphylococcus epidermidis,NC_005008_1,4439.0,0.0,0.0,0.0,0.0,0.0
redo_RPB004_51,unclassified,Staphylococcus haemolyticus,NC_007168_1,2685015.0,0.0287521671,1.0,772.0,0.0,0.0
redo_RPB004_51,unclassified,Staphylococcus haemolyticus,NC_007169_1,2300.0,0.0,0.0,0.0,0.0,0.0
redo_RPB004_51,unclassified,Staphylococcus haemolyticus,NC_007170_1,2366.0,0.0,0.0,0.0,0.0,0.0
redo_RPB004_51,unclassified,Staphylococcus haemolyticus,NC_007171_1,8180.0,0.0,0.0,0.0,0.0,0.0
redo_RPB004_51,unclassified,Staphylococcus virus IPLA5,NC_018281_1,43581.0,0.6906679516,1.0,301.0,0.0,0.0
redo_RPB004_51,unclassified,Staphylococcus virus IPLA7,NC_018284_1,42123.0,9.1137858177,1.2901797343,3839.0,0.0,0.0
redo_RPB004_51,unclassified,Staphylococcus virus PH15,NC_008723_1,44041.0,1.303330987,1.0,574.0,0.0,0.0
redo_RPB004_51,unclassified,Streptococcus mitis,NC_013853_1,2146611.0,0.1197236015,1.0,2570.0,0.0,0.0
redo_RPB004_51,unclassified,Streptococcus oralis,NC_015291_1,1958690.0,0.0671877632,1.0,1316.0,0.0,0.0
