sample_ID	guuid	barcode	human bases	human reads	bacterial bases	bacterial reads	viral bases	viral reads	total bases	total reads
redo_RPB004_32	5da824af5f87b0f903a6c46c	barcode06	3538	1	87471	19	0	0	101921	25
redo_RPB004_32	5da824af5f87b0f903a6c46c	barcode08	409219	160	28588316	8695	144729	72	32841170	10286
redo_RPB004_32	5da824af5f87b0f903a6c46c	barcode10	14640	4	2155710	466	0	0	2278496	508
redo_RPB004_32	5da824af5f87b0f903a6c46c	barcode04	779544	224	34525439	7897	6653	1	69543643	15663
redo_RPB004_32	5da824af5f87b0f903a6c46c	barcode01	7315057	2331	2271202	476	3831	2	11617064	3831
redo_RPB004_32	5da824af5f87b0f903a6c46c	unclassified	351214	319	1649116	499	0	0	3317813	1843
redo_RPB004_32	5da824af5f87b0f903a6c46c	barcode05	13401	5	1263437	276	0	0	1675185	400
redo_RPB004_32	5da824af5f87b0f903a6c46c	barcode02	43969	12	1873388	400	1736	1	2841180	638
redo_RPB004_32	5da824af5f87b0f903a6c46c	barcode07	39160	26	7412240	1994	5542	3	7831755	2195
