Run_name,Barcode,Taxid,Bases,Reads
redo_RPB004_53,barcode05,Streptococcus ferus,4060,1
redo_RPB004_53,barcode05,Streptococcus sobrinus,1031,1
redo_RPB004_53,barcode05,Kocuria rosea,4061,1
redo_RPB004_53,barcode05,Streptococcus pneumoniae,943,1
redo_RPB004_53,barcode05,Shigella flexneri,3284,1
redo_RPB004_53,barcode05,Escherichia albertii,4259,1
redo_RPB004_53,barcode05,Calothrix parietina,5215,1
redo_RPB004_53,barcode05,Lactococcus raffinolactis,4704,1
redo_RPB004_53,barcode05,Streptococcus respiraculi,3509,1
redo_RPB004_53,barcode05,Shigella boydii,11993,2
redo_RPB004_53,barcode05,Streptococcus dysgalactiae,32428,11
redo_RPB004_53,barcode05,Salmonella enterica,2587,1
redo_RPB004_53,barcode05,Streptococcus pyogenes,14469708,3490
redo_RPB004_53,barcode05,Zymomonas mobilis,6115,2
redo_RPB004_53,barcode05,Escherichia coli,297471,65
redo_RPB004_53,barcode05,Streptococcus agalactiae,3722,1
redo_RPB004_53,barcode05,Staphylococcus epidermidis,15571,3
redo_RPB004_53,barcode05,Bacillus subtilis,193695,37
redo_RPB004_53,barcode05,Streptococcus pasteurianus,2062,1
redo_RPB004_53,barcode06,Cutibacterium acnes,577782,120
redo_RPB004_53,barcode06,Enterobacteriaceae bacterium strain FGI 57,1914,1
redo_RPB004_53,barcode06,Enterobacter cloacae,2989,1
redo_RPB004_53,barcode06,Leclercia adecarboxylata,3712,1
redo_RPB004_53,barcode06,Aeromonas rivipollensis,4657,1
redo_RPB004_53,barcode06,Shigella sonnei,95549,25
redo_RPB004_53,barcode06,Serratia sp. YD25,5520,4
redo_RPB004_53,barcode06,Enterobacter roggenkampii,4501,1
redo_RPB004_53,barcode06,Acinetobacter johnsonii,71940,17
redo_RPB004_53,barcode06,Providencia alcalifaciens,6472,1
redo_RPB004_53,barcode06,Kosakonia cowanii,4553,1
redo_RPB004_53,barcode06,Escherichia fergusonii,41736,9
redo_RPB004_53,barcode06,Kosakonia radicincitans,1808,1
redo_RPB004_53,barcode06,Klebsiella pneumoniae,34462,8
redo_RPB004_53,barcode06,Proteus mirabilis,2901,1
redo_RPB004_53,barcode06,Staphylococcus epidermidis,7201,2
redo_RPB004_53,barcode06,Citrobacter werkmanii,8586,2
redo_RPB004_53,barcode06,Serratia marcescens,4707,1
redo_RPB004_53,barcode06,Lelliottia jeotgali,5585,1
redo_RPB004_53,barcode06,Chlamydia suis,4015,2
redo_RPB004_53,barcode06,Arsenophonus nasoniae,4751,1
redo_RPB004_53,barcode06,Shigella dysenteriae,248879,64
redo_RPB004_53,barcode06,Citrobacter amalonaticus,4241,1
redo_RPB004_53,barcode06,Snodgrassella alvi,4626,2
redo_RPB004_53,barcode06,[Enterobacter] lignolyticus,3349,1
redo_RPB004_53,barcode06,Cronobacter sakazakii,4132,1
redo_RPB004_53,barcode06,Pseudomonas aeruginosa,17021,4
redo_RPB004_53,barcode06,Propionibacterium freudenreichii,2432,1
redo_RPB004_53,barcode06,Escherichia albertii,71788,20
redo_RPB004_53,barcode06,Burkholderia cepacia,3186,1
redo_RPB004_53,barcode06,Serratia plymuthica,4737,1
redo_RPB004_53,barcode06,Raoultella terrigena,5721,1
redo_RPB004_53,barcode06,Citrobacter freundii,3672,1
redo_RPB004_53,barcode06,Zymomonas mobilis,152684,58
redo_RPB004_53,barcode06,Escherichia coli,16146660,3787
redo_RPB004_53,barcode06,Klebsiella michiganensis,2786,2
redo_RPB004_53,barcode06,Klebsiella aerogenes,2041,1
redo_RPB004_53,barcode06,Shigella sp. PAMC 28760,24891,8
redo_RPB004_53,barcode06,Mycoplasma mycoides,7168,3
redo_RPB004_53,barcode06,Delftia sp. HK171,2267,1
redo_RPB004_53,barcode06,Enterobacter cloacae complex sp. ECNIH7,4770,1
redo_RPB004_53,barcode06,Enterobacter hormaechei,4714,1
redo_RPB004_53,barcode06,Escherichia marmotae,29689,9
redo_RPB004_53,barcode06,Shigella flexneri,151666,35
redo_RPB004_53,barcode06,Klebsiella oxytoca,6511,1
redo_RPB004_53,barcode06,Citrobacter farmeri,411,1
redo_RPB004_53,barcode06,Shigella boydii,361686,94
redo_RPB004_53,barcode06,Bacillus subtilis,11511961,2839
redo_RPB004_53,barcode06,Bacillus mycoides,421551,133
redo_RPB004_53,barcode06,Acinetobacter baumannii,5097,4
redo_RPB004_53,barcode06,Enterobacter kobei,3066,1
redo_RPB004_53,barcode06,Salmonella enterica,44423,11
redo_RPB004_53,barcode07,Cutibacterium acnes,45024,18
redo_RPB004_53,barcode07,Agrobacterium tumefaciens,4273,2
redo_RPB004_53,barcode07,Klebsiella pneumoniae,3626,1
redo_RPB004_53,barcode07,Yersinia pestis,3609,1
redo_RPB004_53,barcode07,Shigella dysenteriae,12410,3
redo_RPB004_53,barcode07,Symbiobacterium thermophilum,58224,10
redo_RPB004_53,barcode07,Shigella sonnei,7031,3
redo_RPB004_53,barcode07,Microbacterium oxydans,3753,2
redo_RPB004_53,barcode07,Gardnerella vaginalis,1769,1
redo_RPB004_53,barcode07,Shigella boydii,21663,7
redo_RPB004_53,barcode07,Myxococcus fulvus,1584,1
redo_RPB004_53,barcode07,Bacillus subtilis,115913,42
redo_RPB004_53,barcode07,Bacillus mycoides,4866,3
redo_RPB004_53,barcode07,Streptococcus pneumoniae,1355,1
redo_RPB004_53,barcode07,Escherichia albertii,4458,1
redo_RPB004_53,barcode07,Zymomonas mobilis,3642,2
redo_RPB004_53,barcode07,Escherichia coli,783299,210
redo_RPB004_53,barcode07,Macrococcus sp. IME1552,10146,3
redo_RPB004_53,barcode07,Staphylococcus epidermidis,171740,60
redo_RPB004_53,barcode07,Corynebacterium minutissimum,3060,1
redo_RPB004_53,barcode01,Cutibacterium acnes,82548,15
redo_RPB004_53,barcode01,Enterobacteriaceae bacterium strain FGI 57,1219,1
redo_RPB004_53,barcode01,Geminocystis sp. NIES-3708,15634,4
redo_RPB004_53,barcode01,Proteus vulgaris,278,1
redo_RPB004_53,barcode01,Staphylococcus succinus,1271139,366
redo_RPB004_53,barcode01,Enterobacter cloacae,4651,1
redo_RPB004_53,barcode01,Rivularia sp. PCC 7116,28581,8
redo_RPB004_53,barcode01,Shigella dysenteriae,543785,116
redo_RPB004_53,barcode01,Stanieria sp. NIES-3757,5390,1
redo_RPB004_53,barcode01,Fischerella sp. NIES-3754,47648,11
redo_RPB004_53,barcode01,Staphylococcus agnetis,3068,1
redo_RPB004_53,barcode01,Bacillus sp. SJ-10,4094,2
redo_RPB004_53,barcode01,Trichormus azollae,15348,3
redo_RPB004_53,barcode01,Staphylococcus piscifermentans,17129,6
redo_RPB004_53,barcode01,Leptolyngbya boryana,3299,1
redo_RPB004_53,barcode01,Nostoc punctiforme,18231,4
redo_RPB004_53,barcode01,Edwardsiella ictaluri,3076,1
redo_RPB004_53,barcode01,Nostoc sp. 'Peltigera membranacea cyanobiont' N6,24934,7
redo_RPB004_53,barcode01,Serratia sp. YD25,829,1
redo_RPB004_53,barcode01,Carnobacterium inhibens,1956,1
redo_RPB004_53,barcode01,Chroococcidiopsis thermalis,9869,2
redo_RPB004_53,barcode01,Staphylococcus nepalensis,49596,12
redo_RPB004_53,barcode01,Verrucomicrobia bacterium IMCC26134,38095,6
redo_RPB004_53,barcode01,Magnetospira sp. QH-2,3337,1
redo_RPB004_53,barcode01,Staphylococcus hominis,790642,255
redo_RPB004_53,barcode01,Escherichia fergusonii,56265,13
redo_RPB004_53,barcode01,Kosakonia radicincitans,11589,3
redo_RPB004_53,barcode01,Vibrio campbellii,4478,1
redo_RPB004_53,barcode01,Klebsiella pneumoniae,29120,8
redo_RPB004_53,barcode01,Macrococcus canis,8841,3
redo_RPB004_53,barcode01,Klebsiella aerogenes,4250,1
redo_RPB004_53,barcode01,Staphylococcus schleiferi,933521,275
redo_RPB004_53,barcode01,Nostoc sp. PCC 7120,10738,2
redo_RPB004_53,barcode01,Citrobacter werkmanii,4964,1
redo_RPB004_53,barcode01,Geobacter sp. M21,31570,5
redo_RPB004_53,barcode01,Mycoplasma crocodyli,233,1
redo_RPB004_53,barcode01,Prevotella intermedia,7102,2
redo_RPB004_53,barcode01,Lelliottia jeotgali,6403,1
redo_RPB004_53,barcode01,Staphylococcus warneri,136104,45
redo_RPB004_53,barcode01,Cyanobacterium aponinum,5664,1
redo_RPB004_53,barcode01,Anabaena sp. 90,18086,5
redo_RPB004_53,barcode01,Staphylococcus pasteuri,105541,31
redo_RPB004_53,barcode01,Anaerostipes hadrus,2881,1
redo_RPB004_53,barcode01,Chondrocystis sp. NIES-4102,2529,1
redo_RPB004_53,barcode01,Pseudomonas aeruginosa,14754,3
redo_RPB004_53,barcode01,Cyanothece sp. PCC 8801,10744,2
redo_RPB004_53,barcode01,Clostridioides difficile,1844,1
redo_RPB004_53,barcode01,Calothrix sp. NIES-4071,10819,5
redo_RPB004_53,barcode01,Enterobacter asburiae,8527,3
redo_RPB004_53,barcode01,Anabaena cylindrica,3083,1
redo_RPB004_53,barcode01,Flavobacterium gilvum,3232,1
redo_RPB004_53,barcode01,Francisella philomiragia,3015,1
redo_RPB004_53,barcode01,Citrobacter braakii,4605,1
redo_RPB004_53,barcode01,Staphylococcus sp. AntiMn-1,3231,1
redo_RPB004_53,barcode01,Chlamydia trachomatis,594,1
redo_RPB004_53,barcode01,Nostoc sp. 'Lobaria pulmonaria (5183) cyanobiont',22030,7
redo_RPB004_53,barcode01,Serratia plymuthica,8645,2
redo_RPB004_53,barcode01,Raoultella terrigena,3167,1
redo_RPB004_53,barcode01,Gloeocapsa sp. PCC 7428,13321,3
redo_RPB004_53,barcode01,Citrobacter amalonaticus,4643,1
redo_RPB004_53,barcode01,Zymomonas mobilis,161719,46
redo_RPB004_53,barcode01,Escherichia coli,25405411,5390
redo_RPB004_53,barcode01,Marinitoga piezophila,4519,1
redo_RPB004_53,barcode01,Micropruina glycogenica,12716,2
redo_RPB004_53,barcode01,Citrobacter freundii,5252,1
redo_RPB004_53,barcode01,Kosakonia sacchari,6150,1
redo_RPB004_53,barcode01,Mycoplasma mycoides,3515,1
redo_RPB004_53,barcode01,Escherichia marmotae,40944,10
redo_RPB004_53,barcode01,Staphylococcus caprae,426390,129
redo_RPB004_53,barcode01,Nostoc sphaeroides,103721,20
redo_RPB004_53,barcode01,Staphylococcus delphini,12009,4
redo_RPB004_53,barcode01,Spiroplasma culicicola,11452,4
redo_RPB004_53,barcode01,Nostoc sp. PCC 7107,67562,17
redo_RPB004_53,barcode01,Shewanella sp. FDAARGOS_354,3402,1
redo_RPB004_53,barcode01,Citrobacter farmeri,4637,1
redo_RPB004_53,barcode01,Staphylococcus saprophyticus,2083490,564
redo_RPB004_53,barcode01,Lacunisphaera limnophila,25404,4
redo_RPB004_53,barcode01,Nostocales cyanobacterium HT-58-2,7206,1
redo_RPB004_53,barcode01,Bacillus mycoides,416592,118
redo_RPB004_53,barcode01,Oscillatoria acuminata,11237,2
redo_RPB004_53,barcode01,Bacillus thuringiensis,2087,1
redo_RPB004_53,barcode01,Sphingobacterium sp. G1-14,4443,1
redo_RPB004_53,barcode01,Lysinibacillus fusiformis,53841,16
redo_RPB004_53,barcode01,Synechococcus sp. SynAce01,10653,3
redo_RPB004_53,barcode01,Agrobacterium rhizogenes,18072,4
redo_RPB004_53,barcode01,Salmonella enterica,64986,18
redo_RPB004_53,barcode01,Opitutus terrae,6390,1
redo_RPB004_53,barcode01,Staphylococcus capitis,46898,30
redo_RPB004_53,barcode01,Staphylococcus carnosus,9488,2
redo_RPB004_53,barcode01,Buchnera aphidicola,4355,1
redo_RPB004_53,barcode01,Shigella sonnei,59309,15
redo_RPB004_53,barcode01,Staphylococcus haemolyticus,2526488,804
redo_RPB004_53,barcode01,Citrobacter portucalensis,1885,1
redo_RPB004_53,barcode01,Shigella flexneri,283422,66
redo_RPB004_53,barcode01,Enterobacter sp. 638,6363,1
redo_RPB004_53,barcode01,Citrobacter rodentium,16849,3
redo_RPB004_53,barcode01,Pseudomonas libanensis,3700,1
redo_RPB004_53,barcode01,Staphylococcus lugdunensis,142343,50
redo_RPB004_53,barcode01,Atlantibacter hermannii,4357,1
redo_RPB004_53,barcode01,Methylomicrobium buryatense,4930,1
redo_RPB004_53,barcode01,Actinomyces israelii,7539,1
redo_RPB004_53,barcode01,Stanieria cyanosphaera,52312,11
redo_RPB004_53,barcode01,Staphylococcus auricularis,3530,2
redo_RPB004_53,barcode01,Candidatus Izimaplasma sp. HR1,78796,22
redo_RPB004_53,barcode01,Acinetobacter johnsonii,21658,8
redo_RPB004_53,barcode01,Microcystis aeruginosa,5632,1
redo_RPB004_53,barcode01,Gardnerella vaginalis,7315,3
redo_RPB004_53,barcode01,Enterobacteriaceae bacterium ENNIH3,2501,1
redo_RPB004_53,barcode01,Vibrio coralliilyticus,4194,1
redo_RPB004_53,barcode01,Trichormus variabilis,37316,9
redo_RPB004_53,barcode01,Anabaena sp. WA102,9500,3
redo_RPB004_53,barcode01,Citrobacter koseri,11340,3
redo_RPB004_53,barcode01,Fusobacterium periodonticum,3687,1
redo_RPB004_53,barcode01,Shigella sp. PAMC 28760,73955,10
redo_RPB004_53,barcode01,Nodularia spumigena,19458,4
redo_RPB004_53,barcode01,Bacillus thermoamylovorans,350,1
redo_RPB004_53,barcode01,Cupriavidus metallidurans,134746,26
redo_RPB004_53,barcode01,Moritella viscosa,4469,1
redo_RPB004_53,barcode01,Vibrio rotiferianus,3378,1
redo_RPB004_53,barcode01,Citrobacter freundii complex sp. CFNIH2,4220,1
redo_RPB004_53,barcode01,Salmonella bongori,9790,3
redo_RPB004_53,barcode01,Staphylococcus argenteus,3237,1
redo_RPB004_53,barcode01,Chlamydia suis,10497,5
redo_RPB004_53,barcode01,Chryseobacterium taklimakanense,6689,2
redo_RPB004_53,barcode01,Propionibacterium freudenreichii,2310,1
redo_RPB004_53,barcode01,Nostoc sp. NIES-3756,4025,1
redo_RPB004_53,barcode01,Serratia fonticola,467,1
redo_RPB004_53,barcode01,Hafnia paralvei,4874,1
redo_RPB004_53,barcode01,Staphylococcus pseudintermedius,22859,6
redo_RPB004_53,barcode01,Enterobacter soli,4387,1
redo_RPB004_53,barcode01,Staphylococcus equorum,16947,5
redo_RPB004_53,barcode01,Serratia marcescens,4482,1
redo_RPB004_53,barcode01,Calothrix sp. NIES-2098,23561,6
redo_RPB004_53,barcode01,Enterobacter roggenkampii,4094,1
redo_RPB004_53,barcode01,Nostoc sp. PCC 7524,5548,2
redo_RPB004_53,barcode01,Escherichia albertii,119781,27
redo_RPB004_53,barcode01,Calothrix parietina,2554,1
redo_RPB004_53,barcode01,Nostoc flagelliforme,4911,2
redo_RPB004_53,barcode01,Rickettsiales bacterium Ac37b,14765,3
redo_RPB004_53,barcode01,Pleurocapsa minor,9265,2
redo_RPB004_53,barcode01,Cedecea neteri,9553,2
redo_RPB004_53,barcode01,Pseudomonas sp. FDAARGOS_380,22136,6
redo_RPB004_53,barcode01,Glycocaulis alkaliphilus,6380,1
redo_RPB004_53,barcode01,Arsenophonus nasoniae,2488,1
redo_RPB004_53,barcode01,Opitutaceae bacterium TAV5,19025,3
redo_RPB004_53,barcode01,Klebsiella michiganensis,4477,1
redo_RPB004_53,barcode01,Staphylococcus xylosus,28524,9
redo_RPB004_53,barcode01,Staphylococcus epidermidis,188032296,54405
redo_RPB004_53,barcode01,Microcoleus sp. PCC 7113,12508,3
redo_RPB004_53,barcode01,Staphylococcus cohnii,87704,28
redo_RPB004_53,barcode01,Shewanella bicestrii,8251,2
redo_RPB004_53,barcode01,Oscillatoria nigro-viridis,102973,22
redo_RPB004_53,barcode01,Staphylococcus simiae,150564,43
redo_RPB004_53,barcode01,Staphylococcus aureus,26004671,6422
redo_RPB004_53,barcode01,Phaeobacter porticola,2464,1
redo_RPB004_53,barcode01,Bacillus sp. FJAT-25496,291,1
redo_RPB004_53,barcode01,Enterobacter bugandensis,5269,1
redo_RPB004_53,barcode01,Staphylococcus simulans,27146,9
redo_RPB004_53,barcode01,Tenericutes bacterium MO-XQ,7378,2
redo_RPB004_53,barcode01,Bacillus lentus,3942,1
redo_RPB004_53,barcode01,Enterobacter cancerogenus,4189,1
redo_RPB004_53,barcode01,Shigella boydii,631845,142
redo_RPB004_53,barcode01,Bacillus subtilis,12482485,2679
redo_RPB004_53,barcode01,Calothrix sp. PCC 7507,39816,9
redo_RPB004_53,barcode01,Calothrix sp. 336/3,12632,3
redo_RPB004_53,barcode01,Staphylococcus hyicus,12271,4
redo_RPB004_53,barcode01,Crinalium epipsammum,10168,2
redo_RPB004_53,barcode01,Auricoccus indicus,2805,1
redo_RPB004_53,barcode02,Cutibacterium acnes,192868,56
redo_RPB004_53,barcode02,Staphylococcus pseudintermedius,3668,1
redo_RPB004_53,barcode02,Geminocystis sp. NIES-3708,8416,2
redo_RPB004_53,barcode02,Staphylococcus succinus,1564795,461
redo_RPB004_53,barcode02,Leclercia adecarboxylata,2708,1
redo_RPB004_53,barcode02,Shigella dysenteriae,309470,72
redo_RPB004_53,barcode02,Dickeya sp. NCPPB 569,25900,6
redo_RPB004_53,barcode02,Staphylococcus argenteus,508,1
redo_RPB004_53,barcode02,Delftia tsuruhatensis,2577,2
redo_RPB004_53,barcode02,Shigella sonnei,72676,17
redo_RPB004_53,barcode02,Corynebacterium aquilae,2775,1
redo_RPB004_53,barcode02,Aeromonas sp. ASNIH2,1923,1
redo_RPB004_53,barcode02,Corynebacterium kutscheri,8133,3
redo_RPB004_53,barcode02,Staphylococcus piscifermentans,22479,10
redo_RPB004_53,barcode02,Sphingobacterium sp. G1-14,8917,2
redo_RPB004_53,barcode02,Nostoc punctiforme,14347,3
redo_RPB004_53,barcode02,Corynebacterium simulans,2689,1
redo_RPB004_53,barcode02,Acinetobacter guillouiae,3103,1
redo_RPB004_53,barcode02,Nostoc sp. 'Peltigera membranacea cyanobiont' N6,8953,2
redo_RPB004_53,barcode02,Corynebacterium xerosis,2346,1
redo_RPB004_53,barcode02,Chroococcidiopsis thermalis,4936,1
redo_RPB004_53,barcode02,Staphylococcus nepalensis,33022,9
redo_RPB004_53,barcode02,Staphylococcus hominis,1254424,383
redo_RPB004_53,barcode02,Escherichia fergusonii,44278,11
redo_RPB004_53,barcode02,Klebsiella michiganensis,5782,2
redo_RPB004_53,barcode02,Klebsiella pneumoniae,4018,1
redo_RPB004_53,barcode02,Macrococcus canis,1840,1
redo_RPB004_53,barcode02,Corynebacterium striatum,8818,3
redo_RPB004_53,barcode02,Staphylococcus schleiferi,851482,267
redo_RPB004_53,barcode02,Nostoc sp. PCC 7120,53748,12
redo_RPB004_53,barcode02,Mucilaginibacter sp. BJC16-A31,4310,1
redo_RPB004_53,barcode02,Staphylococcus agnetis,2125,1
redo_RPB004_53,barcode02,Acinetobacter junii,4469,1
redo_RPB004_53,barcode02,Corynebacterium cystitidis,2678,1
redo_RPB004_53,barcode02,Lelliottia jeotgali,3134,1
redo_RPB004_53,barcode02,Staphylococcus warneri,480839,130
redo_RPB004_53,barcode02,Proteus mirabilis,6831,2
redo_RPB004_53,barcode02,Staphylococcus cohnii,170290,58
redo_RPB004_53,barcode02,Enterobacter asburiae,11609,3
redo_RPB004_53,barcode02,Acinetobacter radioresistens,1469,1
redo_RPB004_53,barcode02,Staphylococcus pasteuri,109238,34
redo_RPB004_53,barcode02,Kosakonia oryzae,1321,1
redo_RPB004_53,barcode02,Nostoc sp. PCC 7107,12196,3
redo_RPB004_53,barcode02,[Enterobacter] lignolyticus,12333,3
redo_RPB004_53,barcode02,Cronobacter sakazakii,7228,2
redo_RPB004_53,barcode02,Nostoc sp. 'Lobaria pulmonaria (5183) cyanobiont',24707,6
redo_RPB004_53,barcode02,Pseudomonas aeruginosa,14161,4
redo_RPB004_53,barcode02,Corynebacterium phocae,2736,1
redo_RPB004_53,barcode02,Calothrix sp. NIES-4071,10446,2
redo_RPB004_53,barcode02,Cronobacter muytjensii,5008,1
redo_RPB004_53,barcode02,Aeromonas hydrophila,185,1
redo_RPB004_53,barcode02,Mycobacterium,2398,1
redo_RPB004_53,barcode02,Fischerella sp. NIES-3754,2743,1
redo_RPB004_53,barcode02,Sphingobacterium sp. ML3W,5219,1
redo_RPB004_53,barcode02,Burkholderia cepacia,525,1
redo_RPB004_53,barcode02,Nostoc sp. CENA543,7334,2
redo_RPB004_53,barcode02,Staphylococcus simiae,46225,22
redo_RPB004_53,barcode02,cyanobacterium endosymbiont of Epithemia turgida,2117,1
redo_RPB004_53,barcode02,Leptolyngbya boryana,5262,1
redo_RPB004_53,barcode02,Moraxella osloensis,1078,1
redo_RPB004_53,barcode02,Zymomonas mobilis,137623,45
redo_RPB004_53,barcode02,Escherichia coli,15339936,3325
redo_RPB004_53,barcode02,Candidatus Atelocyanobacterium thalassa,4279,1
redo_RPB004_53,barcode02,Polaribacter sp. ALD11,3810,1
redo_RPB004_53,barcode02,Acaryochloris marina,15851,4
redo_RPB004_53,barcode02,Mycoplasma mycoides,3715,2
redo_RPB004_53,barcode02,Lysinibacillus sphaericus,4323,1
redo_RPB004_53,barcode02,Cyanothece sp. PCC 7822,31716,7
redo_RPB004_53,barcode02,Escherichia marmotae,27699,8
redo_RPB004_53,barcode02,Staphylococcus caprae,610168,208
redo_RPB004_53,barcode02,Nostoc sphaeroides,9679,2
redo_RPB004_53,barcode02,Klebsiella oxytoca,4248,1
redo_RPB004_53,barcode02,Enterobacter sp. SA187,6028,1
redo_RPB004_53,barcode02,Agrobacterium tumefaciens,2168,1
redo_RPB004_53,barcode02,Spiroplasma culicicola,24658,8
redo_RPB004_53,barcode02,Staphylococcus kloosii,6999,2
redo_RPB004_53,barcode02,Citrobacter farmeri,4268,1
redo_RPB004_53,barcode02,Nodularia spumigena,4267,1
redo_RPB004_53,barcode02,Anabaena sp. 90,26469,6
redo_RPB004_53,barcode02,Bacillus mycoides,257215,84
redo_RPB004_53,barcode02,Bacillus thuringiensis,5341,2
redo_RPB004_53,barcode02,Bacillus sp. SJ-10,1537,1
redo_RPB004_53,barcode02,Corynebacterium frankenforstense,2750,1
redo_RPB004_53,barcode02,Lysinibacillus fusiformis,67301,20
redo_RPB004_53,barcode02,Citrobacter freundii complex sp. CFNIH2,4357,1
redo_RPB004_53,barcode02,Streptomyces avermitilis,2810,1
redo_RPB004_53,barcode02,Calothrix sp. PCC 7507,81574,20
redo_RPB004_53,barcode02,Stanieria cyanosphaera,6886,3
redo_RPB004_53,barcode02,Staphylococcus capitis,275507,197
redo_RPB004_53,barcode02,Staphylococcus carnosus,6761,3
redo_RPB004_53,barcode02,Geminocystis sp. NIES-3709,8473,2
redo_RPB004_53,barcode02,Erwinia sp. Ejp617,2538,1
redo_RPB004_53,barcode02,Staphylococcus haemolyticus,4745958,2087
redo_RPB004_53,barcode02,Paracoccus yeei,3192,1
redo_RPB004_53,barcode02,Shigella flexneri,170700,41
redo_RPB004_53,barcode02,Fusobacterium periodonticum,1192,1
redo_RPB004_53,barcode02,Citrobacter rodentium,4990,1
redo_RPB004_53,barcode02,Ruegeria pomeroyi,4214,1
redo_RPB004_53,barcode02,Pantoea agglomerans,3699,1
redo_RPB004_53,barcode02,Oceanobacillus iheyensis,357,1
redo_RPB004_53,barcode02,Staphylococcus lugdunensis,174854,66
redo_RPB004_53,barcode02,Atlantibacter hermannii,4939,1
redo_RPB004_53,barcode02,Staphylococcus aureus,59300096,13773
redo_RPB004_53,barcode02,Streptococcus pyogenes,295,1
redo_RPB004_53,barcode02,Candidatus Izimaplasma sp. HR1,21145,10
redo_RPB004_53,barcode02,Bacillus weihaiensis,3654,1
redo_RPB004_53,barcode02,Acinetobacter johnsonii,1388,1
redo_RPB004_53,barcode02,Calothrix sp. NIES-3974,2650,1
redo_RPB004_53,barcode02,Erwinia amylovora,4976,1
redo_RPB004_53,barcode02,Calothrix sp. NIES-2098,2464,1
redo_RPB004_53,barcode02,Nostoc sp. PCC 7524,4455,1
redo_RPB004_53,barcode02,Citrobacter koseri,3588,1
redo_RPB004_53,barcode02,Staphylococcus felis,1865,1
redo_RPB004_53,barcode02,Lawsonella clevelandensis,27773,9
redo_RPB004_53,barcode02,Citrobacter youngae,560,1
redo_RPB004_53,barcode02,Corynebacterium sp. NML98-0116,2762,1
redo_RPB004_53,barcode02,Synechococcus sp. PCC 6312,4396,1
redo_RPB004_53,barcode02,Crinalium epipsammum,17586,4
redo_RPB004_53,barcode02,Pseudoalteromonas aliena,2891,1
redo_RPB004_53,barcode02,Pseudomonas simiae,2422,1
redo_RPB004_53,barcode02,Brochothrix thermosphacta,935,1
redo_RPB004_53,barcode02,Fusobacterium ulcerans,3981,1
redo_RPB004_53,barcode02,Gloeocapsa sp. PCC 7428,13419,3
redo_RPB004_53,barcode02,Salmonella bongori,13149,3
redo_RPB004_53,barcode02,Pluralibacter gergoviae,3202,1
redo_RPB004_53,barcode02,Propionibacterium freudenreichii,5445,1
redo_RPB004_53,barcode02,Nostoc sp. NIES-3756,12694,3
redo_RPB004_53,barcode02,[Mycobacterium] stephanolepidis,2398,1
redo_RPB004_53,barcode02,Leptolyngbya sp. O-77,4825,1
redo_RPB004_53,barcode02,Staphylococcus delphini,2639,1
redo_RPB004_53,barcode02,Citrobacter amalonaticus,4889,1
redo_RPB004_53,barcode02,Staphylococcus equorum,44575,13
redo_RPB004_53,barcode02,Erwinia pyrifoliae,3601,1
redo_RPB004_53,barcode02,Rivularia sp. PCC 7116,7532,2
redo_RPB004_53,barcode02,Lactobacillus bombi,2307,1
redo_RPB004_53,barcode02,Auricoccus indicus,2021,1
redo_RPB004_53,barcode02,Corynebacterium provencense,2377,1
redo_RPB004_53,barcode02,Escherichia albertii,79141,16
redo_RPB004_53,barcode02,Euhalothece natronophila,4458,1
redo_RPB004_53,barcode02,Capnocytophaga sputigena,2551,1
redo_RPB004_53,barcode02,Staphylococcus xylosus,51431,15
redo_RPB004_53,barcode02,Staphylococcus epidermidis,254818271,72436
redo_RPB004_53,barcode02,Microcoleus sp. PCC 7113,12784,3
redo_RPB004_53,barcode02,Calothrix sp. 336/3,42375,10
redo_RPB004_53,barcode02,Agrobacterium larrymoorei,3131,1
redo_RPB004_53,barcode02,Oscillatoria nigro-viridis,5265,1
redo_RPB004_53,barcode02,Enterobacteriaceae bacterium ENNIH1,9841,2
redo_RPB004_53,barcode02,Moritella viscosa,8865,2
redo_RPB004_53,barcode02,Enterobacter hormaechei,5527,2
redo_RPB004_53,barcode02,Staphylococcus saprophyticus,2918705,809
redo_RPB004_53,barcode02,Staphylococcus simulans,13759,6
redo_RPB004_53,barcode02,Erwinia gerundensis,4827,1
redo_RPB004_53,barcode02,Shigella boydii,423666,98
redo_RPB004_53,barcode02,Bacillus subtilis,8096810,1899
redo_RPB004_53,barcode02,Salmonella enterica,47233,15
redo_RPB004_53,barcode02,Acinetobacter baumannii,10555,3
redo_RPB004_53,barcode02,Staphylococcus hyicus,25973,6
redo_RPB004_53,barcode02,Staphylococcus lutrae,2832,1
redo_RPB004_53,barcode08,Staphylococcus aureus,4163,1
redo_RPB004_53,barcode11,Staphylococcus epidermidis,3289,1
redo_RPB004_53,barcode10,Staphylococcus epidermidis,5499,1
redo_RPB004_53,unclassified,Staphylococcus capitis,9458,8
redo_RPB004_53,unclassified,Cutibacterium acnes,20064,7
redo_RPB004_53,unclassified,Staphylococcus pettenkoferi,711,1
redo_RPB004_53,unclassified,Staphylococcus succinus,66192,16
redo_RPB004_53,unclassified,Enterobacter cloacae,7744,2
redo_RPB004_53,unclassified,Staphylococcus haemolyticus,134494,53
redo_RPB004_53,unclassified,Shigella dysenteriae,33442,11
redo_RPB004_53,unclassified,Staphylococcus schleiferi,39165,12
redo_RPB004_53,unclassified,Shigella sonnei,9841,3
redo_RPB004_53,unclassified,Staphylococcus lugdunensis,4916,2
redo_RPB004_53,unclassified,Leptolyngbya boryana,3348,1
redo_RPB004_53,unclassified,Streptococcus pyogenes,361745,113
redo_RPB004_53,unclassified,Enterococcus faecalis,272,1
redo_RPB004_53,unclassified,Aeromonas veronii,283,1
redo_RPB004_53,unclassified,Staphylococcus nepalensis,1862,1
redo_RPB004_53,unclassified,Kosakonia cowanii,1362,1
redo_RPB004_53,unclassified,Staphylococcus hominis,46677,16
redo_RPB004_53,unclassified,Ureibacillus thermosphaericus,1829,1
redo_RPB004_53,unclassified,Citrobacter koseri,846,1
redo_RPB004_53,unclassified,Acinetobacter johnsonii,4206,1
redo_RPB004_53,unclassified,Citrobacter pasteurii,2124,1
redo_RPB004_53,unclassified,Brochothrix thermosphacta,2391,1
redo_RPB004_53,unclassified,Staphylococcus warneri,17073,5
redo_RPB004_53,unclassified,Streptococcus dysgalactiae,2802,2
redo_RPB004_53,unclassified,Enterobacter asburiae,2239,1
redo_RPB004_53,unclassified,Shigella flexneri,16040,5
redo_RPB004_53,unclassified,Staphylococcus pasteuri,5881,2
redo_RPB004_53,unclassified,Proteus mirabilis,1299,1
redo_RPB004_53,unclassified,Pantoea alhagi,2445,1
redo_RPB004_53,unclassified,Staphylococcus equorum,4726,1
redo_RPB004_53,unclassified,Bacillus velezensis,289,1
redo_RPB004_53,unclassified,Enterococcus wangshanyuanii,3156,1
redo_RPB004_53,unclassified,Cronobacter muytjensii,413,1
redo_RPB004_53,unclassified,Escherichia albertii,27867,5
redo_RPB004_53,unclassified,Staphylococcus xylosus,2845,1
redo_RPB004_53,unclassified,Citrobacter amalonaticus,6043,1
redo_RPB004_53,unclassified,Zymomonas mobilis,12379,5
redo_RPB004_53,unclassified,Escherichia coli,1445206,386
redo_RPB004_53,unclassified,Staphylococcus epidermidis,11512475,4033
redo_RPB004_53,unclassified,Staphylococcus cohnii,7921,3
redo_RPB004_53,unclassified,Staphylococcus simiae,12367,3
redo_RPB004_53,unclassified,Staphylococcus aureus,1844230,548
redo_RPB004_53,unclassified,Escherichia marmotae,4534,1
redo_RPB004_53,unclassified,Staphylococcus caprae,57008,18
redo_RPB004_53,unclassified,Staphylococcus saprophyticus,120755,39
redo_RPB004_53,unclassified,Bacillus thuringiensis,1956,1
redo_RPB004_53,unclassified,Oceanobacillus iheyensis,3491,1
redo_RPB004_53,unclassified,Citrobacter farmeri,1998,1
redo_RPB004_53,unclassified,Shigella boydii,21738,7
redo_RPB004_53,unclassified,Bacillus subtilis,737190,184
redo_RPB004_53,unclassified,Bacillus mycoides,26746,10
redo_RPB004_53,unclassified,Acinetobacter baumannii,276,1
redo_RPB004_53,unclassified,Lysinibacillus fusiformis,2328,1
redo_RPB004_53,barcode04,Klebsiella pneumoniae,5564,1
redo_RPB004_53,barcode04,Cutibacterium acnes,2515,1
redo_RPB004_53,barcode04,Bacillus subtilis,55685,11
redo_RPB004_53,barcode04,Bacillus mycoides,1779,1
redo_RPB004_53,barcode04,Shigella dysenteriae,5842,1
redo_RPB004_53,barcode04,Escherichia coli,104489,23
redo_RPB004_53,barcode04,Shigella flexneri,4914,1
redo_RPB004_53,barcode04,Streptococcus pyogenes,243282,60
redo_RPB004_53,barcode04,Chroococcidiopsis thermalis,4868,1
redo_RPB004_53,barcode04,Nostoc sp. PCC 7107,4438,1
redo_RPB004_53,barcode04,Staphylococcus epidermidis,18725,3
redo_RPB004_53,barcode12a,Bacillus subtilis,1598,1
redo_RPB004_53,barcode12a,Staphylococcus epidermidis,4210,1
redo_RPB004_53,barcode06,Shigella virus SfMu,2449,1
redo_RPB004_53,barcode06,Escherichia virus Mu,21574,8
redo_RPB004_53,barcode06,Escherichia virus T7,603,2
redo_RPB004_53,barcode01,Escherichia virus Mu,41465,9
redo_RPB004_53,barcode01,Escherichia virus T7,3223,3
redo_RPB004_53,barcode02,Shigella virus SfMu,2396,1
redo_RPB004_53,barcode02,Escherichia virus Mu,11854,3
redo_RPB004_53,barcode02,Escherichia virus T7,409,1
redo_RPB004_53,unclassified,Escherichia virus T7,329,1
