Run_name,Barcode,Taxid,Bases,Reads
RPB004_63,barcode12a,Staphylococcus aureus,7291285635,2704091
RPB004_63,barcode03,Staphylococcus aureus,362675,145
RPB004_63,barcode11,Staphylococcus aureus,52345,18
RPB004_63,barcode08,Staphylococcus epidermidis,72370139,22258
RPB004_63,barcode05,Staphylococcus epidermidis,21009,7
RPB004_63,barcode05,Staphylococcus aureus,8535,3
RPB004_63,barcode06,Staphylococcus epidermidis,25366,8
RPB004_63,barcode06,Staphylococcus aureus,20485,8
RPB004_63,unclassified,Staphylococcus aureus,274700554,109471
RPB004_63,barcode09,Staphylococcus aureus,124514,51
RPB004_63,barcode04,Staphylococcus aureus,1101883,397
RPB004_63,barcode07,Staphylococcus epidermidis,297084735,96329
RPB004_63,barcode01,Staphylococcus aureus,18854,8
RPB004_63,barcode10,Staphylococcus epidermidis,13198,4
RPB004_63,barcode10,Staphylococcus aureus,53824,20
RPB004_63,barcode02,Staphylococcus aureus,181305,69
RPB004_63,barcode12a,Staphylococcus virus 29,6523213,2294
RPB004_63,barcode03,Staphylococcus virus 29,2980,1
RPB004_63,barcode08,Staphylococcus virus SEP1,789983,254
RPB004_63,barcode08,Staphylococcus virus IPLAC1C,1348587,420
RPB004_63,unclassified,Staphylococcus virus SEP1,151340,55
RPB004_63,unclassified,Staphylococcus virus IPLAC1C,243113,80
RPB004_63,unclassified,Staphylococcus virus 29,305117,110
RPB004_63,barcode07,Staphylococcus virus SEP1,2529181,816
RPB004_63,barcode07,Staphylococcus virus IPLAC1C,3557780,1146
