sample,barcode,Species name,chrom,len,covBread_1x_percent,avCov,x1,x5,x10
redo_RPB004_29,barcode02,Staphylococcus aureus,NC_007795_1,2821361.0,0.1133495501,1.0,3198.0,0.0,0.0
redo_RPB004_29,barcode04,Delftia tsuruhatensis,NZ_CP017420_1,7195716.0,0.0277109324,1.0,1994.0,0.0,0.0
redo_RPB004_29,barcode04,Escherichia coli,NC_000913_3,4641652.0,0.0747578664,1.9662824207,3470.0,0.0,0.0
redo_RPB004_29,barcode04,Staphylococcus aureus,NC_007795_1,2821361.0,0.6026878517,1.0,17004.0,0.0,0.0
redo_RPB004_29,barcode04,Staphylococcus capitis,NZ_CP007601_1,2443604.0,0.1142983888,1.0,2793.0,0.0,0.0
redo_RPB004_29,barcode04,Staphylococcus capitis,NZ_CP007602_1,59661.0,0.0,0.0,0.0,0.0,0.0
redo_RPB004_29,barcode04,Staphylococcus epidermidis,NC_004461_1,2499279.0,0.9311485432,2.1390082503,23272.0,0.0,0.0
redo_RPB004_29,barcode04,Staphylococcus epidermidis,NC_005008_1,4439.0,0.0,0.0,0.0,0.0,0.0
redo_RPB004_29,barcode04,Staphylococcus epidermidis,NC_005007_1,4679.0,0.0,0.0,0.0,0.0,0.0
redo_RPB004_29,barcode04,Staphylococcus epidermidis,NC_005006_1,8007.0,0.0,0.0,0.0,0.0,0.0
redo_RPB004_29,barcode04,Staphylococcus epidermidis,NC_005005_1,17261.0,0.0,0.0,0.0,0.0,0.0
redo_RPB004_29,barcode04,Staphylococcus epidermidis,NC_005004_1,24365.0,0.0,0.0,0.0,0.0,0.0
redo_RPB004_29,barcode04,Staphylococcus epidermidis,NC_005003_1,6585.0,0.0,0.0,0.0,0.0,0.0
redo_RPB004_29,barcode04,Staphylococcus phage CNPx,NC_031241_1,43293.0,3.2014413416,1.0,1386.0,0.0,0.0
redo_RPB004_29,barcode05,Acinetobacter guillouiae,NZ_AP014630_1,4648418.0,0.0832326181,5.8818816232,3869.0,3813.0,0.0
redo_RPB004_29,barcode05,Acinetobacter schindleri,NZ_CP015615_1,3001209.0,0.0625081426,2.8454157783,1876.0,0.0,0.0
redo_RPB004_29,barcode05,Acinetobacter schindleri,NZ_CP015616_1,179461.0,0.0,0.0,0.0,0.0,0.0
redo_RPB004_29,barcode05,Acinetobacter schindleri,NZ_CP015617_1,45079.0,0.0,0.0,0.0,0.0,0.0
redo_RPB004_29,barcode05,Acinetobacter schindleri,NZ_CP015618_1,14058.0,0.0,0.0,0.0,0.0,0.0
redo_RPB004_29,barcode05,Acinetobacter schindleri,NZ_CP015619_1,10218.0,0.0,0.0,0.0,0.0,0.0
redo_RPB004_29,barcode05,Acinetobacter schindleri,NZ_CP015620_1,10085.0,0.0,0.0,0.0,0.0,0.0
redo_RPB004_29,barcode05,Acinetobacter schindleri,NZ_CP015621_1,7943.0,0.0,0.0,0.0,0.0,0.0
redo_RPB004_29,barcode05,Corynebacterium segmentosum,NZ_LR134408_1,2373440.0,0.1034784953,6.1616449511,2456.0,2192.0,0.0
redo_RPB004_29,barcode05,Cutibacterium acnes,NC_006085_1,2560265.0,0.092763835,1.2686315789,2375.0,0.0,0.0
redo_RPB004_29,barcode05,Delftia acidovorans,NC_010002_1,6767514.0,0.0121758152,1.0,824.0,0.0,0.0
redo_RPB004_29,barcode05,Delftia tsuruhatensis,NZ_CP017420_1,7195716.0,0.0166348978,1.0,1197.0,0.0,0.0
redo_RPB004_29,barcode05,Escherichia coli,NC_000913_3,4641652.0,0.4441522113,15.7963717501,20616.0,13425.0,7187.0
redo_RPB004_29,barcode05,Escherichia fergusonii,NC_011740_1,4588711.0,0.0034650254,1.0,159.0,0.0,0.0
redo_RPB004_29,barcode05,Escherichia fergusonii,NC_011743_1,55150.0,0.0,0.0,0.0,0.0,0.0
redo_RPB004_29,barcode05,Finegoldia magna,NC_010376_1,1797577.0,0.2715878096,67.1743138058,4882.0,3563.0,3561.0
redo_RPB004_29,barcode05,Finegoldia magna,NC_010371_1,189163.0,0.0,0.0,0.0,0.0,0.0
redo_RPB004_29,barcode05,Peptoniphilus harei,NZ_LR134524_1,1739102.0,0.2134434898,72.0134698276,3712.0,3707.0,3706.0
redo_RPB004_29,barcode05,Rhodopseudomonas palustris,NC_007778_1,5331656.0,0.0102219648,1.0,545.0,0.0,0.0
redo_RPB004_29,barcode05,Shigella dysenteriae,NC_007606_1,4369232.0,0.0185845018,1.0,812.0,0.0,0.0
redo_RPB004_29,barcode05,Shigella dysenteriae,NC_009344_1,8953.0,0.0,0.0,0.0,0.0,0.0
redo_RPB004_29,barcode05,Shigella dysenteriae,NC_007607_1,182726.0,0.0,0.0,0.0,0.0,0.0
redo_RPB004_29,barcode05,Staphylococcus aureus,NC_007795_1,2821361.0,0.1528694839,1.0,4313.0,0.0,0.0
redo_RPB004_29,barcode05,Staphylococcus capitis,NZ_CP007601_1,2443604.0,0.1781794432,1.0,4354.0,0.0,0.0
redo_RPB004_29,barcode05,Staphylococcus capitis,NZ_CP007602_1,59661.0,0.0,0.0,0.0,0.0,0.0
redo_RPB004_29,barcode05,Staphylococcus cohnii,NZ_CP027422_1,2557319.0,0.0,0.0,0.0,0.0,0.0
redo_RPB004_29,barcode05,Staphylococcus cohnii,NZ_CP027420_1,36910.0,0.0,0.0,0.0,0.0,0.0
redo_RPB004_29,barcode05,Staphylococcus cohnii,NZ_CP027419_1,32058.0,2.4018965625,1.0,770.0,0.0,0.0
redo_RPB004_29,barcode05,Staphylococcus cohnii,NZ_CP027421_1,29852.0,0.0,0.0,0.0,0.0,0.0
redo_RPB004_29,barcode05,Staphylococcus cohnii,NZ_CP027423_1,2670.0,19.1011235955,1.0,510.0,0.0,0.0
redo_RPB004_29,barcode05,Staphylococcus cohnii,NZ_CP027424_1,2473.0,0.0,0.0,0.0,0.0,0.0
redo_RPB004_29,barcode05,Staphylococcus epidermidis,NC_004461_1,2499279.0,3.2323322046,26.253871387,80785.0,47549.0,39035.0
redo_RPB004_29,barcode05,Staphylococcus epidermidis,NC_005008_1,4439.0,20.4775850417,1.0,909.0,0.0,0.0
redo_RPB004_29,barcode05,Staphylococcus epidermidis,NC_005007_1,4679.0,3.5905107929,2.9166666667,168.0,0.0,0.0
redo_RPB004_29,barcode05,Staphylococcus epidermidis,NC_005006_1,8007.0,0.0,0.0,0.0,0.0,0.0
redo_RPB004_29,barcode05,Staphylococcus epidermidis,NC_005005_1,17261.0,0.0,0.0,0.0,0.0,0.0
redo_RPB004_29,barcode05,Staphylococcus epidermidis,NC_005004_1,24365.0,0.0,0.0,0.0,0.0,0.0
redo_RPB004_29,barcode05,Staphylococcus epidermidis,NC_005003_1,6585.0,0.0,0.0,0.0,0.0,0.0
redo_RPB004_29,barcode05,Staphylococcus phage CNPx,NC_031241_1,43293.0,3.4301157231,1.0,1485.0,0.0,0.0
redo_RPB004_29,barcode05,Staphylococcus virus IPLA5,NC_018281_1,43581.0,7.3908354558,44.9767153058,3221.0,3217.0,3217.0
redo_RPB004_29,barcode05,Staphylococcus virus IPLA7,NC_018284_1,42123.0,7.6656458467,6.5847011459,3229.0,1701.0,0.0
redo_RPB004_29,barcode05,Staphylococcus virus PH15,NC_008723_1,44041.0,9.9339252061,5.1177142857,4375.0,2882.0,0.0
redo_RPB004_29,barcode06,Acinetobacter baumannii,NZ_CP009257_1,4335793.0,0.0220259593,1.6230366492,955.0,0.0,0.0
redo_RPB004_29,barcode06,Acinetobacter haemolyticus,NZ_CP018871_1,3442728.0,0.0307895367,3.2396226415,1060.0,0.0,0.0
redo_RPB004_29,barcode06,Acinetobacter haemolyticus,NZ_CP018872_1,56602.0,0.0,0.0,0.0,0.0,0.0
redo_RPB004_29,barcode06,Acinetobacter haemolyticus,NZ_CP018873_1,39508.0,0.0,0.0,0.0,0.0,0.0
redo_RPB004_29,barcode06,Acinetobacter larvae,NZ_CP016895_1,3741098.0,0.0205020024,1.963494133,767.0,0.0,0.0
redo_RPB004_29,barcode06,Acinetobacter ursingii,NZ_AP018824_1,3429552.0,0.1885377449,12.660995979,6466.0,4929.0,2461.0
redo_RPB004_29,barcode06,Acinetobacter ursingii,NZ_AP018825_1,105528.0,0.0,0.0,0.0,0.0,0.0
redo_RPB004_29,barcode06,Acinetobacter ursingii,NZ_AP018826_1,33916.0,0.0,0.0,0.0,0.0,0.0
redo_RPB004_29,barcode06,Aeromonas sp. ASNIH4,NZ_CP026217_1,5216518.0,0.0260710305,1.0,1360.0,0.0,0.0
redo_RPB004_29,barcode06,Aeromonas sp. ASNIH4,NZ_CP026218_1,27298.0,0.0,0.0,0.0,0.0,0.0
redo_RPB004_29,barcode06,Aeromonas sp. ASNIH4,NZ_CP026220_1,29846.0,0.0,0.0,0.0,0.0,0.0
redo_RPB004_29,barcode06,Aeromonas sp. ASNIH4,NZ_CP026221_1,171236.0,0.0,0.0,0.0,0.0,0.0
redo_RPB004_29,barcode06,Aeromonas sp. ASNIH4,NZ_CP026219_1,35298.0,0.0,0.0,0.0,0.0,0.0
redo_RPB004_29,barcode06,Citrobacter freundii,NZ_CP007557_1,5099034.0,0.0153754613,1.0,784.0,0.0,0.0
redo_RPB004_29,barcode06,Citrobacter freundii,NZ_CP007558_1,272297.0,0.3070177049,1.0,836.0,0.0,0.0
redo_RPB004_29,barcode06,Citrobacter sp. CRE-46,NZ_CP029727_1,5262516.0,0.2643222367,9.0444284687,13910.0,6315.0,3462.0
redo_RPB004_29,barcode06,Citrobacter sp. CRE-46,NZ_CP029729_1,250887.0,0.0,0.0,0.0,0.0,0.0
redo_RPB004_29,barcode06,Citrobacter sp. CRE-46,NZ_CP029730_1,136246.0,0.0,0.0,0.0,0.0,0.0
redo_RPB004_29,barcode06,Citrobacter sp. CRE-46,NZ_CP029731_1,108148.0,0.0,0.0,0.0,0.0,0.0
redo_RPB004_29,barcode06,Citrobacter sp. CRE-46,NZ_CP029732_1,68384.0,0.0,0.0,0.0,0.0,0.0
redo_RPB004_29,barcode06,Citrobacter sp. CRE-46,NZ_CP029733_1,83094.0,0.0,0.0,0.0,0.0,0.0
redo_RPB004_29,barcode06,Citrobacter sp. CRE-46,NZ_CP029734_1,76953.0,0.0,0.0,0.0,0.0,0.0
redo_RPB004_29,barcode06,Citrobacter sp. CRE-46,NZ_CP029735_1,63868.0,0.0,0.0,0.0,0.0,0.0
redo_RPB004_29,barcode06,Citrobacter sp. CRE-46,NZ_CP029728_1,31764.0,0.0,0.0,0.0,0.0,0.0
redo_RPB004_29,barcode06,Citrobacter werkmanii,NZ_CP019986_1,4929789.0,0.208873037,11.2008351947,10297.0,9243.0,6138.0
redo_RPB004_29,barcode06,Citrobacter werkmanii,NZ_CP019987_1,212549.0,0.657730688,7.6773962804,1398.0,699.0,624.0
redo_RPB004_29,barcode06,Citrobacter youngae,NZ_CP021963_1,4945156.0,0.0375721211,20.0780409042,1858.0,1856.0,1765.0
redo_RPB004_29,barcode06,Cutibacterium acnes,NC_006085_1,2560265.0,0.413980584,2.3008774413,10599.0,0.0,0.0
redo_RPB004_29,barcode06,Edwardsiella ictaluri,NC_012779_2,3812301.0,0.0734202257,1.0,2799.0,0.0,0.0
redo_RPB004_29,barcode06,Enterobacter asburiae,NC_015968_1,4812833.0,0.0716002404,1.0,3446.0,0.0,0.0
redo_RPB004_29,barcode06,Enterobacter asburiae,NC_015963_1,166725.0,0.0,0.0,0.0,0.0,0.0
redo_RPB004_29,barcode06,Enterobacter asburiae,NC_015969_1,32574.0,0.0,0.0,0.0,0.0,0.0
redo_RPB004_29,barcode06,Enterobacter cloacae,NC_014121_1,5314581.0,9.3723663258,1.7262789549,498102.0,18614.0,0.0
redo_RPB004_29,barcode06,Enterobacter cloacae,NC_014107_1,199562.0,9.1054409156,3.9826096527,18171.0,6891.0,435.0
redo_RPB004_29,barcode06,Enterobacter cloacae,NC_014108_1,84653.0,0.0,0.0,0.0,0.0,0.0
redo_RPB004_29,barcode06,Enterobacter cloacae complex sp.,NZ_CP026975_1,4876999.0,0.1946073805,3.3960594247,9491.0,4496.0,0.0
redo_RPB004_29,barcode06,Enterobacter hormaechei,NZ_CP017179_1,4782480.0,16.213847209,1.9866356987,775424.0,42720.0,9375.0
redo_RPB004_29,barcode06,Enterobacter kobei,NZ_CP017181_1,4880257.0,0.1653601439,2.4945477076,8070.0,2370.0,0.0
redo_RPB004_29,barcode06,Enterobacter kobei,NZ_CP017182_1,47221.0,0.0,0.0,0.0,0.0,0.0
redo_RPB004_29,barcode06,Enterobacter ludwigii,NZ_CP017279_1,4857439.0,0.0663518368,1.0,3223.0,0.0,0.0
redo_RPB004_29,barcode06,Enterobacter ludwigii,NZ_CP017280_1,95331.0,0.0,0.0,0.0,0.0,0.0
redo_RPB004_29,barcode06,Enterobacter roggenkampii,NZ_CP017184_1,4748414.0,0.0626524983,1.0,2975.0,0.0,0.0
redo_RPB004_29,barcode06,Enterobacter roggenkampii,NZ_CP017185_1,151583.0,0.0,0.0,0.0,0.0,0.0
redo_RPB004_29,barcode06,Enterobacter sp. 638,NC_009436_1,4518712.0,0.2220101657,7.0699760766,10032.0,7250.0,1748.0
redo_RPB004_29,barcode06,Enterobacter sp. 638,NC_009425_1,157749.0,0.0,0.0,0.0,0.0,0.0
redo_RPB004_29,barcode06,Enterobacter sp. CRENT-193,NZ_CP024812_1,4852690.0,0.1222414784,1.0,5932.0,0.0,0.0
redo_RPB004_29,barcode06,Enterobacter sp. CRENT-193,NZ_CP024813_1,298989.0,0.0,0.0,0.0,0.0,0.0
redo_RPB004_29,barcode06,Enterobacter sp. CRENT-193,NZ_CP024814_1,44962.0,0.0,0.0,0.0,0.0,0.0
redo_RPB004_29,barcode06,Enterobacter sp. E20,NZ_CP012999_1,4763114.0,0.0027712963,1.0,132.0,0.0,0.0
redo_RPB004_29,barcode06,Enterobacter sp. FY-07,NZ_CP012487_1,5118646.0,0.0257294605,2.7145026576,1317.0,0.0,0.0
redo_RPB004_29,barcode06,Enterobacter sp. FY-07,NZ_CP012488_1,13955.0,0.0,0.0,0.0,0.0,0.0
redo_RPB004_29,barcode06,Enterobacter sp. FY-07,NZ_CP012489_1,3776.0,0.0,0.0,0.0,0.0,0.0
redo_RPB004_29,barcode06,Enterobacter sp. FY-07,NZ_CP012490_1,2324.0,0.0,0.0,0.0,0.0,0.0
redo_RPB004_29,barcode06,Enterobacteriaceae bacterium strain FGI 57,NC_020063_1,4762179.0,0.0600775401,1.0,2861.0,0.0,0.0
redo_RPB004_29,barcode06,Escherichia coli,NC_000913_3,4641652.0,0.1713398592,2.2311077581,7953.0,0.0,0.0
redo_RPB004_29,barcode06,Klebsiella michiganensis,NC_016612_1,5974109.0,0.0184630043,1.8059836809,1103.0,0.0,0.0
redo_RPB004_29,barcode06,Klebsiella oxytoca,NZ_CP011636_1,6257473.0,0.0,0.0,0.0,0.0,0.0
redo_RPB004_29,barcode06,Klebsiella oxytoca,NZ_CP011627_1,14274.0,0.0,0.0,0.0,0.0,0.0
redo_RPB004_29,barcode06,Klebsiella oxytoca,NZ_CP011633_1,150318.0,0.0,0.0,0.0,0.0,0.0
redo_RPB004_29,barcode06,Klebsiella oxytoca,NZ_CP011628_1,16069.0,0.0,0.0,0.0,0.0,0.0
redo_RPB004_29,barcode06,Klebsiella oxytoca,NZ_CP011625_1,1919.0,0.0,0.0,0.0,0.0,0.0
redo_RPB004_29,barcode06,Klebsiella oxytoca,NZ_CP011634_1,227680.0,0.0,0.0,0.0,0.0,0.0
redo_RPB004_29,barcode06,Klebsiella oxytoca,NZ_CP011629_1,33610.0,0.0,0.0,0.0,0.0,0.0
redo_RPB004_29,barcode06,Klebsiella oxytoca,NZ_CP011630_1,49200.0,0.0,0.0,0.0,0.0,0.0
redo_RPB004_29,barcode06,Klebsiella oxytoca,NZ_CP011631_1,53596.0,0.0,0.0,0.0,0.0,0.0
redo_RPB004_29,barcode06,Klebsiella oxytoca,NZ_CP011626_1,6538.0,0.0,0.0,0.0,0.0,0.0
redo_RPB004_29,barcode06,Klebsiella oxytoca,NZ_CP011632_1,83652.0,0.0,0.0,0.0,0.0,0.0
redo_RPB004_29,barcode06,Klebsiella oxytoca,NZ_CP011635_1,332956.0,0.3880392604,1.1679566563,1292.0,0.0,0.0
redo_RPB004_29,barcode06,Klebsiella pneumoniae,NC_016845_1,5333942.0,0.0972638998,1.4751349268,5188.0,0.0,0.0
redo_RPB004_29,barcode06,Klebsiella pneumoniae,NC_016838_1,122799.0,0.0,0.0,0.0,0.0,0.0
redo_RPB004_29,barcode06,Klebsiella pneumoniae,NC_016846_1,111195.0,3.3949368227,1.0,3775.0,0.0,0.0
redo_RPB004_29,barcode06,Klebsiella pneumoniae,NC_016839_1,105974.0,1.0228924076,1.0,1084.0,0.0,0.0
redo_RPB004_29,barcode06,Klebsiella pneumoniae,NC_016840_1,3751.0,0.0,0.0,0.0,0.0,0.0
redo_RPB004_29,barcode06,Klebsiella pneumoniae,NC_016847_1,3353.0,0.0,0.0,0.0,0.0,0.0
redo_RPB004_29,barcode06,Klebsiella pneumoniae,NC_016841_1,1308.0,0.0,0.0,0.0,0.0,0.0
redo_RPB004_29,barcode06,Kluyvera intermedia,NZ_CP011602_1,5529134.0,0.0,0.0,0.0,0.0,0.0
redo_RPB004_29,barcode06,Kluyvera intermedia,NZ_CP011600_1,215092.0,1.4328752348,1.0,3082.0,0.0,0.0
redo_RPB004_29,barcode06,Kluyvera intermedia,NZ_CP011601_1,295619.0,0.440431772,1.4301075269,1302.0,0.0,0.0
redo_RPB004_29,barcode06,Kluyvera intermedia,NZ_CP011599_1,82986.0,0.8748463596,1.0,726.0,0.0,0.0
redo_RPB004_29,barcode06,Kluyvera intermedia,NZ_CP011598_1,43621.0,0.0,0.0,0.0,0.0,0.0
redo_RPB004_29,barcode06,Lelliottia jeotgali,NZ_CP018628_1,4603334.0,0.0729688526,10.7761238464,3359.0,2568.0,2499.0
redo_RPB004_29,barcode06,Lelliottia nimipressuralis,NZ_CP025034_2,4826853.0,0.0110009565,1.0,531.0,0.0,0.0
redo_RPB004_29,barcode06,Moraxella osloensis,NZ_CP014234_1,2434688.0,27.5484579544,8.8831895324,670719.0,388463.0,207083.0
redo_RPB004_29,barcode06,Moraxella osloensis,NZ_CP014238_1,40342.0,17.0467502851,6.5623091464,6877.0,1881.0,1298.0
redo_RPB004_29,barcode06,Moraxella osloensis,NZ_CP014237_1,35189.0,0.0,0.0,0.0,0.0,0.0
redo_RPB004_29,barcode06,Moraxella osloensis,NZ_CP014236_1,57463.0,1.312148687,14.0278514589,754.0,658.0,623.0
redo_RPB004_29,barcode06,Moraxella osloensis,NZ_CP014235_1,81455.0,11.9170093917,5.9218090038,9707.0,6945.0,0.0
redo_RPB004_29,barcode06,Morganella morganii,NC_020418_1,3799539.0,0.0906162563,8.5469067674,3443.0,3251.0,496.0
redo_RPB004_29,barcode06,Oleispira antarctica,NZ_FO203512_1,4406383.0,0.0494963783,9.3851444292,2181.0,2176.0,0.0
redo_RPB004_29,barcode06,Proteus mirabilis,NC_010554_1,4063606.0,0.0822176166,1.0,3341.0,0.0,0.0
redo_RPB004_29,barcode06,Proteus mirabilis,NC_010555_1,36289.0,0.0,0.0,0.0,0.0,0.0
redo_RPB004_29,barcode06,Psychrobacter sp. G,NC_021661_1,3079438.0,0.0322786171,1.0,994.0,0.0,0.0
redo_RPB004_29,barcode06,Psychrobacter sp. G,NC_021668_1,26087.0,0.0,0.0,0.0,0.0,0.0
redo_RPB004_29,barcode06,Psychrobacter sp. G,NC_021669_1,3956.0,0.0,0.0,0.0,0.0,0.0
redo_RPB004_29,barcode06,Psychrobacter sp. G,NC_021662_1,4518.0,0.0,0.0,0.0,0.0,0.0
redo_RPB004_29,barcode06,Rothia dentocariosa,NC_014643_1,2506025.0,0.1501581189,2.6532022323,3763.0,0.0,0.0
redo_RPB004_29,barcode06,Serratia ficaria,NZ_LT906479_1,5209973.0,0.0618429309,1.0,3222.0,0.0,0.0
redo_RPB004_29,barcode06,Serratia fonticola,NZ_CP011254_1,6000511.0,0.0486958527,1.0,2922.0,0.0,0.0
redo_RPB004_29,barcode06,Shigella flexneri,NC_004337_2,4607202.0,0.1167085793,1.0,5377.0,0.0,0.0
redo_RPB004_29,barcode06,Shigella flexneri,NC_004851_1,221618.0,0.0,0.0,0.0,0.0,0.0
redo_RPB004_29,barcode06,Staphylococcus aureus,NC_007795_1,2821361.0,0.3807382324,1.0,10742.0,0.0,0.0
redo_RPB004_29,barcode06,Staphylococcus epidermidis,NC_004461_1,2499279.0,0.2198634086,2.1639672429,5495.0,0.0,0.0
redo_RPB004_29,barcode06,Staphylococcus epidermidis,NC_005008_1,4439.0,0.0,0.0,0.0,0.0,0.0
redo_RPB004_29,barcode06,Staphylococcus epidermidis,NC_005007_1,4679.0,3.3981620004,1.0,159.0,0.0,0.0
redo_RPB004_29,barcode06,Staphylococcus epidermidis,NC_005006_1,8007.0,0.0,0.0,0.0,0.0,0.0
redo_RPB004_29,barcode06,Staphylococcus epidermidis,NC_005005_1,17261.0,0.0,0.0,0.0,0.0,0.0
redo_RPB004_29,barcode06,Staphylococcus epidermidis,NC_005004_1,24365.0,0.0,0.0,0.0,0.0,0.0
redo_RPB004_29,barcode06,Staphylococcus epidermidis,NC_005003_1,6585.0,0.0,0.0,0.0,0.0,0.0
redo_RPB004_29,barcode06,Staphylococcus lugdunensis,NC_013893_1,2658366.0,0.1685998091,9.7717536814,4482.0,4480.0,0.0
redo_RPB004_29,barcode06,Staphylococcus pettenkoferi,NZ_CP022096_2,2502360.0,0.4349094455,8.1315813654,10883.0,4327.0,4314.0
redo_RPB004_29,barcode06,Veillonella dispar,NZ_LR134375_1,2116915.0,0.0757706379,1.0,1604.0,0.0,0.0
redo_RPB004_29,barcode06,Vibrio coralliilyticus,NZ_CP009264_1,3463115.0,0.0753079236,1.0,2608.0,0.0,0.0
redo_RPB004_29,barcode06,Vibrio coralliilyticus,NZ_CP009265_1,1888898.0,0.0,0.0,0.0,0.0,0.0
redo_RPB004_29,barcode06,Vibrio coralliilyticus,NZ_CP009266_1,380781.0,0.0,0.0,0.0,0.0,0.0
redo_RPB004_29,barcode07,Anoxybacillus gonensis,NZ_CP012152_1,2803668.0,0.0761145756,1.0,2134.0,0.0,0.0
redo_RPB004_29,barcode07,Bacillus thermocopriae,NZ_CP026365_1,2843874.0,0.0653685782,1.9655728886,1859.0,0.0,0.0
redo_RPB004_29,barcode07,Citrobacter freundii complex sp. CFNIH2,NZ_CP025757_1,5277996.0,0.0386510335,1.3534313725,2040.0,0.0,0.0
redo_RPB004_29,barcode07,Citrobacter freundii complex sp. CFNIH2,NZ_CP025758_1,62588.0,0.0,0.0,0.0,0.0,0.0
redo_RPB004_29,barcode07,Cutibacterium acnes,NC_006085_1,2560265.0,0.1521717478,1.0,3896.0,0.0,0.0
redo_RPB004_29,barcode07,Enterobacter bugandensis,NZ_LT992502_1,4717613.0,0.0988423595,1.0,4663.0,0.0,0.0
redo_RPB004_29,barcode07,Enterobacter cancerogenus,NZ_CP025225_1,4796512.0,0.1692896838,7.4162561576,8120.0,5249.0,2673.0
redo_RPB004_29,barcode07,Enterobacter cloacae,NC_014121_1,5314581.0,4.7017064939,10.4985472795,249876.0,120230.0,75835.0
redo_RPB004_29,barcode07,Enterobacter cloacae,NC_014107_1,199562.0,0.0,0.0,0.0,0.0,0.0
redo_RPB004_29,barcode07,Enterobacter cloacae,NC_014108_1,84653.0,0.0,0.0,0.0,0.0,0.0
redo_RPB004_29,barcode07,Enterobacter cloacae complex sp.,NZ_CP026975_1,4876999.0,0.1979495997,29.6729852911,9654.0,3360.0,3086.0
redo_RPB004_29,barcode07,Enterobacter hormaechei,NZ_CP017179_1,4782480.0,5.9113472508,15.8764949117,282709.0,143865.0,95978.0
redo_RPB004_29,barcode07,Enterobacter kobei,NZ_CP017181_1,4880257.0,0.047763878,1.38996139,2331.0,209.0,0.0
redo_RPB004_29,barcode07,Enterobacter kobei,NZ_CP017182_1,47221.0,0.0,0.0,0.0,0.0,0.0
redo_RPB004_29,barcode07,Enterobacter soli,NC_015968_1,4812833.0,0.070208129,3.1166025451,3379.0,1132.0,0.0
redo_RPB004_29,barcode07,Enterobacter soli,NC_015963_1,166725.0,0.0,0.0,0.0,0.0,0.0
redo_RPB004_29,barcode07,Enterobacter soli,NC_015969_1,32574.0,0.0,0.0,0.0,0.0,0.0
redo_RPB004_29,barcode07,Enterobacter sp. 638,NC_009436_1,4518712.0,0.3325947748,17.2515802781,15029.0,12628.0,9676.0
redo_RPB004_29,barcode07,Enterobacter sp. 638,NC_009425_1,157749.0,0.0,0.0,0.0,0.0,0.0
redo_RPB004_29,barcode07,Enterobacter sp. CRENT-193,NZ_CP024812_1,4852690.0,0.1290212233,2.166906245,6261.0,0.0,0.0
redo_RPB004_29,barcode07,Enterobacter sp. CRENT-193,NZ_CP024813_1,298989.0,0.0,0.0,0.0,0.0,0.0
redo_RPB004_29,barcode07,Enterobacter sp. CRENT-193,NZ_CP024814_1,44962.0,0.0,0.0,0.0,0.0,0.0
redo_RPB004_29,barcode07,Enterobacter sp. ODB01,NZ_CP015227_1,4534036.0,0.072496116,9.8016428354,3287.0,2714.0,1204.0
redo_RPB004_29,barcode07,Enterobacteriaceae bacterium strain FGI 57,NC_020063_1,4762179.0,0.0190249044,1.0,906.0,0.0,0.0
redo_RPB004_29,barcode07,Escherichia albertii,NZ_CP007025_1,4701875.0,0.1044689619,1.0,4912.0,0.0,0.0
redo_RPB004_29,barcode07,Escherichia coli,NC_000913_3,4641652.0,0.6494670432,9.5614675247,30146.0,24138.0,11464.0
redo_RPB004_29,barcode07,Escherichia phage HK639,NC_016158_1,49576.0,9.2101016621,7.7582128778,4566.0,2309.0,1835.0
redo_RPB004_29,barcode07,Geobacillus stearothermophilus,NZ_CP008934_1,3654829.0,0.0367732663,1.0,1344.0,0.0,0.0
redo_RPB004_29,barcode07,Geobacillus stearothermophilus,NZ_CP008935_1,21665.0,0.0,0.0,0.0,0.0,0.0
redo_RPB004_29,barcode07,Klebsiella aerogenes,NC_015663_1,5280350.0,0.1099737707,10.5607026003,5807.0,4876.0,3680.0
redo_RPB004_29,barcode07,Klebsiella pneumoniae,NC_016845_1,5333942.0,0.0611742685,1.0,3263.0,0.0,0.0
redo_RPB004_29,barcode07,Klebsiella pneumoniae,NC_016838_1,122799.0,0.0,0.0,0.0,0.0,0.0
redo_RPB004_29,barcode07,Klebsiella pneumoniae,NC_016846_1,111195.0,0.0,0.0,0.0,0.0,0.0
redo_RPB004_29,barcode07,Klebsiella pneumoniae,NC_016839_1,105974.0,0.0,0.0,0.0,0.0,0.0
redo_RPB004_29,barcode07,Klebsiella pneumoniae,NC_016840_1,3751.0,0.0,0.0,0.0,0.0,0.0
redo_RPB004_29,barcode07,Klebsiella pneumoniae,NC_016847_1,3353.0,0.0,0.0,0.0,0.0,0.0
redo_RPB004_29,barcode07,Klebsiella pneumoniae,NC_016841_1,1308.0,0.0,0.0,0.0,0.0,0.0
redo_RPB004_29,barcode07,Paracoccus contaminans,NZ_CP020612_1,2939512.0,0.0938250975,3.9028281363,2758.0,0.0,0.0
redo_RPB004_29,barcode07,Paracoccus contaminans,NZ_CP020613_1,93982.0,0.0,0.0,0.0,0.0,0.0
redo_RPB004_29,barcode07,Paracoccus sp. SC2-6,NZ_CP030918_1,3250998.0,0.0870809518,3.8685976687,2831.0,0.0,0.0
redo_RPB004_29,barcode07,Raoultella terrigena,NZ_LR131271_1,6073951.0,0.0009548974,1.0,58.0,0.0,0.0
redo_RPB004_29,barcode07,Shewanella sp. FDAARGOS_354,NZ_CP022089_2,5031863.0,0.0250404274,1.0,1260.0,0.0,0.0
redo_RPB004_29,barcode07,Shewanella sp. FDAARGOS_354,NZ_CP022090_2,38118.0,0.0,0.0,0.0,0.0,0.0
redo_RPB004_29,barcode07,Staphylococcus epidermidis,NC_004461_1,2499279.0,0.1310377913,35.2354198473,3275.0,3275.0,3275.0
redo_RPB004_29,barcode07,Staphylococcus epidermidis,NC_005008_1,4439.0,0.0,0.0,0.0,0.0,0.0
redo_RPB004_29,barcode07,Staphylococcus epidermidis,NC_005007_1,4679.0,0.0,0.0,0.0,0.0,0.0
redo_RPB004_29,barcode07,Staphylococcus epidermidis,NC_005006_1,8007.0,0.0,0.0,0.0,0.0,0.0
redo_RPB004_29,barcode07,Staphylococcus epidermidis,NC_005005_1,17261.0,0.0,0.0,0.0,0.0,0.0
redo_RPB004_29,barcode07,Staphylococcus epidermidis,NC_005004_1,24365.0,0.0,0.0,0.0,0.0,0.0
redo_RPB004_29,barcode07,Staphylococcus epidermidis,NC_005003_1,6585.0,0.0,0.0,0.0,0.0,0.0
redo_RPB004_29,barcode07,Stenotrophomonas maltophilia,NC_010943_1,4851126.0,0.0636759383,1.0,3089.0,0.0,0.0
redo_RPB004_29,barcode10,Bacillus anthracis,NC_003997_3,5227293.0,0.0530484899,1.0,2773.0,0.0,0.0
redo_RPB004_29,barcode10,Cutibacterium acnes,NC_006085_1,2560265.0,0.3368401318,1.5619202226,8624.0,0.0,0.0
redo_RPB004_29,barcode10,Escherichia coli,NC_000913_3,4641652.0,0.0744993377,1.0,3458.0,0.0,0.0
redo_RPB004_29,barcode10,Ezakiella massiliensis,NZ_LT635475_1,1741785.0,0.1138487242,1.0,1983.0,0.0,0.0
redo_RPB004_29,barcode10,Pelosinus sp. UFO1,NZ_CP008852_1,5115410.0,0.0053759132,1.0,275.0,0.0,0.0
redo_RPB004_29,barcode10,Staphylococcus argenteus,NC_016941_1,2762785.0,1.1573828582,1.0269889917,31976.0,0.0,0.0
redo_RPB004_29,barcode10,Staphylococcus argenteus,NC_016942_1,24853.0,0.0,0.0,0.0,0.0,0.0
redo_RPB004_29,barcode10,Staphylococcus aureus,NC_007795_1,2821361.0,93.5528633167,6.548711405,2639464.0,1938700.0,267816.0
redo_RPB004_29,barcode10,Staphylococcus capitis,NZ_CP007601_1,2443604.0,0.10292175,1.0,2515.0,0.0,0.0
redo_RPB004_29,barcode10,Staphylococcus capitis,NZ_CP007602_1,59661.0,0.0,0.0,0.0,0.0,0.0
redo_RPB004_29,barcode10,Staphylococcus carnosus,NC_012121_1,2566424.0,0.0040912959,1.0,105.0,0.0,0.0
redo_RPB004_29,barcode10,Staphylococcus cohnii,NZ_CP027422_1,2557319.0,0.0,0.0,0.0,0.0,0.0
redo_RPB004_29,barcode10,Staphylococcus cohnii,NZ_CP027420_1,36910.0,0.4470333243,1.9393939394,165.0,0.0,0.0
redo_RPB004_29,barcode10,Staphylococcus cohnii,NZ_CP027419_1,32058.0,0.5084534282,1.0,163.0,0.0,0.0
redo_RPB004_29,barcode10,Staphylococcus cohnii,NZ_CP027421_1,29852.0,0.0,0.0,0.0,0.0,0.0
redo_RPB004_29,barcode10,Staphylococcus cohnii,NZ_CP027423_1,2670.0,22.9962546816,27.1758957655,614.0,609.0,608.0
redo_RPB004_29,barcode10,Staphylococcus cohnii,NZ_CP027424_1,2473.0,0.0,0.0,0.0,0.0,0.0
redo_RPB004_29,barcode10,Staphylococcus epidermidis,NC_004461_1,2499279.0,0.0392513201,1.0,981.0,0.0,0.0
redo_RPB004_29,barcode10,Staphylococcus epidermidis,NC_005008_1,4439.0,0.0,0.0,0.0,0.0,0.0
redo_RPB004_29,barcode10,Staphylococcus epidermidis,NC_005007_1,4679.0,3.5691387049,2.8502994012,167.0,0.0,0.0
redo_RPB004_29,barcode10,Staphylococcus epidermidis,NC_005006_1,8007.0,0.0,0.0,0.0,0.0,0.0
redo_RPB004_29,barcode10,Staphylococcus epidermidis,NC_005005_1,17261.0,0.0,0.0,0.0,0.0,0.0
redo_RPB004_29,barcode10,Staphylococcus epidermidis,NC_005004_1,24365.0,0.0,0.0,0.0,0.0,0.0
redo_RPB004_29,barcode10,Staphylococcus epidermidis,NC_005003_1,6585.0,0.0,0.0,0.0,0.0,0.0
redo_RPB004_29,barcode10,Staphylococcus equorum,NZ_CP013114_1,2822193.0,0.0759692905,1.0,2144.0,0.0,0.0
redo_RPB004_29,barcode10,Staphylococcus haemolyticus,NC_007168_1,2685015.0,0.1683044601,1.0320867449,4519.0,0.0,0.0
redo_RPB004_29,barcode10,Staphylococcus haemolyticus,NC_007169_1,2300.0,0.0,0.0,0.0,0.0,0.0
redo_RPB004_29,barcode10,Staphylococcus haemolyticus,NC_007170_1,2366.0,0.0,0.0,0.0,0.0,0.0
redo_RPB004_29,barcode10,Staphylococcus haemolyticus,NC_007171_1,8180.0,0.0,0.0,0.0,0.0,0.0
redo_RPB004_29,barcode10,Staphylococcus hominis,NZ_CP020618_1,2253412.0,0.379824018,1.1694123145,8559.0,0.0,0.0
redo_RPB004_29,barcode10,Staphylococcus hyicus,NZ_CP008747_1,2472129.0,0.0955451758,1.0,2362.0,0.0,0.0
redo_RPB004_29,barcode10,Staphylococcus lugdunensis,NC_013893_1,2658366.0,0.186467928,1.0,4957.0,0.0,0.0
redo_RPB004_29,barcode10,Staphylococcus nepalensis,NZ_CP017460_1,2913597.0,0.1238675081,1.0,3609.0,0.0,0.0
redo_RPB004_29,barcode10,Staphylococcus nepalensis,NZ_CP017461_1,54521.0,0.0,0.0,0.0,0.0,0.0
redo_RPB004_29,barcode10,Staphylococcus nepalensis,NZ_CP017462_1,22471.0,0.0,0.0,0.0,0.0,0.0
redo_RPB004_29,barcode10,Staphylococcus pasteuri,NC_022737_1,2559946.0,0.1689488763,1.0,4325.0,0.0,0.0
redo_RPB004_29,barcode10,Staphylococcus phage StauST398-2,NC_021323_1,45572.0,3.7830246643,1.0,1724.0,0.0,0.0
redo_RPB004_29,barcode10,Staphylococcus phage tp310-3,NC_009763_3,42973.0,4.7657831662,1.0,2048.0,0.0,0.0
redo_RPB004_29,barcode10,Staphylococcus pseudintermedius,NC_014925_1,2617381.0,0.0063422177,1.0,166.0,0.0,0.0
redo_RPB004_29,barcode10,Staphylococcus saprophyticus,NC_007350_1,2516575.0,0.0,0.0,0.0,0.0,0.0
redo_RPB004_29,barcode10,Staphylococcus saprophyticus,NC_007351_1,38454.0,0.0,0.0,0.0,0.0,0.0
redo_RPB004_29,barcode10,Staphylococcus saprophyticus,NC_007352_1,22870.0,0.7039790118,1.0,161.0,0.0,0.0
redo_RPB004_29,barcode10,Staphylococcus schweitzeri,NZ_LR134304_1,2784939.0,0.7886348678,1.0482629878,21963.0,0.0,0.0
redo_RPB004_29,barcode10,Staphylococcus simiae,NZ_LT906460_1,2643976.0,0.3246247318,1.0,8583.0,0.0,0.0
redo_RPB004_29,barcode10,Staphylococcus sp. AntiMn-1,NZ_CP012968_1,2721344.0,0.0723539545,1.0,1969.0,0.0,0.0
redo_RPB004_29,barcode10,Staphylococcus sp. AntiMn-1,NZ_CP013300_1,17052.0,0.0,0.0,0.0,0.0,0.0
redo_RPB004_29,barcode10,Staphylococcus virus IPLA35,NC_011612_1,45344.0,5.5817748765,1.0,2531.0,0.0,0.0
redo_RPB004_29,barcode10,Staphylococcus xylosus,NZ_CP007208_1,2836901.0,0.0653882529,1.0,1855.0,0.0,0.0
redo_RPB004_29,barcode10,Staphylococcus xylosus,NZ_CP007209_1,30062.0,0.0,0.0,0.0,0.0,0.0
redo_RPB004_29,barcode11,Acholeplasma palmae,NC_022538_1,1554229.0,0.103073614,1.0,1602.0,0.0,0.0
redo_RPB004_29,barcode11,Aerococcus urinaeequi,NZ_CP013988_1,2054328.0,0.1140518943,4.3004694836,2343.0,1169.0,0.0
redo_RPB004_29,barcode11,Anoxybacillus sp. B7M1,NZ_CP015436_1,3814080.0,0.0078918114,1.0,301.0,0.0,0.0
redo_RPB004_29,barcode11,Anoxybacillus sp. B7M1,NZ_CP015437_1,54976.0,0.0,0.0,0.0,0.0,0.0
redo_RPB004_29,barcode11,Arsenophonus nasoniae,NZ_CP038613_1,3871978.0,0.0692927491,1.0,2683.0,0.0,0.0
redo_RPB004_29,barcode11,Arsenophonus nasoniae,NZ_CP038622_1,50328.0,0.0,0.0,0.0,0.0,0.0
redo_RPB004_29,barcode11,Arsenophonus nasoniae,NZ_CP038623_1,46250.0,0.0,0.0,0.0,0.0,0.0
redo_RPB004_29,barcode11,Arsenophonus nasoniae,NZ_CP038624_1,34725.0,0.0,0.0,0.0,0.0,0.0
redo_RPB004_29,barcode11,Arsenophonus nasoniae,NZ_CP038625_1,33626.0,0.0,0.0,0.0,0.0,0.0
redo_RPB004_29,barcode11,Arsenophonus nasoniae,NZ_CP038626_1,32417.0,0.0,0.0,0.0,0.0,0.0
redo_RPB004_29,barcode11,Arsenophonus nasoniae,NZ_CP038627_1,15977.0,0.0,0.0,0.0,0.0,0.0
redo_RPB004_29,barcode11,Arsenophonus nasoniae,NZ_CP038628_1,8312.0,0.0,0.0,0.0,0.0,0.0
redo_RPB004_29,barcode11,Arsenophonus nasoniae,NZ_CP038629_1,3641.0,0.0,0.0,0.0,0.0,0.0
redo_RPB004_29,barcode11,Arsenophonus nasoniae,NZ_CP038630_1,7173.0,0.0,0.0,0.0,0.0,0.0
redo_RPB004_29,barcode11,Arsenophonus nasoniae,NZ_CP038614_1,222851.0,0.0,0.0,0.0,0.0,0.0
redo_RPB004_29,barcode11,Arsenophonus nasoniae,NZ_CP038615_1,85190.0,0.0,0.0,0.0,0.0,0.0
redo_RPB004_29,barcode11,Arsenophonus nasoniae,NZ_CP038616_1,85274.0,0.0,0.0,0.0,0.0,0.0
redo_RPB004_29,barcode11,Arsenophonus nasoniae,NZ_CP038617_1,133306.0,0.0,0.0,0.0,0.0,0.0
redo_RPB004_29,barcode11,Arsenophonus nasoniae,NZ_CP038618_1,61872.0,0.0,0.0,0.0,0.0,0.0
redo_RPB004_29,barcode11,Arsenophonus nasoniae,NZ_CP038619_1,121472.0,0.0,0.0,0.0,0.0,0.0
redo_RPB004_29,barcode11,Arsenophonus nasoniae,NZ_CP038620_1,120926.0,0.0,0.0,0.0,0.0,0.0
redo_RPB004_29,barcode11,Arsenophonus nasoniae,NZ_CP038621_1,51789.0,0.0,0.0,0.0,0.0,0.0
redo_RPB004_29,barcode11,Auricoccus indicus,NZ_CP019573_1,1745789.0,0.1194875211,1.0,2086.0,0.0,0.0
redo_RPB004_29,barcode11,Bacillus amyloliquefaciens,NC_014551_1,3980199.0,0.0558514788,1.0,2223.0,0.0,0.0
redo_RPB004_29,barcode11,Bacillus anthracis,NC_003997_3,5227293.0,0.2612250739,1.0478213109,13655.0,0.0,0.0
redo_RPB004_29,barcode11,Bacillus aryabhattai,NZ_CP024035_1,5035815.0,0.0329241642,1.0,1658.0,0.0,0.0
redo_RPB004_29,barcode11,Bacillus aryabhattai,NZ_CP024036_1,139863.0,0.0,0.0,0.0,0.0,0.0
redo_RPB004_29,barcode11,Bacillus aryabhattai,NZ_CP024037_1,78572.0,0.0,0.0,0.0,0.0,0.0
redo_RPB004_29,barcode11,Bacillus cereus,NC_004722_1,5411809.0,0.4212639434,1.8573997719,22798.0,1209.0,0.0
redo_RPB004_29,barcode11,Bacillus cereus,NC_004721_2,15274.0,0.0,0.0,0.0,0.0,0.0
redo_RPB004_29,barcode11,Bacillus ciccensis,NZ_CP041305_1,5207802.0,0.0591612354,1.0,3081.0,0.0,0.0
redo_RPB004_29,barcode11,Bacillus cytotoxicus,NC_009674_1,4087024.0,0.0611447351,1.0,2499.0,0.0,0.0
redo_RPB004_29,barcode11,Bacillus cytotoxicus,NC_009673_1,7135.0,0.0,0.0,0.0,0.0,0.0
redo_RPB004_29,barcode11,Bacillus filamentosus,NZ_CP011974_1,4865574.0,0.0956310602,1.3225875779,4653.0,0.0,0.0
redo_RPB004_29,barcode11,Bacillus filamentosus,NZ_CP015323_1,95077.0,0.0,0.0,0.0,0.0,0.0
redo_RPB004_29,barcode11,Bacillus filamentosus,NZ_CP015324_1,58079.0,0.0,0.0,0.0,0.0,0.0
redo_RPB004_29,barcode11,Bacillus filamentosus,NZ_CP015325_1,84656.0,0.0,0.0,0.0,0.0,0.0
redo_RPB004_29,barcode11,Bacillus filamentosus,NZ_CP015326_1,69170.0,0.0,0.0,0.0,0.0,0.0
redo_RPB004_29,barcode11,Bacillus filamentosus,NZ_CP015327_1,56750.0,0.0,0.0,0.0,0.0,0.0
redo_RPB004_29,barcode11,Bacillus filamentosus,NZ_CP015328_1,69165.0,0.0,0.0,0.0,0.0,0.0
redo_RPB004_29,barcode11,Bacillus filamentosus,NZ_CP015329_1,10461.0,0.0,0.0,0.0,0.0,0.0
redo_RPB004_29,barcode11,Bacillus filamentosus,NZ_CP015330_1,5053.0,0.0,0.0,0.0,0.0,0.0
redo_RPB004_29,barcode11,Bacillus flexus,NZ_CP016790_1,3960308.0,0.0312601949,1.0,1238.0,0.0,0.0
redo_RPB004_29,barcode11,Bacillus flexus,NZ_CP016791_1,110013.0,0.0,0.0,0.0,0.0,0.0
redo_RPB004_29,barcode11,Bacillus flexus,NZ_CP016792_1,33921.0,0.0,0.0,0.0,0.0,0.0
redo_RPB004_29,barcode11,Bacillus foraminis,NZ_CP033044_1,5426180.0,0.0385353969,1.0,2091.0,0.0,0.0
redo_RPB004_29,barcode11,Bacillus foraminis,NZ_CP033045_1,551486.0,0.0,0.0,0.0,0.0,0.0
redo_RPB004_29,barcode11,Bacillus kochii,NZ_CP022983_1,4557232.0,0.0593781488,1.0,2706.0,0.0,0.0
redo_RPB004_29,barcode11,Bacillus kochii,NZ_CP022984_1,137143.0,0.0,0.0,0.0,0.0,0.0
redo_RPB004_29,barcode11,Bacillus mycoides,NZ_CP009692_1,5255868.0,0.0438747701,1.0,2306.0,0.0,0.0
redo_RPB004_29,barcode11,Bacillus mycoides,NZ_CP009691_1,360889.0,0.0,0.0,0.0,0.0,0.0
redo_RPB004_29,barcode11,Bacillus mycoides,NZ_CP009690_1,10361.0,0.0,0.0,0.0,0.0,0.0
redo_RPB004_29,barcode11,Bacillus mycoides,NZ_CP009689_1,9935.0,0.0,0.0,0.0,0.0,0.0
redo_RPB004_29,barcode11,Bacillus paralicheniformis,NC_021362_1,4376305.0,0.0406964323,1.0,1781.0,0.0,0.0
redo_RPB004_29,barcode11,Bacillus sonorensis,NZ_CP021920_1,4832293.0,0.0733399237,1.0,3544.0,0.0,0.0
redo_RPB004_29,barcode11,Bacillus sp. FDAARGOS_235,NZ_CP020437_2,5287334.0,0.0147900624,1.0,782.0,0.0,0.0
redo_RPB004_29,barcode11,Bacillus sp. FDAARGOS_235,NZ_CP020434_2,254131.0,0.0,0.0,0.0,0.0,0.0
redo_RPB004_29,barcode11,Bacillus sp. FDAARGOS_235,NZ_CP020436_2,51747.0,0.0,0.0,0.0,0.0,0.0
redo_RPB004_29,barcode11,Bacillus sp. FDAARGOS_235,NZ_CP020435_1,15180.0,0.0,0.0,0.0,0.0,0.0
redo_RPB004_29,barcode11,Bacillus sp. FJAT-14266,NZ_CP017072_1,4109356.0,0.0420017151,1.0,1726.0,0.0,0.0
redo_RPB004_29,barcode11,Bacillus sp. FJAT-25496,NZ_CP042593_1,4916069.0,0.0199549681,1.0,981.0,0.0,0.0
redo_RPB004_29,barcode11,Bacillus sp. Lzh-5,NZ_CP024647_1,4015817.0,0.0676325639,1.0,2716.0,0.0,0.0
redo_RPB004_29,barcode11,Bacillus sp. Lzh-5,NZ_CP024648_1,8933.0,0.0,0.0,0.0,0.0,0.0
redo_RPB004_29,barcode11,Bacillus subtilis,NC_000964_3,4215606.0,0.1306099289,1.0,5506.0,0.0,0.0
redo_RPB004_29,barcode11,Bacillus thuringiensis,NC_022873_1,6002284.0,0.3416532773,1.5345004145,20507.0,0.0,0.0
redo_RPB004_29,barcode11,Bacillus thuringiensis,NC_020124_1,17706.0,0.0,0.0,0.0,0.0,0.0
redo_RPB004_29,barcode11,Bacillus thuringiensis,NC_022874_1,45206.0,0.0,0.0,0.0,0.0,0.0
redo_RPB004_29,barcode11,Bacillus thuringiensis,NC_022875_1,49195.0,0.0,0.0,0.0,0.0,0.0
redo_RPB004_29,barcode11,Bacillus thuringiensis,NC_022876_1,146276.0,0.0,0.0,0.0,0.0,0.0
redo_RPB004_29,barcode11,Bacillus thuringiensis,NC_022877_1,171593.0,0.0,0.0,0.0,0.0,0.0
redo_RPB004_29,barcode11,Bacillus thuringiensis,NC_022882_1,240661.0,0.0,0.0,0.0,0.0,0.0
redo_RPB004_29,barcode11,Bacillus velezensis,NC_009725_1,3918589.0,0.1899152986,1.165278151,7442.0,0.0,0.0
redo_RPB004_29,barcode11,Bacillus weihaiensis,NZ_CP016020_1,4344873.0,0.0194021782,1.0,843.0,0.0,0.0
redo_RPB004_29,barcode11,Bacillus weihaiensis,NZ_CP016021_1,16403.0,0.0,0.0,0.0,0.0,0.0
redo_RPB004_29,barcode11,Brevibacillus laterosporus,NZ_CP007806_1,5114147.0,0.0288806716,1.0,1477.0,0.0,0.0
redo_RPB004_29,barcode11,Brevibacillus laterosporus,NZ_CP007808_1,7095.0,0.0,0.0,0.0,0.0,0.0
redo_RPB004_29,barcode11,Brevibacillus laterosporus,NZ_CP007807_1,32617.0,0.0,0.0,0.0,0.0,0.0
redo_RPB004_29,barcode11,Brochothrix thermosphacta,NZ_CP023483_1,2647794.0,0.0594834795,1.8755555556,1575.0,0.0,0.0
redo_RPB004_29,barcode11,Burkholderia mallei,NC_006348_1,3510148.0,0.009401313,1.0,330.0,0.0,0.0
redo_RPB004_29,barcode11,Burkholderia mallei,NC_006349_2,2325379.0,0.0,0.0,0.0,0.0,0.0
redo_RPB004_29,barcode11,Candidatus Liberibacter africanus,NZ_CP004021_1,1192232.0,0.0784243335,1.0,935.0,0.0,0.0
redo_RPB004_29,barcode11,Cardiobacterium hominis,NZ_LR134365_1,2670755.0,0.0347092863,1.0,927.0,0.0,0.0
redo_RPB004_29,barcode11,Carnobacterium divergens,NZ_CP016843_1,2666320.0,0.0240406253,1.0,641.0,0.0,0.0
redo_RPB004_29,barcode11,Carnobacterium inhibens,NC_022606_1,2347813.0,0.0417409734,1.0,980.0,0.0,0.0
redo_RPB004_29,barcode11,Carnobacterium inhibens,NC_022601_1,12655.0,0.0,0.0,0.0,0.0,0.0
redo_RPB004_29,barcode11,Carnobacterium inhibens,NC_022607_1,15475.0,0.0,0.0,0.0,0.0,0.0
redo_RPB004_29,barcode11,Carnobacterium inhibens,NC_022602_1,47067.0,0.0,0.0,0.0,0.0,0.0
redo_RPB004_29,barcode11,Carnobacterium inhibens,NC_022603_1,64491.0,0.0,0.0,0.0,0.0,0.0
redo_RPB004_29,barcode11,Carnobacterium inhibens,NC_022608_1,9614.0,0.0,0.0,0.0,0.0,0.0
redo_RPB004_29,barcode11,Catenovulum sediminis,NZ_CP041660_1,4108962.0,0.0097834928,1.0,402.0,0.0,0.0
redo_RPB004_29,barcode11,Catenovulum sediminis,NZ_CP041661_1,759041.0,0.0,0.0,0.0,0.0,0.0
redo_RPB004_29,barcode11,Cellulosilyticum lentocellum,NC_015275_1,4714237.0,0.0242032804,1.0,1141.0,0.0,0.0
redo_RPB004_29,barcode11,Citrobacter rodentium,NC_013716_1,5346659.0,0.0279426835,1.0,1494.0,0.0,0.0
redo_RPB004_29,barcode11,Citrobacter rodentium,NC_013717_1,54449.0,0.0,0.0,0.0,0.0,0.0
redo_RPB004_29,barcode11,Citrobacter rodentium,NC_013718_1,39265.0,0.0,0.0,0.0,0.0,0.0
redo_RPB004_29,barcode11,Citrobacter rodentium,NC_013719_1,3910.0,0.0,0.0,0.0,0.0,0.0
redo_RPB004_29,barcode11,Clostridioides difficile,NC_009089_1,4290252.0,0.0523279285,1.0,2245.0,0.0,0.0
redo_RPB004_29,barcode11,Clostridioides difficile,NC_008226_2,7881.0,0.0,0.0,0.0,0.0,0.0
redo_RPB004_29,barcode11,Clostridium perfringens,NC_008261_1,3256683.0,0.0324870428,1.0,1058.0,0.0,0.0
redo_RPB004_29,barcode11,Corynebacterium segmentosum,NZ_LR134408_1,2373440.0,0.1678576244,1.0,3984.0,0.0,0.0
redo_RPB004_29,barcode11,Desulfotomaculum reducens,NC_009253_1,3608104.0,0.0411019195,1.0,1483.0,0.0,0.0
redo_RPB004_29,barcode11,Enterococcus faecalis,NC_004668_1,3218031.0,0.0439709872,1.0,1415.0,0.0,0.0
redo_RPB004_29,barcode11,Enterococcus faecalis,NC_004669_1,66320.0,0.0,0.0,0.0,0.0,0.0
redo_RPB004_29,barcode11,Enterococcus faecalis,NC_004671_1,57660.0,0.0,0.0,0.0,0.0,0.0
redo_RPB004_29,barcode11,Enterococcus faecalis,NC_004670_1,17963.0,0.0,0.0,0.0,0.0,0.0
redo_RPB004_29,barcode11,Enterococcus faecium,NC_017960_1,2698137.0,0.4039824516,1.0,10900.0,0.0,0.0
redo_RPB004_29,barcode11,Enterococcus faecium,NC_017961_1,36262.0,0.0,0.0,0.0,0.0,0.0
redo_RPB004_29,barcode11,Enterococcus faecium,NC_017962_1,66247.0,0.0,0.0,0.0,0.0,0.0
redo_RPB004_29,barcode11,Enterococcus faecium,NC_017963_1,251926.0,0.0,0.0,0.0,0.0,0.0
redo_RPB004_29,barcode11,Enterococcus gallinarum,NZ_CP014067_2,3733350.0,0.0196606265,1.0,734.0,0.0,0.0
redo_RPB004_29,barcode11,Enterococcus gallinarum,NZ_CP014068_2,88126.0,0.0,0.0,0.0,0.0,0.0
redo_RPB004_29,barcode11,Enterococcus wangshanyuanii,NZ_CP021874_1,3842361.0,0.0211848913,1.0,814.0,0.0,0.0
redo_RPB004_29,barcode11,Enterococcus wangshanyuanii,NZ_CP021875_1,30412.0,0.0,0.0,0.0,0.0,0.0
redo_RPB004_29,barcode11,Enterococcus wangshanyuanii,NZ_CP021876_1,206454.0,0.0,0.0,0.0,0.0,0.0
redo_RPB004_29,barcode11,Enterococcus wangshanyuanii,NZ_CP021877_1,12475.0,0.0,0.0,0.0,0.0,0.0
redo_RPB004_29,barcode11,Enterococcus wangshanyuanii,NZ_CP021878_1,64252.0,0.0,0.0,0.0,0.0,0.0
redo_RPB004_29,barcode11,Erysipelothrix rhusiopathiae,NC_015601_1,1787941.0,0.199838809,1.0,3573.0,0.0,0.0
redo_RPB004_29,barcode11,Escherichia coli,NC_000913_3,4641652.0,0.3699329463,1.9329683769,17171.0,0.0,0.0
redo_RPB004_29,barcode11,Exiguobacterium sp. AT1b,NC_012673_1,2999895.0,0.0419348011,1.0,1258.0,0.0,0.0
redo_RPB004_29,barcode11,Gemella haemolysans,NZ_LR134484_1,1926227.0,0.471180188,1.0,9076.0,0.0,0.0
redo_RPB004_29,barcode11,Geobacillus genomosp. 3,NC_022080_4,3446630.0,0.0282885021,1.0,975.0,0.0,0.0
redo_RPB004_29,barcode11,Geobacillus genomosp. 3,NC_022092_1,39678.0,0.0,0.0,0.0,0.0,0.0
redo_RPB004_29,barcode11,Geobacillus lituanicus,NZ_CP017692_1,3447958.0,0.0787132558,2.3253500368,2714.0,0.0,0.0
redo_RPB004_29,barcode11,Geobacillus lituanicus,NZ_CP017693_1,51553.0,0.0,0.0,0.0,0.0,0.0
redo_RPB004_29,barcode11,Geobacillus sp. GHH01,NC_020210_1,3583134.0,0.0404115503,1.0,1448.0,0.0,0.0
redo_RPB004_29,barcode11,Geobacillus subterraneus,NZ_CP014342_1,3474426.0,0.0277168085,1.0,963.0,0.0,0.0
redo_RPB004_29,barcode11,Geobacillus thermodenitrificans,NC_009328_1,3550319.0,0.0485590168,1.0,1724.0,0.0,0.0
redo_RPB004_29,barcode11,Geobacillus thermodenitrificans,NC_009329_1,57693.0,0.0,0.0,0.0,0.0,0.0
redo_RPB004_29,barcode11,Jeotgalibacillus malaysiensis,NZ_CP009416_1,3516439.0,0.1171355454,1.0,4119.0,0.0,0.0
redo_RPB004_29,barcode11,Jeotgalibacillus malaysiensis,NZ_CP009417_1,603070.0,0.0,0.0,0.0,0.0,0.0
redo_RPB004_29,barcode11,Kurthia sp. 11kri321,NZ_CP013217_1,2964527.0,0.0189912252,1.0,563.0,0.0,0.0
redo_RPB004_29,barcode11,Lactobacillus alimentarius,NZ_CP018867_1,2333865.0,0.0323069244,1.0,754.0,0.0,0.0
redo_RPB004_29,barcode11,Lactobacillus alimentarius,NZ_CP018868_1,68058.0,0.0,0.0,0.0,0.0,0.0
redo_RPB004_29,barcode11,Lactobacillus bombi,NZ_CP031513_1,1842084.0,0.0570549443,1.0,1051.0,0.0,0.0
redo_RPB004_29,barcode11,Lactobacillus crustorum,NZ_CP017996_1,2261471.0,0.0345350438,1.6542893726,781.0,0.0,0.0
redo_RPB004_29,barcode11,Lactobacillus crustorum,NZ_CP017997_1,46788.0,0.0,0.0,0.0,0.0,0.0
redo_RPB004_29,barcode11,Lactobacillus crustorum,NZ_CP017998_1,8220.0,0.0,0.0,0.0,0.0,0.0
redo_RPB004_29,barcode11,Lactobacillus curvatus,NZ_CP022474_1,2114309.0,0.052026454,1.0,1100.0,0.0,0.0
redo_RPB004_29,barcode11,Lactobacillus delbrueckii,NC_008054_1,1864998.0,0.1448258926,1.0,2701.0,0.0,0.0
redo_RPB004_29,barcode11,Lactobacillus helveticus,NZ_CP012381_1,2160583.0,0.0606317832,1.0,1310.0,0.0,0.0
redo_RPB004_29,barcode11,Lactobacillus paracasei,NZ_AP012541_1,2995875.0,0.0903241958,1.0,2706.0,0.0,0.0
redo_RPB004_29,barcode11,Lactobacillus paracasei,NZ_AP012542_1,11154.0,0.0,0.0,0.0,0.0,0.0
redo_RPB004_29,barcode11,Lactobacillus paracasei,NZ_AP012543_1,10775.0,0.0,0.0,0.0,0.0,0.0
redo_RPB004_29,barcode11,Lactobacillus reuteri,NC_009513_1,1999618.0,0.0411578612,1.0,823.0,0.0,0.0
redo_RPB004_29,barcode11,Lactobacillus sakei,NZ_CP020459_1,1945884.0,0.1289388268,1.0,2509.0,0.0,0.0
redo_RPB004_29,barcode11,Lactobacillus sakei,NZ_CP020460_1,84581.0,0.0,0.0,0.0,0.0,0.0
redo_RPB004_29,barcode11,Lactobacillus sakei,NZ_CP020461_1,26098.0,0.0,0.0,0.0,0.0,0.0
redo_RPB004_29,barcode11,Lactobacillus salivarius,NC_007929_1,1827111.0,0.0091948437,1.0,168.0,0.0,0.0
redo_RPB004_29,barcode11,Lactobacillus salivarius,NC_007930_1,242436.0,0.0,0.0,0.0,0.0,0.0
redo_RPB004_29,barcode11,Lactobacillus salivarius,NC_006529_1,20417.0,0.0,0.0,0.0,0.0,0.0
redo_RPB004_29,barcode11,Lactobacillus salivarius,NC_006530_1,44013.0,0.0,0.0,0.0,0.0,0.0
redo_RPB004_29,barcode11,Lactobacillus sp. HSLZ-75,NZ_CP034726_1,1616430.0,0.1069641123,1.0,1729.0,0.0,0.0
redo_RPB004_29,barcode11,Lentibacillus amyloliquefaciens,NZ_CP013862_1,3858284.0,0.0361041333,1.0,1393.0,0.0,0.0
redo_RPB004_29,barcode11,Leuconostoc mesenteroides,NC_008531_1,2038396.0,0.2738427666,1.0,5582.0,0.0,0.0
redo_RPB004_29,barcode11,Leuconostoc mesenteroides,NC_008496_1,37367.0,0.0,0.0,0.0,0.0,0.0
redo_RPB004_29,barcode11,Leuconostoc sp. C2,NC_015734_1,1877273.0,0.0642421214,1.0,1206.0,0.0,0.0
redo_RPB004_29,barcode11,Listeria monocytogenes,NC_003210_1,2944528.0,0.1507881739,1.0,4440.0,0.0,0.0
redo_RPB004_29,barcode11,Listeria seeligeri,NC_013891_1,2797636.0,0.0513290507,1.0,1436.0,0.0,0.0
redo_RPB004_29,barcode11,Lysinibacillus fusiformis,NZ_CP010820_1,4843789.0,0.016928896,1.0,820.0,0.0,0.0
redo_RPB004_29,barcode11,Lysinibacillus sp. SGAir0095,NZ_CP028083_1,4142194.0,0.0445657543,1.0,1846.0,0.0,0.0
redo_RPB004_29,barcode11,Lysinibacillus sp. YS11,NZ_CP026007_1,4584915.0,0.0453879734,1.0,2081.0,0.0,0.0
redo_RPB004_29,barcode11,Lysinibacillus varians,NZ_CP006837_1,4662822.0,0.0943420101,1.0,4399.0,0.0,0.0
redo_RPB004_29,barcode11,Macrococcus canis,NZ_CP021059_1,2363414.0,0.1188111774,1.0,2808.0,0.0,0.0
redo_RPB004_29,barcode11,Macrococcus caseolyticus,NC_011999_1,2102324.0,0.1075000809,1.0,2260.0,0.0,0.0
redo_RPB004_29,barcode11,Macrococcus caseolyticus,NC_011995_1,15667.0,0.0,0.0,0.0,0.0,0.0
redo_RPB004_29,barcode11,Macrococcus caseolyticus,NC_011996_1,80545.0,0.0,0.0,0.0,0.0,0.0
redo_RPB004_29,barcode11,Macrococcus caseolyticus,NC_011997_1,2131.0,0.0,0.0,0.0,0.0,0.0
redo_RPB004_29,barcode11,Macrococcus caseolyticus,NC_011998_1,3417.0,0.0,0.0,0.0,0.0,0.0
redo_RPB004_29,barcode11,Macrococcus caseolyticus,NC_012000_1,4398.0,0.0,0.0,0.0,0.0,0.0
redo_RPB004_29,barcode11,Macrococcus caseolyticus,NC_012001_1,4226.0,0.0,0.0,0.0,0.0,0.0
redo_RPB004_29,barcode11,Macrococcus caseolyticus,NC_012002_1,4061.0,0.0,0.0,0.0,0.0,0.0
redo_RPB004_29,barcode11,Macrococcus caseolyticus,NC_012003_1,2968.0,0.0,0.0,0.0,0.0,0.0
redo_RPB004_29,barcode11,Macrococcus sp. IME1552,NZ_CP017156_1,2391700.0,0.4172764143,2.1004008016,9980.0,150.0,0.0
redo_RPB004_29,barcode11,Marinilactibacillus sp. 15R,NZ_CP017761_1,2767908.0,0.0856603615,1.0,2371.0,0.0,0.0
redo_RPB004_29,barcode11,Mycoplasma capricolum,NC_007633_1,1010023.0,0.1032649752,1.0,1043.0,0.0,0.0
redo_RPB004_29,barcode11,Mycoplasma hominis,NC_013511_1,665445.0,0.1893469783,1.0,1260.0,0.0,0.0
redo_RPB004_29,barcode11,Paenibacillus xylanexedens,NZ_CP018620_1,7053622.0,0.0130145902,1.0,918.0,0.0,0.0
redo_RPB004_29,barcode11,Paenibacillus xylanexedens,NZ_CP018621_1,44617.0,0.0,0.0,0.0,0.0,0.0
redo_RPB004_29,barcode11,Paenisporosarcina antarctica,NZ_CP038015_1,3897111.0,0.201944466,1.0,7870.0,0.0,0.0
redo_RPB004_29,barcode11,Paenisporosarcina antarctica,NZ_CP038016_1,75413.0,0.0,0.0,0.0,0.0,0.0
redo_RPB004_29,barcode11,Pediococcus damnosus,NZ_CP012288_1,2247318.0,0.0768471574,1.0,1727.0,0.0,0.0
redo_RPB004_29,barcode11,Pediococcus damnosus,NZ_CP012289_1,21309.0,0.0,0.0,0.0,0.0,0.0
redo_RPB004_29,barcode11,Pediococcus damnosus,NZ_CP012290_1,55446.0,0.0,0.0,0.0,0.0,0.0
redo_RPB004_29,barcode11,Pediococcus damnosus,NZ_CP012291_1,143870.0,0.0,0.0,0.0,0.0,0.0
redo_RPB004_29,barcode11,Pediococcus damnosus,NZ_CP012292_1,39697.0,0.0,0.0,0.0,0.0,0.0
redo_RPB004_29,barcode11,Pediococcus damnosus,NZ_CP012293_1,1830.0,0.0,0.0,0.0,0.0,0.0
redo_RPB004_29,barcode11,Pelosinus sp. UFO1,NZ_CP008852_1,5115410.0,0.0685966521,1.0,3509.0,0.0,0.0
redo_RPB004_29,barcode11,Planococcus sp. MB-3u-03,NZ_CP025135_1,3378540.0,0.3543838463,1.7040006682,11973.0,665.0,0.0
redo_RPB004_29,barcode11,Planococcus sp. MB-3u-03,NZ_CP025124_1,70808.0,0.0,0.0,0.0,0.0,0.0
redo_RPB004_29,barcode11,Planococcus sp. MB-3u-03,NZ_CP025133_1,1329.0,0.0,0.0,0.0,0.0,0.0
redo_RPB004_29,barcode11,Planococcus sp. MB-3u-03,NZ_CP025134_1,1226.0,0.0,0.0,0.0,0.0,0.0
redo_RPB004_29,barcode11,Planococcus sp. MB-3u-03,NZ_CP025123_1,129321.0,0.0,0.0,0.0,0.0,0.0
redo_RPB004_29,barcode11,Planococcus sp. MB-3u-03,NZ_CP025125_1,7275.0,0.0,0.0,0.0,0.0,0.0
redo_RPB004_29,barcode11,Planococcus sp. MB-3u-03,NZ_CP025126_1,7049.0,0.0,0.0,0.0,0.0,0.0
redo_RPB004_29,barcode11,Planococcus sp. MB-3u-03,NZ_CP025127_1,6800.0,0.0,0.0,0.0,0.0,0.0
redo_RPB004_29,barcode11,Planococcus sp. MB-3u-03,NZ_CP025130_1,1636.0,0.0,0.0,0.0,0.0,0.0
redo_RPB004_29,barcode11,Planococcus sp. MB-3u-03,NZ_CP025128_1,5115.0,0.0,0.0,0.0,0.0,0.0
redo_RPB004_29,barcode11,Planococcus sp. MB-3u-03,NZ_CP025129_1,2168.0,0.0,0.0,0.0,0.0,0.0
redo_RPB004_29,barcode11,Planococcus sp. MB-3u-03,NZ_CP025131_1,1598.0,0.0,0.0,0.0,0.0,0.0
redo_RPB004_29,barcode11,Planococcus sp. MB-3u-03,NZ_CP025132_1,1566.0,0.0,0.0,0.0,0.0,0.0
redo_RPB004_29,barcode11,Pseudomonas putida,NC_002947_4,6181873.0,0.0136851728,1.0,846.0,0.0,0.0
redo_RPB004_29,barcode11,Salinicoccus halodurans,NZ_CP011366_1,2778379.0,0.1884552108,1.0,5236.0,0.0,0.0
redo_RPB004_29,barcode11,Shewanella japonica,NZ_CP020472_1,4975677.0,0.0111944566,1.0,557.0,0.0,0.0
redo_RPB004_29,barcode11,Shewanella marisflavi,NZ_CP022272_1,4321452.0,0.002938827,1.0,127.0,0.0,0.0
redo_RPB004_29,barcode11,Solibacillus silvestris,NZ_CP014609_1,3991226.0,0.0978646661,1.0,3906.0,0.0,0.0
redo_RPB004_29,barcode11,Spirosoma pollinicola,NZ_CP025096_1,8794837.0,0.01516799,1.0,1334.0,0.0,0.0
redo_RPB004_29,barcode11,Sporosarcina ureae,NZ_CP015109_1,3412428.0,0.0880897707,1.0,3006.0,0.0,0.0
redo_RPB004_29,barcode11,Staphylococcus agnetis,NZ_CP009623_1,2474434.0,1.458151642,1.4481860259,36081.0,1201.0,0.0
redo_RPB004_29,barcode11,Staphylococcus agnetis,NZ_CP009624_1,28965.0,0.0,0.0,0.0,0.0,0.0
redo_RPB004_29,barcode11,Staphylococcus argenteus,NC_016941_1,2762785.0,18.0886315801,2.4306733367,499750.0,42920.0,11288.0
redo_RPB004_29,barcode11,Staphylococcus argenteus,NC_016942_1,24853.0,0.0,0.0,0.0,0.0,0.0
redo_RPB004_29,barcode11,Staphylococcus aureus,NC_007795_1,2821361.0,94.6023213619,559.4281464014,2669073.0,2662753.0,2660266.0
redo_RPB004_29,barcode11,Staphylococcus auricularis,NZ_LS483491_1,2216666.0,1.0169326367,1.5162807204,22542.0,2020.0,0.0
redo_RPB004_29,barcode11,Staphylococcus capitis,NZ_CP007601_1,2443604.0,2.9765870411,2.8353635064,72736.0,7725.0,5098.0
redo_RPB004_29,barcode11,Staphylococcus capitis,NZ_CP007602_1,59661.0,0.0,0.0,0.0,0.0,0.0
redo_RPB004_29,barcode11,Staphylococcus carnosus,NC_012121_1,2566424.0,0.8423393796,1.2421130539,21618.0,0.0,0.0
redo_RPB004_29,barcode11,Staphylococcus cohnii,NZ_CP027422_1,2557319.0,1.2603042483,2.6473161651,32230.0,6076.0,1029.0
redo_RPB004_29,barcode11,Staphylococcus cohnii,NZ_CP027420_1,36910.0,0.4470333243,14.6787878788,165.0,165.0,164.0
redo_RPB004_29,barcode11,Staphylococcus cohnii,NZ_CP027419_1,32058.0,0.5146921205,13.8666666667,165.0,165.0,154.0
redo_RPB004_29,barcode11,Staphylococcus cohnii,NZ_CP027421_1,29852.0,0.0,0.0,0.0,0.0,0.0
redo_RPB004_29,barcode11,Staphylococcus cohnii,NZ_CP027423_1,2670.0,29.8501872659,179.1894604768,797.0,621.0,613.0
redo_RPB004_29,barcode11,Staphylococcus cohnii,NZ_CP027424_1,2473.0,0.0,0.0,0.0,0.0,0.0
redo_RPB004_29,barcode11,Staphylococcus condimenti,NZ_CP015114_1,2659676.0,0.1959637189,1.0,5212.0,0.0,0.0
redo_RPB004_29,barcode11,Staphylococcus delphini,NZ_LR134263_1,2798161.0,0.0566086083,1.0,1584.0,0.0,0.0
redo_RPB004_29,barcode11,Staphylococcus epidermidis,NC_004461_1,2499279.0,3.6922248376,2.5897549822,92279.0,17571.0,1778.0
redo_RPB004_29,barcode11,Staphylococcus epidermidis,NC_005008_1,4439.0,0.0,0.0,0.0,0.0,0.0
redo_RPB004_29,barcode11,Staphylococcus epidermidis,NC_005007_1,4679.0,3.6973712332,60.7052023121,173.0,168.0,168.0
redo_RPB004_29,barcode11,Staphylococcus epidermidis,NC_005006_1,8007.0,0.0,0.0,0.0,0.0,0.0
redo_RPB004_29,barcode11,Staphylococcus epidermidis,NC_005005_1,17261.0,0.5909275245,1.9607843137,102.0,0.0,0.0
redo_RPB004_29,barcode11,Staphylococcus epidermidis,NC_005004_1,24365.0,10.5109788631,1.6720031238,2561.0,0.0,0.0
redo_RPB004_29,barcode11,Staphylococcus epidermidis,NC_005003_1,6585.0,0.0,0.0,0.0,0.0,0.0
redo_RPB004_29,barcode11,Staphylococcus equorum,NZ_CP013114_1,2822193.0,0.7235862324,2.0924538465,20421.0,2727.0,0.0
redo_RPB004_29,barcode11,Staphylococcus felis,NZ_CP027770_1,2479423.0,0.574448168,1.1946921295,14243.0,0.0,0.0
redo_RPB004_29,barcode11,Staphylococcus haemolyticus,NC_007168_1,2685015.0,2.9751789096,2.3343347854,79884.0,10459.0,169.0
redo_RPB004_29,barcode11,Staphylococcus haemolyticus,NC_007169_1,2300.0,0.0,0.0,0.0,0.0,0.0
redo_RPB004_29,barcode11,Staphylococcus haemolyticus,NC_007170_1,2366.0,0.0,0.0,0.0,0.0,0.0
redo_RPB004_29,barcode11,Staphylococcus haemolyticus,NC_007171_1,8180.0,0.0,0.0,0.0,0.0,0.0
redo_RPB004_29,barcode11,Staphylococcus hominis,NZ_CP020618_1,2253412.0,2.0739216797,3.0470107416,46734.0,8510.0,3891.0
redo_RPB004_29,barcode11,Staphylococcus hyicus,NZ_CP008747_1,2472129.0,0.294968426,1.0,7292.0,0.0,0.0
redo_RPB004_29,barcode11,Staphylococcus kloosii,NZ_CP027846_1,2630191.0,1.2867886781,1.34471857,33845.0,422.0,0.0
redo_RPB004_29,barcode11,Staphylococcus kloosii,NZ_CP027847_1,8847.0,0.0,0.0,0.0,0.0,0.0
redo_RPB004_29,barcode11,Staphylococcus lugdunensis,NC_013893_1,2658366.0,2.6310523081,2.4450052185,69943.0,11633.0,652.0
redo_RPB004_29,barcode11,Staphylococcus lutrae,NZ_CP020773_1,2533115.0,0.4624740685,1.0752027315,11715.0,0.0,0.0
redo_RPB004_29,barcode11,Staphylococcus muscae,NZ_CP027848_1,2095131.0,1.275910671,1.2465210235,26732.0,0.0,0.0
redo_RPB004_29,barcode11,Staphylococcus nepalensis,NZ_CP017460_1,2913597.0,0.7263530269,1.3198979351,21163.0,0.0,0.0
redo_RPB004_29,barcode11,Staphylococcus nepalensis,NZ_CP017461_1,54521.0,0.0,0.0,0.0,0.0,0.0
redo_RPB004_29,barcode11,Staphylococcus nepalensis,NZ_CP017462_1,22471.0,0.0,0.0,0.0,0.0,0.0
redo_RPB004_29,barcode11,Staphylococcus pasteuri,NC_022737_1,2559946.0,1.3584661551,3.969605475,34776.0,7262.0,4313.0
redo_RPB004_29,barcode11,Staphylococcus pettenkoferi,NZ_CP022096_2,2502360.0,0.6497466392,1.0,16259.0,0.0,0.0
redo_RPB004_29,barcode11,Staphylococcus phage 23MRA,NC_028775_1,43098.0,6.8216622581,11.8006802721,2940.0,2872.0,2031.0
redo_RPB004_29,barcode11,Staphylococcus phage StauST398-2,NC_021323_1,45572.0,25.9457561661,4.3963971583,11824.0,3903.0,706.0
redo_RPB004_29,barcode11,Staphylococcus phage YMC/09/04/R1988,NC_022758_1,44459.0,7.7037270294,1.1988321168,3425.0,0.0,0.0
redo_RPB004_29,barcode11,Staphylococcus phage phi2958PVL,NC_011344_1,47342.0,10.7959106079,3.1209156721,5111.0,1463.0,0.0
redo_RPB004_29,barcode11,Staphylococcus phage phi7401PVL,NC_020199_1,47252.0,22.7778718361,1.9592121156,10763.0,0.0,0.0
redo_RPB004_29,barcode11,Staphylococcus phage phiNM3,NC_008617_1,44061.0,6.3525566828,1.0,2799.0,0.0,0.0
redo_RPB004_29,barcode11,Staphylococcus phage phiSa119,NC_025460_1,42600.0,3.0399061033,1.0,1295.0,0.0,0.0
redo_RPB004_29,barcode11,Staphylococcus phage tp310-2,NC_009762_3,47785.0,44.6583655959,5.2872071228,21340.0,9081.0,3972.0
redo_RPB004_29,barcode11,Staphylococcus phage tp310-3,NC_009763_3,42973.0,7.4628254951,2.5559713128,3207.0,0.0,0.0
redo_RPB004_29,barcode11,Staphylococcus phage vB_SauS_phi2,NC_028862_1,44222.0,42.0424223237,2.689274957,18592.0,2915.0,0.0
redo_RPB004_29,barcode11,Staphylococcus piscifermentans,NZ_LT906447_1,2613271.0,0.4113235864,1.0633547307,10749.0,0.0,0.0
redo_RPB004_29,barcode11,Staphylococcus pseudintermedius,NC_014925_1,2617381.0,0.9737214414,2.6075884799,25486.0,4257.0,162.0
redo_RPB004_29,barcode11,Staphylococcus saprophyticus,NC_007350_1,2516575.0,1.1248621639,1.2911191183,28308.0,0.0,0.0
redo_RPB004_29,barcode11,Staphylococcus saprophyticus,NC_007351_1,38454.0,0.0,0.0,0.0,0.0,0.0
redo_RPB004_29,barcode11,Staphylococcus saprophyticus,NC_007352_1,22870.0,1.4035854832,23.8816199377,321.0,263.0,162.0
redo_RPB004_29,barcode11,Staphylococcus schleiferi,NZ_CP009470_1,2435632.0,1.0611619489,1.4708272073,25846.0,0.0,0.0
redo_RPB004_29,barcode11,Staphylococcus schweitzeri,NZ_LR134304_1,2784939.0,19.9342606786,2.3279054394,555157.0,61279.0,15448.0
redo_RPB004_29,barcode11,Staphylococcus sciuri,NZ_CP022046_2,2764040.0,0.4155873287,1.1119526421,11487.0,0.0,0.0
redo_RPB004_29,barcode11,Staphylococcus sciuri,NZ_CP022047_2,89775.0,0.0,0.0,0.0,0.0,0.0
redo_RPB004_29,barcode11,Staphylococcus simiae,NZ_LT906460_1,2643976.0,4.7624864976,2.7733066495,125919.0,22381.0,2990.0
redo_RPB004_29,barcode11,Staphylococcus simulans,NZ_CP014016_2,2647556.0,1.5642728615,1.595146686,41415.0,1751.0,0.0
redo_RPB004_29,barcode11,Staphylococcus sp. AntiMn-1,NZ_CP012968_1,2721344.0,1.0103463583,1.2542644117,27495.0,0.0,0.0
redo_RPB004_29,barcode11,Staphylococcus sp. AntiMn-1,NZ_CP013300_1,17052.0,0.0,0.0,0.0,0.0,0.0
redo_RPB004_29,barcode11,Staphylococcus stepanovicii,NZ_LT906462_1,2439098.0,0.8142354264,1.2081570997,19860.0,0.0,0.0
redo_RPB004_29,barcode11,Staphylococcus succinus,NZ_CP018199_1,2745675.0,0.689411529,1.2902424851,18929.0,0.0,0.0
redo_RPB004_29,barcode11,Staphylococcus virus 3a,NC_007053_1,43095.0,32.7021696252,2.296104449,14093.0,2384.0,0.0
redo_RPB004_29,barcode11,Staphylococcus virus 42e,NC_007052_1,45861.0,8.0634962168,1.4529475392,3698.0,0.0,0.0
redo_RPB004_29,barcode11,Staphylococcus virus 47,NC_007054_1,44777.0,43.1203519664,2.984773151,19308.0,5681.0,0.0
redo_RPB004_29,barcode11,Staphylococcus virus IPLA35,NC_011612_1,45344.0,14.8950247001,2.2480011845,6754.0,0.0,0.0
redo_RPB004_29,barcode11,Staphylococcus virus phi12,NC_004616_1,44970.0,8.9126084056,1.6524451098,4008.0,0.0,0.0
redo_RPB004_29,barcode11,Staphylococcus virus phiSLT,NC_002661_2,42942.0,39.5277350845,1.8401673147,16974.0,772.0,0.0
redo_RPB004_29,barcode11,Staphylococcus warneri,NC_020164_1,2486042.0,0.8466872241,1.4777424106,21049.0,0.0,0.0
redo_RPB004_29,barcode11,Staphylococcus warneri,NC_020165_1,4374.0,0.0,0.0,0.0,0.0,0.0
redo_RPB004_29,barcode11,Staphylococcus warneri,NC_020274_1,13186.0,0.0,0.0,0.0,0.0,0.0
redo_RPB004_29,barcode11,Staphylococcus warneri,NC_020264_1,8232.0,0.0,0.0,0.0,0.0,0.0
redo_RPB004_29,barcode11,Staphylococcus warneri,NC_020265_1,3352.0,0.0,0.0,0.0,0.0,0.0
redo_RPB004_29,barcode11,Staphylococcus warneri,NC_020266_1,19866.0,0.0,0.0,0.0,0.0,0.0
redo_RPB004_29,barcode11,Staphylococcus warneri,NC_020267_1,16515.0,0.0,0.0,0.0,0.0,0.0
redo_RPB004_29,barcode11,Staphylococcus warneri,NC_020268_1,6212.0,0.0,0.0,0.0,0.0,0.0
redo_RPB004_29,barcode11,Staphylococcus warneri,NC_020269_1,2937.0,0.0,0.0,0.0,0.0,0.0
redo_RPB004_29,barcode11,Staphylococcus xylosus,NZ_CP007208_1,2836901.0,1.4194362087,1.6110559253,40268.0,937.0,0.0
redo_RPB004_29,barcode11,Staphylococcus xylosus,NZ_CP007209_1,30062.0,0.0,0.0,0.0,0.0,0.0
redo_RPB004_29,barcode11,Streptococcus acidominimus,NZ_LT906454_1,2330811.0,0.0230391911,1.0,537.0,0.0,0.0
redo_RPB004_29,barcode11,Streptococcus dysgalactiae,NC_019042_1,2179445.0,0.0987866177,1.0,2153.0,0.0,0.0
redo_RPB004_29,barcode11,Streptococcus pyogenes,NC_002737_2,1852433.0,0.0592194158,1.0,1097.0,0.0,0.0
redo_RPB004_29,barcode11,Streptococcus suis,NC_012926_1,2146229.0,0.1152253557,1.0,2473.0,0.0,0.0
redo_RPB004_29,barcode11,Streptococcus suis,NC_012923_1,24579.0,0.0,0.0,0.0,0.0,0.0
redo_RPB004_29,barcode11,Sulfitobacter donghicola,NZ_CP026367_1,2469323.0,0.2539967432,1.4255420918,6272.0,0.0,0.0
redo_RPB004_29,barcode11,Tessaracoccus sp. Marseille-P5995,NZ_LT996886_1,2759000.0,0.0320405944,1.0,884.0,0.0,0.0
redo_RPB004_29,barcode11,Tetragenococcus halophilus,NC_016052_1,2562720.0,0.0062823875,1.0,161.0,0.0,0.0
redo_RPB004_29,barcode11,Thermosipho melanesiensis,NC_009616_1,1915238.0,0.0853157675,1.0,1634.0,0.0,0.0
redo_RPB004_29,barcode11,Virgibacillus dokdonensis,NZ_CP018622_1,4263520.0,0.0251200886,1.0,1071.0,0.0,0.0
redo_RPB004_29,barcode11,Virgibacillus phasianinus,NZ_CP022315_1,4071214.0,0.0622664394,1.0,2535.0,0.0,0.0
redo_RPB004_29,barcode11,Virgibacillus sp. 6R,NZ_CP017762_1,4749385.0,0.004590068,1.0,218.0,0.0,0.0
redo_RPB004_29,barcode11,endosymbiont 'TC1' of Trimyema compressum,NZ_CP014606_1,1586453.0,0.0354879722,1.0,563.0,0.0,0.0
redo_RPB004_29,barcode11,endosymbiont 'TC1' of Trimyema compressum,NZ_CP014607_1,35795.0,0.0,0.0,0.0,0.0,0.0
redo_RPB004_29,barcode12a,Staphylococcus aureus,NC_007795_1,2821361.0,0.1582215108,1.0,4464.0,0.0,0.0
redo_RPB004_29,barcode15,Staphylococcus aureus,NC_007795_1,2821361.0,0.141562884,1.0,3994.0,0.0,0.0
redo_RPB004_29,unclassified,Acholeplasma palmae,NC_022538_1,1554229.0,0.0807474317,1.0,1255.0,0.0,0.0
redo_RPB004_29,unclassified,Acinetobacter guillouiae,NZ_AP014630_1,4648418.0,0.0800272265,1.0,3720.0,0.0,0.0
redo_RPB004_29,unclassified,Aerococcus urinaeequi,NZ_CP013988_1,2054328.0,0.0249716696,1.0,513.0,0.0,0.0
redo_RPB004_29,unclassified,Amphibacillus xylanus,NC_018704_1,2569486.0,0.0611795511,1.0,1572.0,0.0,0.0
redo_RPB004_29,unclassified,Bacillus amyloliquefaciens,NC_014551_1,3980199.0,0.0242701433,1.0,966.0,0.0,0.0
redo_RPB004_29,unclassified,Bacillus cereus,NC_004722_1,5411809.0,0.0756309027,1.0,4093.0,0.0,0.0
redo_RPB004_29,unclassified,Bacillus cereus,NC_004721_2,15274.0,0.0,0.0,0.0,0.0,0.0
redo_RPB004_29,unclassified,Bacillus velezensis,NC_009725_1,3918589.0,0.0374879836,1.0,1469.0,0.0,0.0
redo_RPB004_29,unclassified,Citrobacter sp. CRE-46,NZ_CP029727_1,5262516.0,0.0634487382,1.0,3339.0,0.0,0.0
redo_RPB004_29,unclassified,Citrobacter sp. CRE-46,NZ_CP029729_1,250887.0,0.0,0.0,0.0,0.0,0.0
redo_RPB004_29,unclassified,Citrobacter sp. CRE-46,NZ_CP029730_1,136246.0,0.0,0.0,0.0,0.0,0.0
redo_RPB004_29,unclassified,Citrobacter sp. CRE-46,NZ_CP029731_1,108148.0,0.0,0.0,0.0,0.0,0.0
redo_RPB004_29,unclassified,Citrobacter sp. CRE-46,NZ_CP029732_1,68384.0,0.0,0.0,0.0,0.0,0.0
redo_RPB004_29,unclassified,Citrobacter sp. CRE-46,NZ_CP029733_1,83094.0,0.0,0.0,0.0,0.0,0.0
redo_RPB004_29,unclassified,Citrobacter sp. CRE-46,NZ_CP029734_1,76953.0,0.0,0.0,0.0,0.0,0.0
redo_RPB004_29,unclassified,Citrobacter sp. CRE-46,NZ_CP029735_1,63868.0,0.0,0.0,0.0,0.0,0.0
redo_RPB004_29,unclassified,Citrobacter sp. CRE-46,NZ_CP029728_1,31764.0,0.0,0.0,0.0,0.0,0.0
redo_RPB004_29,unclassified,Citrobacter youngae,NZ_CP021963_1,4945156.0,0.0289576305,1.0,1432.0,0.0,0.0
redo_RPB004_29,unclassified,Cutibacterium acnes,NC_006085_1,2560265.0,0.1358453129,1.0,3478.0,0.0,0.0
redo_RPB004_29,unclassified,Enterobacter cancerogenus,NZ_CP025225_1,4796512.0,0.0418429058,1.0,2007.0,0.0,0.0
redo_RPB004_29,unclassified,Enterobacter cloacae,NC_014121_1,5314581.0,0.9689757292,1.4272870264,51497.0,0.0,0.0
redo_RPB004_29,unclassified,Enterobacter cloacae,NC_014107_1,199562.0,1.0372716249,1.0,2070.0,0.0,0.0
redo_RPB004_29,unclassified,Enterobacter cloacae,NC_014108_1,84653.0,0.0,0.0,0.0,0.0,0.0
redo_RPB004_29,unclassified,Enterobacter cloacae complex sp.,NZ_CP026975_1,4876999.0,0.0199507935,3.6988694758,973.0,0.0,0.0
redo_RPB004_29,unclassified,Enterobacter hormaechei,NZ_CP017179_1,4782480.0,1.9643574045,1.5377295226,93945.0,4295.0,0.0
redo_RPB004_29,unclassified,Enterobacter kobei,NZ_CP017181_1,4880257.0,0.0015777858,1.0,77.0,0.0,0.0
redo_RPB004_29,unclassified,Enterobacter kobei,NZ_CP017182_1,47221.0,0.0,0.0,0.0,0.0,0.0
redo_RPB004_29,unclassified,Enterobacter soli,NC_015968_1,4812833.0,0.0209232275,1.0,1007.0,0.0,0.0
redo_RPB004_29,unclassified,Enterobacter soli,NC_015963_1,166725.0,0.0,0.0,0.0,0.0,0.0
redo_RPB004_29,unclassified,Enterobacter soli,NC_015969_1,32574.0,0.0,0.0,0.0,0.0,0.0
redo_RPB004_29,unclassified,Enterobacter sp. 638,NC_009436_1,4518712.0,0.1929974736,2.2444673776,8721.0,0.0,0.0
redo_RPB004_29,unclassified,Enterobacter sp. 638,NC_009425_1,157749.0,0.0,0.0,0.0,0.0,0.0
redo_RPB004_29,unclassified,Enterobacter sp. CRENT-193,NZ_CP024812_1,4852690.0,0.1247143337,1.0,6052.0,0.0,0.0
redo_RPB004_29,unclassified,Enterobacter sp. CRENT-193,NZ_CP024813_1,298989.0,0.0,0.0,0.0,0.0,0.0
redo_RPB004_29,unclassified,Enterobacter sp. CRENT-193,NZ_CP024814_1,44962.0,0.0,0.0,0.0,0.0,0.0
redo_RPB004_29,unclassified,Enterobacter sp. ODB01,NZ_CP015227_1,4534036.0,0.0261135995,1.0,1184.0,0.0,0.0
redo_RPB004_29,unclassified,Escherichia coli,NC_000913_3,4641652.0,0.3535594655,1.1943818171,16411.0,0.0,0.0
redo_RPB004_29,unclassified,Escherichia phage HK639,NC_016158_1,49576.0,4.5324350492,1.3466844682,2247.0,0.0,0.0
redo_RPB004_29,unclassified,Finegoldia magna,NC_010376_1,1797577.0,0.1967648674,2.2465366129,3537.0,0.0,0.0
redo_RPB004_29,unclassified,Finegoldia magna,NC_010371_1,189163.0,0.0,0.0,0.0,0.0,0.0
redo_RPB004_29,unclassified,Listeria monocytogenes,NC_003210_1,2944528.0,0.0350820233,1.0,1033.0,0.0,0.0
redo_RPB004_29,unclassified,Macrococcus sp. IME1552,NZ_CP017156_1,2391700.0,0.0151774888,1.0,363.0,0.0,0.0
redo_RPB004_29,unclassified,Moraxella osloensis,NZ_CP014234_1,2434688.0,3.3815831844,1.0782086942,82331.0,0.0,0.0
redo_RPB004_29,unclassified,Moraxella osloensis,NZ_CP014238_1,40342.0,0.0,0.0,0.0,0.0,0.0
redo_RPB004_29,unclassified,Moraxella osloensis,NZ_CP014237_1,35189.0,0.0,0.0,0.0,0.0,0.0
redo_RPB004_29,unclassified,Moraxella osloensis,NZ_CP014236_1,57463.0,1.0719941528,1.0,616.0,0.0,0.0
redo_RPB004_29,unclassified,Moraxella osloensis,NZ_CP014235_1,81455.0,0.0,0.0,0.0,0.0,0.0
redo_RPB004_29,unclassified,Paracoccus contaminans,NZ_CP020612_1,2939512.0,0.0887562289,1.0,2609.0,0.0,0.0
redo_RPB004_29,unclassified,Paracoccus contaminans,NZ_CP020613_1,93982.0,0.0,0.0,0.0,0.0,0.0
redo_RPB004_29,unclassified,Peptoniphilus harei,NZ_LR134524_1,1739102.0,0.2115459588,2.1231312857,3679.0,0.0,0.0
redo_RPB004_29,unclassified,Planococcus sp. MB-3u-03,NZ_CP025135_1,3378540.0,0.0842671687,1.0,2847.0,0.0,0.0
redo_RPB004_29,unclassified,Planococcus sp. MB-3u-03,NZ_CP025124_1,70808.0,0.0,0.0,0.0,0.0,0.0
redo_RPB004_29,unclassified,Planococcus sp. MB-3u-03,NZ_CP025133_1,1329.0,0.0,0.0,0.0,0.0,0.0
redo_RPB004_29,unclassified,Planococcus sp. MB-3u-03,NZ_CP025134_1,1226.0,0.0,0.0,0.0,0.0,0.0
redo_RPB004_29,unclassified,Planococcus sp. MB-3u-03,NZ_CP025123_1,129321.0,0.0,0.0,0.0,0.0,0.0
redo_RPB004_29,unclassified,Planococcus sp. MB-3u-03,NZ_CP025125_1,7275.0,0.0,0.0,0.0,0.0,0.0
redo_RPB004_29,unclassified,Planococcus sp. MB-3u-03,NZ_CP025126_1,7049.0,0.0,0.0,0.0,0.0,0.0
redo_RPB004_29,unclassified,Planococcus sp. MB-3u-03,NZ_CP025127_1,6800.0,0.0,0.0,0.0,0.0,0.0
redo_RPB004_29,unclassified,Planococcus sp. MB-3u-03,NZ_CP025130_1,1636.0,0.0,0.0,0.0,0.0,0.0
redo_RPB004_29,unclassified,Planococcus sp. MB-3u-03,NZ_CP025128_1,5115.0,0.0,0.0,0.0,0.0,0.0
redo_RPB004_29,unclassified,Planococcus sp. MB-3u-03,NZ_CP025129_1,2168.0,0.0,0.0,0.0,0.0,0.0
redo_RPB004_29,unclassified,Planococcus sp. MB-3u-03,NZ_CP025131_1,1598.0,0.0,0.0,0.0,0.0,0.0
redo_RPB004_29,unclassified,Planococcus sp. MB-3u-03,NZ_CP025132_1,1566.0,0.0,0.0,0.0,0.0,0.0
redo_RPB004_29,unclassified,Staphylococcus argenteus,NC_016941_1,2762785.0,2.9686711054,1.0058889512,82018.0,0.0,0.0
redo_RPB004_29,unclassified,Staphylococcus argenteus,NC_016942_1,24853.0,0.0,0.0,0.0,0.0,0.0
redo_RPB004_29,unclassified,Staphylococcus aureus,NC_007795_1,2821361.0,94.140629292,12.5173812813,2656047.0,2602909.0,1743355.0
redo_RPB004_29,unclassified,Staphylococcus auricularis,NZ_LS483491_1,2216666.0,0.0735789695,1.0,1631.0,0.0,0.0
redo_RPB004_29,unclassified,Staphylococcus capitis,NZ_CP007601_1,2443604.0,0.3518573386,1.1364270761,8598.0,0.0,0.0
redo_RPB004_29,unclassified,Staphylococcus capitis,NZ_CP007602_1,59661.0,0.0,0.0,0.0,0.0,0.0
redo_RPB004_29,unclassified,Staphylococcus carnosus,NC_012121_1,2566424.0,0.1726137224,1.0,4430.0,0.0,0.0
redo_RPB004_29,unclassified,Staphylococcus cohnii,NZ_CP027422_1,2557319.0,0.1614190486,1.0,4128.0,0.0,0.0
redo_RPB004_29,unclassified,Staphylococcus cohnii,NZ_CP027420_1,36910.0,0.0,0.0,0.0,0.0,0.0
redo_RPB004_29,unclassified,Staphylococcus cohnii,NZ_CP027419_1,32058.0,0.5084534282,1.0,163.0,0.0,0.0
redo_RPB004_29,unclassified,Staphylococcus cohnii,NZ_CP027421_1,29852.0,0.0,0.0,0.0,0.0,0.0
redo_RPB004_29,unclassified,Staphylococcus cohnii,NZ_CP027423_1,2670.0,22.9588014981,3.4290375204,613.0,0.0,0.0
redo_RPB004_29,unclassified,Staphylococcus cohnii,NZ_CP027424_1,2473.0,0.0,0.0,0.0,0.0,0.0
redo_RPB004_29,unclassified,Staphylococcus condimenti,NZ_CP015114_1,2659676.0,0.0388017187,1.0,1032.0,0.0,0.0
redo_RPB004_29,unclassified,Staphylococcus delphini,NZ_LR134263_1,2798161.0,0.0535351611,1.0,1498.0,0.0,0.0
redo_RPB004_29,unclassified,Staphylococcus epidermidis,NC_004461_1,2499279.0,1.2058677723,2.4361603292,30138.0,5111.0,0.0
redo_RPB004_29,unclassified,Staphylococcus epidermidis,NC_005008_1,4439.0,0.0,0.0,0.0,0.0,0.0
redo_RPB004_29,unclassified,Staphylococcus epidermidis,NC_005007_1,4679.0,2.2013250695,1.0,103.0,0.0,0.0
redo_RPB004_29,unclassified,Staphylococcus epidermidis,NC_005006_1,8007.0,0.0,0.0,0.0,0.0,0.0
redo_RPB004_29,unclassified,Staphylococcus epidermidis,NC_005005_1,17261.0,0.0,0.0,0.0,0.0,0.0
redo_RPB004_29,unclassified,Staphylococcus epidermidis,NC_005004_1,24365.0,8.5368356249,1.0,2080.0,0.0,0.0
redo_RPB004_29,unclassified,Staphylococcus epidermidis,NC_005003_1,6585.0,0.0,0.0,0.0,0.0,0.0
redo_RPB004_29,unclassified,Staphylococcus equorum,NZ_CP013114_1,2822193.0,0.2005178243,1.0,5659.0,0.0,0.0
redo_RPB004_29,unclassified,Staphylococcus felis,NZ_CP027770_1,2479423.0,0.0044365161,1.0,110.0,0.0,0.0
redo_RPB004_29,unclassified,Staphylococcus haemolyticus,NC_007168_1,2685015.0,0.380295827,1.0,10211.0,0.0,0.0
redo_RPB004_29,unclassified,Staphylococcus haemolyticus,NC_007169_1,2300.0,0.0,0.0,0.0,0.0,0.0
redo_RPB004_29,unclassified,Staphylococcus haemolyticus,NC_007170_1,2366.0,0.0,0.0,0.0,0.0,0.0
redo_RPB004_29,unclassified,Staphylococcus haemolyticus,NC_007171_1,8180.0,0.0,0.0,0.0,0.0,0.0
redo_RPB004_29,unclassified,Staphylococcus hominis,NZ_CP020618_1,2253412.0,0.2019604049,1.0,4551.0,0.0,0.0
redo_RPB004_29,unclassified,Staphylococcus kloosii,NZ_CP027846_1,2630191.0,0.1489625658,1.0,3918.0,0.0,0.0
redo_RPB004_29,unclassified,Staphylococcus kloosii,NZ_CP027847_1,8847.0,0.0,0.0,0.0,0.0,0.0
redo_RPB004_29,unclassified,Staphylococcus lugdunensis,NC_013893_1,2658366.0,0.3702274254,1.0,9842.0,0.0,0.0
redo_RPB004_29,unclassified,Staphylococcus nepalensis,NZ_CP017460_1,2913597.0,0.1025879694,1.0,2989.0,0.0,0.0
redo_RPB004_29,unclassified,Staphylococcus nepalensis,NZ_CP017461_1,54521.0,0.0,0.0,0.0,0.0,0.0
redo_RPB004_29,unclassified,Staphylococcus nepalensis,NZ_CP017462_1,22471.0,0.0,0.0,0.0,0.0,0.0
redo_RPB004_29,unclassified,Staphylococcus pasteuri,NC_022737_1,2559946.0,0.0247270841,1.0,633.0,0.0,0.0
redo_RPB004_29,unclassified,Staphylococcus pettenkoferi,NZ_CP022096_2,2502360.0,0.1210856951,1.0,3030.0,0.0,0.0
redo_RPB004_29,unclassified,Staphylococcus phage 23MRA,NC_028775_1,43098.0,6.6778040744,1.4332870049,2878.0,0.0,0.0
redo_RPB004_29,unclassified,Staphylococcus phage StauST398-2,NC_021323_1,45572.0,12.4769595366,1.5974322898,5686.0,0.0,0.0
redo_RPB004_29,unclassified,Staphylococcus phage tp310-2,NC_009762_3,47785.0,7.2177461547,1.0,3449.0,0.0,0.0
redo_RPB004_29,unclassified,Staphylococcus phage vB_SauS_phi2,NC_028862_1,44222.0,23.2576545611,1.0,10285.0,0.0,0.0
redo_RPB004_29,unclassified,Staphylococcus pseudintermedius,NC_014925_1,2617381.0,0.170704991,1.0,4468.0,0.0,0.0
redo_RPB004_29,unclassified,Staphylococcus saprophyticus,NC_007350_1,2516575.0,0.0536046015,1.0,1349.0,0.0,0.0
redo_RPB004_29,unclassified,Staphylococcus saprophyticus,NC_007351_1,38454.0,0.0,0.0,0.0,0.0,0.0
redo_RPB004_29,unclassified,Staphylococcus saprophyticus,NC_007352_1,22870.0,0.7083515523,1.9074074074,162.0,0.0,0.0
redo_RPB004_29,unclassified,Staphylococcus schweitzeri,NZ_LR134304_1,2784939.0,2.6499323684,1.0558950663,73799.0,0.0,0.0
redo_RPB004_29,unclassified,Staphylococcus sciuri,NZ_CP022046_2,2764040.0,0.0307882665,1.0,851.0,0.0,0.0
redo_RPB004_29,unclassified,Staphylococcus sciuri,NZ_CP022047_2,89775.0,0.0,0.0,0.0,0.0,0.0
redo_RPB004_29,unclassified,Staphylococcus simiae,NZ_LT906460_1,2643976.0,0.8277306602,1.0623714873,21885.0,0.0,0.0
redo_RPB004_29,unclassified,Staphylococcus simulans,NZ_CP014016_2,2647556.0,0.0079318436,1.0,210.0,0.0,0.0
redo_RPB004_29,unclassified,Staphylococcus virus 47,NC_007054_1,44777.0,9.9939701186,1.0,4475.0,0.0,0.0
redo_RPB004_29,unclassified,Staphylococcus virus IPLA5,NC_018281_1,43581.0,7.3816571442,4.4877214796,3217.0,1820.0,0.0
redo_RPB004_29,unclassified,Staphylococcus virus phi12,NC_004616_1,44970.0,7.6495441405,1.0,3440.0,0.0,0.0
redo_RPB004_29,unclassified,Staphylococcus virus phiSLT,NC_002661_2,42942.0,1.9468119789,1.0,836.0,0.0,0.0
redo_RPB004_29,unclassified,Streptococcus mutans,NC_004350_2,2032925.0,0.0256280974,1.0,521.0,0.0,0.0
redo_RPB004_29,unclassified,Sulfitobacter donghicola,NZ_CP026367_1,2469323.0,0.0297652433,1.0,735.0,0.0,0.0
redo_RPB004_29,unclassified,Vagococcus penaei,NZ_CP019609_1,2365304.0,0.035048349,1.0,829.0,0.0,0.0
redo_RPB004_29,unclassified,Vibrio alfacsensis,NZ_CP032093_1,3136974.0,0.0209756281,1.0,658.0,0.0,0.0
redo_RPB004_29,unclassified,Vibrio alfacsensis,NZ_CP032094_1,1596877.0,0.0,0.0,0.0,0.0,0.0
redo_RPB004_29,unclassified,Vibrio alfacsensis,NZ_CP032095_1,176380.0,0.0,0.0,0.0,0.0,0.0
redo_RPB004_29,unclassified,Weissella ceti,NZ_CP009224_1,1390397.0,0.0152474437,1.0,212.0,0.0,0.0
