sample_ID	guuid	barcode	human bases	human reads	bacterial bases	bacterial reads	viral bases	viral reads	total bases	total reads
redo_RPB004_11	5e463a635f87b0f17da19c70	barcode01	11031990	1582	5484508570	1639476	182900	61	5581891820	1671625
redo_RPB004_11	5e463a635f87b0f17da19c70	barcode12a	0	0	17065	4	0	0	17223	5
redo_RPB004_11	5e463a635f87b0f17da19c70	barcode03	0	0	11576	3	0	0	11752	4
redo_RPB004_11	5e463a635f87b0f17da19c70	barcode04	2278565	440	22978562	5141	53970	12	27401752	6152
redo_RPB004_11	5e463a635f87b0f17da19c70	barcode07	83790	22	10379824	2645	22456	8	16210835	4265
redo_RPB004_11	5e463a635f87b0f17da19c70	barcode02	42562817	11054	99582790	28604	259389	95	169529605	49893
redo_RPB004_11	5e463a635f87b0f17da19c70	barcode09	0	0	37880	13	0	0	41995	14
redo_RPB004_11	5e463a635f87b0f17da19c70	barcode08	21028	5	11314119	2849	48983	11	14995307	3906
redo_RPB004_11	5e463a635f87b0f17da19c70	barcode11	0	0	7847	3	0	0	7847	3
redo_RPB004_11	5e463a635f87b0f17da19c70	unclassified	2826608	866	129361785	47225	15513	8	136338271	51409
redo_RPB004_11	5e463a635f87b0f17da19c70	barcode06	57707	9	4931782	1230	0	0	5887625	1493
redo_RPB004_11	5e463a635f87b0f17da19c70	barcode10	0	0	27092	8	0	0	27092	8
redo_RPB004_11	5e463a635f87b0f17da19c70	barcode05	0	0	680246	154	0	0	932672	223
