Run_name,Barcode,Taxid,Bases,Reads
redo_RPB004_6,barcode05,Staphylococcus cohnii,2910,1
redo_RPB004_6,barcode05,Bacillus subtilis,2786,1
redo_RPB004_6,barcode05,Staphylococcus lugdunensis,8601,4
redo_RPB004_6,barcode05,Staphylococcus epidermidis,3006,2
redo_RPB004_6,barcode05,Staphylococcus aureus,3607,1
redo_RPB004_6,barcode08,Acinetobacter schindleri,36231,13
redo_RPB004_6,barcode08,Pseudomonas sp. TKP,895,1
redo_RPB004_6,barcode08,Mycolicibacterium fortuitum,1384,1
redo_RPB004_6,barcode08,Collimonas pratensis,4421,1
redo_RPB004_6,barcode08,Proteus mirabilis,23238,7
redo_RPB004_6,barcode08,Acinetobacter indicus,22227,7
redo_RPB004_6,barcode08,Pseudomonas sp. LH1G9,3529,1
redo_RPB004_6,barcode08,Shewanella sp. FDAARGOS_354,25704,13
redo_RPB004_6,barcode08,Conexibacter woesei,12988,4
redo_RPB004_6,barcode08,Roseateles depolymerans,4041,1
redo_RPB004_6,barcode08,Acinetobacter nosocomialis,3098,1
redo_RPB004_6,barcode08,Pseudomonas sp. DR 5-09,2765,1
redo_RPB004_6,barcode08,Pseudomonas azotoformans,51695,15
redo_RPB004_6,barcode08,Staphylococcus argenteus,3372,2
redo_RPB004_6,barcode08,Pantoea agglomerans,16123,5
redo_RPB004_6,barcode08,Bordetella petrii,3156,1
redo_RPB004_6,barcode08,Gemella haemolysans,15762,6
redo_RPB004_6,barcode08,Acinetobacter junii,7203,2
redo_RPB004_6,barcode08,Klebsiella michiganensis,7092,3
redo_RPB004_6,barcode08,Rhodopseudomonas palustris,8484,2
redo_RPB004_6,barcode08,Snodgrassella alvi,8993,2
redo_RPB004_6,barcode08,Mycobacterium,1384,1
redo_RPB004_6,barcode08,Citrobacter freundii complex sp. CFNIH4,13554,6
redo_RPB004_6,barcode08,Pseudomonas frederiksbergensis,2730,1
redo_RPB004_6,barcode08,Staphylococcus cohnii,3245,1
redo_RPB004_6,barcode08,Acinetobacter sp. WCHAc010005,7823,3
redo_RPB004_6,barcode08,Acinetobacter baumannii,97313,32
redo_RPB004_6,barcode08,Bacillus mycoides,499968,166
redo_RPB004_6,barcode08,Burkholderia stabilis,8672,2
redo_RPB004_6,barcode08,Staphylococcus aureus,584751,148
redo_RPB004_6,barcode08,Cutibacterium acnes,4284,3
redo_RPB004_6,barcode08,Propionibacterium freudenreichii,5155,3
redo_RPB004_6,barcode08,Staphylococcus epidermidis,22132,6
redo_RPB004_6,barcode08,Staphylococcus auricularis,2767,1
redo_RPB004_6,barcode08,Azoarcus sp. SY39,3243,1
redo_RPB004_6,barcode08,Burkholderia cepacia,8791,3
redo_RPB004_6,barcode08,Pseudomonas synxantha,9079,3
redo_RPB004_6,barcode08,Acinetobacter wuhouensis,22606,7
redo_RPB004_6,barcode08,Pseudomonas syringae,5478,2
redo_RPB004_6,barcode08,Bacillus subtilis,10429131,2825
redo_RPB004_6,barcode08,Staphylococcus lugdunensis,143065,35
redo_RPB004_6,barcode08,Phreatobacter stygius,8701,2
redo_RPB004_6,barcode08,Escherichia coli,3617329,1054
redo_RPB004_6,barcode08,Pseudomonas fluorescens,3482,1
redo_RPB004_6,barcode08,Acinetobacter radioresistens,8655,3
redo_RPB004_6,barcode08,Pseudomonas aeruginosa,30538,9
redo_RPB004_6,barcode08,Pseudomonas alcaliphila,4838,2
redo_RPB004_6,barcode08,Acinetobacter sp. ACNIH1,80878,28
redo_RPB004_6,barcode08,Serratia sp. YD25,1786,1
redo_RPB004_6,barcode08,Acinetobacter sp. WCHA55,28463,14
redo_RPB004_6,barcode08,Shigella boydii,101763,32
redo_RPB004_6,barcode08,Acinetobacter sp. WCHAc010034,16049,5
redo_RPB004_6,barcode08,Salmonella enterica,7756,2
redo_RPB004_6,barcode08,Zymomonas mobilis,260149,85
redo_RPB004_6,barcode08,Pseudomonas silesiensis,2732,1
redo_RPB004_6,barcode08,Brachybacterium sp. P6-10-X1,3263,1
redo_RPB004_6,barcode08,Ruegeria pomeroyi,9663,3
redo_RPB004_6,barcode08,Acinetobacter pittii,1561,1
redo_RPB004_6,barcode08,Pseudomonas stutzeri,41095,15
redo_RPB004_6,barcode08,Escherichia albertii,3129,2
redo_RPB004_6,barcode08,Escherichia marmotae,9911,4
redo_RPB004_6,barcode08,Mycoplasma mycoides,14154,6
redo_RPB004_6,barcode08,Enterobacter cloacae,5529,2
redo_RPB004_6,barcode08,Corynebacterium imitans,3296,1
redo_RPB004_6,barcode08,Chlamydia trachomatis,2777,1
redo_RPB004_6,barcode08,Magnetospirillum magneticum,2505,1
redo_RPB004_6,barcode08,Streptomyces chartreusis,3257,1
redo_RPB004_6,barcode08,Acinetobacter sp. SWBY1,36531,11
redo_RPB004_6,barcode08,Microbacterium chocolatum,3268,1
redo_RPB004_6,barcode08,Citrobacter freundii,40957,15
redo_RPB004_6,barcode08,Shigella flexneri,12558,5
redo_RPB004_6,barcode08,Pseudomonas chlororaphis,2809,1
redo_RPB004_6,barcode08,Acinetobacter sp. LoGeW2-3,4356,4
redo_RPB004_6,barcode08,Staphylococcus haemolyticus,15756,6
redo_RPB004_6,barcode08,Pseudomonas putida,72768,15
redo_RPB004_6,barcode08,Aeromonas sp. ASNIH2,7417,2
redo_RPB004_6,barcode08,Chlamydia suis,12881,4
redo_RPB004_6,barcode08,Acinetobacter haemolyticus,122096,45
redo_RPB004_6,barcode08,Pseudomonas cichorii,45148,13
redo_RPB004_6,barcode08,Acinetobacter johnsonii,3828105,884
redo_RPB004_6,barcode08,Egicoccus halophilus,2962,1
redo_RPB004_6,barcode08,Enterobacteriaceae bacterium strain FGI 57,1527,1
redo_RPB004_6,barcode12a,Acinetobacter soli,11596,3
redo_RPB004_6,barcode12a,Acinetobacter indicus,47774,11
redo_RPB004_6,barcode12a,Acinetobacter sp. DUT-2,6590,1
redo_RPB004_6,barcode12a,Acinetobacter nosocomialis,10216,2
redo_RPB004_6,barcode12a,Acinetobacter radioresistens,22545,5
redo_RPB004_6,barcode12a,Moraxella osloensis,2474,1
redo_RPB004_6,barcode12a,Enterobacter kobei,4519,1
redo_RPB004_6,barcode12a,Cronobacter dublinensis,3535,1
redo_RPB004_6,barcode12a,Acinetobacter sp. ACNIH2,8765,2
redo_RPB004_6,barcode12a,Cronobacter sakazakii,2479,1
redo_RPB004_6,barcode12a,Raoultella ornithinolytica,4532,1
redo_RPB004_6,barcode12a,Acinetobacter baumannii,73714,20
redo_RPB004_6,barcode12a,Bacillus mycoides,744306,246
redo_RPB004_6,barcode12a,Citrobacter koseri,4541,1
redo_RPB004_6,barcode12a,Cutibacterium acnes,3818988,839
redo_RPB004_6,barcode12a,Cronobacter condimenti,330,1
redo_RPB004_6,barcode12a,Acinetobacter tandoii,18697,6
redo_RPB004_6,barcode12a,Morganella morganii,3432,1
redo_RPB004_6,barcode12a,Magnetospirillum gryphiswaldense,2077,1
redo_RPB004_6,barcode12a,Staphylococcus lugdunensis,109666,21
redo_RPB004_6,barcode12a,Acinetobacter sp. TTH0-4,11839,2
redo_RPB004_6,barcode12a,Pseudomonas sp. phDV1,2436,1
redo_RPB004_6,barcode12a,Escherichia coli,6591984,1681
redo_RPB004_6,barcode12a,Sphingomonas sp. AAP5,3867,1
redo_RPB004_6,barcode12a,Ramlibacter tataouinensis,2090,1
redo_RPB004_6,barcode12a,Sphingomonas sp. HKS19,3702,1
redo_RPB004_6,barcode12a,Acinetobacter sp. ACNIH1,1343832,289
redo_RPB004_6,barcode12a,Escherichia fergusonii,13939,3
redo_RPB004_6,barcode12a,Shigella boydii,129157,32
redo_RPB004_6,barcode12a,Phytobacter ursingii,3468,1
redo_RPB004_6,barcode12a,Acinetobacter sp. NCu2D-2,360624,74
redo_RPB004_6,barcode12a,Zymomonas mobilis,210045,68
redo_RPB004_6,barcode12a,Buchnera aphidicola,4552,1
redo_RPB004_6,barcode12a,Acinetobacter pittii,20794,5
redo_RPB004_6,barcode12a,Yersinia pseudotuberculosis,4543,1
redo_RPB004_6,barcode12a,Luteitalea pratensis,19269,5
redo_RPB004_6,barcode12a,Enterobacter cloacae,13297,3
redo_RPB004_6,barcode12a,Staphylococcus haemolyticus,9991,2
redo_RPB004_6,barcode12a,Acinetobacter sp. SWBY1,40745,8
redo_RPB004_6,barcode12a,Bifidobacterium thermophilum,20664,4
redo_RPB004_6,barcode12a,Acinetobacter sp. LoGeW2-3,179998,32
redo_RPB004_6,barcode12a,Acinetobacter equi,12342,3
redo_RPB004_6,barcode12a,Acinetobacter sp. WCHAc010052,11651,2
redo_RPB004_6,barcode12a,Aeromonas sp. ASNIH2,6532,2
redo_RPB004_6,barcode12a,Salmonella enterica,80141,21
redo_RPB004_6,barcode12a,Vibrio owensii,4563,1
redo_RPB004_6,barcode12a,Aeromonas salmonicida,362,1
redo_RPB004_6,barcode12a,Acinetobacter schindleri,943669,207
redo_RPB004_6,barcode12a,Sphingomonas taxi,3682,1
redo_RPB004_6,barcode12a,Proteus mirabilis,36987,10
redo_RPB004_6,barcode12a,Pseudomonas alkylphenolica,295,1
redo_RPB004_6,barcode12a,Enterobacter roggenkampii,8996,2
redo_RPB004_6,barcode12a,Sphingopyxis alaskensis,11057,3
redo_RPB004_6,barcode12a,[Enterobacter] lignolyticus,3443,1
redo_RPB004_6,barcode12a,Chlamydia suis,10783,2
redo_RPB004_6,barcode12a,Corynebacterium segmentosum,81358,25
redo_RPB004_6,barcode12a,Klebsiella michiganensis,20100,5
redo_RPB004_6,barcode12a,Acinetobacter sp. TGL-Y2,12132,3
redo_RPB004_6,barcode12a,Shigella flexneri,81397,25
redo_RPB004_6,barcode12a,Acinetobacter guillouiae,3127,1
redo_RPB004_6,barcode12a,Sphingomonas panacis,3601,1
redo_RPB004_6,barcode12a,Staphylococcus aureus,9826,4
redo_RPB004_6,barcode12a,Propionibacterium freudenreichii,7811,2
redo_RPB004_6,barcode12a,Staphylococcus epidermidis,14721,4
redo_RPB004_6,barcode12a,Staphylococcus auricularis,6479,1
redo_RPB004_6,barcode12a,Bradyrhizobium sp. CCGE-LA001,33295,9
redo_RPB004_6,barcode12a,Candidatus Doolittlea endobia,2774,1
redo_RPB004_6,barcode12a,Acinetobacter wuhouensis,187729,32
redo_RPB004_6,barcode12a,Bacillus subtilis,12864070,3231
redo_RPB004_6,barcode12a,Klebsiella pneumoniae,153311,46
redo_RPB004_6,barcode12a,Snodgrassella alvi,12249,2
redo_RPB004_6,barcode12a,Shigella sonnei,14551,3
redo_RPB004_6,barcode12a,Pseudomonas aeruginosa,74612,15
redo_RPB004_6,barcode12a,Serratia sp. YD25,916,1
redo_RPB004_6,barcode12a,Acinetobacter oleivorans,74565,18
redo_RPB004_6,barcode12a,Shigella dysenteriae,36645,11
redo_RPB004_6,barcode12a,Enterobacter soli,5241,1
redo_RPB004_6,barcode12a,Edwardsiella ictaluri,4420,1
redo_RPB004_6,barcode12a,Gemmatimonas phototrophica,15391,4
redo_RPB004_6,barcode12a,Escherichia albertii,9574,4
redo_RPB004_6,barcode12a,Escherichia marmotae,19440,7
redo_RPB004_6,barcode12a,Mycoplasma mycoides,11299,5
redo_RPB004_6,barcode12a,Dickeya solani,4054,1
redo_RPB004_6,barcode12a,Bibersteinia trehalosi,3318,1
redo_RPB004_6,barcode12a,Massilia umbonata,1810,1
redo_RPB004_6,barcode12a,Acinetobacter sp. WCHAc010005,17626,3
redo_RPB004_6,barcode12a,Acinetobacter sp. WCHA55,18336,5
redo_RPB004_6,barcode12a,Bradyrhizobium sp. 58S1,2034,1
redo_RPB004_6,barcode12a,Acinetobacter haemolyticus,66031,18
redo_RPB004_6,barcode12a,Bradyrhizobium oligotrophicum,7095,2
redo_RPB004_6,barcode12a,Acinetobacter johnsonii,585497,109
redo_RPB004_6,barcode11,Staphylococcus cohnii,3056,1
redo_RPB004_6,barcode11,Staphylococcus lugdunensis,4532,1
redo_RPB004_6,barcode11,Staphylococcus epidermidis,2803,1
redo_RPB004_6,barcode04,Staphylococcus lugdunensis,28823,10
redo_RPB004_6,barcode04,Staphylococcus aureus,4691,2
redo_RPB004_6,barcode04,Staphylococcus epidermidis,3108,1
redo_RPB004_6,barcode04,Tetragenococcus halophilus,3159,1
redo_RPB004_6,barcode01,Staphylococcus cohnii,29203,9
redo_RPB004_6,barcode01,Caminibacter mediatlanticus,2666,1
redo_RPB004_6,barcode01,Proteus mirabilis,8653,4
redo_RPB004_6,barcode01,Staphylococcus xylosus,11525,4
redo_RPB004_6,barcode01,Shewanella sp. FDAARGOS_354,118625,30
redo_RPB004_6,barcode01,Geodermatophilus obscurus,3623,1
redo_RPB004_6,barcode01,Acinetobacter radioresistens,37466,9
redo_RPB004_6,barcode01,Staphylococcus succinus,2686,1
redo_RPB004_6,barcode01,Pseudomonas stutzeri,16037,7
redo_RPB004_6,barcode01,Staphylococcus argenteus,74393,29
redo_RPB004_6,barcode01,Staphylococcus schleiferi,3833,1
redo_RPB004_6,barcode01,Lactobacillus ginsenosidimutans,3948,1
redo_RPB004_6,barcode01,Chlamydia suis,3019,1
redo_RPB004_6,barcode01,Bacillus thuringiensis,3326,1
redo_RPB004_6,barcode01,Kribbella flavida,3196,1
redo_RPB004_6,barcode01,Corynebacterium segmentosum,17582,6
redo_RPB004_6,barcode01,Rhodopseudomonas palustris,3572,1
redo_RPB004_6,barcode01,Klebsiella michiganensis,2292,2
redo_RPB004_6,barcode01,Sphingomonas sanxanigenens,2876,1
redo_RPB004_6,barcode01,Fuerstia marisgermanicae,29243,5
redo_RPB004_6,barcode01,Enterococcus faecium,938,1
redo_RPB004_6,barcode01,Yersinia kristensenii,5106,1
redo_RPB004_6,barcode01,Acinetobacter sp. TGL-Y2,24360,5
redo_RPB004_6,barcode01,Brochothrix thermosphacta,2671,1
redo_RPB004_6,barcode01,Bacillus mycoides,262390,92
redo_RPB004_6,barcode01,Geobacillus lituanicus,5638,1
redo_RPB004_6,barcode01,Staphylococcus aureus,79199223,23492
redo_RPB004_6,barcode01,Cutibacterium acnes,57514,19
redo_RPB004_6,barcode01,Acinetobacter ursingii,133691,32
redo_RPB004_6,barcode01,Propionibacterium freudenreichii,3464,1
redo_RPB004_6,barcode01,Staphylococcus epidermidis,249927,67
redo_RPB004_6,barcode01,Solibacillus silvestris,2723,1
redo_RPB004_6,barcode01,Staphylococcus hominis,22855,7
redo_RPB004_6,barcode01,Staphylococcus felis,2126,1
redo_RPB004_6,barcode01,Staphylococcus simiae,9077,3
redo_RPB004_6,barcode01,Staphylococcus delphini,4264,1
redo_RPB004_6,barcode01,Staphylococcus caprae,18424,7
redo_RPB004_6,barcode01,Bacillus subtilis,3447893,1019
redo_RPB004_6,barcode01,Staphylococcus lugdunensis,315593,74
redo_RPB004_6,barcode01,Staphylococcus pseudintermedius,22798,8
redo_RPB004_6,barcode01,Staphylococcus pasteuri,8162,2
redo_RPB004_6,barcode01,Paraburkholderia terrae,5782,1
redo_RPB004_6,barcode01,Klebsiella pneumoniae,1656,1
redo_RPB004_6,barcode01,Escherichia coli,1196970,355
redo_RPB004_6,barcode01,Candidatus Solibacter usitatus,5413,1
redo_RPB004_6,barcode01,Pseudomonas aeruginosa,34007,7
redo_RPB004_6,barcode01,Acinetobacter baumannii,27872,6
redo_RPB004_6,barcode01,Acinetobacter sp. ACNIH1,249280,54
redo_RPB004_6,barcode01,Serratia sp. YD25,8482,2
redo_RPB004_6,barcode01,Microlunatus phosphovorus,31111,9
redo_RPB004_6,barcode01,Staphylococcus piscifermentans,518,1
redo_RPB004_6,barcode01,Staphylococcus schweitzeri,76034,26
redo_RPB004_6,barcode01,Staphylococcus stepanovicii,2674,1
redo_RPB004_6,barcode01,Paraburkholderia phymatum,5798,1
redo_RPB004_6,barcode01,Salmonella enterica,7645,2
redo_RPB004_6,barcode01,Mycobacterium,1759,1
redo_RPB004_6,barcode01,Phaeobacter inhibens,3606,1
redo_RPB004_6,barcode01,Bacillus pseudomycoides,1461,1
redo_RPB004_6,barcode01,Escherichia marmotae,3582,1
redo_RPB004_6,barcode01,Arsenophonus nasoniae,2062,1
redo_RPB004_6,barcode01,Geobacillus stearothermophilus,399,1
redo_RPB004_6,barcode01,Veillonella parvula,69150,22
redo_RPB004_6,barcode01,Escherichia albertii,3254,1
redo_RPB004_6,barcode01,Shigella flexneri,11198,3
redo_RPB004_6,barcode01,Staphylococcus haemolyticus,103889,30
redo_RPB004_6,barcode01,Zymomonas mobilis,68381,25
redo_RPB004_6,barcode01,Mycobacteroides abscessus,1759,1
redo_RPB004_6,barcode01,Staphylococcus warneri,2378,1
redo_RPB004_6,barcode01,Acinetobacter johnsonii,539488,129
redo_RPB004_6,barcode01,Bacillus cereus,2449,1
redo_RPB004_6,barcode01,Shigella boydii,22935,8
redo_RPB004_6,barcode07,Sphingobium sp. SYK-6,4521,1
redo_RPB004_6,barcode07,Acinetobacter schindleri,29396,8
redo_RPB004_6,barcode07,Proteus mirabilis,3553,1
redo_RPB004_6,barcode07,Acinetobacter indicus,29190,10
redo_RPB004_6,barcode07,Staphylococcus cohnii,3289,1
redo_RPB004_6,barcode07,Shewanella sp. FDAARGOS_354,22222,9
redo_RPB004_6,barcode07,Plautia stali symbiont,1861,1
redo_RPB004_6,barcode07,Starkeya novella,4506,1
redo_RPB004_6,barcode07,Salmonella enterica,1288,1
redo_RPB004_6,barcode07,Acinetobacter equi,11877,3
redo_RPB004_6,barcode07,Acinetobacter sp. ACNIH2,3949,1
redo_RPB004_6,barcode07,Klebsiella michiganensis,2666,1
redo_RPB004_6,barcode07,Acinetobacter sp. TGL-Y2,13087,3
redo_RPB004_6,barcode07,Comamonas kerstersii,3719,1
redo_RPB004_6,barcode07,Acinetobacter baumannii,30406,9
redo_RPB004_6,barcode07,Bacillus mycoides,296880,102
redo_RPB004_6,barcode07,Staphylococcus aureus,3274,1
redo_RPB004_6,barcode07,Azorhizobium caulinodans,4526,1
redo_RPB004_6,barcode07,Cutibacterium acnes,48673,12
redo_RPB004_6,barcode07,Propionibacterium freudenreichii,14530,5
redo_RPB004_6,barcode07,Staphylococcus epidermidis,20433,6
redo_RPB004_6,barcode07,Acinetobacter tandoii,10751,3
redo_RPB004_6,barcode07,Staphylococcus haemolyticus,6596,2
redo_RPB004_6,barcode07,Burkholderia cepacia,2747,1
redo_RPB004_6,barcode07,Zymomonas mobilis,99521,34
redo_RPB004_6,barcode07,Staphylococcus lugdunensis,204974,44
redo_RPB004_6,barcode07,Pseudomonas aeruginosa,10227,4
redo_RPB004_6,barcode07,Acinetobacter sp. TTH0-4,10693,3
redo_RPB004_6,barcode07,Klebsiella pneumoniae,4167,1
redo_RPB004_6,barcode07,Celeribacter ethanolicus,4493,1
redo_RPB004_6,barcode07,Escherichia coli,1395312,423
redo_RPB004_6,barcode07,Aerococcus viridans,206471,52
redo_RPB004_6,barcode07,Corynebacterium atypicum,6778,2
redo_RPB004_6,barcode07,Ottowia sp. oral taxon 894,3657,1
redo_RPB004_6,barcode07,Acinetobacter sp. ACNIH1,18056,5
redo_RPB004_6,barcode07,Shigella dysenteriae,2722,1
redo_RPB004_6,barcode07,Acinetobacter sp. WCHA55,31430,7
redo_RPB004_6,barcode07,Shigella boydii,42456,12
redo_RPB004_6,barcode07,Orrella dioscoreae,7473,2
redo_RPB004_6,barcode07,Bacillus subtilis,4737328,1355
redo_RPB004_6,barcode07,Acinetobacter sp. NCu2D-2,11799,3
redo_RPB004_6,barcode07,Pseudomonas putida,4494,2
redo_RPB004_6,barcode07,Limnochorda pilosa,9636,3
redo_RPB004_6,barcode07,Phenylobacterium zucineum,8935,2
redo_RPB004_6,barcode07,Streptosporangium roseum,3203,1
redo_RPB004_6,barcode07,Enterobacter cloacae,2638,1
redo_RPB004_6,barcode07,Sphingomonas melonis,5067,2
redo_RPB004_6,barcode07,Shigella flexneri,15351,5
redo_RPB004_6,barcode07,Staphylococcus auricularis,3201,1
redo_RPB004_6,barcode07,Panacibacter ginsenosidivorans,4602,1
redo_RPB004_6,barcode07,Bradyrhizobium sp. ORS 285,4503,1
redo_RPB004_6,barcode07,Aeromonas sp. ASNIH2,2887,1
redo_RPB004_6,barcode07,Acidiphilium cryptum,4508,1
redo_RPB004_6,barcode07,Acinetobacter haemolyticus,139302,30
redo_RPB004_6,barcode07,Acinetobacter johnsonii,330528,97
redo_RPB004_6,barcode03,Staphylococcus cohnii,9568,3
redo_RPB004_6,barcode03,Staphylococcus haemolyticus,4566,2
redo_RPB004_6,barcode03,Staphylococcus aureus,3158,1
redo_RPB004_6,barcode03,Tetragenococcus halophilus,3131,1
redo_RPB004_6,barcode03,Staphylococcus hominis,3158,1
redo_RPB004_6,barcode03,Staphylococcus lugdunensis,56722,20
redo_RPB004_6,barcode03,Staphylococcus epidermidis,15410,5
redo_RPB004_6,barcode03,Staphylococcus auricularis,3110,1
redo_RPB004_6,barcode09,Brevibacillus brevis,2097,1
redo_RPB004_6,barcode09,Weissella ceti,2415,1
redo_RPB004_6,barcode09,Geobacillus thermocatenulatus,369,1
redo_RPB004_6,barcode09,Acinetobacter schindleri,8451,2
redo_RPB004_6,barcode09,Staphylococcus hominis,70123125,22357
redo_RPB004_6,barcode09,Streptococcus pneumoniae,715707,727
redo_RPB004_6,barcode09,Staphylococcus argenteus,5349,2
redo_RPB004_6,barcode09,Staphylococcus schleiferi,1455812,1834
redo_RPB004_6,barcode09,Caulobacter sp. FWC26,2041,1
redo_RPB004_6,barcode09,Enterococcus faecium,3842,3
redo_RPB004_6,barcode09,Acinetobacter baumannii,1367,3
redo_RPB004_6,barcode09,Bacillus mycoides,187233,68
redo_RPB004_6,barcode09,Planococcus sp. MB-3u-03,4401,2
redo_RPB004_6,barcode09,Cutibacterium acnes,128294,29
redo_RPB004_6,barcode09,Bacillus thuringiensis,21120,13
redo_RPB004_6,barcode09,Bacillus amyloliquefaciens,314,1
redo_RPB004_6,barcode09,Paraburkholderia xenovorans,361,1
redo_RPB004_6,barcode09,Staphylococcus lugdunensis,3796561699,1143066
redo_RPB004_6,barcode09,Geobacillus stearothermophilus,188,1
redo_RPB004_6,barcode09,Staphylococcus saprophyticus,528219,509
redo_RPB004_6,barcode09,Staphylococcus simiae,3383,3
redo_RPB004_6,barcode09,Escherichia coli,903349,272
redo_RPB004_6,barcode09,Staphylococcus kloosii,2943,3
redo_RPB004_6,barcode09,Lelliottia amnigena,395,1
redo_RPB004_6,barcode09,Alicyclobacillus acidocaldarius,1319,1
redo_RPB004_6,barcode09,Sulfitobacter donghicola,6055,2
redo_RPB004_6,barcode09,Bacillus sp. Lzh-5,1299,1
redo_RPB004_6,barcode09,Virgibacillus necropolis,168,1
redo_RPB004_6,barcode09,Lactococcus garvieae,181,1
redo_RPB004_6,barcode09,Shewanella putrefaciens,3449,1
redo_RPB004_6,barcode09,Lawsonella clevelandensis,2064,1
redo_RPB004_6,barcode09,Shigella boydii,39622,11
redo_RPB004_6,barcode09,Acinetobacter sp. WCHAc010034,719,1
redo_RPB004_6,barcode09,Salmonella enterica,1305,1
redo_RPB004_6,barcode09,Staphylococcus hyicus,3458,4
redo_RPB004_6,barcode09,Lactobacillus johnsonii,3429,4
redo_RPB004_6,barcode09,Leuconostoc lactis,383,1
redo_RPB004_6,barcode09,Lactobacillus pentosus,542,1
redo_RPB004_6,barcode09,Bacillus filamentosus,553,1
redo_RPB004_6,barcode09,Escherichia albertii,1060,1
redo_RPB004_6,barcode09,Staphylococcus capitis,23621,8
redo_RPB004_6,barcode09,Staphylococcus pettenkoferi,737,2
redo_RPB004_6,barcode09,Staphylococcus haemolyticus,307208591,103884
redo_RPB004_6,barcode09,Zymomonas mobilis,63678,26
redo_RPB004_6,barcode09,Staphylococcus warneri,227290,87
redo_RPB004_6,barcode09,Chlamydia suis,4746,1
redo_RPB004_6,barcode09,Streptococcus suis,2867,1
redo_RPB004_6,barcode09,Staphylococcus sciuri,193,1
redo_RPB004_6,barcode09,Staphylococcus cohnii,188211784,61887
redo_RPB004_6,barcode09,Vibrio coralliilyticus,694,2
redo_RPB004_6,barcode09,Proteus mirabilis,4010,1
redo_RPB004_6,barcode09,Bacillus anthracis,7680,2
redo_RPB004_6,barcode09,Tetragenococcus halophilus,53609026,17130
redo_RPB004_6,barcode09,Shewanella sp. FDAARGOS_354,65523,15
redo_RPB004_6,barcode09,Bacillus sp. Y1,562,1
redo_RPB004_6,barcode09,Staphylococcus succinus,455,1
redo_RPB004_6,barcode09,Planococcus halocryophilus,7356,2
redo_RPB004_6,barcode09,Gemella haemolysans,2308,1
redo_RPB004_6,barcode09,Staphylococcus sp. AntiMn-1,2941,2
redo_RPB004_6,barcode09,Klebsiella michiganensis,3443,1
redo_RPB004_6,barcode09,Carnobacterium inhibens,2638,1
redo_RPB004_6,barcode09,Yersinia frederiksenii,2631,1
redo_RPB004_6,barcode09,Staphylococcus lutrae,3925,3
redo_RPB004_6,barcode09,Staphylococcus muscae,2702,1
redo_RPB004_6,barcode09,Brochothrix thermosphacta,215,1
redo_RPB004_6,barcode09,Bacillus asahii,365,1
redo_RPB004_6,barcode09,Streptococcus equi,352,1
redo_RPB004_6,barcode09,Staphylococcus aureus,333492288,109332
redo_RPB004_6,barcode09,Caminibacter mediatlanticus,899,1
redo_RPB004_6,barcode09,Staphylococcus epidermidis,654049283,213817
redo_RPB004_6,barcode09,Solibacillus silvestris,666,1
redo_RPB004_6,barcode09,Staphylococcus nepalensis,185,1
redo_RPB004_6,barcode09,Staphylococcus caprae,31209,12
redo_RPB004_6,barcode09,Bacillus subtilis,2912513,857
redo_RPB004_6,barcode09,Staphylococcus pseudintermedius,50563,40
redo_RPB004_6,barcode09,Staphylococcus pasteuri,13738,7
redo_RPB004_6,barcode09,Snodgrassella alvi,4016,1
redo_RPB004_6,barcode09,Streptococcus mitis,418,1
redo_RPB004_6,barcode09,Tolumonas auensis,6305,3
redo_RPB004_6,barcode09,Pseudomonas aeruginosa,2120,1
redo_RPB004_6,barcode09,Staphylococcus felis,101233,111
redo_RPB004_6,barcode09,Staphylococcus condimenti,2722,3
redo_RPB004_6,barcode09,Acinetobacter sp. ACNIH1,31671,8
redo_RPB004_6,barcode09,Staphylococcus chromogenes,617,2
redo_RPB004_6,barcode09,Desulfobacca acetoxidans,399,1
redo_RPB004_6,barcode09,Desulfurispirillum indicum,2068,1
redo_RPB004_6,barcode09,Escherichia marmotae,3288,1
redo_RPB004_6,barcode09,Staphylococcus xylosus,228032,349
redo_RPB004_6,barcode09,Lactobacillus curvatus,279,1
redo_RPB004_6,barcode09,Listeria monocytogenes,1115,2
redo_RPB004_6,barcode09,Methylovulum psychrotolerans,131321,30
redo_RPB004_6,barcode09,Bacillus coagulans,7892,6
redo_RPB004_6,barcode09,Shigella flexneri,1390,1
redo_RPB004_6,barcode09,Auricoccus indicus,5478,3
redo_RPB004_6,barcode09,Staphylococcus auricularis,58616926,19441
redo_RPB004_6,barcode09,Macrococcus caseolyticus,1568,2
redo_RPB004_6,barcode09,Parvularcula bermudensis,378,1
redo_RPB004_6,barcode09,Bacillus velezensis,715,2
redo_RPB004_6,barcode09,Staphylococcus simulans,13268,15
redo_RPB004_6,barcode09,Aerococcus urinaeequi,58200,52
redo_RPB004_6,barcode09,Acinetobacter johnsonii,172102,38
redo_RPB004_6,barcode09,Bacillus cereus,6442,7
redo_RPB004_6,barcode09,Staphylococcus carnosus,31089,22
redo_RPB004_6,barcode10,Staphylococcus cohnii,8825,3
redo_RPB004_6,barcode10,Staphylococcus auricularis,3166,1
redo_RPB004_6,barcode10,Staphylococcus haemolyticus,5064,2
redo_RPB004_6,barcode10,Staphylococcus aureus,6122,2
redo_RPB004_6,barcode10,Staphylococcus hominis,2931,1
redo_RPB004_6,barcode10,Staphylococcus lugdunensis,50812,20
redo_RPB004_6,barcode10,Tetragenococcus halophilus,2532,1
redo_RPB004_6,barcode10,Staphylococcus epidermidis,9187,3
redo_RPB004_6,barcode06,Bradyrhizobium sp. ORS 278,2689,1
redo_RPB004_6,barcode06,Arenibacter algicola,3075,1
redo_RPB004_6,barcode06,Achromobacter xylosoxidans,17750,5
redo_RPB004_6,barcode06,Acinetobacter indicus,4192,2
redo_RPB004_6,barcode06,Staphylococcus hominis,5916,2
redo_RPB004_6,barcode06,Acinetobacter sp. WCHAc010034,44648,10
redo_RPB004_6,barcode06,Acinetobacter radioresistens,77085,26
redo_RPB004_6,barcode06,Azospirillum lipoferum,10448,2
redo_RPB004_6,barcode06,Microbacterium sp. No. 7,5272,1
redo_RPB004_6,barcode06,Nitrobacter hamburgensis,39161,7
redo_RPB004_6,barcode06,Zunongwangia profunda,13979,2
redo_RPB004_6,barcode06,Microvirga ossetica,5581,1
redo_RPB004_6,barcode06,Staphylococcus epidermidis,26282,8
redo_RPB004_6,barcode06,Legionella geestiana,11313,2
redo_RPB004_6,barcode06,Candidatus Portiera aleyrodidarum,6820,1
redo_RPB004_6,barcode06,Egibacter rhizosphaerae,4044,1
redo_RPB004_6,barcode06,Tenacibaculum todarodis,9665,2
redo_RPB004_6,barcode06,Ochrobactrum anthropi,72921,14
redo_RPB004_6,barcode06,Acinetobacter baumannii,125201,33
redo_RPB004_6,barcode06,Bacillus mycoides,107097,36
redo_RPB004_6,barcode06,Salinibacter ruber,5293,1
redo_RPB004_6,barcode06,Pectobacterium carotovorum,1962,1
redo_RPB004_6,barcode06,Lactobacillus johnsonii,2769,1
redo_RPB004_6,barcode06,Polaribacter reichenbachii,5672,2
redo_RPB004_6,barcode06,Cutibacterium acnes,566642,121
redo_RPB004_6,barcode06,Kocuria rosea,7219,1
redo_RPB004_6,barcode06,Geobacter sp. M18,18751,5
redo_RPB004_6,barcode06,Mesorhizobium ciceri,5249,1
redo_RPB004_6,barcode06,Lactobacillus kefiranofaciens,4892,1
redo_RPB004_6,barcode06,Burkholderia cepacia,1800,1
redo_RPB004_6,barcode06,Pseudomonas simiae,5536,2
redo_RPB004_6,barcode06,Listeria innocua,6793,2
redo_RPB004_6,barcode06,Magnetospirillum gryphiswaldense,15745,3
redo_RPB004_6,barcode06,Azospirillum sp. TSH100,5543,1
redo_RPB004_6,barcode06,Staphylococcus lugdunensis,141651,37
redo_RPB004_6,barcode06,Flavisolibacter ginsenosidimutans,4830,1
redo_RPB004_6,barcode06,Bacteroides fragilis,20778,5
redo_RPB004_6,barcode06,Phreatobacter stygius,4569,1
redo_RPB004_6,barcode06,Flavobacterium anhuiense,2840,1
redo_RPB004_6,barcode06,Chryseobacterium gleum,25345,4
redo_RPB004_6,barcode06,Flavobacterium commune,2723,1
redo_RPB004_6,barcode06,Escherichia coli,505388,172
redo_RPB004_6,barcode06,Staphylococcus kloosii,2719,1
redo_RPB004_6,barcode06,Gloeobacter kilaueensis,27382,5
redo_RPB004_6,barcode06,Hyphomonas neptunium,4599,1
redo_RPB004_6,barcode06,Formosa sp. Hel3_A1_48,4832,1
redo_RPB004_6,barcode06,Flavobacterium psychrophilum,1502,1
redo_RPB004_6,barcode06,Amycolatopsis methanolica,9478,2
redo_RPB004_6,barcode06,Neorhizobium galegae,5691,1
redo_RPB004_6,barcode06,Azospirillum brasilense,15740,3
redo_RPB004_6,barcode06,Candidatus Koribacter versatilis,2446,1
redo_RPB004_6,barcode06,Shigella boydii,4589,2
redo_RPB004_6,barcode06,Streptococcus pneumoniae,1733,1
redo_RPB004_6,barcode06,Salmonella enterica,2705,1
redo_RPB004_6,barcode06,Nonomuraea sp. ATCC 55076,3847,1
redo_RPB004_6,barcode06,Luteipulveratus mongoliensis,5558,1
redo_RPB004_6,barcode06,Paraburkholderia caribensis,18032,7
redo_RPB004_6,barcode06,Verminephrobacter eiseniae,5603,1
redo_RPB004_6,barcode06,Xanthomonas translucens,5122,1
redo_RPB004_6,barcode06,Flavobacterium sp. KBS0721,2391,1
redo_RPB004_6,barcode06,Pantoea vagans,2940,1
redo_RPB004_6,barcode06,Leuconostoc citreum,2858,1
redo_RPB004_6,barcode06,Chlorobaculum parvum,2894,1
redo_RPB004_6,barcode06,Acinetobacter sp. SWBY1,28447,6
redo_RPB004_6,barcode06,Paraburkholderia hospita,2622,1
redo_RPB004_6,barcode06,Bradyrhizobium sp.,7000,1
redo_RPB004_6,barcode06,Acinetobacter sp. LoGeW2-3,40566,9
redo_RPB004_6,barcode06,Methylotenera mobilis,6070,2
redo_RPB004_6,barcode06,Zymomonas mobilis,47012,17
redo_RPB004_6,barcode06,Mariniflexile sp. TRM1-10,3059,1
redo_RPB004_6,barcode06,Yangia sp. CCB-MM3,4591,1
redo_RPB004_6,barcode06,Bradyrhizobium sp. SK17,5391,1
redo_RPB004_6,barcode06,Filimonas lacunae,15879,3
redo_RPB004_6,barcode06,Achromobacter spanius,3627,1
redo_RPB004_6,barcode06,Hyphomicrobium denitrificans,7024,1
redo_RPB004_6,barcode06,Staphylococcus cohnii,13319,3
redo_RPB004_6,barcode06,Collimonas pratensis,7036,1
redo_RPB004_6,barcode06,Staphylococcus haemolyticus,15653,5
redo_RPB004_6,barcode06,Pseudomonas fluorescens,4770,1
redo_RPB004_6,barcode06,Tetragenococcus halophilus,3272,1
redo_RPB004_6,barcode06,Shewanella sp. FDAARGOS_354,38822,10
redo_RPB004_6,barcode06,Flavobacterium indicum,34106,12
redo_RPB004_6,barcode06,Geobacter metallireducens,2886,1
redo_RPB004_6,barcode06,Klebsiella pneumoniae,291,1
redo_RPB004_6,barcode06,Flavobacterium johnsoniae,2722,1
redo_RPB004_6,barcode06,Ectothiorhodospira sp. BSL-9,4357,1
redo_RPB004_6,barcode06,Lactobacillus backii,6369,1
redo_RPB004_6,barcode06,Streptomyces reticuli,5311,1
redo_RPB004_6,barcode06,Serratia fonticola,12606,5
redo_RPB004_6,barcode06,Klebsiella michiganensis,3948,1
redo_RPB004_6,barcode06,Sandaracinus amylolyticus,8413,2
redo_RPB004_6,barcode06,Arthrobacter sp. PAMC 25486,21178,3
redo_RPB004_6,barcode06,Rhodoferax antarcticus,4028,1
redo_RPB004_6,barcode06,Achromobacter sp. AONIH1,3592,1
redo_RPB004_6,barcode06,Staphylococcus aureus,294397,76
redo_RPB004_6,barcode06,Methylocystis bryophila,4112,1
redo_RPB004_6,barcode06,Niastella koreensis,2741,1
redo_RPB004_6,barcode06,Acinetobacter ursingii,2024,1
redo_RPB004_6,barcode06,Tsukamurella paurometabola,9084,2
redo_RPB004_6,barcode06,Halobacillus halophilus,4447,1
redo_RPB004_6,barcode06,Staphylococcus auricularis,1819,1
redo_RPB004_6,barcode06,Amycolatopsis sp. AA4,3323,1
redo_RPB004_6,barcode06,Bradyrhizobium guangdongense,17300,3
redo_RPB004_6,barcode06,Octadecabacter antarcticus,9582,2
redo_RPB004_6,barcode06,Pseudomonas protegens,3014,1
redo_RPB004_6,barcode06,Bacillus subtilis,2081974,597
redo_RPB004_6,barcode06,Pseudomonas brassicacearum,7057,1
redo_RPB004_6,barcode06,Cellulophaga lytica,3083,1
redo_RPB004_6,barcode06,Xylella fastidiosa,7188,1
redo_RPB004_6,barcode06,Acinetobacter calcoaceticus,6567,1
redo_RPB004_6,barcode06,Winogradskyella sp. PG-2,3061,1
redo_RPB004_6,barcode06,Gramella forsetii,17408,6
redo_RPB004_6,barcode06,Nocardioides dokdonensis,24884,6
redo_RPB004_6,barcode06,Citrobacter sp. 86,4458,1
redo_RPB004_6,barcode06,Inhella inkyongensis,4015,1
redo_RPB004_6,barcode06,Rhizobium sp. CIAT894,10421,2
redo_RPB004_6,barcode06,Comamonas terrigena,3501,1
redo_RPB004_6,barcode06,Achromobacter insolitus,9172,2
redo_RPB004_6,barcode06,Streptomyces fungicidicus,3523,1
redo_RPB004_6,barcode06,Tamlana sp. UJ94,2826,1
redo_RPB004_6,barcode06,Serratia sp. YD25,2352,1
redo_RPB004_6,barcode06,Deinococcus ficus,4626,1
redo_RPB004_6,barcode06,Nocardioides humi,2349,1
redo_RPB004_6,barcode06,Bradyrhizobium icense,16075,3
redo_RPB004_6,barcode06,Corynebacterium pelargi,5377,1
redo_RPB004_6,barcode06,Rhizobium sp. NT-26,9076,2
redo_RPB004_6,barcode06,Rhodobacteraceae bacterium,24001,5
redo_RPB004_6,barcode06,Streptomyces dengpaensis,5634,1
redo_RPB004_6,barcode06,Acidovorax sp. RAC01,4024,1
redo_RPB004_6,barcode06,Paraburkholderia terricola,4983,1
redo_RPB004_6,barcode06,Mucilaginibacter gotjawali,12681,2
redo_RPB004_6,barcode06,Maribacter sp. 1_2014MBL_MicDiv,4834,1
redo_RPB004_6,barcode06,Desulfoglaeba alkanexedens,2186,1
redo_RPB004_6,barcode06,Polaribacter sp. MED152,2834,1
redo_RPB004_6,barcode06,Methylovulum psychrotolerans,10590,3
redo_RPB004_6,barcode06,Leifsonia xyli,3539,1
redo_RPB004_6,barcode06,Ottowia oryzae,44792,8
redo_RPB004_6,barcode06,Gemmata obscuriglobus,5427,1
redo_RPB004_6,barcode06,Flavobacterium gilvum,8493,3
redo_RPB004_6,barcode06,Leucobacter triazinivorans,8759,2
redo_RPB004_6,barcode06,Burkholderia sp. IDO3,56516,11
redo_RPB004_6,barcode06,Bradyrhizobium sp. ORS 285,22255,4
redo_RPB004_6,barcode06,Thiobacillus denitrificans,6826,2
redo_RPB004_6,barcode06,Acinetobacter haemolyticus,60472,18
redo_RPB004_6,barcode06,Bradyrhizobium oligotrophicum,19879,3
redo_RPB004_6,barcode06,Acinetobacter johnsonii,678465,182
redo_RPB004_6,barcode06,Lacinutrix sp. 5H-3-7-4,2333,1
redo_RPB004_6,unclassified,Staphylococcus cohnii,7006063,2621
redo_RPB004_6,unclassified,Proteus mirabilis,6291,2
redo_RPB004_6,unclassified,Acinetobacter indicus,2760,1
redo_RPB004_6,unclassified,Tetragenococcus halophilus,1317747,469
redo_RPB004_6,unclassified,Staphylococcus hominis,1628030,574
redo_RPB004_6,unclassified,Candidatus Kinetoplastibacterium desouzaii,201,1
redo_RPB004_6,unclassified,Acinetobacter radioresistens,190,1
redo_RPB004_6,unclassified,Kocuria rosea,6494,1
redo_RPB004_6,unclassified,Salmonella enterica,1599,2
redo_RPB004_6,unclassified,Staphylococcus argenteus,2238,2
redo_RPB004_6,unclassified,Staphylococcus schleiferi,218258,243
redo_RPB004_6,unclassified,Klebsiella michiganensis,2447,2
redo_RPB004_6,unclassified,Burkholderia cepacia,164,1
redo_RPB004_6,unclassified,Shigella boydii,5250,2
redo_RPB004_6,unclassified,Acinetobacter schindleri,17870,4
redo_RPB004_6,unclassified,Heliobacterium modesticaldum,2715,1
redo_RPB004_6,unclassified,Acinetobacter baumannii,8496,6
redo_RPB004_6,unclassified,Bacillus mycoides,75759,29
redo_RPB004_6,unclassified,Staphylococcus aureus,12665811,4854
redo_RPB004_6,unclassified,Cutibacterium acnes,74743,32
redo_RPB004_6,unclassified,Acinetobacter ursingii,4065,1
redo_RPB004_6,unclassified,Staphylococcus epidermidis,20188930,7739
redo_RPB004_6,unclassified,Klebsiella pneumoniae,6647,3
redo_RPB004_6,unclassified,Shewanella sp. FDAARGOS_354,364,1
redo_RPB004_6,unclassified,Staphylococcus auricularis,2701654,1013
redo_RPB004_6,unclassified,Aeromonas hydrophila,169,1
redo_RPB004_6,unclassified,Staphylococcus caprae,4499,2
redo_RPB004_6,unclassified,Acinetobacter wuhouensis,6254,1
redo_RPB004_6,unclassified,Bacillus subtilis,583544,188
redo_RPB004_6,unclassified,Staphylococcus lugdunensis,112228534,44203
redo_RPB004_6,unclassified,Staphylococcus pseudintermedius,2227,1
redo_RPB004_6,unclassified,Staphylococcus pasteuri,184,1
redo_RPB004_6,unclassified,Burkholderia sp. IDO3,5266,1
redo_RPB004_6,unclassified,Staphylococcus saprophyticus,47924,53
redo_RPB004_6,unclassified,Gemmatirosa kalamazoonesis,3489,1
redo_RPB004_6,unclassified,Escherichia coli,253876,103
redo_RPB004_6,unclassified,Acinetobacter sp. TGL-Y2,4724,1
redo_RPB004_6,unclassified,Aerococcus viridans,6590,3
redo_RPB004_6,unclassified,Staphylococcus felis,13235,17
redo_RPB004_6,unclassified,Lactococcus lactis,229,1
redo_RPB004_6,unclassified,Serratia sp. YD25,302,1
redo_RPB004_6,unclassified,Shigella dysenteriae,2789,1
redo_RPB004_6,unclassified,Acinetobacter sp. WCHA55,3488,2
redo_RPB004_6,unclassified,Acinetobacter sp. ACNIH1,35826,10
redo_RPB004_6,unclassified,Streptococcus pneumoniae,66319,77
redo_RPB004_6,unclassified,Acinetobacter sp. NCu2D-2,18233,4
redo_RPB004_6,unclassified,Staphylococcus hyicus,2684,3
redo_RPB004_6,unclassified,Octadecabacter antarcticus,4037,1
redo_RPB004_6,unclassified,Escherichia marmotae,314,1
redo_RPB004_6,unclassified,Staphylococcus xylosus,67167,84
redo_RPB004_6,unclassified,Staphylococcus carnosus,3666,4
redo_RPB004_6,unclassified,Methylovulum psychrotolerans,3550,1
redo_RPB004_6,unclassified,Acinetobacter sp. SWBY1,3851,1
redo_RPB004_6,unclassified,Escherichia albertii,5123,1
redo_RPB004_6,unclassified,Acinetobacter johnsonii,198780,60
redo_RPB004_6,unclassified,Shigella flexneri,4479,1
redo_RPB004_6,unclassified,Staphylococcus pettenkoferi,190,1
redo_RPB004_6,unclassified,Staphylococcus haemolyticus,11567986,4733
redo_RPB004_6,unclassified,Zymomonas mobilis,10229,3
redo_RPB004_6,unclassified,Erwinia sp. Ejp617,899,1
redo_RPB004_6,unclassified,Staphylococcus warneri,9371,5
redo_RPB004_6,unclassified,Acinetobacter haemolyticus,2349,2
redo_RPB004_6,unclassified,Aerococcus urinaeequi,4663,5
redo_RPB004_6,unclassified,Filimonas lacunae,5302,1
redo_RPB004_6,unclassified,Bacillus cereus,354,1
redo_RPB004_6,unclassified,Staphylococcus simulans,1541,2
redo_RPB004_6,barcode02,Staphylococcus cohnii,6113,2
redo_RPB004_6,barcode02,Staphylococcus haemolyticus,15111,6
redo_RPB004_6,barcode02,Staphylococcus aureus,30336,11
redo_RPB004_6,barcode02,Staphylococcus hominis,2626,1
redo_RPB004_6,barcode02,Staphylococcus lugdunensis,110336,36
redo_RPB004_6,barcode02,Staphylococcus epidermidis,25741,9
redo_RPB004_6,barcode02,Staphylococcus auricularis,6390,2
redo_RPB004_6,barcode05,Staphylococcus phage StB27,2521,1
redo_RPB004_6,barcode08,Escherichia virus Mu,47083,14
redo_RPB004_6,barcode08,Escherichia virus T7,65012,21
redo_RPB004_6,barcode08,Shigella virus SfMu,2295,1
redo_RPB004_6,barcode12a,Escherichia virus Mu,15844,4
redo_RPB004_6,barcode12a,Escherichia virus T7,104046,19
redo_RPB004_6,barcode12a,Shigella virus SfMu,12917,4
redo_RPB004_6,barcode12a,Escherichia virus Lambda,104081,26
redo_RPB004_6,barcode01,Staphylococcus phage TEM123,3330,1
redo_RPB004_6,barcode01,Staphylococcus phage JS01,162736,47
redo_RPB004_6,barcode01,Staphylococcus phage tp310-1,28030,6
redo_RPB004_6,barcode01,Shigella virus SfMu,2239,1
redo_RPB004_6,barcode01,Escherichia virus Mu,40543,11
redo_RPB004_6,barcode01,Escherichia virus T7,9259,3
redo_RPB004_6,barcode01,Staphylococcus prophage phiPV83,4946,1
redo_RPB004_6,barcode07,Escherichia virus Mu,18571,5
redo_RPB004_6,barcode07,Shigella virus SfMu,2137,1
redo_RPB004_6,barcode09,Staphylococcus phage StB27,125350,46
redo_RPB004_6,barcode09,Staphylococcus phage StB20-like,3146,1
redo_RPB004_6,barcode09,Staphylococcus phage StB20,4182,3
redo_RPB004_6,barcode09,Staphylococcus phage phiRS7,2418,5
redo_RPB004_6,barcode09,Staphylococcus virus EW,334,1
redo_RPB004_6,barcode09,Staphylococcus virus 187,32507,9
redo_RPB004_6,barcode09,Staphylococcus virus 55,3551,1
redo_RPB004_6,barcode09,Escherichia virus Mu,4156,2
redo_RPB004_6,barcode09,Staphylococcus phage StB12,115690,38
redo_RPB004_6,barcode09,Escherichia virus T7,3005,2
redo_RPB004_6,barcode06,Escherichia virus Mu,9803,3
redo_RPB004_6,barcode06,Escherichia phage D108,3256,1
redo_RPB004_6,unclassified,Staphylococcus phage StB27,12534,5
redo_RPB004_6,unclassified,Staphylococcus phage JS01,13156,3
redo_RPB004_6,unclassified,Staphylococcus phage StB12,14387,5
redo_RPB004_6,unclassified,Staphylococcus phage tp310-1,5222,2
redo_RPB004_6,unclassified,Staphylococcus virus 187,2184,1
redo_RPB004_6,unclassified,Escherichia virus Lambda,3946,1
redo_RPB004_6,unclassified,Staphylococcus phage phiRS7,636,1
redo_RPB004_6,unclassified,Escherichia virus T7,418,1
redo_RPB004_6,unclassified,Escherichia phage D108,294,1
