sample,barcode,Species name,chrom,len,covBread_1x_percent,avCov,x1,x5,x10
RPB004_61,barcode01,Acinetobacter haemolyticus,NZ_CP018871_1,3442728.0,0.101285957,1.0,3487.0,0.0,0.0
RPB004_61,barcode01,Acinetobacter haemolyticus,NZ_CP018872_1,56602.0,0.0,0.0,0.0,0.0,0.0
RPB004_61,barcode01,Acinetobacter haemolyticus,NZ_CP018873_1,39508.0,0.0,0.0,0.0,0.0,0.0
RPB004_61,barcode01,Bacillus licheniformis,NC_006270_3,4222597.0,0.0092597044,1.0,391.0,0.0,0.0
RPB004_61,barcode01,Cutibacterium acnes,NC_006085_1,2560265.0,0.0722972036,1.0,1851.0,0.0,0.0
RPB004_61,barcode01,Escherichia coli,NC_000913_3,4641652.0,2.779656898,1.1490676009,129022.0,0.0,0.0
RPB004_61,barcode01,Escherichia marmotae,NZ_CP025979_1,4671322.0,0.028022046,1.0,1309.0,0.0,0.0
RPB004_61,barcode01,Escherichia marmotae,NZ_CP025980_1,148809.0,0.0,0.0,0.0,0.0,0.0
RPB004_61,barcode01,Escherichia marmotae,NZ_CP025981_1,76160.0,0.0,0.0,0.0,0.0,0.0
RPB004_61,barcode01,Escherichia virus Mu,NC_000929_1,36717.0,4.853337691,1.0,1782.0,0.0,0.0
RPB004_61,barcode01,Moraxella osloensis,NZ_CP014234_1,2434688.0,0.0911821145,1.0,2220.0,0.0,0.0
RPB004_61,barcode01,Moraxella osloensis,NZ_CP014238_1,40342.0,0.0,0.0,0.0,0.0,0.0
RPB004_61,barcode01,Moraxella osloensis,NZ_CP014237_1,35189.0,0.0,0.0,0.0,0.0,0.0
RPB004_61,barcode01,Moraxella osloensis,NZ_CP014236_1,57463.0,0.0,0.0,0.0,0.0,0.0
RPB004_61,barcode01,Moraxella osloensis,NZ_CP014235_1,81455.0,0.0,0.0,0.0,0.0,0.0
RPB004_61,barcode01,Prevotella melaninogenica,NC_014370_1,1796408.0,0.0,0.0,0.0,0.0,0.0
RPB004_61,barcode01,Prevotella melaninogenica,NC_014371_1,1371874.0,0.2124101776,1.0,2914.0,0.0,0.0
RPB004_61,barcode01,Shigella dysenteriae,NC_007606_1,4369232.0,0.0487957609,1.0,2132.0,0.0,0.0
RPB004_61,barcode01,Shigella dysenteriae,NC_009344_1,8953.0,0.0,0.0,0.0,0.0,0.0
RPB004_61,barcode01,Shigella dysenteriae,NC_007607_1,182726.0,0.0,0.0,0.0,0.0,0.0
RPB004_61,barcode02,Acinetobacter baumannii,NZ_CP009257_1,4335793.0,0.0165137035,1.0,716.0,0.0,0.0
RPB004_61,barcode02,Acinetobacter guillouiae,NZ_AP014630_1,4648418.0,0.0045391787,1.0,211.0,0.0,0.0
RPB004_61,barcode02,Bacillus licheniformis,NC_006270_3,4222597.0,0.0423909741,1.0,1790.0,0.0,0.0
RPB004_61,barcode02,Corynebacterium ureicelerivorans,NZ_CP009215_1,2279990.0,0.0328948811,1.0,750.0,0.0,0.0
RPB004_61,barcode02,Corynebacterium ureicelerivorans,NZ_CP009216_1,48288.0,0.0,0.0,0.0,0.0,0.0
RPB004_61,barcode02,Cutibacterium acnes,NC_006085_1,2560265.0,0.5991176695,1.0,15339.0,0.0,0.0
RPB004_61,barcode02,Escherichia albertii,NZ_CP007025_1,4701875.0,0.1060428021,1.0,4986.0,0.0,0.0
RPB004_61,barcode02,Escherichia coli,NC_000913_3,4641652.0,2.2167538626,1.1003265497,102894.0,0.0,0.0
RPB004_61,barcode02,Escherichia virus Rtp,NC_007603_1,46219.0,6.5081460006,1.2436835106,3008.0,0.0,0.0
RPB004_61,barcode02,Escherichia virus T7,NC_001604_1,39937.0,1.309562561,1.8260038241,523.0,0.0,0.0
RPB004_61,barcode02,Haemophilus parainfluenzae,NC_015964_1,2086875.0,0.0759508835,1.0,1585.0,0.0,0.0
RPB004_61,barcode02,Laceyella sacchari,NZ_CP025943_1,3374379.0,0.0397406456,1.0,1341.0,0.0,0.0
RPB004_61,barcode02,Moraxella osloensis,NZ_CP014234_1,2434688.0,0.1222743941,1.0,2977.0,0.0,0.0
RPB004_61,barcode02,Moraxella osloensis,NZ_CP014238_1,40342.0,0.0,0.0,0.0,0.0,0.0
RPB004_61,barcode02,Moraxella osloensis,NZ_CP014237_1,35189.0,0.0,0.0,0.0,0.0,0.0
RPB004_61,barcode02,Moraxella osloensis,NZ_CP014236_1,57463.0,0.0,0.0,0.0,0.0,0.0
RPB004_61,barcode02,Moraxella osloensis,NZ_CP014235_1,81455.0,0.0,0.0,0.0,0.0,0.0
RPB004_61,barcode02,Salmonella enterica,NC_003197_2,4857450.0,0.0715807677,1.0,3477.0,0.0,0.0
RPB004_61,barcode02,Salmonella enterica,NC_003277_2,93933.0,0.0,0.0,0.0,0.0,0.0
RPB004_61,barcode02,Shigella dysenteriae,NC_007606_1,4369232.0,0.1506443238,1.0,6582.0,0.0,0.0
RPB004_61,barcode02,Shigella dysenteriae,NC_009344_1,8953.0,0.0,0.0,0.0,0.0,0.0
RPB004_61,barcode02,Shigella dysenteriae,NC_007607_1,182726.0,0.0,0.0,0.0,0.0,0.0
RPB004_61,barcode02,Shigella flexneri,NC_004337_2,4607202.0,0.0618162607,1.0,2848.0,0.0,0.0
RPB004_61,barcode02,Shigella flexneri,NC_004851_1,221618.0,0.0,0.0,0.0,0.0,0.0
RPB004_61,barcode02,Staphylococcus epidermidis,NC_004461_1,2499279.0,0.1359992222,1.7749338041,3399.0,0.0,0.0
RPB004_61,barcode02,Staphylococcus epidermidis,NC_005008_1,4439.0,0.0,0.0,0.0,0.0,0.0
RPB004_61,barcode02,Staphylococcus epidermidis,NC_005007_1,4679.0,0.0,0.0,0.0,0.0,0.0
RPB004_61,barcode02,Staphylococcus epidermidis,NC_005006_1,8007.0,0.0,0.0,0.0,0.0,0.0
RPB004_61,barcode02,Staphylococcus epidermidis,NC_005005_1,17261.0,0.0,0.0,0.0,0.0,0.0
RPB004_61,barcode02,Staphylococcus epidermidis,NC_005004_1,24365.0,0.0,0.0,0.0,0.0,0.0
RPB004_61,barcode02,Staphylococcus epidermidis,NC_005003_1,6585.0,0.0,0.0,0.0,0.0,0.0
RPB004_61,barcode02,Streptococcus parasanguinis,NC_015678_1,2153652.0,0.0471292484,1.0,1015.0,0.0,0.0
RPB004_61,barcode05,Cutibacterium acnes,NC_006085_1,2560265.0,1.0157151701,1.2866371852,26005.0,0.0,0.0
RPB004_61,barcode05,Escherichia coli,NC_000913_3,4641652.0,3.6973474099,1.0980141943,171618.0,0.0,0.0
RPB004_61,barcode05,Escherichia virus ACGM12,NC_019404_1,46054.0,4.3492421939,1.0,2003.0,0.0,0.0
RPB004_61,barcode05,Escherichia virus Rtp,NC_007603_1,46219.0,0.8373179861,1.0,387.0,0.0,0.0
RPB004_61,barcode05,Mogibacterium diversum,NZ_CP027228_1,1815831.0,0.0734649866,1.0,1334.0,0.0,0.0
RPB004_61,barcode05,Moraxella osloensis,NZ_CP014234_1,2434688.0,0.2216711135,1.0,5397.0,0.0,0.0
RPB004_61,barcode05,Moraxella osloensis,NZ_CP014238_1,40342.0,0.0,0.0,0.0,0.0,0.0
RPB004_61,barcode05,Moraxella osloensis,NZ_CP014237_1,35189.0,0.0,0.0,0.0,0.0,0.0
RPB004_61,barcode05,Moraxella osloensis,NZ_CP014236_1,57463.0,0.0,0.0,0.0,0.0,0.0
RPB004_61,barcode05,Moraxella osloensis,NZ_CP014235_1,81455.0,0.0,0.0,0.0,0.0,0.0
RPB004_61,barcode05,Shigella flexneri,NC_004337_2,4607202.0,0.0772486207,1.0,3559.0,0.0,0.0
RPB004_61,barcode05,Shigella flexneri,NC_004851_1,221618.0,0.0,0.0,0.0,0.0,0.0
RPB004_61,barcode05,Streptococcus salivarius,NZ_CP009913_1,2188923.0,0.08392255,1.0,1837.0,0.0,0.0
RPB004_61,barcode05,Veillonella dispar,NZ_LR134375_1,2116915.0,0.0725111778,1.0,1535.0,0.0,0.0
RPB004_61,barcode10,Acinetobacter guillouiae,NZ_AP014630_1,4648418.0,0.0383786484,1.0,1784.0,0.0,0.0
RPB004_61,barcode10,Aeribacillus pallidus,NZ_CP017703_1,4089457.0,0.0176307026,1.0,721.0,0.0,0.0
RPB004_61,barcode10,Bacillus licheniformis,NC_006270_3,4222597.0,0.1286885772,1.0,5434.0,0.0,0.0
RPB004_61,barcode10,Cutibacterium acnes,NC_006085_1,2560265.0,0.1952922842,1.0,5000.0,0.0,0.0
RPB004_61,barcode10,Escherichia coli,NC_000913_3,4641652.0,4.5514829634,1.3221182975,211264.0,0.0,0.0
RPB004_61,barcode10,Kosakonia radicincitans,NZ_CP018016_1,5817639.0,0.0015126411,1.0,88.0,0.0,0.0
RPB004_61,barcode10,Kosakonia radicincitans,NZ_CP018017_1,290108.0,0.0,0.0,0.0,0.0,0.0
RPB004_61,barcode10,Kosakonia radicincitans,NZ_CP018018_1,14706.0,0.0,0.0,0.0,0.0,0.0
RPB004_61,barcode10,Shigella dysenteriae,NC_007606_1,4369232.0,0.0577675894,1.0,2524.0,0.0,0.0
RPB004_61,barcode10,Shigella dysenteriae,NC_009344_1,8953.0,0.0,0.0,0.0,0.0,0.0
RPB004_61,barcode10,Shigella dysenteriae,NC_007607_1,182726.0,0.0,0.0,0.0,0.0,0.0
RPB004_61,barcode10,Shigella flexneri,NC_004337_2,4607202.0,0.0903368248,1.0,4162.0,0.0,0.0
RPB004_61,barcode10,Shigella flexneri,NC_004851_1,221618.0,0.0,0.0,0.0,0.0,0.0
RPB004_61,barcode10,Streptococcus salivarius,NZ_CP009913_1,2188923.0,0.1060795652,1.0,2322.0,0.0,0.0
RPB004_61,unclassified,Escherichia coli,NC_000913_3,4641652.0,0.6646986892,1.0,30853.0,0.0,0.0
RPB004_61,unclassified,Escherichia virus ACGM12,NC_019404_1,46054.0,3.4502974769,1.0,1589.0,0.0,0.0
RPB004_61,unclassified,Methylovulum psychrotolerans,NZ_CP022129_1,4923400.0,0.0183206727,1.0,902.0,0.0,0.0
RPB004_61,unclassified,Streptococcus salivarius,NZ_CP009913_1,2188923.0,0.1547336293,1.0,3387.0,0.0,0.0
RPB004_61,unclassified,Veillonella dispar,NZ_LR134375_1,2116915.0,0.1091682944,1.0,2311.0,0.0,0.0
