sample,barcode,Species name,chrom,len,covBread_1x_percent,avCov,x1,x5,x10
redo_RPB004_54,barcode02,Escherichia coli,NC_000913_3,4641652.0,0.1920221507,1.0,8913.0,0.0,0.0
redo_RPB004_54,barcode06,Acinetobacter johnsonii,NZ_CP010350_1,3509795.0,0.0532224817,1.0,1868.0,0.0,0.0
redo_RPB004_54,barcode06,Acinetobacter johnsonii,NZ_CP010351_1,398857.0,0.0,0.0,0.0,0.0,0.0
redo_RPB004_54,barcode06,Acinetobacter johnsonii,NZ_CP010352_1,3978.0,0.0,0.0,0.0,0.0,0.0
redo_RPB004_54,barcode06,Acinetobacter johnsonii,NZ_CP010353_1,4724.0,0.0,0.0,0.0,0.0,0.0
redo_RPB004_54,barcode06,Acinetobacter johnsonii,NZ_CP010354_1,11643.0,0.0,0.0,0.0,0.0,0.0
redo_RPB004_54,barcode06,Acinetobacter johnsonii,NZ_CP010355_1,7579.0,0.0,0.0,0.0,0.0,0.0
redo_RPB004_54,barcode06,Acinetobacter johnsonii,NZ_CP010356_1,13940.0,0.0,0.0,0.0,0.0,0.0
redo_RPB004_54,barcode06,Acinetobacter johnsonii,NZ_CP010357_1,13330.0,0.0,0.0,0.0,0.0,0.0
redo_RPB004_54,barcode06,Acinetobacter johnsonii,NZ_CP010358_1,117483.0,0.0,0.0,0.0,0.0,0.0
redo_RPB004_54,barcode06,Cedecea neteri,NZ_CP009451_1,4876443.0,0.0559629222,1.0,2729.0,0.0,0.0
redo_RPB004_54,barcode06,Cutibacterium acnes,NC_006085_1,2560265.0,0.1265884586,1.0,3241.0,0.0,0.0
redo_RPB004_54,barcode06,Dickeya dadantii,NC_014500_1,4922802.0,0.0261436475,1.0,1287.0,0.0,0.0
redo_RPB004_54,barcode06,Escherichia albertii,NZ_CP007025_1,4701875.0,0.0596145155,1.0,2803.0,0.0,0.0
redo_RPB004_54,barcode06,Escherichia coli,NC_000913_3,4641652.0,4.3647175618,1.1781583948,202595.0,0.0,0.0
redo_RPB004_54,barcode06,Escherichia virus Mu,NC_000929_1,36717.0,5.3354032192,1.0,1959.0,0.0,0.0
redo_RPB004_54,barcode06,Halothece sp. PCC 7418,NC_019779_1,4179170.0,0.0285702663,1.0,1194.0,0.0,0.0
redo_RPB004_54,barcode06,Nostoc sp. CENA543,NZ_CP023278_1,6990729.0,0.0215142083,1.0,1504.0,0.0,0.0
redo_RPB004_54,barcode06,Nostoc sp. CENA543,NZ_CP023279_1,41078.0,0.0,0.0,0.0,0.0,0.0
redo_RPB004_54,barcode06,Nostoc sp. CENA543,NZ_CP023280_1,67080.0,0.0,0.0,0.0,0.0,0.0
redo_RPB004_54,barcode06,Nostoc sp. CENA543,NZ_CP023281_1,30523.0,0.0,0.0,0.0,0.0,0.0
redo_RPB004_54,barcode06,Nostoc sp. CENA543,NZ_CP023282_1,44065.0,0.0,0.0,0.0,0.0,0.0
redo_RPB004_54,barcode06,Nostoc sp. CENA543,NZ_CP023283_1,34165.0,0.0,0.0,0.0,0.0,0.0
redo_RPB004_54,barcode06,Shigella dysenteriae,NC_007606_1,4369232.0,0.3754206689,1.0,16403.0,0.0,0.0
redo_RPB004_54,barcode06,Shigella dysenteriae,NC_007607_1,182726.0,0.0,0.0,0.0,0.0,0.0
redo_RPB004_54,barcode06,Shigella dysenteriae,NC_009344_1,8953.0,0.0,0.0,0.0,0.0,0.0
redo_RPB004_54,barcode06,Shigella flexneri,NC_004337_2,4607202.0,0.0854748717,1.0,3938.0,0.0,0.0
redo_RPB004_54,barcode06,Shigella flexneri,NC_004851_1,221618.0,0.0,0.0,0.0,0.0,0.0
redo_RPB004_54,barcode07,Calothrix sp. PCC 7507,NC_019682_1,7023215.0,0.0294594427,1.0,2069.0,0.0,0.0
redo_RPB004_54,barcode07,Chroococcidiopsis thermalis,NC_019695_1,6315792.0,0.0323158204,1.0,2041.0,0.0,0.0
redo_RPB004_54,barcode07,Chroococcidiopsis thermalis,NC_019696_1,2779.0,0.0,0.0,0.0,0.0,0.0
redo_RPB004_54,barcode07,Chroococcidiopsis thermalis,NC_019699_1,370830.0,0.0,0.0,0.0,0.0,0.0
redo_RPB004_54,barcode07,Cutibacterium acnes,NC_006085_1,2560265.0,0.0516743384,1.0,1323.0,0.0,0.0
redo_RPB004_54,barcode07,Escherichia coli,NC_000913_3,4641652.0,0.5038292401,1.9639100316,23386.0,2252.0,0.0
redo_RPB004_54,barcode07,Gloeocapsa sp. PCC 7428,NC_019745_1,5431448.0,0.0338767857,1.0,1840.0,0.0,0.0
redo_RPB004_54,barcode07,Gloeocapsa sp. PCC 7428,NC_019746_1,204466.0,0.0,0.0,0.0,0.0,0.0
redo_RPB004_54,barcode07,Gloeocapsa sp. PCC 7428,NC_019747_1,14187.0,0.0,0.0,0.0,0.0,0.0
redo_RPB004_54,barcode07,Gloeocapsa sp. PCC 7428,NC_019759_1,30787.0,0.0,0.0,0.0,0.0,0.0
redo_RPB004_54,barcode07,Gloeocapsa sp. PCC 7428,NC_020051_1,201822.0,0.0,0.0,0.0,0.0,0.0
redo_RPB004_54,barcode07,Microcystis aeruginosa,NC_010296_1,5842795.0,0.0252447673,1.0,1475.0,0.0,0.0
redo_RPB004_54,barcode07,Nostoc sp. CENA543,NZ_CP023278_1,6990729.0,0.0283947497,1.0,1985.0,0.0,0.0
redo_RPB004_54,barcode07,Nostoc sp. CENA543,NZ_CP023279_1,41078.0,0.0,0.0,0.0,0.0,0.0
redo_RPB004_54,barcode07,Nostoc sp. CENA543,NZ_CP023280_1,67080.0,0.0,0.0,0.0,0.0,0.0
redo_RPB004_54,barcode07,Nostoc sp. CENA543,NZ_CP023281_1,30523.0,0.0,0.0,0.0,0.0,0.0
redo_RPB004_54,barcode07,Nostoc sp. CENA543,NZ_CP023282_1,44065.0,0.0,0.0,0.0,0.0,0.0
redo_RPB004_54,barcode07,Nostoc sp. CENA543,NZ_CP023283_1,34165.0,0.0,0.0,0.0,0.0,0.0
redo_RPB004_54,barcode07,Shigella flexneri,NC_004337_2,4607202.0,0.0606007724,1.0,2792.0,0.0,0.0
redo_RPB004_54,barcode07,Shigella flexneri,NC_004851_1,221618.0,0.0,0.0,0.0,0.0,0.0
redo_RPB004_54,barcode07,Synechococcus sp. PCC 6312,NC_019680_1,3697276.0,0.0519842176,1.0,1922.0,0.0,0.0
redo_RPB004_54,barcode07,Synechococcus sp. PCC 6312,NC_019681_1,23223.0,0.0,0.0,0.0,0.0,0.0
redo_RPB004_54,barcode08,Acinetobacter baumannii,NZ_CP009257_1,4335793.0,0.0133308947,1.776816609,578.0,0.0,0.0
redo_RPB004_54,barcode08,Aeromonas sp. ASNIH2,NZ_CP026406_1,4801408.0,0.01282957,1.0,616.0,0.0,0.0
redo_RPB004_54,barcode08,Aeromonas sp. ASNIH2,NZ_CP026407_1,13512.0,0.0,0.0,0.0,0.0,0.0
redo_RPB004_54,barcode08,Aeromonas sp. ASNIH2,NZ_CP026408_1,29979.0,0.0,0.0,0.0,0.0,0.0
redo_RPB004_54,barcode08,Aeromonas sp. ASNIH2,NZ_CP026409_1,8238.0,0.0,0.0,0.0,0.0,0.0
redo_RPB004_54,barcode08,Aeromonas sp. ASNIH2,NZ_CP026410_1,6782.0,0.0,0.0,0.0,0.0,0.0
redo_RPB004_54,barcode08,Aeromonas sp. ASNIH2,NZ_CP026411_1,4613.0,0.0,0.0,0.0,0.0,0.0
redo_RPB004_54,barcode08,Candidatus Hoaglandella endobia,NZ_LN999835_1,628221.0,0.0238769478,1.0,150.0,0.0,0.0
redo_RPB004_54,barcode08,Candidatus Hoaglandella endobia,NZ_LN999836_1,3244.0,0.0,0.0,0.0,0.0,0.0
redo_RPB004_54,barcode08,Candidatus Hoaglandella endobia,NZ_LN999837_1,5248.0,0.0,0.0,0.0,0.0,0.0
redo_RPB004_54,barcode08,Citrobacter amalonaticus,NZ_CP011132_1,5584358.0,0.1074787827,1.0,6002.0,0.0,0.0
redo_RPB004_54,barcode08,Citrobacter amalonaticus,NZ_CP011133_1,290993.0,0.0,0.0,0.0,0.0,0.0
redo_RPB004_54,barcode08,Citrobacter farmeri,NZ_CP022695_1,5130228.0,0.1447304096,1.4884848485,7425.0,0.0,0.0
redo_RPB004_54,barcode08,Citrobacter farmeri,NZ_CP022696_1,328945.0,0.0,0.0,0.0,0.0,0.0
redo_RPB004_54,barcode08,Citrobacter farmeri,NZ_CP022697_1,149207.0,0.0,0.0,0.0,0.0,0.0
redo_RPB004_54,barcode08,Citrobacter farmeri,NZ_CP022698_1,107249.0,0.0,0.0,0.0,0.0,0.0
redo_RPB004_54,barcode08,Citrobacter freundii complex sp. CFNIH3,NZ_CP026235_1,5334524.0,0.0397786194,1.0,2122.0,0.0,0.0
redo_RPB004_54,barcode08,Citrobacter freundii complex sp. CFNIH3,NZ_CP026236_1,65291.0,0.0,0.0,0.0,0.0,0.0
redo_RPB004_54,barcode08,Citrobacter freundii complex sp. CFNIH3,NZ_CP026237_1,235027.0,0.0,0.0,0.0,0.0,0.0
redo_RPB004_54,barcode08,Citrobacter koseri,NC_009792_1,4720462.0,0.141490388,1.0,6679.0,0.0,0.0
redo_RPB004_54,barcode08,Citrobacter koseri,NC_009793_1,9294.0,0.0,0.0,0.0,0.0,0.0
redo_RPB004_54,barcode08,Citrobacter koseri,NC_009794_1,5601.0,0.0,0.0,0.0,0.0,0.0
redo_RPB004_54,barcode08,Citrobacter rodentium,NC_013716_1,5346659.0,0.0239962938,1.0,1283.0,0.0,0.0
redo_RPB004_54,barcode08,Citrobacter rodentium,NC_013717_1,54449.0,0.0,0.0,0.0,0.0,0.0
redo_RPB004_54,barcode08,Citrobacter rodentium,NC_013718_1,39265.0,0.0,0.0,0.0,0.0,0.0
redo_RPB004_54,barcode08,Citrobacter rodentium,NC_013719_1,3910.0,0.0,0.0,0.0,0.0,0.0
redo_RPB004_54,barcode08,Cronobacter sakazakii,NZ_CP011047_1,4511265.0,0.0791130647,1.0,3569.0,0.0,0.0
redo_RPB004_54,barcode08,Cronobacter sakazakii,NZ_CP011048_1,93905.0,0.0,0.0,0.0,0.0,0.0
redo_RPB004_54,barcode08,Cronobacter sakazakii,NZ_CP011049_1,4938.0,0.0,0.0,0.0,0.0,0.0
redo_RPB004_54,barcode08,Cronobacter sakazakii,NZ_CP011050_1,53457.0,0.0,0.0,0.0,0.0,0.0
redo_RPB004_54,barcode08,Cronobacter turicensis,NC_013282_2,4384463.0,0.1238464095,1.0,5430.0,0.0,0.0
redo_RPB004_54,barcode08,Cronobacter turicensis,NC_013283_1,138339.0,0.0,0.0,0.0,0.0,0.0
redo_RPB004_54,barcode08,Cronobacter turicensis,NC_013284_1,22448.0,0.0,0.0,0.0,0.0,0.0
redo_RPB004_54,barcode08,Cronobacter turicensis,NC_013285_1,53842.0,0.0,0.0,0.0,0.0,0.0
redo_RPB004_54,barcode08,Cutibacterium acnes,NC_006085_1,2560265.0,0.3912485622,45.3145652391,10017.0,10006.0,10006.0
redo_RPB004_54,barcode08,Dickeya zeae,NC_013592_1,4818394.0,0.0741325844,1.0,3572.0,0.0,0.0
redo_RPB004_54,barcode08,Edwardsiella ictaluri,NC_012779_2,3812301.0,0.0639771099,1.0,2439.0,0.0,0.0
redo_RPB004_54,barcode08,Enterobacter asburiae,NC_015963_1,166725.0,0.0,0.0,0.0,0.0,0.0
redo_RPB004_54,barcode08,Enterobacter asburiae,NC_015968_1,4812833.0,0.0499913461,1.0,2406.0,0.0,0.0
redo_RPB004_54,barcode08,Enterobacter asburiae,NC_015969_1,32574.0,0.0,0.0,0.0,0.0,0.0
redo_RPB004_54,barcode08,Enterobacter kobei,NZ_CP017181_1,4880257.0,0.0426002155,1.0,2079.0,0.0,0.0
redo_RPB004_54,barcode08,Enterobacter kobei,NZ_CP017182_1,47221.0,0.0,0.0,0.0,0.0,0.0
redo_RPB004_54,barcode08,Enterobacter roggenkampii,NZ_CP017184_1,4748414.0,0.1440059776,1.0,6838.0,0.0,0.0
redo_RPB004_54,barcode08,Enterobacter roggenkampii,NZ_CP017185_1,151583.0,0.0,0.0,0.0,0.0,0.0
redo_RPB004_54,barcode08,Enterobacter sp. 638,NC_009425_1,157749.0,0.0,0.0,0.0,0.0,0.0
redo_RPB004_54,barcode08,Enterobacter sp. 638,NC_009436_1,4518712.0,0.0486200493,1.0,2197.0,0.0,0.0
redo_RPB004_54,barcode08,Enterobacter sp. SA187,NZ_CP019113_1,4429597.0,0.1355879553,1.0,6006.0,0.0,0.0
redo_RPB004_54,barcode08,Erwinia amylovora,NC_013957_1,28259.0,0.0,0.0,0.0,0.0,0.0
redo_RPB004_54,barcode08,Erwinia amylovora,NC_013961_1,3805573.0,0.1002477157,1.0,3815.0,0.0,0.0
redo_RPB004_54,barcode08,Erwinia pyrifoliae,NC_012214_1,4026322.0,0.0483567882,1.0,1947.0,0.0,0.0
redo_RPB004_54,barcode08,Erwinia pyrifoliae,NC_013263_1,35909.0,0.0,0.0,0.0,0.0,0.0
redo_RPB004_54,barcode08,Erwinia pyrifoliae,NC_013264_1,3070.0,0.0,0.0,0.0,0.0,0.0
redo_RPB004_54,barcode08,Erwinia pyrifoliae,NC_013265_1,4955.0,0.0,0.0,0.0,0.0,0.0
redo_RPB004_54,barcode08,Erwinia pyrifoliae,NC_013954_1,2590.0,0.0,0.0,0.0,0.0,0.0
redo_RPB004_54,barcode08,Escherichia albertii,NZ_CP007025_1,4701875.0,1.7100624751,1.3869286736,80405.0,0.0,0.0
redo_RPB004_54,barcode08,Escherichia coli,NC_000913_3,4641652.0,28.9411399217,14.8527662622,1343347.0,930912.0,650623.0
redo_RPB004_54,barcode08,Escherichia fergusonii,NC_011740_1,4588711.0,1.4276340349,1.2280262555,65510.0,0.0,0.0
redo_RPB004_54,barcode08,Escherichia fergusonii,NC_011743_1,55150.0,0.0,0.0,0.0,0.0,0.0
redo_RPB004_54,barcode08,Escherichia marmotae,NZ_CP025979_1,4671322.0,0.5171983434,1.2599337748,24160.0,1104.0,0.0
redo_RPB004_54,barcode08,Escherichia marmotae,NZ_CP025980_1,148809.0,0.0,0.0,0.0,0.0,0.0
redo_RPB004_54,barcode08,Escherichia marmotae,NZ_CP025981_1,76160.0,0.0,0.0,0.0,0.0,0.0
redo_RPB004_54,barcode08,Escherichia phage D108,NC_013594_1,37235.0,4.6354236605,1.1552723059,1726.0,0.0,0.0
redo_RPB004_54,barcode08,Escherichia virus Mu,NC_000929_1,36717.0,5.4552387178,10.9006490265,2003.0,2002.0,1606.0
redo_RPB004_54,barcode08,Escherichia virus P1,NC_005856_1,94800.0,0.7742616034,1.0,734.0,0.0,0.0
redo_RPB004_54,barcode08,Escherichia virus T7,NC_001604_1,39937.0,0.225354934,2.8444444444,90.0,0.0,0.0
redo_RPB004_54,barcode08,Klebsiella aerogenes,NC_015663_1,5280350.0,0.2167280578,1.0,11444.0,0.0,0.0
redo_RPB004_54,barcode08,Klebsiella michiganensis,NC_016612_1,5974109.0,0.0740863617,1.934478084,4426.0,0.0,0.0
redo_RPB004_54,barcode08,Klebsiella oxytoca,NZ_CP011625_1,1919.0,0.0,0.0,0.0,0.0,0.0
redo_RPB004_54,barcode08,Klebsiella oxytoca,NZ_CP011626_1,6538.0,0.0,0.0,0.0,0.0,0.0
redo_RPB004_54,barcode08,Klebsiella oxytoca,NZ_CP011627_1,14274.0,0.0,0.0,0.0,0.0,0.0
redo_RPB004_54,barcode08,Klebsiella oxytoca,NZ_CP011628_1,16069.0,0.0,0.0,0.0,0.0,0.0
redo_RPB004_54,barcode08,Klebsiella oxytoca,NZ_CP011629_1,33610.0,0.0,0.0,0.0,0.0,0.0
redo_RPB004_54,barcode08,Klebsiella oxytoca,NZ_CP011630_1,49200.0,0.0,0.0,0.0,0.0,0.0
redo_RPB004_54,barcode08,Klebsiella oxytoca,NZ_CP011631_1,53596.0,0.0,0.0,0.0,0.0,0.0
redo_RPB004_54,barcode08,Klebsiella oxytoca,NZ_CP011632_1,83652.0,0.0,0.0,0.0,0.0,0.0
redo_RPB004_54,barcode08,Klebsiella oxytoca,NZ_CP011633_1,150318.0,0.0,0.0,0.0,0.0,0.0
redo_RPB004_54,barcode08,Klebsiella oxytoca,NZ_CP011634_1,227680.0,0.0,0.0,0.0,0.0,0.0
redo_RPB004_54,barcode08,Klebsiella oxytoca,NZ_CP011635_1,332956.0,0.0,0.0,0.0,0.0,0.0
redo_RPB004_54,barcode08,Klebsiella oxytoca,NZ_CP011636_1,6257473.0,0.0188734334,1.0,1181.0,0.0,0.0
redo_RPB004_54,barcode08,Klebsiella pneumoniae,NC_016838_1,122799.0,0.0,0.0,0.0,0.0,0.0
redo_RPB004_54,barcode08,Klebsiella pneumoniae,NC_016839_1,105974.0,0.9172061072,1.0,972.0,0.0,0.0
redo_RPB004_54,barcode08,Klebsiella pneumoniae,NC_016840_1,3751.0,0.0,0.0,0.0,0.0,0.0
redo_RPB004_54,barcode08,Klebsiella pneumoniae,NC_016841_1,1308.0,0.0,0.0,0.0,0.0,0.0
redo_RPB004_54,barcode08,Klebsiella pneumoniae,NC_016845_1,5333942.0,0.0992136772,4.6740362812,5292.0,3845.0,0.0
redo_RPB004_54,barcode08,Klebsiella pneumoniae,NC_016846_1,111195.0,0.0,0.0,0.0,0.0,0.0
redo_RPB004_54,barcode08,Klebsiella pneumoniae,NC_016847_1,3353.0,9.4243960632,1.0,316.0,0.0,0.0
redo_RPB004_54,barcode08,Kosakonia cowanii,NZ_CP019445_1,4646998.0,0.109274848,1.0,5078.0,0.0,0.0
redo_RPB004_54,barcode08,Kosakonia cowanii,NZ_CP019446_1,113443.0,0.0,0.0,0.0,0.0,0.0
redo_RPB004_54,barcode08,Kosakonia cowanii,NZ_CP019447_1,96883.0,0.0,0.0,0.0,0.0,0.0
redo_RPB004_54,barcode08,Kosakonia radicincitans,NZ_CP018016_1,5817639.0,0.0066521831,1.0,387.0,0.0,0.0
redo_RPB004_54,barcode08,Kosakonia radicincitans,NZ_CP018017_1,290108.0,0.0,0.0,0.0,0.0,0.0
redo_RPB004_54,barcode08,Kosakonia radicincitans,NZ_CP018018_1,14706.0,0.0,0.0,0.0,0.0,0.0
redo_RPB004_54,barcode08,Kosakonia sacchari,NZ_CP007215_2,4902027.0,0.0380862855,1.0,1867.0,0.0,0.0
redo_RPB004_54,barcode08,Leclercia adecarboxylata,NZ_CP013990_1,4803917.0,0.2036254998,1.0,9782.0,0.0,0.0
redo_RPB004_54,barcode08,Leclercia sp. LSNIH1,NZ_CP026167_1,4832521.0,0.0699427897,1.0,3380.0,0.0,0.0
redo_RPB004_54,barcode08,Leclercia sp. LSNIH1,NZ_CP026168_1,50622.0,0.0,0.0,0.0,0.0,0.0
redo_RPB004_54,barcode08,Leclercia sp. LSNIH1,NZ_CP026169_1,58627.0,0.0,0.0,0.0,0.0,0.0
redo_RPB004_54,barcode08,Leclercia sp. LSNIH1,NZ_CP026170_1,128920.0,0.0,0.0,0.0,0.0,0.0
redo_RPB004_54,barcode08,Leclercia sp. LSNIH1,NZ_CP026171_1,341250.0,0.0,0.0,0.0,0.0,0.0
redo_RPB004_54,barcode08,Magnetospirillum magneticum,NC_007626_1,4967148.0,0.0055162439,1.0,274.0,0.0,0.0
redo_RPB004_54,barcode08,Morganella morganii,NC_020418_1,3799539.0,0.1093290528,1.0,4154.0,0.0,0.0
redo_RPB004_54,barcode08,Oceanisphaera profunda,NZ_CP021377_1,3508860.0,0.0463113376,1.0,1625.0,0.0,0.0
redo_RPB004_54,barcode08,Pectobacterium carotovorum,NC_012917_1,4862913.0,0.0556250955,1.0,2705.0,0.0,0.0
redo_RPB004_54,barcode08,Pluralibacter gergoviae,NZ_CP009450_1,5489680.0,0.0487095787,1.0,2674.0,0.0,0.0
redo_RPB004_54,barcode08,Pseudoxanthomonas suwonensis,NC_014924_1,3419049.0,0.0472646049,1.0,1616.0,0.0,0.0
redo_RPB004_54,barcode08,Raoultella electrica,NZ_CP041247_1,5266426.0,0.0607622703,1.0,3200.0,0.0,0.0
redo_RPB004_54,barcode08,Raoultella electrica,NZ_CP041248_1,303830.0,0.0,0.0,0.0,0.0,0.0
redo_RPB004_54,barcode08,Raoultella electrica,NZ_CP041249_1,92370.0,0.0,0.0,0.0,0.0,0.0
redo_RPB004_54,barcode08,Raoultella electrica,NZ_CP041250_1,83988.0,0.0,0.0,0.0,0.0,0.0
redo_RPB004_54,barcode08,Raoultella electrica,NZ_CP041251_1,35253.0,0.0,0.0,0.0,0.0,0.0
redo_RPB004_54,barcode08,Raoultella electrica,NZ_CP041252_1,3336.0,0.0,0.0,0.0,0.0,0.0
redo_RPB004_54,barcode08,Salmonella bongori,NC_015761_1,4460105.0,0.0344610721,1.0,1537.0,0.0,0.0
redo_RPB004_54,barcode08,Salmonella enterica,NC_003197_2,4857450.0,0.4055625894,1.3996446701,19700.0,0.0,0.0
redo_RPB004_54,barcode08,Salmonella enterica,NC_003277_2,93933.0,0.0,0.0,0.0,0.0,0.0
redo_RPB004_54,barcode08,Shigella dysenteriae,NC_007606_1,4369232.0,5.8459015223,1.8412307524,255421.0,17837.0,0.0
redo_RPB004_54,barcode08,Shigella dysenteriae,NC_007607_1,182726.0,0.665477272,1.0,1216.0,0.0,0.0
redo_RPB004_54,barcode08,Shigella dysenteriae,NC_009344_1,8953.0,0.0,0.0,0.0,0.0,0.0
redo_RPB004_54,barcode08,Shigella flexneri,NC_004337_2,4607202.0,4.7155518686,1.5243561713,217255.0,5288.0,0.0
redo_RPB004_54,barcode08,Shigella flexneri,NC_004851_1,221618.0,0.0,0.0,0.0,0.0,0.0
redo_RPB004_54,barcode08,Shigella virus SfMu,NC_027382_1,37146.0,4.8538200614,2.941209096,1803.0,0.0,0.0
redo_RPB004_54,barcode08,Staphylococcus capitis,NZ_CP007601_1,2443604.0,2.9791652003,15.3731232572,72799.0,44204.0,24163.0
redo_RPB004_54,barcode08,Staphylococcus capitis,NZ_CP007602_1,59661.0,0.0,0.0,0.0,0.0,0.0
redo_RPB004_54,barcode08,Staphylococcus cohnii,NZ_CP027419_1,32058.0,0.5115727743,1.9268292683,164.0,0.0,0.0
redo_RPB004_54,barcode08,Staphylococcus cohnii,NZ_CP027420_1,36910.0,0.0,0.0,0.0,0.0,0.0
redo_RPB004_54,barcode08,Staphylococcus cohnii,NZ_CP027421_1,29852.0,5.2425298137,1.0,1565.0,0.0,0.0
redo_RPB004_54,barcode08,Staphylococcus cohnii,NZ_CP027422_1,2557319.0,0.0131778632,1.9258160237,337.0,0.0,0.0
redo_RPB004_54,barcode08,Staphylococcus cohnii,NZ_CP027423_1,2670.0,0.0,0.0,0.0,0.0,0.0
redo_RPB004_54,barcode08,Staphylococcus cohnii,NZ_CP027424_1,2473.0,0.0,0.0,0.0,0.0,0.0
redo_RPB004_54,barcode08,Staphylococcus epidermidis,NC_004461_1,2499279.0,0.0640584745,8.1011867583,1601.0,1412.0,735.0
redo_RPB004_54,barcode08,Staphylococcus epidermidis,NC_005003_1,6585.0,0.0,0.0,0.0,0.0,0.0
redo_RPB004_54,barcode08,Staphylococcus epidermidis,NC_005004_1,24365.0,0.0,0.0,0.0,0.0,0.0
redo_RPB004_54,barcode08,Staphylococcus epidermidis,NC_005005_1,17261.0,0.5677538961,1.0,98.0,0.0,0.0
redo_RPB004_54,barcode08,Staphylococcus epidermidis,NC_005006_1,8007.0,0.0,0.0,0.0,0.0,0.0
redo_RPB004_54,barcode08,Staphylococcus epidermidis,NC_005007_1,4679.0,3.5477666168,6.7108433735,166.0,164.0,0.0
redo_RPB004_54,barcode08,Staphylococcus epidermidis,NC_005008_1,4439.0,0.0,0.0,0.0,0.0,0.0
redo_RPB004_54,barcode08,Staphylococcus haemolyticus,NC_007168_1,2685015.0,0.1331836135,8.3708053691,3576.0,2028.0,1713.0
redo_RPB004_54,barcode08,Staphylococcus haemolyticus,NC_007169_1,2300.0,0.0,0.0,0.0,0.0,0.0
redo_RPB004_54,barcode08,Staphylococcus haemolyticus,NC_007170_1,2366.0,0.0,0.0,0.0,0.0,0.0
redo_RPB004_54,barcode08,Staphylococcus haemolyticus,NC_007171_1,8180.0,0.0,0.0,0.0,0.0,0.0
redo_RPB004_54,barcode08,Staphylococcus phage StB20,NC_019915_1,40917.0,11.5990908424,19.5381373788,4746.0,3705.0,3683.0
redo_RPB004_54,barcode08,Vibrio fluvialis,NZ_CP014034_2,1671895.0,0.0,0.0,0.0,0.0,0.0
redo_RPB004_54,barcode08,Vibrio fluvialis,NZ_CP014035_2,3155838.0,0.0102666867,1.0,324.0,0.0,0.0
redo_RPB004_54,barcode08,Yersinia ruckeri,NZ_CP011078_1,3699725.0,0.0398948571,1.0,1476.0,0.0,0.0
redo_RPB004_54,barcode08,[Enterobacter] lignolyticus,NC_014618_1,4814049.0,0.0310549394,1.0,1495.0,0.0,0.0
redo_RPB004_54,barcode09,Acinetobacter johnsonii,NZ_CP010350_1,3509795.0,0.1615478967,1.0,5670.0,0.0,0.0
redo_RPB004_54,barcode09,Acinetobacter johnsonii,NZ_CP010351_1,398857.0,0.0561604786,1.0,224.0,0.0,0.0
redo_RPB004_54,barcode09,Acinetobacter johnsonii,NZ_CP010352_1,3978.0,0.0,0.0,0.0,0.0,0.0
redo_RPB004_54,barcode09,Acinetobacter johnsonii,NZ_CP010353_1,4724.0,0.0,0.0,0.0,0.0,0.0
redo_RPB004_54,barcode09,Acinetobacter johnsonii,NZ_CP010354_1,11643.0,0.0,0.0,0.0,0.0,0.0
redo_RPB004_54,barcode09,Acinetobacter johnsonii,NZ_CP010355_1,7579.0,0.0,0.0,0.0,0.0,0.0
redo_RPB004_54,barcode09,Acinetobacter johnsonii,NZ_CP010356_1,13940.0,0.0,0.0,0.0,0.0,0.0
redo_RPB004_54,barcode09,Acinetobacter johnsonii,NZ_CP010357_1,13330.0,0.0,0.0,0.0,0.0,0.0
redo_RPB004_54,barcode09,Acinetobacter johnsonii,NZ_CP010358_1,117483.0,0.0,0.0,0.0,0.0,0.0
redo_RPB004_54,barcode09,Cronobacter sakazakii,NZ_CP011047_1,4511265.0,0.0255582414,1.0,1153.0,0.0,0.0
redo_RPB004_54,barcode09,Cronobacter sakazakii,NZ_CP011048_1,93905.0,0.0,0.0,0.0,0.0,0.0
redo_RPB004_54,barcode09,Cronobacter sakazakii,NZ_CP011049_1,4938.0,0.0,0.0,0.0,0.0,0.0
redo_RPB004_54,barcode09,Cronobacter sakazakii,NZ_CP011050_1,53457.0,0.0,0.0,0.0,0.0,0.0
redo_RPB004_54,barcode09,Cutibacterium acnes,NC_006085_1,2560265.0,0.6130615386,2.2645897044,15696.0,0.0,0.0
redo_RPB004_54,barcode09,Enterobacter cancerogenus,NZ_CP025225_1,4796512.0,0.0326904217,1.0,1568.0,0.0,0.0
redo_RPB004_54,barcode09,Enterobacter soli,NC_015963_1,166725.0,0.0,0.0,0.0,0.0,0.0
redo_RPB004_54,barcode09,Enterobacter soli,NC_015968_1,4812833.0,0.0648890165,1.0,3123.0,0.0,0.0
redo_RPB004_54,barcode09,Enterobacter soli,NC_015969_1,32574.0,0.0,0.0,0.0,0.0,0.0
redo_RPB004_54,barcode09,Enterobacteriaceae bacterium ENNIH3,NZ_CP026197_1,5904433.0,0.0407321076,1.0,2405.0,0.0,0.0
redo_RPB004_54,barcode09,Enterobacteriaceae bacterium ENNIH3,NZ_CP026198_1,174695.0,0.0,0.0,0.0,0.0,0.0
redo_RPB004_54,barcode09,Escherichia albertii,NZ_CP007025_1,4701875.0,0.258939253,1.0,12175.0,0.0,0.0
redo_RPB004_54,barcode09,Escherichia coli,NC_000913_3,4641652.0,14.3432122873,2.6191056263,665762.0,111070.0,5210.0
redo_RPB004_54,barcode09,Escherichia fergusonii,NC_011740_1,4588711.0,0.1012920622,1.0,4648.0,0.0,0.0
redo_RPB004_54,barcode09,Escherichia fergusonii,NC_011743_1,55150.0,0.0,0.0,0.0,0.0,0.0
redo_RPB004_54,barcode09,Escherichia marmotae,NZ_CP025979_1,4671322.0,0.0569217879,1.0,2659.0,0.0,0.0
redo_RPB004_54,barcode09,Escherichia marmotae,NZ_CP025980_1,148809.0,0.0,0.0,0.0,0.0,0.0
redo_RPB004_54,barcode09,Escherichia marmotae,NZ_CP025981_1,76160.0,0.0,0.0,0.0,0.0,0.0
redo_RPB004_54,barcode09,Escherichia virus Mu,NC_000929_1,36717.0,5.3108914127,1.0,1950.0,0.0,0.0
redo_RPB004_54,barcode09,Haematobacter massiliensis,NZ_CP035506_1,118868.0,0.0,0.0,0.0,0.0,0.0
redo_RPB004_54,barcode09,Haematobacter massiliensis,NZ_CP035507_1,103683.0,0.0,0.0,0.0,0.0,0.0
redo_RPB004_54,barcode09,Haematobacter massiliensis,NZ_CP035508_1,83590.0,0.0,0.0,0.0,0.0,0.0
redo_RPB004_54,barcode09,Haematobacter massiliensis,NZ_CP035509_1,54639.0,0.0,0.0,0.0,0.0,0.0
redo_RPB004_54,barcode09,Haematobacter massiliensis,NZ_CP035510_1,2467987.0,0.1527965909,1.9358260408,3771.0,0.0,0.0
redo_RPB004_54,barcode09,Haematobacter massiliensis,NZ_CP035511_1,398426.0,0.0,0.0,0.0,0.0,0.0
redo_RPB004_54,barcode09,Haematobacter massiliensis,NZ_CP035512_1,349143.0,0.0,0.0,0.0,0.0,0.0
redo_RPB004_54,barcode09,Haematobacter massiliensis,NZ_CP035513_1,285811.0,0.0,0.0,0.0,0.0,0.0
redo_RPB004_54,barcode09,Haematobacter massiliensis,NZ_CP035514_1,187343.0,0.0,0.0,0.0,0.0,0.0
redo_RPB004_54,barcode09,Haematobacter massiliensis,NZ_CP035515_1,183422.0,0.0,0.0,0.0,0.0,0.0
redo_RPB004_54,barcode09,Klebsiella pneumoniae,NC_016838_1,122799.0,0.0,0.0,0.0,0.0,0.0
redo_RPB004_54,barcode09,Klebsiella pneumoniae,NC_016839_1,105974.0,0.0,0.0,0.0,0.0,0.0
redo_RPB004_54,barcode09,Klebsiella pneumoniae,NC_016840_1,3751.0,0.0,0.0,0.0,0.0,0.0
redo_RPB004_54,barcode09,Klebsiella pneumoniae,NC_016841_1,1308.0,0.0,0.0,0.0,0.0,0.0
redo_RPB004_54,barcode09,Klebsiella pneumoniae,NC_016845_1,5333942.0,0.1477143921,1.0,7879.0,0.0,0.0
redo_RPB004_54,barcode09,Klebsiella pneumoniae,NC_016846_1,111195.0,0.0,0.0,0.0,0.0,0.0
redo_RPB004_54,barcode09,Klebsiella pneumoniae,NC_016847_1,3353.0,11.5419027736,1.0,387.0,0.0,0.0
redo_RPB004_54,barcode09,Moraxella osloensis,NZ_CP014234_1,2434688.0,0.1067077178,1.0,2598.0,0.0,0.0
redo_RPB004_54,barcode09,Moraxella osloensis,NZ_CP014235_1,81455.0,0.0,0.0,0.0,0.0,0.0
redo_RPB004_54,barcode09,Moraxella osloensis,NZ_CP014236_1,57463.0,0.0,0.0,0.0,0.0,0.0
redo_RPB004_54,barcode09,Moraxella osloensis,NZ_CP014237_1,35189.0,0.0,0.0,0.0,0.0,0.0
redo_RPB004_54,barcode09,Moraxella osloensis,NZ_CP014238_1,40342.0,0.0,0.0,0.0,0.0,0.0
redo_RPB004_54,barcode09,Paracoccus yeei,NZ_CP020440_2,227674.0,0.0,0.0,0.0,0.0,0.0
redo_RPB004_54,barcode09,Paracoccus yeei,NZ_CP020441_2,295841.0,0.0,0.0,0.0,0.0,0.0
redo_RPB004_54,barcode09,Paracoccus yeei,NZ_CP020442_2,3622127.0,0.0,0.0,0.0,0.0,0.0
redo_RPB004_54,barcode09,Paracoccus yeei,NZ_CP020443_2,130273.0,0.0,0.0,0.0,0.0,0.0
redo_RPB004_54,barcode09,Paracoccus yeei,NZ_CP020444_2,188526.0,0.05198222,1.9591836735,98.0,0.0,0.0
redo_RPB004_54,barcode09,Paracoccus yeei,NZ_CP020445_2,174165.0,0.0,0.0,0.0,0.0,0.0
redo_RPB004_54,barcode09,Paracoccus yeei,NZ_CP020446_2,42744.0,0.0,0.0,0.0,0.0,0.0
redo_RPB004_54,barcode09,Paracoccus yeei,NZ_CP020447_2,148257.0,0.0,0.0,0.0,0.0,0.0
redo_RPB004_54,barcode09,Pseudomonas sp. TKP,NC_023064_1,7012672.0,0.0547437553,1.9369627507,3839.0,0.0,0.0
redo_RPB004_54,barcode09,Salmonella enterica,NC_003197_2,4857450.0,0.1946906299,1.0,9457.0,0.0,0.0
redo_RPB004_54,barcode09,Salmonella enterica,NC_003277_2,93933.0,0.0,0.0,0.0,0.0,0.0
redo_RPB004_54,barcode09,Shigella dysenteriae,NC_007606_1,4369232.0,0.6167903192,1.0,26949.0,0.0,0.0
redo_RPB004_54,barcode09,Shigella dysenteriae,NC_007607_1,182726.0,0.0,0.0,0.0,0.0,0.0
redo_RPB004_54,barcode09,Shigella dysenteriae,NC_009344_1,8953.0,0.0,0.0,0.0,0.0,0.0
redo_RPB004_54,barcode09,Shigella flexneri,NC_004337_2,4607202.0,0.6999258986,1.0,32247.0,0.0,0.0
redo_RPB004_54,barcode09,Shigella flexneri,NC_004851_1,221618.0,0.0,0.0,0.0,0.0,0.0
redo_RPB004_54,barcode09,Shigella virus SfMu,NC_027382_1,37146.0,0.3068971087,1.0,114.0,0.0,0.0
redo_RPB004_54,barcode09,Sodalis praecaptivus,NZ_CP006569_1,4709528.0,0.0862506816,1.0,4062.0,0.0,0.0
redo_RPB004_54,barcode09,Sodalis praecaptivus,NZ_CP006570_1,449897.0,0.0,0.0,0.0,0.0,0.0
redo_RPB004_54,barcode09,Staphylococcus aureus,NC_007795_1,2821361.0,0.1097697175,1.0,3097.0,0.0,0.0
redo_RPB004_54,barcode09,Staphylococcus capitis,NZ_CP007601_1,2443604.0,34.4112221129,3.6513544241,840874.0,227125.0,40392.0
redo_RPB004_54,barcode09,Staphylococcus capitis,NZ_CP007602_1,59661.0,0.0,0.0,0.0,0.0,0.0
redo_RPB004_54,barcode09,Staphylococcus cohnii,NZ_CP027419_1,32058.0,0.4679019278,1.0,150.0,0.0,0.0
redo_RPB004_54,barcode09,Staphylococcus cohnii,NZ_CP027420_1,36910.0,0.0,0.0,0.0,0.0,0.0
redo_RPB004_54,barcode09,Staphylococcus cohnii,NZ_CP027421_1,29852.0,0.0,0.0,0.0,0.0,0.0
redo_RPB004_54,barcode09,Staphylococcus cohnii,NZ_CP027422_1,2557319.0,0.0,0.0,0.0,0.0,0.0
redo_RPB004_54,barcode09,Staphylococcus cohnii,NZ_CP027423_1,2670.0,0.0,0.0,0.0,0.0,0.0
redo_RPB004_54,barcode09,Staphylococcus cohnii,NZ_CP027424_1,2473.0,0.0,0.0,0.0,0.0,0.0
redo_RPB004_54,barcode09,Staphylococcus epidermidis,NC_004461_1,2499279.0,0.3611041424,1.431800554,9025.0,0.0,0.0
redo_RPB004_54,barcode09,Staphylococcus epidermidis,NC_005003_1,6585.0,0.0,0.0,0.0,0.0,0.0
redo_RPB004_54,barcode09,Staphylococcus epidermidis,NC_005004_1,24365.0,9.045762364,1.0,2204.0,0.0,0.0
redo_RPB004_54,barcode09,Staphylococcus epidermidis,NC_005005_1,17261.0,8.3772666705,1.0,1446.0,0.0,0.0
redo_RPB004_54,barcode09,Staphylococcus epidermidis,NC_005006_1,8007.0,0.0,0.0,0.0,0.0,0.0
redo_RPB004_54,barcode09,Staphylococcus epidermidis,NC_005007_1,4679.0,0.0,0.0,0.0,0.0,0.0
redo_RPB004_54,barcode09,Staphylococcus epidermidis,NC_005008_1,4439.0,0.0,0.0,0.0,0.0,0.0
redo_RPB004_54,barcode09,Staphylococcus haemolyticus,NC_007168_1,2685015.0,0.2348217794,2.2585249802,6305.0,0.0,0.0
redo_RPB004_54,barcode09,Staphylococcus haemolyticus,NC_007169_1,2300.0,0.0,0.0,0.0,0.0,0.0
redo_RPB004_54,barcode09,Staphylococcus haemolyticus,NC_007170_1,2366.0,0.0,0.0,0.0,0.0,0.0
redo_RPB004_54,barcode09,Staphylococcus haemolyticus,NC_007171_1,8180.0,0.0,0.0,0.0,0.0,0.0
redo_RPB004_54,barcode09,Staphylococcus phage StB20,NC_019915_1,40917.0,30.3248038713,3.406108962,12408.0,3685.0,0.0
redo_RPB004_54,barcode09,Yersinia pestis,NC_003131_1,70305.0,0.0,0.0,0.0,0.0,0.0
redo_RPB004_54,barcode09,Yersinia pestis,NC_003132_1,9612.0,0.0,0.0,0.0,0.0,0.0
redo_RPB004_54,barcode09,Yersinia pestis,NC_003134_1,96210.0,0.0,0.0,0.0,0.0,0.0
redo_RPB004_54,barcode09,Yersinia pestis,NC_003143_1,4653728.0,0.1031860908,1.0,4802.0,0.0,0.0
redo_RPB004_54,barcode10,Citrobacter freundii complex sp. CFNIH2,NZ_CP025757_1,5277996.0,0.05259572,1.0,2776.0,0.0,0.0
redo_RPB004_54,barcode10,Citrobacter freundii complex sp. CFNIH2,NZ_CP025758_1,62588.0,0.0,0.0,0.0,0.0,0.0
redo_RPB004_54,barcode10,Citrobacter koseri,NC_009792_1,4720462.0,0.0727683011,1.0,3435.0,0.0,0.0
redo_RPB004_54,barcode10,Citrobacter koseri,NC_009793_1,9294.0,0.0,0.0,0.0,0.0,0.0
redo_RPB004_54,barcode10,Citrobacter koseri,NC_009794_1,5601.0,0.0,0.0,0.0,0.0,0.0
redo_RPB004_54,barcode10,Citrobacter youngae,NZ_CP021963_1,4945156.0,0.0753464603,1.0,3726.0,0.0,0.0
redo_RPB004_54,barcode10,Corynebacterium kroppenstedtii,NC_012704_1,2446804.0,0.1114106402,1.0,2726.0,0.0,0.0
redo_RPB004_54,barcode10,Cutibacterium acnes,NC_006085_1,2560265.0,0.4931520761,1.9889117694,12626.0,0.0,0.0
redo_RPB004_54,barcode10,Enterobacter cloacae,NC_014107_1,199562.0,1.3429410409,1.0,2680.0,0.0,0.0
redo_RPB004_54,barcode10,Enterobacter cloacae,NC_014108_1,84653.0,0.0,0.0,0.0,0.0,0.0
redo_RPB004_54,barcode10,Enterobacter cloacae,NC_014121_1,5314581.0,0.0790466831,1.0,4201.0,0.0,0.0
redo_RPB004_54,barcode10,Enterobacter soli,NC_015963_1,166725.0,0.0,0.0,0.0,0.0,0.0
redo_RPB004_54,barcode10,Enterobacter soli,NC_015968_1,4812833.0,0.0586556816,1.0,2823.0,0.0,0.0
redo_RPB004_54,barcode10,Enterobacter soli,NC_015969_1,32574.0,0.0,0.0,0.0,0.0,0.0
redo_RPB004_54,barcode10,Enterobacteriaceae bacterium strain FGI 57,NC_020063_1,4762179.0,0.1110626039,1.0,5289.0,0.0,0.0
redo_RPB004_54,barcode10,Escherichia albertii,NZ_CP007025_1,4701875.0,0.3178731889,1.0,14946.0,0.0,0.0
redo_RPB004_54,barcode10,Escherichia coli,NC_000913_3,4641652.0,14.4638805322,6.1321014116,671363.0,320490.0,107959.0
redo_RPB004_54,barcode10,Escherichia fergusonii,NC_011740_1,4588711.0,0.1962206816,1.0,9004.0,0.0,0.0
redo_RPB004_54,barcode10,Escherichia fergusonii,NC_011743_1,55150.0,0.0,0.0,0.0,0.0,0.0
redo_RPB004_54,barcode10,Escherichia marmotae,NZ_CP025979_1,4671322.0,0.1402814878,1.0,6553.0,0.0,0.0
redo_RPB004_54,barcode10,Escherichia marmotae,NZ_CP025980_1,148809.0,0.0,0.0,0.0,0.0,0.0
redo_RPB004_54,barcode10,Escherichia marmotae,NZ_CP025981_1,76160.0,0.0,0.0,0.0,0.0,0.0
redo_RPB004_54,barcode10,Escherichia virus Mu,NC_000929_1,36717.0,5.3980445025,1.0,1982.0,0.0,0.0
redo_RPB004_54,barcode10,Escherichia virus T7,NC_001604_1,39937.0,1.1417983324,2.8070175439,456.0,0.0,0.0
redo_RPB004_54,barcode10,Klebsiella aerogenes,NC_015663_1,5280350.0,0.1267908377,1.0,6695.0,0.0,0.0
redo_RPB004_54,barcode10,Klebsiella pneumoniae,NC_016838_1,122799.0,0.0,0.0,0.0,0.0,0.0
redo_RPB004_54,barcode10,Klebsiella pneumoniae,NC_016839_1,105974.0,0.0,0.0,0.0,0.0,0.0
redo_RPB004_54,barcode10,Klebsiella pneumoniae,NC_016840_1,3751.0,0.0,0.0,0.0,0.0,0.0
redo_RPB004_54,barcode10,Klebsiella pneumoniae,NC_016841_1,1308.0,0.0,0.0,0.0,0.0,0.0
redo_RPB004_54,barcode10,Klebsiella pneumoniae,NC_016845_1,5333942.0,0.0,0.0,0.0,0.0,0.0
redo_RPB004_54,barcode10,Klebsiella pneumoniae,NC_016846_1,111195.0,0.0,0.0,0.0,0.0,0.0
redo_RPB004_54,barcode10,Klebsiella pneumoniae,NC_016847_1,3353.0,11.60155085,1.0,389.0,0.0,0.0
redo_RPB004_54,barcode10,Kosakonia radicincitans,NZ_CP018016_1,5817639.0,0.0869940538,1.0,5061.0,0.0,0.0
redo_RPB004_54,barcode10,Kosakonia radicincitans,NZ_CP018017_1,290108.0,0.0,0.0,0.0,0.0,0.0
redo_RPB004_54,barcode10,Kosakonia radicincitans,NZ_CP018018_1,14706.0,0.0,0.0,0.0,0.0,0.0
redo_RPB004_54,barcode10,Kosakonia sacchari,NZ_CP007215_2,4902027.0,0.0573436254,1.0,2811.0,0.0,0.0
redo_RPB004_54,barcode10,Paracoccus yeei,NZ_CP020440_2,227674.0,0.0,0.0,0.0,0.0,0.0
redo_RPB004_54,barcode10,Paracoccus yeei,NZ_CP020441_2,295841.0,0.0,0.0,0.0,0.0,0.0
redo_RPB004_54,barcode10,Paracoccus yeei,NZ_CP020442_2,3622127.0,0.0051627124,1.0,187.0,0.0,0.0
redo_RPB004_54,barcode10,Paracoccus yeei,NZ_CP020443_2,130273.0,0.0,0.0,0.0,0.0,0.0
redo_RPB004_54,barcode10,Paracoccus yeei,NZ_CP020444_2,188526.0,0.0,0.0,0.0,0.0,0.0
redo_RPB004_54,barcode10,Paracoccus yeei,NZ_CP020445_2,174165.0,0.0,0.0,0.0,0.0,0.0
redo_RPB004_54,barcode10,Paracoccus yeei,NZ_CP020446_2,42744.0,9.4422609021,1.0,4036.0,0.0,0.0
redo_RPB004_54,barcode10,Paracoccus yeei,NZ_CP020447_2,148257.0,0.0,0.0,0.0,0.0,0.0
redo_RPB004_54,barcode10,Salmonella enterica,NC_003197_2,4857450.0,0.4025568971,1.2289557124,19554.0,0.0,0.0
redo_RPB004_54,barcode10,Salmonella enterica,NC_003277_2,93933.0,0.0,0.0,0.0,0.0,0.0
redo_RPB004_54,barcode10,Shigella dysenteriae,NC_007606_1,4369232.0,2.033858582,1.184067789,88864.0,5.0,0.0
redo_RPB004_54,barcode10,Shigella dysenteriae,NC_007607_1,182726.0,0.0,0.0,0.0,0.0,0.0
redo_RPB004_54,barcode10,Shigella dysenteriae,NC_009344_1,8953.0,0.0,0.0,0.0,0.0,0.0
redo_RPB004_54,barcode10,Shigella flexneri,NC_004337_2,4607202.0,0.9170207862,1.0924282232,42249.0,0.0,0.0
redo_RPB004_54,barcode10,Shigella flexneri,NC_004851_1,221618.0,0.0,0.0,0.0,0.0,0.0
redo_RPB004_54,barcode10,Shigella sp. PAMC 28760,NZ_CP014768_1,4558287.0,0.096724932,1.9457926968,4409.0,0.0,0.0
redo_RPB004_54,barcode10,Staphylococcus epidermidis,NC_004461_1,2499279.0,7.806331346,5.3381462004,195102.0,72872.0,24092.0
redo_RPB004_54,barcode10,Staphylococcus epidermidis,NC_005003_1,6585.0,0.0,0.0,0.0,0.0,0.0
redo_RPB004_54,barcode10,Staphylococcus epidermidis,NC_005004_1,24365.0,0.0,0.0,0.0,0.0,0.0
redo_RPB004_54,barcode10,Staphylococcus epidermidis,NC_005005_1,17261.0,0.0,0.0,0.0,0.0,0.0
redo_RPB004_54,barcode10,Staphylococcus epidermidis,NC_005006_1,8007.0,0.0,0.0,0.0,0.0,0.0
redo_RPB004_54,barcode10,Staphylococcus epidermidis,NC_005007_1,4679.0,0.0,0.0,0.0,0.0,0.0
redo_RPB004_54,barcode10,Staphylococcus epidermidis,NC_005008_1,4439.0,3.6494706015,1.0,162.0,0.0,0.0
redo_RPB004_54,barcode10,Staphylococcus haemolyticus,NC_007168_1,2685015.0,0.0300929418,3.8428217822,808.0,0.0,0.0
redo_RPB004_54,barcode10,Staphylococcus haemolyticus,NC_007169_1,2300.0,0.0,0.0,0.0,0.0,0.0
redo_RPB004_54,barcode10,Staphylococcus haemolyticus,NC_007170_1,2366.0,0.0,0.0,0.0,0.0,0.0
redo_RPB004_54,barcode10,Staphylococcus haemolyticus,NC_007171_1,8180.0,3.826405868,1.0,313.0,0.0,0.0
redo_RPB004_54,barcode11,Acinetobacter baumannii,NZ_CP009257_1,4335793.0,0.0241478318,1.0,1047.0,0.0,0.0
redo_RPB004_54,barcode11,Cutibacterium acnes,NC_006085_1,2560265.0,0.3430894849,1.0,8784.0,0.0,0.0
redo_RPB004_54,barcode11,Enterobacteriaceae bacterium w17,NZ_CP031101_1,4811348.0,0.0664886431,1.0,3199.0,0.0,0.0
redo_RPB004_54,barcode11,Enterobacteriaceae bacterium w17,NZ_CP031102_1,221681.0,0.0,0.0,0.0,0.0,0.0
redo_RPB004_54,barcode11,Enterobacteriaceae bacterium w17,NZ_CP031103_1,92616.0,0.0,0.0,0.0,0.0,0.0
redo_RPB004_54,barcode11,Escherichia albertii,NZ_CP007025_1,4701875.0,0.2019407151,1.0,9495.0,0.0,0.0
redo_RPB004_54,barcode11,Escherichia coli,NC_000913_3,4641652.0,9.6596427306,4.497224372,448367.0,154848.0,42533.0
redo_RPB004_54,barcode11,Escherichia marmotae,NZ_CP025979_1,4671322.0,0.1105896789,1.0,5166.0,0.0,0.0
redo_RPB004_54,barcode11,Escherichia marmotae,NZ_CP025980_1,148809.0,0.0,0.0,0.0,0.0,0.0
redo_RPB004_54,barcode11,Escherichia marmotae,NZ_CP025981_1,76160.0,0.0,0.0,0.0,0.0,0.0
redo_RPB004_54,barcode11,Escherichia virus Mu,NC_000929_1,36717.0,5.2101206526,1.0,1913.0,0.0,0.0
redo_RPB004_54,barcode11,Salmonella enterica,NC_003197_2,4857450.0,0.0493468795,1.0,2397.0,0.0,0.0
redo_RPB004_54,barcode11,Salmonella enterica,NC_003277_2,93933.0,0.0,0.0,0.0,0.0,0.0
redo_RPB004_54,barcode11,Shigella dysenteriae,NC_007606_1,4369232.0,1.4481950146,1.8350217305,63275.0,0.0,0.0
redo_RPB004_54,barcode11,Shigella dysenteriae,NC_007607_1,182726.0,0.0,0.0,0.0,0.0,0.0
redo_RPB004_54,barcode11,Shigella dysenteriae,NC_009344_1,8953.0,0.0,0.0,0.0,0.0,0.0
redo_RPB004_54,barcode11,Shigella flexneri,NC_004337_2,4607202.0,0.2958845738,1.5958773474,13632.0,0.0,0.0
redo_RPB004_54,barcode11,Shigella flexneri,NC_004851_1,221618.0,0.0,0.0,0.0,0.0,0.0
redo_RPB004_54,barcode11,Staphylococcus capitis,NZ_CP007601_1,2443604.0,0.1392205938,1.0,3402.0,0.0,0.0
redo_RPB004_54,barcode11,Staphylococcus capitis,NZ_CP007602_1,59661.0,0.0,0.0,0.0,0.0,0.0
redo_RPB004_54,barcode11,Staphylococcus epidermidis,NC_004461_1,2499279.0,9.0929023931,4.0555318428,227257.0,63416.0,19990.0
redo_RPB004_54,barcode11,Staphylococcus epidermidis,NC_005003_1,6585.0,0.0,0.0,0.0,0.0,0.0
redo_RPB004_54,barcode11,Staphylococcus epidermidis,NC_005004_1,24365.0,1.2846295916,1.0,313.0,0.0,0.0
redo_RPB004_54,barcode11,Staphylococcus epidermidis,NC_005005_1,17261.0,0.0,0.0,0.0,0.0,0.0
redo_RPB004_54,barcode11,Staphylococcus epidermidis,NC_005006_1,8007.0,0.0,0.0,0.0,0.0,0.0
redo_RPB004_54,barcode11,Staphylococcus epidermidis,NC_005007_1,4679.0,0.0,0.0,0.0,0.0,0.0
redo_RPB004_54,barcode11,Staphylococcus epidermidis,NC_005008_1,4439.0,3.7170533904,1.0,165.0,0.0,0.0
redo_RPB004_54,unclassified,Acinetobacter baumannii,NZ_CP009257_1,4335793.0,0.0247013637,1.0,1071.0,0.0,0.0
redo_RPB004_54,unclassified,Citrobacter freundii,NZ_CP007557_1,5099034.0,0.0196703925,1.0,1003.0,0.0,0.0
redo_RPB004_54,unclassified,Citrobacter freundii,NZ_CP007558_1,272297.0,0.0,0.0,0.0,0.0,0.0
redo_RPB004_54,unclassified,Cutibacterium acnes,NC_006085_1,2560265.0,0.309069569,4.4879312524,7913.0,5113.0,0.0
redo_RPB004_54,unclassified,Enterobacter bugandensis,NZ_LT992502_1,4717613.0,0.0348481319,1.0,1644.0,0.0,0.0
redo_RPB004_54,unclassified,Escherichia albertii,NZ_CP007025_1,4701875.0,0.3876538615,1.2877599166,18227.0,0.0,0.0
redo_RPB004_54,unclassified,Escherichia coli,NC_000913_3,4641652.0,18.6887340973,1.6654796845,867466.0,19018.0,0.0
redo_RPB004_54,unclassified,Escherichia fergusonii,NC_011740_1,4588711.0,0.0255191491,1.0,1171.0,0.0,0.0
redo_RPB004_54,unclassified,Escherichia fergusonii,NC_011743_1,55150.0,0.0,0.0,0.0,0.0,0.0
redo_RPB004_54,unclassified,Escherichia marmotae,NZ_CP025979_1,4671322.0,0.1801203171,1.086165914,8414.0,0.0,0.0
redo_RPB004_54,unclassified,Escherichia marmotae,NZ_CP025980_1,148809.0,0.0,0.0,0.0,0.0,0.0
redo_RPB004_54,unclassified,Escherichia marmotae,NZ_CP025981_1,76160.0,0.0,0.0,0.0,0.0,0.0
redo_RPB004_54,unclassified,Escherichia virus T7,NC_001604_1,39937.0,0.2103312718,1.0,84.0,0.0,0.0
redo_RPB004_54,unclassified,Klebsiella aerogenes,NC_015663_1,5280350.0,0.1520353764,1.3095416044,8028.0,0.0,0.0
redo_RPB004_54,unclassified,Klebsiella pneumoniae,NC_016838_1,122799.0,0.0,0.0,0.0,0.0,0.0
redo_RPB004_54,unclassified,Klebsiella pneumoniae,NC_016839_1,105974.0,1.0766791855,1.0,1141.0,0.0,0.0
redo_RPB004_54,unclassified,Klebsiella pneumoniae,NC_016840_1,3751.0,0.0,0.0,0.0,0.0,0.0
redo_RPB004_54,unclassified,Klebsiella pneumoniae,NC_016841_1,1308.0,0.0,0.0,0.0,0.0,0.0
redo_RPB004_54,unclassified,Klebsiella pneumoniae,NC_016845_1,5333942.0,0.022028736,1.4612765957,1175.0,0.0,0.0
redo_RPB004_54,unclassified,Klebsiella pneumoniae,NC_016846_1,111195.0,0.0,0.0,0.0,0.0,0.0
redo_RPB004_54,unclassified,Klebsiella pneumoniae,NC_016847_1,3353.0,0.0,0.0,0.0,0.0,0.0
redo_RPB004_54,unclassified,Kluyvera intermedia,NZ_CP011598_1,43621.0,0.0,0.0,0.0,0.0,0.0
redo_RPB004_54,unclassified,Kluyvera intermedia,NZ_CP011599_1,82986.0,0.0,0.0,0.0,0.0,0.0
redo_RPB004_54,unclassified,Kluyvera intermedia,NZ_CP011600_1,215092.0,0.0,0.0,0.0,0.0,0.0
redo_RPB004_54,unclassified,Kluyvera intermedia,NZ_CP011601_1,295619.0,0.0,0.0,0.0,0.0,0.0
redo_RPB004_54,unclassified,Kluyvera intermedia,NZ_CP011602_1,5529134.0,0.013293221,1.0,735.0,0.0,0.0
redo_RPB004_54,unclassified,Lelliottia amnigena,NZ_CP015774_2,4616122.0,0.0337729375,1.0,1559.0,0.0,0.0
redo_RPB004_54,unclassified,Paracoccus yeei,NZ_CP020440_2,227674.0,0.0,0.0,0.0,0.0,0.0
redo_RPB004_54,unclassified,Paracoccus yeei,NZ_CP020441_2,295841.0,0.0,0.0,0.0,0.0,0.0
redo_RPB004_54,unclassified,Paracoccus yeei,NZ_CP020442_2,3622127.0,0.0,0.0,0.0,0.0,0.0
redo_RPB004_54,unclassified,Paracoccus yeei,NZ_CP020443_2,130273.0,0.0,0.0,0.0,0.0,0.0
redo_RPB004_54,unclassified,Paracoccus yeei,NZ_CP020444_2,188526.0,0.0,0.0,0.0,0.0,0.0
redo_RPB004_54,unclassified,Paracoccus yeei,NZ_CP020445_2,174165.0,0.0,0.0,0.0,0.0,0.0
redo_RPB004_54,unclassified,Paracoccus yeei,NZ_CP020446_2,42744.0,9.4843720756,1.0,4054.0,0.0,0.0
redo_RPB004_54,unclassified,Paracoccus yeei,NZ_CP020447_2,148257.0,0.0,0.0,0.0,0.0,0.0
redo_RPB004_54,unclassified,Pectobacterium carotovorum,NC_012917_1,4862913.0,0.0175614904,1.0,854.0,0.0,0.0
redo_RPB004_54,unclassified,Serratia sp. YD25,NZ_CP016948_1,5117644.0,0.009945983,1.0,509.0,0.0,0.0
redo_RPB004_54,unclassified,Shigella dysenteriae,NC_007606_1,4369232.0,1.2278359217,1.1235856618,53647.0,0.0,0.0
redo_RPB004_54,unclassified,Shigella dysenteriae,NC_007607_1,182726.0,0.0,0.0,0.0,0.0,0.0
redo_RPB004_54,unclassified,Shigella dysenteriae,NC_009344_1,8953.0,0.0,0.0,0.0,0.0,0.0
redo_RPB004_54,unclassified,Shigella flexneri,NC_004337_2,4607202.0,1.2586598113,1.0,57989.0,0.0,0.0
redo_RPB004_54,unclassified,Shigella flexneri,NC_004851_1,221618.0,0.0,0.0,0.0,0.0,0.0
redo_RPB004_54,unclassified,Shigella virus SfMu,NC_027382_1,37146.0,2.5682442255,1.0,954.0,0.0,0.0
redo_RPB004_54,unclassified,Shimwellia blattae,NC_017910_1,4158725.0,0.0474905169,1.0,1975.0,0.0,0.0
redo_RPB004_54,unclassified,Snodgrassella alvi,NZ_CP007446_1,2527978.0,0.0457282461,1.0,1156.0,0.0,0.0
redo_RPB004_54,unclassified,Staphylococcus capitis,NZ_CP007601_1,2443604.0,7.7371783644,1.3051897221,189066.0,0.0,0.0
redo_RPB004_54,unclassified,Staphylococcus capitis,NZ_CP007602_1,59661.0,0.0,0.0,0.0,0.0,0.0
redo_RPB004_54,unclassified,Staphylococcus epidermidis,NC_004461_1,2499279.0,3.4582373557,1.2975784152,86431.0,0.0,0.0
redo_RPB004_54,unclassified,Staphylococcus epidermidis,NC_005003_1,6585.0,0.0,0.0,0.0,0.0,0.0
redo_RPB004_54,unclassified,Staphylococcus epidermidis,NC_005004_1,24365.0,0.0,0.0,0.0,0.0,0.0
redo_RPB004_54,unclassified,Staphylococcus epidermidis,NC_005005_1,17261.0,0.0,0.0,0.0,0.0,0.0
redo_RPB004_54,unclassified,Staphylococcus epidermidis,NC_005006_1,8007.0,0.0,0.0,0.0,0.0,0.0
redo_RPB004_54,unclassified,Staphylococcus epidermidis,NC_005007_1,4679.0,0.0,0.0,0.0,0.0,0.0
redo_RPB004_54,unclassified,Staphylococcus epidermidis,NC_005008_1,4439.0,0.0,0.0,0.0,0.0,0.0
redo_RPB004_54,unclassified,Staphylococcus haemolyticus,NC_007168_1,2685015.0,0.1721778091,1.0,4623.0,0.0,0.0
redo_RPB004_54,unclassified,Staphylococcus haemolyticus,NC_007169_1,2300.0,0.0,0.0,0.0,0.0,0.0
redo_RPB004_54,unclassified,Staphylococcus haemolyticus,NC_007170_1,2366.0,0.0,0.0,0.0,0.0,0.0
redo_RPB004_54,unclassified,Staphylococcus haemolyticus,NC_007171_1,8180.0,0.0,0.0,0.0,0.0,0.0
redo_RPB004_54,unclassified,Staphylococcus phage StB20,NC_019915_1,40917.0,14.2385805411,2.5176793683,5826.0,638.0,0.0
redo_RPB004_54,unclassified,Staphylococcus phage StB20-like,NC_028821_1,40670.0,3.8972215392,1.0,1585.0,0.0,0.0
redo_RPB004_54,unclassified,Vibrio rumoiensis,NZ_AP018685_1,2768302.0,0.0547628113,1.0,1516.0,0.0,0.0
redo_RPB004_54,unclassified,Vibrio rumoiensis,NZ_AP018686_1,1169909.0,0.0,0.0,0.0,0.0,0.0
redo_RPB004_54,unclassified,Vibrio rumoiensis,NZ_AP018687_1,159324.0,0.0,0.0,0.0,0.0,0.0
redo_RPB004_54,unclassified,Vibrio rumoiensis,NZ_AP018688_1,109617.0,0.0,0.0,0.0,0.0,0.0
