Run_name,Barcode,Taxid,Bases,Reads
redo_RPB004_51,barcode10,Shigella sp. PAMC 28760,14053,3
redo_RPB004_51,barcode10,Gardnerella vaginalis,1720,1
redo_RPB004_51,barcode10,Cutibacterium acnes,165256,49
redo_RPB004_51,barcode10,Cronobacter muytjensii,2289,1
redo_RPB004_51,barcode10,Delftia tsuruhatensis,2579,1
redo_RPB004_51,barcode10,Propionibacterium sp. oral taxon 193,1557,1
redo_RPB004_51,barcode10,Pseudomonas sp. TKP,5978,2
redo_RPB004_51,barcode10,Enterobacter sp. R4-368,2210,1
redo_RPB004_51,barcode10,Bacillus mycoides,90320,41
redo_RPB004_51,barcode10,Staphylococcus hominis,3133,1
redo_RPB004_51,barcode10,Rothia dentocariosa,14905,3
redo_RPB004_51,barcode10,Shigella sonnei,6918,2
redo_RPB004_51,barcode10,Staphylococcus pettenkoferi,3701,2
redo_RPB004_51,barcode10,Escherichia coli,1912152,583
redo_RPB004_51,barcode10,Mycoplasma mycoides,2824,1
redo_RPB004_51,barcode10,Corynebacterium segmentosum,2470,1
redo_RPB004_51,barcode10,Shewanella putrefaciens,1402,1
redo_RPB004_51,barcode10,Arthrobacter sp. YC-RL1,1025,1
redo_RPB004_51,barcode10,Chlamydia suis,6761,2
redo_RPB004_51,barcode10,Escherichia albertii,4321,2
redo_RPB004_51,barcode10,Paenibacillus larvae,3260,1
redo_RPB004_51,barcode10,Salmonella bongori,4098,1
redo_RPB004_51,barcode10,Acinetobacter baumannii,2494,2
redo_RPB004_51,barcode10,Brochothrix thermosphacta,91009,20
redo_RPB004_51,barcode10,Shewanella sp. FDAARGOS_354,9408,4
redo_RPB004_51,barcode10,Shigella boydii,45825,14
redo_RPB004_51,barcode10,Moraxella osloensis,42431,11
redo_RPB004_51,barcode10,Streptococcus mitis,8643,5
redo_RPB004_51,barcode10,Paracoccus aminovorans,3412,1
redo_RPB004_51,barcode10,Shigella dysenteriae,37930,10
redo_RPB004_51,barcode10,Staphylococcus epidermidis,12516,5
redo_RPB004_51,barcode10,Defluviimonas alba,1959,1
redo_RPB004_51,barcode10,Shigella flexneri,36414,8
redo_RPB004_51,barcode10,Corynebacterium kroppenstedtii,4406,1
redo_RPB004_51,barcode10,Zymomonas mobilis,73562,30
redo_RPB004_51,barcode10,Verminephrobacter eiseniae,3849,1
redo_RPB004_51,barcode10,Staphylococcus sciuri,4001,2
redo_RPB004_51,barcode10,Brevibacillus agri,19609,6
redo_RPB004_51,barcode10,Enterococcus casseliflavus,6267,3
redo_RPB004_51,barcode10,Staphylococcus aureus,1767,1
redo_RPB004_51,barcode10,Bacillus subtilis,1552868,508
redo_RPB004_51,barcode10,Delftia acidovorans,1137,1
redo_RPB004_51,barcode10,Kocuria indica,1319,1
redo_RPB004_51,barcode10,Klebsiella pneumoniae,9569,3
redo_RPB004_51,barcode10,Salmonella enterica,27398,7
redo_RPB004_51,barcode08,Staphylococcus schleiferi,13683,5
redo_RPB004_51,barcode08,Staphylococcus cohnii,356,1
redo_RPB004_51,barcode08,Escherichia fergusonii,5600,2
redo_RPB004_51,barcode08,Cutibacterium acnes,6052,2
redo_RPB004_51,barcode08,Staphylococcus capitis,2009,1
redo_RPB004_51,barcode08,Acinetobacter johnsonii,2196,1
redo_RPB004_51,barcode08,Variovorax paradoxus,3878,1
redo_RPB004_51,barcode08,Shigella boydii,5531,2
redo_RPB004_51,barcode08,Lactococcus lactis,2963,1
redo_RPB004_51,barcode08,Enterococcus thailandicus,2449,1
redo_RPB004_51,barcode08,Bacillus mycoides,8142,3
redo_RPB004_51,barcode08,Sulfitobacter donghicola,1367,1
redo_RPB004_51,barcode08,Staphylococcus epidermidis,3905496,1589
redo_RPB004_51,barcode08,Paracoccus mutanolyticus,220,1
redo_RPB004_51,barcode08,Shigella flexneri,4069,2
redo_RPB004_51,barcode08,Escherichia marmotae,6650,2
redo_RPB004_51,barcode08,Shigella sonnei,3088,1
redo_RPB004_51,barcode08,Zymomonas mobilis,5153,2
redo_RPB004_51,barcode08,Glaesserella parasuis,3740,1
redo_RPB004_51,barcode08,Staphylococcus saprophyticus,2269,1
redo_RPB004_51,barcode08,Staphylococcus haemolyticus,83271,32
redo_RPB004_51,barcode08,Escherichia coli,156179,54
redo_RPB004_51,barcode08,Glaesserella sp. 15-184,3799,1
redo_RPB004_51,barcode08,Staphylococcus aureus,156443,65
redo_RPB004_51,barcode08,Bacillus subtilis,168574,58
redo_RPB004_51,barcode08,Dolosigranulum pigrum,2937,1
redo_RPB004_51,barcode08,Staphylococcus caprae,3030,2
redo_RPB004_51,barcode08,Campylobacter cuniculorum,3116,1
redo_RPB004_51,barcode06,Staphylococcus epidermidis,4991,2
redo_RPB004_51,barcode02,Shigella flexneri,473,1
redo_RPB004_51,barcode02,Zymomonas mobilis,1325,1
redo_RPB004_51,barcode02,Bacillus subtilis,144524,32
redo_RPB004_51,barcode02,Escherichia coli,111059,41
redo_RPB004_51,barcode02,Bacillus mycoides,6594,1
redo_RPB004_51,barcode02,Micrococcus sp. KBS0714,2788,1
redo_RPB004_51,barcode07,Staphylococcus epidermidis,280799,71
redo_RPB004_51,barcode07,Shigella dysenteriae,25773,6
redo_RPB004_51,barcode07,Shigella flexneri,392,1
redo_RPB004_51,barcode07,Escherichia marmotae,5737,1
redo_RPB004_51,barcode07,Zymomonas mobilis,5916,1
redo_RPB004_51,barcode07,Cutibacterium acnes,4631,1
redo_RPB004_51,barcode07,Staphylococcus haemolyticus,5030,1
redo_RPB004_51,barcode07,Gardnerella vaginalis,3115,1
redo_RPB004_51,barcode07,Escherichia albertii,3149,1
redo_RPB004_51,barcode07,Shigella boydii,8889,1
redo_RPB004_51,barcode07,Bacillus subtilis,543296,106
redo_RPB004_51,barcode07,Escherichia coli,405373,85
redo_RPB004_51,barcode07,Staphylococcus aureus,6299,2
redo_RPB004_51,barcode07,Bacillus mycoides,15054,3
redo_RPB004_51,barcode04,Acinetobacter sp. WCHA55,1289,1
redo_RPB004_51,barcode04,Escherichia fergusonii,1984,1
redo_RPB004_51,barcode04,Cutibacterium acnes,3022780,867
redo_RPB004_51,barcode04,Methylobacterium sp. C1,3523,2
redo_RPB004_51,barcode04,Streptococcus sanguinis,34209,11
redo_RPB004_51,barcode04,Micrococcus luteus,3384,2
redo_RPB004_51,barcode04,Enterobacter roggenkampii,3416,1
redo_RPB004_51,barcode04,Lawsonella clevelandensis,197357,57
redo_RPB004_51,barcode04,Corynebacterium flavescens,11894,2
redo_RPB004_51,barcode04,Propionibacterium sp. oral taxon 193,10614,4
redo_RPB004_51,barcode04,Streptomyces dengpaensis,2473,1
redo_RPB004_51,barcode04,Janibacter indicus,16618,5
redo_RPB004_51,barcode04,Corynebacterium testudinoris,2746,1
redo_RPB004_51,barcode04,Vibrio nigripulchritudo,2490,1
redo_RPB004_51,barcode04,Streptococcus pneumoniae,2804,1
redo_RPB004_51,barcode04,Eggerthella sp. YY7918,2458,1
redo_RPB004_51,barcode04,Shigella sonnei,22275,6
redo_RPB004_51,barcode04,Shigella dysenteriae,68988,22
redo_RPB004_51,barcode04,Micrococcus sp. KBS0714,6379,2
redo_RPB004_51,barcode04,Brachybacterium faecium,2005,1
redo_RPB004_51,barcode04,Acinetobacter haemolyticus,2094,1
redo_RPB004_51,barcode04,Streptococcus mitis,86838,25
redo_RPB004_51,barcode04,Trueperella bialowiezensis,5981,1
redo_RPB004_51,barcode04,Propionibacterium freudenreichii,8475,3
redo_RPB004_51,barcode04,Actinomyces naeslundii,2639,1
redo_RPB004_51,barcode04,Arthrobacter sp. ERGS1:01,1161,1
redo_RPB004_51,barcode04,Citrobacter werkmanii,3521,1
redo_RPB004_51,barcode04,Streptococcus oralis,21698,10
redo_RPB004_51,barcode04,Citrobacter koseri,1162,1
redo_RPB004_51,barcode04,Sulfurospirillum sp. SL2-1,4373,1
redo_RPB004_51,barcode04,Neomicrococcus aestuarii,1882,1
redo_RPB004_51,barcode04,Acinetobacter baumannii,5837,3
redo_RPB004_51,barcode04,Acinetobacter radioresistens,1362,1
redo_RPB004_51,barcode04,Plautia stali symbiont,6563,2
redo_RPB004_51,barcode04,Comamonas thiooxydans,1681,1
redo_RPB004_51,barcode04,Acinetobacter johnsonii,191463,64
redo_RPB004_51,barcode04,Staphylococcus epidermidis,314270,93
redo_RPB004_51,barcode04,Cupriavidus metallidurans,4353,2
redo_RPB004_51,barcode04,Kocuria sp. BT304,4988,2
redo_RPB004_51,barcode04,Amycolatopsis mediterranei,2219,1
redo_RPB004_51,barcode04,Ornithinimicrobium flavum,1930,1
redo_RPB004_51,barcode04,Staphylococcus capitis,258504,70
redo_RPB004_51,barcode04,Rhodococcus pyridinivorans,2050,1
redo_RPB004_51,barcode04,Pimelobacter simplex,3035,1
redo_RPB004_51,barcode04,Streptococcus sp. oral taxon 431,5658,2
redo_RPB004_51,barcode04,Pseudomonas sp. phDV1,1151,1
redo_RPB004_51,barcode04,Edwardsiella ictaluri,2068,1
redo_RPB004_51,barcode04,Rothia aeria,20151,5
redo_RPB004_51,barcode04,Staphylococcus auricularis,42099,9
redo_RPB004_51,barcode04,Shigella flexneri,41918,14
redo_RPB004_51,barcode04,Corynebacterium kroppenstedtii,126824,34
redo_RPB004_51,barcode04,Caulobacter mirabilis,12972,4
redo_RPB004_51,barcode04,Zymomonas mobilis,50586,23
redo_RPB004_51,barcode04,Acinetobacter indicus,2691,1
redo_RPB004_51,barcode04,Enterobacter hormaechei,1814,1
redo_RPB004_51,barcode04,Chlamydia suis,4413,2
redo_RPB004_51,barcode04,Nocardioides sp. 78,3075,1
redo_RPB004_51,barcode04,Burkholderia lata,2381,1
redo_RPB004_51,barcode04,Salmonella enterica,17486,7
redo_RPB004_51,barcode04,Acinetobacter schindleri,3819,2
redo_RPB004_51,barcode04,Corynebacterium callunae,27541,6
redo_RPB004_51,barcode04,Corynebacterium striatum,2985,1
redo_RPB004_51,barcode04,Kocuria palustris,4276,1
redo_RPB004_51,barcode04,Enterococcus faecalis,1876,1
redo_RPB004_51,barcode04,Shewanella sp. W3-18-1,1911,1
redo_RPB004_51,barcode04,Serratia sp. ATCC 39006,3384,1
redo_RPB004_51,barcode04,Corynebacterium efficiens,3623,1
redo_RPB004_51,barcode04,Paracoccus sp. CBA4604,5606,2
redo_RPB004_51,barcode04,Gemella haemolysans,2816,1
redo_RPB004_51,barcode04,Leifsonia xyli,4715,1
redo_RPB004_51,barcode04,Lelliottia amnigena,2339,1
redo_RPB004_51,barcode04,Pseudomonas sp. TKP,2377,1
redo_RPB004_51,barcode04,Staphylococcus equorum,1621,1
redo_RPB004_51,barcode04,Bacillus mycoides,162903,66
redo_RPB004_51,barcode04,Corynebacterium glutamicum,9351,2
redo_RPB004_51,barcode04,Morganella morganii,4634,1
redo_RPB004_51,barcode04,Shewanella sp. MR-4,5659,3
redo_RPB004_51,barcode04,Escherichia coli,3057729,908
redo_RPB004_51,barcode04,Corynebacterium segmentosum,64004,19
redo_RPB004_51,barcode04,Acinetobacter sp. SWBY1,165130,54
redo_RPB004_51,barcode04,Klebsiella michiganensis,5350,1
redo_RPB004_51,barcode04,Corynebacterium atypicum,1801,1
redo_RPB004_51,barcode04,Pseudomonas sp. NC02,2871,1
redo_RPB004_51,barcode04,Kluyvera intermedia,3368,1
redo_RPB004_51,barcode04,Klebsiella sp. M5al,20035,7
redo_RPB004_51,barcode04,Atlantibacter hermannii,1330,1
redo_RPB004_51,barcode04,Acinetobacter guillouiae,1718,1
redo_RPB004_51,barcode04,Cutibacterium granulosum,22334,9
redo_RPB004_51,barcode04,Brevundimonas diminuta,1156,1
redo_RPB004_51,barcode04,Pseudomonas mendocina,4455,2
redo_RPB004_51,barcode04,Acinetobacter junii,6442,4
redo_RPB004_51,barcode04,Brachybacterium sp. P6-10-X1,1982,1
redo_RPB004_51,barcode04,Shigella boydii,42793,17
redo_RPB004_51,barcode04,Kocuria rosea,3816,2
redo_RPB004_51,barcode04,Shewanella sp. FDAARGOS_354,2691,1
redo_RPB004_51,barcode04,Chlamydia trachomatis,2921,1
redo_RPB004_51,barcode04,Escherichia marmotae,2502,1
redo_RPB004_51,barcode04,[Enterobacter] lignolyticus,7491,2
redo_RPB004_51,barcode04,Corynebacterium ulcerans,1918,1
redo_RPB004_51,barcode04,Escherichia albertii,18617,7
redo_RPB004_51,barcode04,Enterobacter kobei,1532,1
redo_RPB004_51,barcode04,Granulosicoccus antarcticus,13622,3
redo_RPB004_51,barcode04,Cutibacterium avidum,16842,4
redo_RPB004_51,barcode04,Acidovorax sp. RAC01,2027,1
redo_RPB004_51,barcode04,Janthinobacterium sp. LM6,2081,1
redo_RPB004_51,barcode04,Actinomyces pacaensis,2399,1
redo_RPB004_51,barcode04,Aeromonas sp. ASNIH2,2589,1
redo_RPB004_51,barcode04,Staphylococcus aureus,14275,5
redo_RPB004_51,barcode04,Bacillus subtilis,2661085,875
redo_RPB004_51,barcode04,Corynebacterium pseudopelargi,1235,1
redo_RPB004_51,barcode11,Finegoldia magna,3509,1
redo_RPB004_51,barcode11,Klebsiella oxytoca,5235,1
redo_RPB004_51,barcode11,Escherichia coli,5242078,1025
redo_RPB004_51,barcode11,Citrobacter braakii,7036,1
redo_RPB004_51,barcode11,Shewanella sp. MR-4,5375,1
redo_RPB004_51,barcode11,Corynebacterium falsenii,3207,1
redo_RPB004_51,barcode11,Cutibacterium acnes,24691,5
redo_RPB004_51,barcode11,Bifidobacterium breve,6710,1
redo_RPB004_51,barcode11,Enterobacter soli,2219,1
redo_RPB004_51,barcode11,Shewanella sp. ANA-3,5352,1
redo_RPB004_51,barcode11,Escherichia albertii,36715,7
redo_RPB004_51,barcode11,Shigella boydii,124773,25
redo_RPB004_51,barcode11,Klebsiella aerogenes,5016,1
redo_RPB004_51,barcode11,Staphylococcus pettenkoferi,3023,1
redo_RPB004_51,barcode11,Pseudomonas aeruginosa,2777,1
redo_RPB004_51,barcode11,Bacillus mycoides,50445,13
redo_RPB004_51,barcode11,Clostridium perfringens,200130,44
redo_RPB004_51,barcode11,Serratia fonticola,4943,1
redo_RPB004_51,barcode11,Shigella dysenteriae,132927,26
redo_RPB004_51,barcode11,Staphylococcus epidermidis,10512,4
redo_RPB004_51,barcode11,Kosakonia radicincitans,4057,1
redo_RPB004_51,barcode11,Shigella flexneri,31954,7
redo_RPB004_51,barcode11,Escherichia marmotae,11897,3
redo_RPB004_51,barcode11,Shigella sonnei,29630,7
redo_RPB004_51,barcode11,Zymomonas mobilis,54477,13
redo_RPB004_51,barcode11,Olleya sp. Bg11-27,266,1
redo_RPB004_51,barcode11,Gardnerella vaginalis,64377,16
redo_RPB004_51,barcode11,Bacillus subtilis,3231874,660
redo_RPB004_51,barcode11,Shewanella bicestrii,10804,2
redo_RPB004_51,barcode11,Shewanella sp. MR-7,5302,1
redo_RPB004_51,barcode11,Escherichia fergusonii,11547,3
redo_RPB004_51,barcode11,Pluralibacter gergoviae,2211,1
redo_RPB004_51,barcode11,Salmonella enterica,3225,1
redo_RPB004_51,barcode11,Enterobacter cancerogenus,4879,1
redo_RPB004_51,barcode01,Acinetobacter guillouiae,6415,2
redo_RPB004_51,barcode01,Staphylococcus schleiferi,23865,5
redo_RPB004_51,barcode01,Acinetobacter sp. WCHA55,2399,1
redo_RPB004_51,barcode01,Shigella dysenteriae,42284,10
redo_RPB004_51,barcode01,Streptomyces sp. Mg1,2965,1
redo_RPB004_51,barcode01,Acinetobacter baumannii,1651,1
redo_RPB004_51,barcode01,Cutibacterium acnes,14237,4
redo_RPB004_51,barcode01,Staphylococcus capitis,470919,150
redo_RPB004_51,barcode01,Pseudomonas putida,3280,1
redo_RPB004_51,barcode01,Staphylococcus lugdunensis,2816,1
redo_RPB004_51,barcode01,Staphylococcus cohnii,3635,1
redo_RPB004_51,barcode01,Shewanella sp. FDAARGOS_354,11701,4
redo_RPB004_51,barcode01,Pseudomonas oleovorans,3288,1
redo_RPB004_51,barcode01,Shigella boydii,31470,7
redo_RPB004_51,barcode01,Klebsiella aerogenes,6478,2
redo_RPB004_51,barcode01,Chlamydia trachomatis,6669,1
redo_RPB004_51,barcode01,Pseudomonas sp. TKP,17265,3
redo_RPB004_51,barcode01,Bacillus mycoides,9245,4
redo_RPB004_51,barcode01,Edwardsiella ictaluri,3657,1
redo_RPB004_51,barcode01,Brevundimonas vancanneytii,3949,1
redo_RPB004_51,barcode01,Staphylococcus epidermidis,9974,3
redo_RPB004_51,barcode01,Yersinia pseudotuberculosis,2791,1
redo_RPB004_51,barcode01,Escherichia marmotae,3452,1
redo_RPB004_51,barcode01,Shigella sonnei,5007,1
redo_RPB004_51,barcode01,Zymomonas mobilis,4095,1
redo_RPB004_51,barcode01,Salmonella enterica,4276,1
redo_RPB004_51,barcode01,Staphylococcus haemolyticus,5259,2
redo_RPB004_51,barcode01,Escherichia coli,1489588,365
redo_RPB004_51,barcode01,Mycoplasma mycoides,7446,2
redo_RPB004_51,barcode01,Shewanella baltica,2648,1
redo_RPB004_51,barcode01,Staphylococcus aureus,3626,1
redo_RPB004_51,barcode01,Bacillus subtilis,941529,230
redo_RPB004_51,barcode01,Thermobacillus composti,2314,1
redo_RPB004_51,barcode01,Staphylococcus warneri,3360,1
redo_RPB004_51,barcode01,Staphylococcus saprophyticus,10144,3
redo_RPB004_51,unclassified,Macrococcus caseolyticus,1362,1
redo_RPB004_51,unclassified,Staphylococcus schleiferi,4807,1
redo_RPB004_51,unclassified,Streptococcus oralis,1817,1
redo_RPB004_51,unclassified,Gardnerella vaginalis,4239,1
redo_RPB004_51,unclassified,Escherichia fergusonii,10111,2
redo_RPB004_51,unclassified,Cutibacterium acnes,83444,22
redo_RPB004_51,unclassified,Acinetobacter johnsonii,967,1
redo_RPB004_51,unclassified,Brochothrix thermosphacta,2205,1
redo_RPB004_51,unclassified,Pseudomonas sp. Lz4W,2194,1
redo_RPB004_51,unclassified,Shigella boydii,3955,2
redo_RPB004_51,unclassified,Staphylococcus capitis,16761,6
redo_RPB004_51,unclassified,Streptomyces cyaneogriseus,2520,1
redo_RPB004_51,unclassified,Lawsonella clevelandensis,4442,1
redo_RPB004_51,unclassified,Moraxella osloensis,4074,2
redo_RPB004_51,unclassified,Bacillus mycoides,2909,1
redo_RPB004_51,unclassified,Streptococcus mitis,2812,1
redo_RPB004_51,unclassified,Shigella dysenteriae,3971,1
redo_RPB004_51,unclassified,Staphylococcus epidermidis,222801,100
redo_RPB004_51,unclassified,Staphylococcus auricularis,442,1
redo_RPB004_51,unclassified,Shigella flexneri,7767,3
redo_RPB004_51,unclassified,Corynebacterium kroppenstedtii,5018,1
redo_RPB004_51,unclassified,Zymomonas mobilis,2283,2
redo_RPB004_51,unclassified,Staphylococcus haemolyticus,3319,1
redo_RPB004_51,unclassified,Escherichia coli,164909,55
redo_RPB004_51,unclassified,Prevotella ruminicola,2690,1
redo_RPB004_51,unclassified,Acinetobacter sp. SWBY1,3486,1
redo_RPB004_51,unclassified,Staphylococcus aureus,4895,3
redo_RPB004_51,unclassified,Bacillus subtilis,86771,28
redo_RPB004_51,unclassified,Methylobacterium sp. C1,1731,1
redo_RPB004_51,barcode10,Escherichia virus T7,2701,1
redo_RPB004_51,barcode10,Escherichia virus Mu,2312,1
redo_RPB004_51,barcode10,Human endogenous retrovirus K,2326,1
redo_RPB004_51,barcode08,Staphylococcus virus IPLA5,29328,13
redo_RPB004_51,barcode08,Staphylococcus virus PH15,57669,22
redo_RPB004_51,barcode08,Staphylococcus virus IPLA7,86219,32
redo_RPB004_51,barcode08,Staphylococcus virus CNPH82,14588,5
redo_RPB004_51,barcode07,Staphylococcus virus IPLA7,14992,4
redo_RPB004_51,barcode04,Propionibacterium virus PHL041M10,37047,11
redo_RPB004_51,barcode04,Escherichia virus Mu,6439,3
redo_RPB004_51,barcode11,Escherichia virus Mu,17381,3
redo_RPB004_51,barcode01,Staphylococcus phage IME-SA4,7187,3
redo_RPB004_51,barcode01,Escherichia virus T7,2130,1
redo_RPB004_51,unclassified,Staphylococcus virus IPLA5,406,1
redo_RPB004_51,unclassified,Propionibacterium virus PHL041M10,3563,1
redo_RPB004_51,unclassified,Staphylococcus virus PH15,2179,1
redo_RPB004_51,unclassified,Staphylococcus virus IPLA7,5546,2
