sample,barcode,Species name,chrom,len,covBread_1x_percent,avCov,x1,x5,x10
redo_RPB004_31,barcode01,Staphylococcus lugdunensis,NC_013893_1,2658366.0,0.0780554672,1.0,2075.0,0.0,0.0
redo_RPB004_31,barcode02,Cutibacterium acnes,NC_006085_1,2560265.0,0.3830462862,4.1404099113,9807.0,3216.0,0.0
redo_RPB004_31,barcode04,Cutibacterium acnes,NC_006085_1,2560265.0,0.2732920225,10.9544090324,6997.0,5095.0,5052.0
redo_RPB004_31,barcode04,Escherichia coli,NC_000913_3,4641652.0,0.1039285151,4.5395936982,4824.0,2533.0,0.0
redo_RPB004_31,barcode04,Gemmobacter sp. HYN0069,NZ_CP028918_1,3694576.0,0.0294215087,2.2115915363,1087.0,0.0,0.0
redo_RPB004_31,barcode04,Gemmobacter sp. HYN0069,NZ_CP028919_1,284025.0,0.0,0.0,0.0,0.0,0.0
redo_RPB004_31,barcode04,Gemmobacter sp. HYN0069,NZ_CP028920_1,198760.0,0.0,0.0,0.0,0.0,0.0
redo_RPB004_31,barcode04,Gemmobacter sp. HYN0069,NZ_CP028921_1,29228.0,0.0,0.0,0.0,0.0,0.0
redo_RPB004_31,barcode04,Gordonia bronchialis,NC_013441_1,5208602.0,0.0049341455,1.0,257.0,0.0,0.0
redo_RPB004_31,barcode04,Gordonia bronchialis,NC_013442_1,81410.0,0.0,0.0,0.0,0.0,0.0
redo_RPB004_31,barcode04,Kocuria indica,NZ_CP035504_1,2809846.0,0.0303219465,2.0,852.0,0.0,0.0
redo_RPB004_31,barcode04,Kocuria indica,NZ_CP035505_1,32758.0,0.0,0.0,0.0,0.0,0.0
redo_RPB004_31,barcode04,Kocuria rhizophila,NC_010617_1,2697540.0,0.0319179697,1.0,861.0,0.0,0.0
redo_RPB004_31,barcode04,Polaribacter sp. MED152,NC_020830_1,2961474.0,0.0154990387,1.0,459.0,0.0,0.0
redo_RPB004_31,barcode04,Salipiger profundus,NZ_CP014796_1,4609584.0,0.0090029816,2.0,415.0,0.0,0.0
redo_RPB004_31,barcode04,Salipiger profundus,NZ_CP014797_1,225797.0,0.0,0.0,0.0,0.0,0.0
redo_RPB004_31,barcode04,Salipiger profundus,NZ_CP014798_1,126548.0,0.0,0.0,0.0,0.0,0.0
redo_RPB004_31,barcode04,Salipiger profundus,NZ_CP014799_1,27822.0,0.0,0.0,0.0,0.0,0.0
redo_RPB004_31,barcode04,Salipiger profundus,NZ_CP014800_1,25119.0,0.0,0.0,0.0,0.0,0.0
redo_RPB004_31,barcode04,Salipiger profundus,NZ_CP014801_1,102837.0,0.0,0.0,0.0,0.0,0.0
redo_RPB004_31,barcode04,Salipiger profundus,NZ_CP014802_1,183958.0,0.0,0.0,0.0,0.0,0.0
redo_RPB004_31,barcode04,Salipiger profundus,NZ_CP014803_1,111411.0,0.0,0.0,0.0,0.0,0.0
redo_RPB004_31,barcode04,Salipiger profundus,NZ_CP014804_1,11188.0,0.0,0.0,0.0,0.0,0.0
redo_RPB004_31,barcode04,Shigella dysenteriae,NC_007606_1,4369232.0,0.057378505,1.0,2507.0,0.0,0.0
redo_RPB004_31,barcode04,Shigella dysenteriae,NC_007607_1,182726.0,0.0,0.0,0.0,0.0,0.0
redo_RPB004_31,barcode04,Shigella dysenteriae,NC_009344_1,8953.0,0.0,0.0,0.0,0.0,0.0
redo_RPB004_31,barcode04,Silicimonas algicola,NZ_CP034588_1,4351658.0,0.0234623217,1.0,1021.0,0.0,0.0
redo_RPB004_31,barcode04,Starkeya novella,NC_014217_1,4765023.0,0.0806711741,4.296566077,3844.0,1836.0,0.0
redo_RPB004_31,barcode04,Stenotrophomonas acidaminiphila,NZ_CP012900_1,4138297.0,0.0130730105,1.1552680222,541.0,0.0,0.0
redo_RPB004_31,barcode04,Streptococcus sanguinis,NC_009009_1,2388435.0,0.0472694463,1.0,1129.0,0.0,0.0
redo_RPB004_31,barcode05,Corynebacterium striatum,NZ_CP021252_1,2758551.0,0.0,0.0,0.0,0.0,0.0
redo_RPB004_31,barcode05,Corynebacterium striatum,NZ_CP021253_1,25501.0,3.7410297635,1.0,954.0,0.0,0.0
redo_RPB004_31,barcode05,Corynebacterium striatum,NZ_CP021254_1,13640.0,0.0,0.0,0.0,0.0,0.0
redo_RPB004_31,barcode05,Cutibacterium acnes,NC_006085_1,2560265.0,0.5179151377,1.9460030166,13260.0,0.0,0.0
redo_RPB004_31,barcode06,Cutibacterium acnes,NC_006085_1,2560265.0,0.1611942514,4.2793796947,4127.0,1606.0,0.0
redo_RPB004_31,barcode06,Streptococcus pneumoniae,NC_003098_1,2038615.0,0.2275074009,2.5295385942,4638.0,0.0,0.0
redo_RPB004_31,barcode07,Acinetobacter sp. ACNIH1,NZ_CP026420_1,3307251.0,0.0809433575,3.740754576,2677.0,0.0,0.0
redo_RPB004_31,barcode07,Acinetobacter sp. ACNIH1,NZ_CP026421_1,11503.0,0.0,0.0,0.0,0.0,0.0
redo_RPB004_31,barcode07,Acinetobacter sp. ACNIH1,NZ_CP026422_1,13080.0,0.0,0.0,0.0,0.0,0.0
redo_RPB004_31,barcode07,Acinetobacter sp. ACNIH1,NZ_CP026423_1,40249.0,0.0,0.0,0.0,0.0,0.0
redo_RPB004_31,barcode07,Acinetobacter sp. ACNIH1,NZ_CP026424_1,18295.0,0.0,0.0,0.0,0.0,0.0
redo_RPB004_31,barcode07,Acinetobacter sp. ACNIH1,NZ_CP026425_1,39361.0,0.0,0.0,0.0,0.0,0.0
redo_RPB004_31,barcode07,Acinetobacter sp. ACNIH1,NZ_CP026426_1,257654.0,0.0,0.0,0.0,0.0,0.0
redo_RPB004_31,barcode07,Acinetobacter sp. ACNIH1,NZ_CP026427_1,8765.0,0.0,0.0,0.0,0.0,0.0
redo_RPB004_31,barcode07,Cutibacterium acnes,NC_006085_1,2560265.0,0.2195475859,3.8742216687,5621.0,0.0,0.0
redo_RPB004_31,barcode07,Escherichia coli,NC_000913_3,4641652.0,0.1376449592,5.5302864298,6389.0,3073.0,937.0
redo_RPB004_31,barcode07,Kosakonia radicincitans,NZ_CP018016_1,5817639.0,0.0505359648,2.0,2940.0,0.0,0.0
redo_RPB004_31,barcode07,Kosakonia radicincitans,NZ_CP018017_1,290108.0,0.0,0.0,0.0,0.0,0.0
redo_RPB004_31,barcode07,Kosakonia radicincitans,NZ_CP018018_1,14706.0,0.0,0.0,0.0,0.0,0.0
redo_RPB004_31,barcode07,Leclercia adecarboxylata,NZ_CP013990_1,4803917.0,0.0590767909,1.0,2838.0,0.0,0.0
redo_RPB004_31,barcode07,Marinovum algicola,NZ_CP010855_1,3727131.0,0.0214642308,1.0,800.0,0.0,0.0
redo_RPB004_31,barcode07,Marinovum algicola,NZ_CP010856_1,254955.0,0.0,0.0,0.0,0.0,0.0
redo_RPB004_31,barcode07,Marinovum algicola,NZ_CP010857_1,239750.0,0.0,0.0,0.0,0.0,0.0
redo_RPB004_31,barcode07,Marinovum algicola,NZ_CP010858_1,189941.0,0.0,0.0,0.0,0.0,0.0
redo_RPB004_31,barcode07,Marinovum algicola,NZ_CP010859_1,187673.0,0.0,0.0,0.0,0.0,0.0
redo_RPB004_31,barcode07,Marinovum algicola,NZ_CP010860_1,143401.0,0.0,0.0,0.0,0.0,0.0
redo_RPB004_31,barcode07,Marinovum algicola,NZ_CP010861_1,126126.0,0.0,0.0,0.0,0.0,0.0
redo_RPB004_31,barcode07,Marinovum algicola,NZ_CP010862_1,115171.0,0.0,0.0,0.0,0.0,0.0
redo_RPB004_31,barcode07,Marinovum algicola,NZ_CP010863_1,111292.0,0.0,0.0,0.0,0.0,0.0
redo_RPB004_31,barcode07,Marinovum algicola,NZ_CP010864_1,98626.0,0.0,0.0,0.0,0.0,0.0
redo_RPB004_31,barcode07,Marinovum algicola,NZ_CP010865_1,52512.0,0.0,0.0,0.0,0.0,0.0
redo_RPB004_31,barcode07,Marinovum algicola,NZ_CP010866_1,5812.0,0.0,0.0,0.0,0.0,0.0
redo_RPB004_31,barcode07,Paracoccus contaminans,NZ_CP020612_1,2939512.0,0.0914437498,1.0,2688.0,0.0,0.0
redo_RPB004_31,barcode07,Paracoccus contaminans,NZ_CP020613_1,93982.0,0.0,0.0,0.0,0.0,0.0
redo_RPB004_31,barcode07,Paracoccus yeei,NZ_CP020440_2,227674.0,0.0,0.0,0.0,0.0,0.0
redo_RPB004_31,barcode07,Paracoccus yeei,NZ_CP020441_2,295841.0,0.0,0.0,0.0,0.0,0.0
redo_RPB004_31,barcode07,Paracoccus yeei,NZ_CP020442_2,3622127.0,0.0145218541,1.0,526.0,0.0,0.0
redo_RPB004_31,barcode07,Paracoccus yeei,NZ_CP020443_2,130273.0,0.0,0.0,0.0,0.0,0.0
redo_RPB004_31,barcode07,Paracoccus yeei,NZ_CP020444_2,188526.0,0.0,0.0,0.0,0.0,0.0
redo_RPB004_31,barcode07,Paracoccus yeei,NZ_CP020445_2,174165.0,0.0,0.0,0.0,0.0,0.0
redo_RPB004_31,barcode07,Paracoccus yeei,NZ_CP020446_2,42744.0,0.0,0.0,0.0,0.0,0.0
redo_RPB004_31,barcode07,Paracoccus yeei,NZ_CP020447_2,148257.0,0.0,0.0,0.0,0.0,0.0
redo_RPB004_31,barcode07,Rhodobacter sphaeroides,NC_009428_1,3217726.0,0.0449385684,1.0,1446.0,0.0,0.0
redo_RPB004_31,barcode07,Rhodobacter sphaeroides,NC_009429_1,877879.0,0.0,0.0,0.0,0.0,0.0
redo_RPB004_31,barcode07,Rhodobacter sphaeroides,NC_009430_1,289489.0,0.0,0.0,0.0,0.0,0.0
redo_RPB004_31,barcode07,Rhodobacter sphaeroides,NC_009431_1,121962.0,0.0,0.0,0.0,0.0,0.0
redo_RPB004_31,barcode07,Rhodobacter sphaeroides,NC_009432_1,36198.0,0.0,0.0,0.0,0.0,0.0
redo_RPB004_31,barcode07,Rhodobacter sphaeroides,NC_009433_1,13873.0,0.0,0.0,0.0,0.0,0.0
redo_RPB004_31,barcode07,Shigella dysenteriae,NC_007606_1,4369232.0,0.0683644174,2.0,2987.0,0.0,0.0
redo_RPB004_31,barcode07,Shigella dysenteriae,NC_007607_1,182726.0,0.0,0.0,0.0,0.0,0.0
redo_RPB004_31,barcode07,Shigella dysenteriae,NC_009344_1,8953.0,0.0,0.0,0.0,0.0,0.0
redo_RPB004_31,barcode08,Aeromonas sp. ASNIH2,NZ_CP026406_1,4801408.0,0.0917439218,1.0,4405.0,0.0,0.0
redo_RPB004_31,barcode08,Aeromonas sp. ASNIH2,NZ_CP026407_1,13512.0,0.0,0.0,0.0,0.0,0.0
redo_RPB004_31,barcode08,Aeromonas sp. ASNIH2,NZ_CP026408_1,29979.0,0.0,0.0,0.0,0.0,0.0
redo_RPB004_31,barcode08,Aeromonas sp. ASNIH2,NZ_CP026409_1,8238.0,0.0,0.0,0.0,0.0,0.0
redo_RPB004_31,barcode08,Aeromonas sp. ASNIH2,NZ_CP026410_1,6782.0,0.0,0.0,0.0,0.0,0.0
redo_RPB004_31,barcode08,Aeromonas sp. ASNIH2,NZ_CP026411_1,4613.0,0.0,0.0,0.0,0.0,0.0
redo_RPB004_31,barcode08,Cutibacterium acnes,NC_006085_1,2560265.0,0.9761489533,1.3447103073,24992.0,0.0,0.0
redo_RPB004_31,barcode08,Escherichia coli,NC_000913_3,4641652.0,0.1150883349,1.0,5342.0,0.0,0.0
redo_RPB004_31,barcode08,Janibacter indicus,NZ_CP013290_1,3401189.0,0.1364228804,1.0,4640.0,0.0,0.0
redo_RPB004_31,barcode08,Mycobacterium avium,NC_002944_2,4829781.0,0.0588225429,1.0,2841.0,0.0,0.0
redo_RPB004_31,barcode08,Mycobacterium tuberculosis H37Rv,NC_000962_3,4411532.0,0.0450637103,1.0,1988.0,0.0,0.0
redo_RPB004_31,barcode08,Pseudomonas alcaliphila,NZ_CP016162_1,5340293.0,0.0041196241,1.0,220.0,0.0,0.0
redo_RPB004_31,barcode08,Pseudomonas sp. phDV1,NZ_CP031606_1,4727682.0,0.261650424,1.0,12370.0,0.0,0.0
redo_RPB004_31,barcode08,Rothia aeria,NZ_AP017895_1,2588680.0,0.0464329311,1.1272878536,1202.0,0.0,0.0
redo_RPB004_31,barcode08,Shewanella sp. FDAARGOS_354,NZ_CP022089_2,5031863.0,0.1451947321,1.4171913496,7306.0,0.0,0.0
redo_RPB004_31,barcode08,Shewanella sp. FDAARGOS_354,NZ_CP022090_2,38118.0,0.0,0.0,0.0,0.0,0.0
redo_RPB004_31,barcode08,Sphingomonas sp. AAP5,NZ_CP037913_1,3987367.0,0.0220947808,1.0,881.0,0.0,0.0
redo_RPB004_31,barcode08,Sphingomonas sp. AAP5,NZ_CP037914_1,213080.0,0.0,0.0,0.0,0.0,0.0
redo_RPB004_31,barcode08,Sphingomonas sp. AAP5,NZ_CP037915_1,150273.0,0.0,0.0,0.0,0.0,0.0
redo_RPB004_31,barcode08,Sphingomonas sp. AAP5,NZ_CP037916_1,31551.0,0.0,0.0,0.0,0.0,0.0
redo_RPB004_31,barcode08,Sphingomonas sp. LK11,NZ_CP013916_1,3781071.0,0.0295683419,1.0,1118.0,0.0,0.0
redo_RPB004_31,barcode08,Sphingomonas sp. LK11,NZ_CP013917_1,122975.0,0.0,0.0,0.0,0.0,0.0
redo_RPB004_31,barcode08,Sphingomonas sp. LK11,NZ_CP013918_1,34160.0,0.0,0.0,0.0,0.0,0.0
redo_RPB004_31,barcode08,Staphylococcus pasteuri,NC_022737_1,2559946.0,0.5532147944,1.1394577037,14162.0,0.0,0.0
redo_RPB004_31,barcode08,Sulfitobacter donghicola,NZ_CP026367_1,2469323.0,0.2521743814,1.0,6227.0,0.0,0.0
redo_RPB004_31,barcode09,Acinetobacter johnsonii,NZ_CP010350_1,3509795.0,0.096928738,1.5026455026,3402.0,0.0,0.0
redo_RPB004_31,barcode09,Acinetobacter johnsonii,NZ_CP010351_1,398857.0,0.0,0.0,0.0,0.0,0.0
redo_RPB004_31,barcode09,Acinetobacter johnsonii,NZ_CP010352_1,3978.0,0.0,0.0,0.0,0.0,0.0
redo_RPB004_31,barcode09,Acinetobacter johnsonii,NZ_CP010353_1,4724.0,0.0,0.0,0.0,0.0,0.0
redo_RPB004_31,barcode09,Acinetobacter johnsonii,NZ_CP010354_1,11643.0,0.0,0.0,0.0,0.0,0.0
redo_RPB004_31,barcode09,Acinetobacter johnsonii,NZ_CP010355_1,7579.0,0.0,0.0,0.0,0.0,0.0
redo_RPB004_31,barcode09,Acinetobacter johnsonii,NZ_CP010356_1,13940.0,0.0,0.0,0.0,0.0,0.0
redo_RPB004_31,barcode09,Acinetobacter johnsonii,NZ_CP010357_1,13330.0,0.0,0.0,0.0,0.0,0.0
redo_RPB004_31,barcode09,Acinetobacter johnsonii,NZ_CP010358_1,117483.0,0.0,0.0,0.0,0.0,0.0
redo_RPB004_31,barcode09,Bacillus asahii,NZ_CP026095_1,4826182.0,0.0241806049,1.0,1167.0,0.0,0.0
redo_RPB004_31,barcode09,Bacillus asahii,NZ_CP026096_1,61312.0,0.0,0.0,0.0,0.0,0.0
redo_RPB004_31,barcode09,Corynebacterium jeikeium,NC_003080_1,14323.0,0.0,0.0,0.0,0.0,0.0
redo_RPB004_31,barcode09,Corynebacterium jeikeium,NC_007164_1,2462499.0,0.0715939377,2.0,1763.0,0.0,0.0
redo_RPB004_31,barcode09,Cutibacterium acnes,NC_006085_1,2560265.0,4.5802289997,6.0260092439,117266.0,40876.0,15766.0
redo_RPB004_31,barcode09,Escherichia coli,NC_000913_3,4641652.0,0.0780325625,1.7945886251,3622.0,0.0,0.0
redo_RPB004_31,barcode09,Janibacter indicus,NZ_CP013290_1,3401189.0,0.1277200414,1.0,4344.0,0.0,0.0
redo_RPB004_31,barcode09,Klebsiella pneumoniae,NC_016838_1,122799.0,0.0,0.0,0.0,0.0,0.0
redo_RPB004_31,barcode09,Klebsiella pneumoniae,NC_016839_1,105974.0,0.0,0.0,0.0,0.0,0.0
redo_RPB004_31,barcode09,Klebsiella pneumoniae,NC_016840_1,3751.0,0.0,0.0,0.0,0.0,0.0
redo_RPB004_31,barcode09,Klebsiella pneumoniae,NC_016841_1,1308.0,0.0,0.0,0.0,0.0,0.0
redo_RPB004_31,barcode09,Klebsiella pneumoniae,NC_016845_1,5333942.0,0.0,0.0,0.0,0.0,0.0
redo_RPB004_31,barcode09,Klebsiella pneumoniae,NC_016846_1,111195.0,0.0,0.0,0.0,0.0,0.0
redo_RPB004_31,barcode09,Klebsiella pneumoniae,NC_016847_1,3353.0,8.3805547271,2.0,281.0,0.0,0.0
redo_RPB004_31,barcode09,Massilia oculi,NZ_CP029343_1,5844653.0,0.0145945362,1.0,853.0,0.0,0.0
redo_RPB004_31,barcode09,Moraxella osloensis,NZ_CP014234_1,2434688.0,0.1749300116,1.0,4259.0,0.0,0.0
redo_RPB004_31,barcode09,Moraxella osloensis,NZ_CP014235_1,81455.0,0.0,0.0,0.0,0.0,0.0
redo_RPB004_31,barcode09,Moraxella osloensis,NZ_CP014236_1,57463.0,2.9114386649,2.9396294082,1673.0,0.0,0.0
redo_RPB004_31,barcode09,Moraxella osloensis,NZ_CP014237_1,35189.0,0.0,0.0,0.0,0.0,0.0
redo_RPB004_31,barcode09,Moraxella osloensis,NZ_CP014238_1,40342.0,0.0,0.0,0.0,0.0,0.0
redo_RPB004_31,barcode09,Prevotella melaninogenica,NC_014370_1,1796408.0,0.0,0.0,0.0,0.0,0.0
redo_RPB004_31,barcode09,Prevotella melaninogenica,NC_014371_1,1371874.0,0.1868247375,1.9633242294,2563.0,0.0,0.0
redo_RPB004_31,barcode09,Propionibacterium sp. oral taxon 193,NZ_CP017040_1,2571505.0,0.0338323278,1.0,870.0,0.0,0.0
redo_RPB004_31,barcode09,Propionibacterium sp. oral taxon 193,NZ_CP017041_1,77702.0,0.0,0.0,0.0,0.0,0.0
redo_RPB004_31,barcode09,Pseudomonas putida,NC_002947_4,6181873.0,0.0343585189,1.0,2124.0,0.0,0.0
redo_RPB004_31,barcode09,Pseudomonas sp. phDV1,NZ_CP031606_1,4727682.0,0.0366987458,1.0,1735.0,0.0,0.0
redo_RPB004_31,barcode09,Shewanella sp. W3-18-1,NC_008750_1,4708380.0,0.0962326745,25.6499668947,4531.0,4531.0,4528.0
redo_RPB004_31,barcode09,Staphylococcus hominis,NZ_CP020618_1,2253412.0,0.1246110343,7.8710826211,2808.0,2792.0,0.0
redo_RPB004_31,barcode09,Staphylococcus pasteuri,NC_022737_1,2559946.0,0.7157963488,30.6311940624,18324.0,15548.0,11556.0
redo_RPB004_31,barcode09,Staphylococcus warneri,NC_020164_1,2486042.0,0.1314941582,15.7084735393,3269.0,3268.0,3262.0
redo_RPB004_31,barcode09,Staphylococcus warneri,NC_020165_1,4374.0,0.0,0.0,0.0,0.0,0.0
redo_RPB004_31,barcode09,Staphylococcus warneri,NC_020264_1,8232.0,0.0,0.0,0.0,0.0,0.0
redo_RPB004_31,barcode09,Staphylococcus warneri,NC_020265_1,3352.0,0.0,0.0,0.0,0.0,0.0
redo_RPB004_31,barcode09,Staphylococcus warneri,NC_020266_1,19866.0,0.0,0.0,0.0,0.0,0.0
redo_RPB004_31,barcode09,Staphylococcus warneri,NC_020267_1,16515.0,0.0,0.0,0.0,0.0,0.0
redo_RPB004_31,barcode09,Staphylococcus warneri,NC_020268_1,6212.0,0.0,0.0,0.0,0.0,0.0
redo_RPB004_31,barcode09,Staphylococcus warneri,NC_020269_1,2937.0,0.0,0.0,0.0,0.0,0.0
redo_RPB004_31,barcode09,Staphylococcus warneri,NC_020274_1,13186.0,0.0,0.0,0.0,0.0,0.0
redo_RPB004_31,barcode10,Acinetobacter haemolyticus,NZ_CP018871_1,3442728.0,0.0,0.0,0.0,0.0,0.0
redo_RPB004_31,barcode10,Acinetobacter haemolyticus,NZ_CP018872_1,56602.0,0.0,0.0,0.0,0.0,0.0
redo_RPB004_31,barcode10,Acinetobacter haemolyticus,NZ_CP018873_1,39508.0,2.9816745975,1.0,1178.0,0.0,0.0
redo_RPB004_31,barcode10,Acinetobacter johnsonii,NZ_CP010350_1,3509795.0,0.3303041916,43.1347364789,11593.0,8049.0,8039.0
redo_RPB004_31,barcode10,Acinetobacter johnsonii,NZ_CP010351_1,398857.0,0.2988539752,1.0,1192.0,0.0,0.0
redo_RPB004_31,barcode10,Acinetobacter johnsonii,NZ_CP010352_1,3978.0,0.0,0.0,0.0,0.0,0.0
redo_RPB004_31,barcode10,Acinetobacter johnsonii,NZ_CP010353_1,4724.0,0.0,0.0,0.0,0.0,0.0
redo_RPB004_31,barcode10,Acinetobacter johnsonii,NZ_CP010354_1,11643.0,0.0,0.0,0.0,0.0,0.0
redo_RPB004_31,barcode10,Acinetobacter johnsonii,NZ_CP010355_1,7579.0,0.0,0.0,0.0,0.0,0.0
redo_RPB004_31,barcode10,Acinetobacter johnsonii,NZ_CP010356_1,13940.0,0.0,0.0,0.0,0.0,0.0
redo_RPB004_31,barcode10,Acinetobacter johnsonii,NZ_CP010357_1,13330.0,0.0,0.0,0.0,0.0,0.0
redo_RPB004_31,barcode10,Acinetobacter johnsonii,NZ_CP010358_1,117483.0,2.1730803606,1.2291421857,2553.0,0.0,0.0
redo_RPB004_31,barcode10,Acinetobacter schindleri,NZ_CP015615_1,3001209.0,0.0509461354,1.0,1529.0,0.0,0.0
redo_RPB004_31,barcode10,Acinetobacter schindleri,NZ_CP015616_1,179461.0,0.0,0.0,0.0,0.0,0.0
redo_RPB004_31,barcode10,Acinetobacter schindleri,NZ_CP015617_1,45079.0,0.0,0.0,0.0,0.0,0.0
redo_RPB004_31,barcode10,Acinetobacter schindleri,NZ_CP015618_1,14058.0,0.0,0.0,0.0,0.0,0.0
redo_RPB004_31,barcode10,Acinetobacter schindleri,NZ_CP015619_1,10218.0,0.0,0.0,0.0,0.0,0.0
redo_RPB004_31,barcode10,Acinetobacter schindleri,NZ_CP015620_1,10085.0,0.0,0.0,0.0,0.0,0.0
redo_RPB004_31,barcode10,Acinetobacter schindleri,NZ_CP015621_1,7943.0,0.0,0.0,0.0,0.0,0.0
redo_RPB004_31,barcode10,Acinetobacter sp. SWBY1,NZ_CP026616_1,2914878.0,0.0379089622,1.9402714932,1105.0,0.0,0.0
redo_RPB004_31,barcode10,Acinetobacter sp. SWBY1,NZ_CP026617_1,38161.0,0.0,0.0,0.0,0.0,0.0
redo_RPB004_31,barcode10,Acinetobacter sp. WCHA55,NZ_CP032280_1,71539.0,0.0,0.0,0.0,0.0,0.0
redo_RPB004_31,barcode10,Acinetobacter sp. WCHA55,NZ_CP032281_1,16361.0,0.0,0.0,0.0,0.0,0.0
redo_RPB004_31,barcode10,Acinetobacter sp. WCHA55,NZ_CP032282_1,14838.0,0.0,0.0,0.0,0.0,0.0
redo_RPB004_31,barcode10,Acinetobacter sp. WCHA55,NZ_CP032283_1,5624.0,0.0,0.0,0.0,0.0,0.0
redo_RPB004_31,barcode10,Acinetobacter sp. WCHA55,NZ_CP032284_1,71326.0,0.0,0.0,0.0,0.0,0.0
redo_RPB004_31,barcode10,Acinetobacter sp. WCHA55,NZ_CP032285_1,372328.0,0.0,0.0,0.0,0.0,0.0
redo_RPB004_31,barcode10,Acinetobacter sp. WCHA55,NZ_CP032286_1,3415345.0,0.1357695928,1.5908992883,4637.0,0.0,0.0
redo_RPB004_31,barcode10,Anoxybacillus gonensis,NZ_CP012152_1,2803668.0,0.016585416,1.0,465.0,0.0,0.0
redo_RPB004_31,barcode10,Arthrobacter crystallopoietes,NZ_CP018863_1,4762081.0,0.1086919773,1.1775502318,5176.0,0.0,0.0
redo_RPB004_31,barcode10,Arthrobacter crystallopoietes,NZ_CP018864_1,25865.0,0.0,0.0,0.0,0.0,0.0
redo_RPB004_31,barcode10,Arthrobacter crystallopoietes,NZ_CP018865_1,244759.0,0.0,0.0,0.0,0.0,0.0
redo_RPB004_31,barcode10,Arthrobacter sp. DCT5,NZ_CP029642_1,4359122.0,0.0790526166,1.7884503772,3446.0,0.0,0.0
redo_RPB004_31,barcode10,Arthrobacter sp. DCT5,NZ_CP029643_1,171632.0,0.0,0.0,0.0,0.0,0.0
redo_RPB004_31,barcode10,Arthrobacter sp. ERGS1:01,NZ_CP012477_1,754192.0,0.0,0.0,0.0,0.0,0.0
redo_RPB004_31,barcode10,Arthrobacter sp. ERGS1:01,NZ_CP012478_1,152177.0,0.0,0.0,0.0,0.0,0.0
redo_RPB004_31,barcode10,Arthrobacter sp. ERGS1:01,NZ_CP012479_1,4030317.0,0.0392773075,1.0,1583.0,0.0,0.0
redo_RPB004_31,barcode10,Arthrobacter sp. QXT-31,NZ_CP019304_1,5041568.0,0.02104504,1.0,1061.0,0.0,0.0
redo_RPB004_31,barcode10,Arthrobacter sp. YC-RL1,NZ_CP013297_1,3846272.0,0.064582016,1.0,2484.0,0.0,0.0
redo_RPB004_31,barcode10,Arthrobacter sp. YC-RL1,NZ_CP013298_1,112763.0,0.0,0.0,0.0,0.0,0.0
redo_RPB004_31,barcode10,Arthrobacter sp. YC-RL1,NZ_CP013299_1,59604.0,0.0,0.0,0.0,0.0,0.0
redo_RPB004_31,barcode10,Bacillus krulwichiae,NZ_CP020814_1,4610863.0,0.0155936101,3.6745479833,719.0,316.0,0.0
redo_RPB004_31,barcode10,Bacillus litoralis,NZ_CP033043_1,5230624.0,0.0296140575,1.0,1549.0,0.0,0.0
redo_RPB004_31,barcode10,Bacillus mycoides,NZ_CP009689_1,9935.0,0.0,0.0,0.0,0.0,0.0
redo_RPB004_31,barcode10,Bacillus mycoides,NZ_CP009690_1,10361.0,0.0,0.0,0.0,0.0,0.0
redo_RPB004_31,barcode10,Bacillus mycoides,NZ_CP009691_1,360889.0,0.0,0.0,0.0,0.0,0.0
redo_RPB004_31,barcode10,Bacillus mycoides,NZ_CP009692_1,5255868.0,0.0283302396,3.5271994627,1489.0,0.0,0.0
redo_RPB004_31,barcode10,Corynebacterium sphenisci,NZ_CP009248_1,2594799.0,0.0264760392,1.0,687.0,0.0,0.0
redo_RPB004_31,barcode10,Corynebacterium striatum,NZ_CP021252_1,2758551.0,0.0290007326,1.0,800.0,0.0,0.0
redo_RPB004_31,barcode10,Corynebacterium striatum,NZ_CP021253_1,25501.0,0.0,0.0,0.0,0.0,0.0
redo_RPB004_31,barcode10,Corynebacterium striatum,NZ_CP021254_1,13640.0,0.0,0.0,0.0,0.0,0.0
redo_RPB004_31,barcode10,Corynebacterium xerosis,NZ_CP032788_1,2738835.0,0.0446175107,2.6014729951,1222.0,0.0,0.0
redo_RPB004_31,barcode10,Cronobacter condimenti,NZ_CP012264_1,4347991.0,0.010096617,1.0,439.0,0.0,0.0
redo_RPB004_31,barcode10,Cronobacter condimenti,NZ_CP012265_1,151491.0,0.0,0.0,0.0,0.0,0.0
redo_RPB004_31,barcode10,Cutibacterium acnes,NC_006085_1,2560265.0,2.2601957219,12.8761643078,57867.0,30011.0,23322.0
redo_RPB004_31,barcode10,Escherichia coli,NC_000913_3,4641652.0,0.578005417,3.5829885572,26829.0,9439.0,0.0
redo_RPB004_31,barcode10,Frondihabitans sp. 762G35,NZ_CP014619_1,3409251.0,0.0068636777,1.0,234.0,0.0,0.0
redo_RPB004_31,barcode10,Herbaspirillum huttiense,NZ_CP037993_1,5691775.0,0.2518897883,3.2972030411,14337.0,5002.0,0.0
redo_RPB004_31,barcode10,Herbaspirillum seropedicae,NZ_CP011930_1,5509723.0,0.0265893585,1.0,1465.0,0.0,0.0
redo_RPB004_31,barcode10,Kocuria flava,NZ_CP013254_1,3504335.0,0.020232084,1.0,709.0,0.0,0.0
redo_RPB004_31,barcode10,Kocuria flava,NZ_CP013255_1,113210.0,0.0,0.0,0.0,0.0,0.0
redo_RPB004_31,barcode10,Kocuria flava,NZ_CP013256_1,10611.0,0.0,0.0,0.0,0.0,0.0
redo_RPB004_31,barcode10,Kocuria flava,NZ_CP013257_1,5666.0,0.0,0.0,0.0,0.0,0.0
redo_RPB004_31,barcode10,Kocuria flava,NZ_CP013258_1,4520.0,0.0,0.0,0.0,0.0,0.0
redo_RPB004_31,barcode10,Moraxella osloensis,NZ_CP014234_1,2434688.0,0.0091592845,1.0,223.0,0.0,0.0
redo_RPB004_31,barcode10,Moraxella osloensis,NZ_CP014235_1,81455.0,0.0,0.0,0.0,0.0,0.0
redo_RPB004_31,barcode10,Moraxella osloensis,NZ_CP014236_1,57463.0,0.0,0.0,0.0,0.0,0.0
redo_RPB004_31,barcode10,Moraxella osloensis,NZ_CP014237_1,35189.0,0.0,0.0,0.0,0.0,0.0
redo_RPB004_31,barcode10,Moraxella osloensis,NZ_CP014238_1,40342.0,0.0,0.0,0.0,0.0,0.0
redo_RPB004_31,barcode10,Morganella morganii,NC_020418_1,3799539.0,0.0052111585,1.9646464646,198.0,0.0,0.0
redo_RPB004_31,barcode10,Mycobacterium shigaense,NZ_AP018164_1,5232660.0,0.0578482072,1.0,3027.0,0.0,0.0
redo_RPB004_31,barcode10,Pantoea dispersa,NZ_CP032702_1,3758528.0,0.0386853577,1.1114167813,1454.0,0.0,0.0
redo_RPB004_31,barcode10,Pantoea dispersa,NZ_CP032703_1,556856.0,0.0,0.0,0.0,0.0,0.0
redo_RPB004_31,barcode10,Pantoea dispersa,NZ_CP032704_1,275665.0,0.0,0.0,0.0,0.0,0.0
redo_RPB004_31,barcode10,Pantoea dispersa,NZ_CP032705_1,29830.0,0.0,0.0,0.0,0.0,0.0
redo_RPB004_31,barcode10,Pantoea dispersa,NZ_CP032706_1,5593.0,0.0,0.0,0.0,0.0,0.0
redo_RPB004_31,barcode10,Pectobacterium polaris,NZ_CP017482_1,5008416.0,0.0191677369,1.0,960.0,0.0,0.0
redo_RPB004_31,barcode10,Pseudarthrobacter chlorophenolicus,NC_011879_1,426858.0,0.0,0.0,0.0,0.0,0.0
redo_RPB004_31,barcode10,Pseudarthrobacter chlorophenolicus,NC_011881_1,158475.0,0.0,0.0,0.0,0.0,0.0
redo_RPB004_31,barcode10,Pseudarthrobacter chlorophenolicus,NC_011886_1,4395537.0,0.0816282516,1.0,3588.0,0.0,0.0
redo_RPB004_31,barcode10,Pseudomonas alkylphenolica,NZ_CP009048_1,5764622.0,0.0249626081,1.0,1439.0,0.0,0.0
redo_RPB004_31,barcode10,Pseudomonas chlororaphis,NZ_CP008696_1,7122173.0,0.0418832848,1.0,2983.0,0.0,0.0
redo_RPB004_31,barcode10,Pseudomonas cichorii,NZ_CP007039_1,5986012.0,0.0074841146,1.0,448.0,0.0,0.0
redo_RPB004_31,barcode10,Pseudomonas lurida,NZ_CP023272_1,6100532.0,0.0120153455,1.0,733.0,0.0,0.0
redo_RPB004_31,barcode10,Pseudomonas pseudoalcaligenes,NZ_HG916826_1,4686340.0,0.1036843251,4.2325581395,4859.0,1577.0,0.0
redo_RPB004_31,barcode10,Pseudomonas putida,NC_002947_4,6181873.0,0.0141542862,1.0,875.0,0.0,0.0
redo_RPB004_31,barcode10,Pseudomonas sp. LPH1,NZ_CP017290_1,5229495.0,0.0973899009,16.9935205184,5093.0,5090.0,5083.0
redo_RPB004_31,barcode10,Pseudomonas sp. NC02,NZ_CP025624_1,6890566.0,0.0426815446,1.0,2941.0,0.0,0.0
redo_RPB004_31,barcode10,Pseudomonas sp. XWY-1,NZ_CP026332_1,5902716.0,0.0864009043,1.0,5100.0,0.0,0.0
redo_RPB004_31,barcode10,Pseudomonas sp. XWY-1,NZ_CP026333_1,394537.0,1.7569961753,2.1200230814,6932.0,627.0,0.0
redo_RPB004_31,barcode10,Pseudomonas sp. phDV1,NZ_CP031606_1,4727682.0,0.0479939218,1.0,2269.0,0.0,0.0
redo_RPB004_31,barcode10,Pseudonocardia sp. HH130629-09,NZ_CP011868_1,6058802.0,0.010431105,1.0,632.0,0.0,0.0
redo_RPB004_31,barcode10,Pseudonocardia sp. HH130629-09,NZ_CP011869_1,242173.0,0.0,0.0,0.0,0.0,0.0
redo_RPB004_31,barcode10,Rahnella aquatilis,NC_017047_1,4962173.0,0.0385516587,5.5504443283,1913.0,1781.0,0.0
redo_RPB004_31,barcode10,Rahnella aquatilis,NC_017060_1,570951.0,0.0,0.0,0.0,0.0,0.0
redo_RPB004_31,barcode10,Rahnella aquatilis,NC_017773_1,75160.0,0.0,0.0,0.0,0.0,0.0
redo_RPB004_31,barcode10,Rahnella aquatilis,NC_017807_1,48515.0,0.0,0.0,0.0,0.0,0.0
redo_RPB004_31,barcode10,Rahnella sp. ERMR1:05,NZ_CP019062_1,4643505.0,0.1073542507,1.8314944835,4985.0,0.0,0.0
redo_RPB004_31,barcode10,Rahnella sp. ERMR1:05,NZ_CP019063_1,549463.0,0.0,0.0,0.0,0.0,0.0
redo_RPB004_31,barcode10,Rahnella sp. ERMR1:05,NZ_CP019064_1,229977.0,0.0,0.0,0.0,0.0,0.0
redo_RPB004_31,barcode10,Rahnella sp. ERMR1:05,NZ_CP019065_1,107727.0,0.0,0.0,0.0,0.0,0.0
redo_RPB004_31,barcode10,Serratia rubidaea,NZ_CP014474_1,4922834.0,0.0870027305,1.0,4283.0,0.0,0.0
redo_RPB004_31,barcode10,Shewanella bicestrii,NZ_CP022358_1,4800597.0,0.0037703644,1.0,181.0,0.0,0.0
redo_RPB004_31,barcode10,Shewanella bicestrii,NZ_CP022359_1,193338.0,0.0,0.0,0.0,0.0,0.0
redo_RPB004_31,barcode10,Shewanella bicestrii,NZ_CP022360_1,10479.0,0.0,0.0,0.0,0.0,0.0
redo_RPB004_31,barcode10,Shewanella oneidensis,NC_004347_2,4969811.0,0.0040444194,1.0,201.0,0.0,0.0
redo_RPB004_31,barcode10,Shewanella oneidensis,NC_004349_1,161613.0,0.0,0.0,0.0,0.0,0.0
redo_RPB004_31,barcode10,Shewanella sp. FDAARGOS_354,NZ_CP022089_2,5031863.0,0.6227315807,5.8748364449,31335.0,17534.0,5511.0
redo_RPB004_31,barcode10,Shewanella sp. FDAARGOS_354,NZ_CP022090_2,38118.0,0.0,0.0,0.0,0.0,0.0
redo_RPB004_31,barcode10,Shigella dysenteriae,NC_007606_1,4369232.0,0.0,0.0,0.0,0.0,0.0
redo_RPB004_31,barcode10,Shigella dysenteriae,NC_007607_1,182726.0,0.6884625067,1.8624801272,1258.0,0.0,0.0
redo_RPB004_31,barcode10,Shigella dysenteriae,NC_009344_1,8953.0,0.0,0.0,0.0,0.0,0.0
redo_RPB004_31,barcode10,Shigella flexneri,NC_004337_2,4607202.0,0.1075055967,1.0,4953.0,0.0,0.0
redo_RPB004_31,barcode10,Shigella flexneri,NC_004851_1,221618.0,0.0,0.0,0.0,0.0,0.0
redo_RPB004_31,barcode10,Sphingomonas melonis,NZ_CP017578_1,4156476.0,0.0128714806,1.8504672897,535.0,0.0,0.0
redo_RPB004_31,barcode10,Sphingomonas melonis,NZ_CP017579_1,40279.0,0.0,0.0,0.0,0.0,0.0
redo_RPB004_31,barcode10,Sphingomonas panacis,NZ_CP014168_1,5003808.0,0.0723049326,1.0,3618.0,0.0,0.0
redo_RPB004_31,barcode10,Sphingomonas panacis,NZ_CP014169_1,319133.0,0.0,0.0,0.0,0.0,0.0
redo_RPB004_31,barcode10,Sphingomonas sp. LK11,NZ_CP013916_1,3781071.0,0.0941003224,1.0,3558.0,0.0,0.0
redo_RPB004_31,barcode10,Sphingomonas sp. LK11,NZ_CP013917_1,122975.0,0.0,0.0,0.0,0.0,0.0
redo_RPB004_31,barcode10,Sphingomonas sp. LK11,NZ_CP013918_1,34160.0,0.0,0.0,0.0,0.0,0.0
redo_RPB004_31,barcode10,Sphingomonas taxi,NZ_CP009571_1,3859099.0,0.1131870418,1.0,4368.0,0.0,0.0
redo_RPB004_31,barcode10,Sphingomonas taxi,NZ_CP009572_1,163311.0,0.0,0.0,0.0,0.0,0.0
redo_RPB004_31,barcode10,Sphingomonas taxi,NZ_CP009573_1,39492.0,0.0,0.0,0.0,0.0,0.0
redo_RPB004_31,barcode10,Staphylococcus capitis,NZ_CP007601_1,2443604.0,0.2354718686,4.2393117831,5754.0,3051.0,0.0
redo_RPB004_31,barcode10,Staphylococcus capitis,NZ_CP007602_1,59661.0,0.0,0.0,0.0,0.0,0.0
redo_RPB004_31,barcode10,Staphylococcus lutrae,NZ_CP020773_1,2533115.0,0.0485568164,1.0,1230.0,0.0,0.0
redo_RPB004_31,barcode10,Staphylococcus pasteuri,NC_022737_1,2559946.0,0.2824668958,9.6680956991,7231.0,7225.0,0.0
redo_RPB004_31,barcode10,Staphylococcus warneri,NC_020164_1,2486042.0,0.0092918784,1.0,231.0,0.0,0.0
redo_RPB004_31,barcode10,Staphylococcus warneri,NC_020165_1,4374.0,0.0,0.0,0.0,0.0,0.0
redo_RPB004_31,barcode10,Staphylococcus warneri,NC_020264_1,8232.0,0.0,0.0,0.0,0.0,0.0
redo_RPB004_31,barcode10,Staphylococcus warneri,NC_020265_1,3352.0,0.0,0.0,0.0,0.0,0.0
redo_RPB004_31,barcode10,Staphylococcus warneri,NC_020266_1,19866.0,0.0,0.0,0.0,0.0,0.0
redo_RPB004_31,barcode10,Staphylococcus warneri,NC_020267_1,16515.0,0.0,0.0,0.0,0.0,0.0
redo_RPB004_31,barcode10,Staphylococcus warneri,NC_020268_1,6212.0,0.0,0.0,0.0,0.0,0.0
redo_RPB004_31,barcode10,Staphylococcus warneri,NC_020269_1,2937.0,0.0,0.0,0.0,0.0,0.0
redo_RPB004_31,barcode10,Staphylococcus warneri,NC_020274_1,13186.0,0.0,0.0,0.0,0.0,0.0
redo_RPB004_31,barcode10,Sulfitobacter donghicola,NZ_CP026367_1,2469323.0,0.2928332988,8.5072604066,7231.0,7209.0,0.0
redo_RPB004_31,barcode10,Yersinia frederiksenii,NZ_CP009363_1,55362.0,0.0,0.0,0.0,0.0,0.0
redo_RPB004_31,barcode10,Yersinia frederiksenii,NZ_CP009364_1,4495532.0,0.0426645834,1.0,1918.0,0.0,0.0
redo_RPB004_31,barcode11,Acinetobacter johnsonii,NZ_CP010350_1,3509795.0,0.0138754543,1.0,487.0,0.0,0.0
redo_RPB004_31,barcode11,Acinetobacter johnsonii,NZ_CP010351_1,398857.0,0.0,0.0,0.0,0.0,0.0
redo_RPB004_31,barcode11,Acinetobacter johnsonii,NZ_CP010352_1,3978.0,0.0,0.0,0.0,0.0,0.0
redo_RPB004_31,barcode11,Acinetobacter johnsonii,NZ_CP010353_1,4724.0,0.0,0.0,0.0,0.0,0.0
redo_RPB004_31,barcode11,Acinetobacter johnsonii,NZ_CP010354_1,11643.0,0.0,0.0,0.0,0.0,0.0
redo_RPB004_31,barcode11,Acinetobacter johnsonii,NZ_CP010355_1,7579.0,0.0,0.0,0.0,0.0,0.0
redo_RPB004_31,barcode11,Acinetobacter johnsonii,NZ_CP010356_1,13940.0,0.0,0.0,0.0,0.0,0.0
redo_RPB004_31,barcode11,Acinetobacter johnsonii,NZ_CP010357_1,13330.0,0.0,0.0,0.0,0.0,0.0
redo_RPB004_31,barcode11,Acinetobacter johnsonii,NZ_CP010358_1,117483.0,0.0,0.0,0.0,0.0,0.0
redo_RPB004_31,barcode11,Corynebacterium kroppenstedtii,NC_012704_1,2446804.0,0.2417439239,6.4355029586,5915.0,3932.0,0.0
redo_RPB004_31,barcode11,Escherichia albertii,NZ_CP007025_1,4701875.0,0.0191625681,1.0,901.0,0.0,0.0
redo_RPB004_31,barcode11,Escherichia coli,NC_000913_3,4641652.0,0.2833258504,10.8481484298,13151.0,6145.0,5599.0
redo_RPB004_31,barcode11,Herbaspirillum huttiense,NZ_CP037993_1,5691775.0,0.0937844521,1.4533533158,5338.0,0.0,0.0
redo_RPB004_31,barcode11,Shigella dysenteriae,NC_007606_1,4369232.0,0.0884823694,2.5049146405,3866.0,0.0,0.0
redo_RPB004_31,barcode11,Shigella dysenteriae,NC_007607_1,182726.0,0.0,0.0,0.0,0.0,0.0
redo_RPB004_31,barcode11,Shigella dysenteriae,NC_009344_1,8953.0,0.0,0.0,0.0,0.0,0.0
redo_RPB004_31,barcode11,Shigella flexneri,NC_004337_2,4607202.0,0.1214837118,2.8443809183,5597.0,0.0,0.0
redo_RPB004_31,barcode11,Shigella flexneri,NC_004851_1,221618.0,0.0,0.0,0.0,0.0,0.0
redo_RPB004_31,unclassified,Acinetobacter johnsonii,NZ_CP010350_1,3509795.0,0.1673602019,1.8195437521,5874.0,0.0,0.0
redo_RPB004_31,unclassified,Acinetobacter johnsonii,NZ_CP010351_1,398857.0,0.0,0.0,0.0,0.0,0.0
redo_RPB004_31,unclassified,Acinetobacter johnsonii,NZ_CP010352_1,3978.0,0.0,0.0,0.0,0.0,0.0
redo_RPB004_31,unclassified,Acinetobacter johnsonii,NZ_CP010353_1,4724.0,0.0,0.0,0.0,0.0,0.0
redo_RPB004_31,unclassified,Acinetobacter johnsonii,NZ_CP010354_1,11643.0,0.0,0.0,0.0,0.0,0.0
redo_RPB004_31,unclassified,Acinetobacter johnsonii,NZ_CP010355_1,7579.0,0.0,0.0,0.0,0.0,0.0
redo_RPB004_31,unclassified,Acinetobacter johnsonii,NZ_CP010356_1,13940.0,0.0,0.0,0.0,0.0,0.0
redo_RPB004_31,unclassified,Acinetobacter johnsonii,NZ_CP010357_1,13330.0,0.0,0.0,0.0,0.0,0.0
redo_RPB004_31,unclassified,Acinetobacter johnsonii,NZ_CP010358_1,117483.0,0.0,0.0,0.0,0.0,0.0
redo_RPB004_31,unclassified,Arthrobacter crystallopoietes,NZ_CP018863_1,4762081.0,0.0769621516,1.0,3665.0,0.0,0.0
redo_RPB004_31,unclassified,Arthrobacter crystallopoietes,NZ_CP018864_1,25865.0,0.0,0.0,0.0,0.0,0.0
redo_RPB004_31,unclassified,Arthrobacter crystallopoietes,NZ_CP018865_1,244759.0,0.0,0.0,0.0,0.0,0.0
redo_RPB004_31,unclassified,Corynebacterium kroppenstedtii,NC_012704_1,2446804.0,0.0796140598,1.0,1948.0,0.0,0.0
redo_RPB004_31,unclassified,Cutibacterium acnes,NC_006085_1,2560265.0,1.6770529613,1.4523138552,42937.0,0.0,0.0
redo_RPB004_31,unclassified,Escherichia albertii,NZ_CP007025_1,4701875.0,0.024309451,1.0,1143.0,0.0,0.0
redo_RPB004_31,unclassified,Escherichia coli,NC_000913_3,4641652.0,0.3503709455,1.2064809691,16263.0,0.0,0.0
redo_RPB004_31,unclassified,Herbaspirillum huttiense,NZ_CP037993_1,5691775.0,0.0153730602,1.0,875.0,0.0,0.0
redo_RPB004_31,unclassified,Herbaspirillum rubrisubalbicans,NZ_CP013737_1,5611261.0,0.04802842,1.0,2695.0,0.0,0.0
redo_RPB004_31,unclassified,Pantoea ananatis,NC_013956_2,4703373.0,0.0435006962,1.0,2046.0,0.0,0.0
redo_RPB004_31,unclassified,Pseudomonas sp. LPH1,NZ_CP017290_1,5229495.0,0.0116454839,1.0,609.0,0.0,0.0
redo_RPB004_31,unclassified,Pseudomonas sp. XWY-1,NZ_CP026332_1,5902716.0,0.0383044009,1.0,2261.0,0.0,0.0
redo_RPB004_31,unclassified,Pseudomonas sp. XWY-1,NZ_CP026333_1,394537.0,0.0,0.0,0.0,0.0,0.0
redo_RPB004_31,unclassified,Shewanella sp. FDAARGOS_354,NZ_CP022089_2,5031863.0,0.1877634586,2.1124047417,9448.0,0.0,0.0
redo_RPB004_31,unclassified,Shewanella sp. FDAARGOS_354,NZ_CP022090_2,38118.0,0.0,0.0,0.0,0.0,0.0
redo_RPB004_31,unclassified,Shewanella sp. W3-18-1,NC_008750_1,4708380.0,0.0946822474,1.6716016151,4458.0,0.0,0.0
redo_RPB004_31,unclassified,Shigella dysenteriae,NC_007606_1,4369232.0,0.1226760218,1.0,5360.0,0.0,0.0
redo_RPB004_31,unclassified,Shigella dysenteriae,NC_007607_1,182726.0,0.0,0.0,0.0,0.0,0.0
redo_RPB004_31,unclassified,Shigella dysenteriae,NC_009344_1,8953.0,0.0,0.0,0.0,0.0,0.0
redo_RPB004_31,unclassified,Shigella flexneri,NC_004337_2,4607202.0,0.035856904,1.0,1652.0,0.0,0.0
redo_RPB004_31,unclassified,Shigella flexneri,NC_004851_1,221618.0,0.0,0.0,0.0,0.0,0.0
redo_RPB004_31,unclassified,Staphylococcus capitis,NZ_CP007601_1,2443604.0,0.1060319102,1.0814357391,2591.0,0.0,0.0
redo_RPB004_31,unclassified,Staphylococcus capitis,NZ_CP007602_1,59661.0,0.0,0.0,0.0,0.0,0.0
redo_RPB004_31,unclassified,Staphylococcus pasteuri,NC_022737_1,2559946.0,0.3666092957,2.8200319659,9385.0,0.0,0.0
redo_RPB004_31,unclassified,Staphylococcus warneri,NC_020164_1,2486042.0,0.1271096788,1.0,3160.0,0.0,0.0
redo_RPB004_31,unclassified,Staphylococcus warneri,NC_020165_1,4374.0,0.0,0.0,0.0,0.0,0.0
redo_RPB004_31,unclassified,Staphylococcus warneri,NC_020264_1,8232.0,0.0,0.0,0.0,0.0,0.0
redo_RPB004_31,unclassified,Staphylococcus warneri,NC_020265_1,3352.0,0.0,0.0,0.0,0.0,0.0
redo_RPB004_31,unclassified,Staphylococcus warneri,NC_020266_1,19866.0,0.0,0.0,0.0,0.0,0.0
redo_RPB004_31,unclassified,Staphylococcus warneri,NC_020267_1,16515.0,0.0,0.0,0.0,0.0,0.0
redo_RPB004_31,unclassified,Staphylococcus warneri,NC_020268_1,6212.0,0.0,0.0,0.0,0.0,0.0
redo_RPB004_31,unclassified,Staphylococcus warneri,NC_020269_1,2937.0,0.0,0.0,0.0,0.0,0.0
redo_RPB004_31,unclassified,Staphylococcus warneri,NC_020274_1,13186.0,0.0,0.0,0.0,0.0,0.0
redo_RPB004_31,unclassified,Sulfitobacter donghicola,NZ_CP026367_1,2469323.0,0.2873662133,1.0,7096.0,0.0,0.0
