sample_ID	guuid	barcode	human bases	human reads	bacterial bases	bacterial reads	viral bases	viral reads	total bases	total reads
redo_RPB004_50	5e46ffdc5f87b027448563de	barcode11	0	0	1898883	464	2816	1	2228804	578
redo_RPB004_50	5e46ffdc5f87b027448563de	barcode07	95003	39	56246845	13846	0	0	59446896	14889
redo_RPB004_50	5e46ffdc5f87b027448563de	barcode05	1120891	1958	2566413	2277	2469	4	4971892	7731
redo_RPB004_50	5e46ffdc5f87b027448563de	barcode09	307882	215	507486	149	0	0	1124617	745
redo_RPB004_50	5e46ffdc5f87b027448563de	barcode10	465795	423	190827	83	0	0	867960	992
redo_RPB004_50	5e46ffdc5f87b027448563de	barcode06	217689	94	85731743	25275	3779	1	90343561	26719
redo_RPB004_50	5e46ffdc5f87b027448563de	barcode01	558962	1261	1065568	1118	2006	3	2385864	5022
redo_RPB004_50	5e46ffdc5f87b027448563de	barcode02	596	2	0	0	0	0	596	2
redo_RPB004_50	5e46ffdc5f87b027448563de	unclassified	640358	949	3364494	1182	0	0	5071300	4520
