Run_name,Barcode,Taxid,Bases,Reads
redo_RPB004_33,barcode05,Staphylococcus aureus,829508,205
redo_RPB004_33,barcode11,Staphylococcus aureus,1184673342,331969
redo_RPB004_33,barcode10,Staphylococcus aureus,626743677,171948
redo_RPB004_33,unclassified,Staphylococcus aureus,100433472,31313
redo_RPB004_33,barcode01,Staphylococcus aureus,2409,2
redo_RPB004_33,barcode06,Staphylococcus aureus,17017237,5449
redo_RPB004_33,barcode02,Staphylococcus aureus,122812,33
redo_RPB004_33,barcode09,Staphylococcus aureus,776703599,201722
redo_RPB004_33,barcode04,Moraxella osloensis,2271267,554
redo_RPB004_33,barcode04,Cutibacterium acnes,963277,244
redo_RPB004_33,barcode07,Staphylococcus aureus,760835168,206376
redo_RPB004_33,barcode03,Staphylococcus aureus,15502,5
redo_RPB004_33,barcode08,Staphylococcus aureus,29294079,8564
redo_RPB004_33,barcode12a,Staphylococcus aureus,18744,6
redo_RPB004_33,barcode12a,Peptoniphilus harei,4482,1
redo_RPB004_33,barcode12,Staphylococcus aureus,64175,16
redo_RPB004_33,barcode05,Staphylococcus phage StauST398-4,4340,1
redo_RPB004_33,unclassified,Staphylococcus phage StauST398-4,58033,18
redo_RPB004_33,unclassified,Staphylococcus phage 23MRA,17156,5
redo_RPB004_33,barcode06,Staphylococcus phage StauST398-4,26656,9
redo_RPB004_33,barcode07,Staphylococcus phage StauST398-4,1933337,505
