sample,barcode,Species name,chrom,len,covBread_1x_percent,avCov,x1,x5,x10
redo_RPB004_8,barcode02,Fusobacterium nucleatum,NZ_CP007062_1,2507720.0,0.5841960027,1.0,14650.0,0.0,0.0
redo_RPB004_8,barcode02,Fusobacterium nucleatum,NZ_CP007063_1,6309.0,0.0,0.0,0.0,0.0,0.0
redo_RPB004_8,barcode02,Staphylococcus aureus,NC_007795_1,2821361.0,0.2207799711,1.0,6229.0,0.0,0.0
redo_RPB004_8,barcode03,Fusobacterium nucleatum,NZ_CP007062_1,2507720.0,0.0097299539,1.0,244.0,0.0,0.0
redo_RPB004_8,barcode03,Fusobacterium nucleatum,NZ_CP007063_1,6309.0,0.0,0.0,0.0,0.0,0.0
redo_RPB004_8,barcode04,Fusobacterium nucleatum,NZ_CP007062_1,2507720.0,0.0521589332,1.0,1308.0,0.0,0.0
redo_RPB004_8,barcode04,Fusobacterium nucleatum,NZ_CP007063_1,6309.0,0.0,0.0,0.0,0.0,0.0
redo_RPB004_8,barcode04,Staphylococcus schleiferi,NZ_CP009470_1,2435632.0,0.2698683545,1.0,6573.0,0.0,0.0
redo_RPB004_8,barcode05,Achromobacter xylosoxidans,NZ_LN831029_1,6813182.0,0.0152938818,1.0,1042.0,0.0,0.0
redo_RPB004_8,barcode05,Aeromonas sp. ASNIH2,NZ_CP026406_1,4801408.0,0.0195984178,1.0,941.0,0.0,0.0
redo_RPB004_8,barcode05,Aeromonas sp. ASNIH2,NZ_CP026407_1,13512.0,0.0,0.0,0.0,0.0,0.0
redo_RPB004_8,barcode05,Aeromonas sp. ASNIH2,NZ_CP026408_1,29979.0,0.0,0.0,0.0,0.0,0.0
redo_RPB004_8,barcode05,Aeromonas sp. ASNIH2,NZ_CP026409_1,8238.0,0.0,0.0,0.0,0.0,0.0
redo_RPB004_8,barcode05,Aeromonas sp. ASNIH2,NZ_CP026410_1,6782.0,0.0,0.0,0.0,0.0,0.0
redo_RPB004_8,barcode05,Aeromonas sp. ASNIH2,NZ_CP026411_1,4613.0,0.0,0.0,0.0,0.0,0.0
redo_RPB004_8,barcode05,Bibersteinia trehalosi,NC_020515_1,2407846.0,0.003156348,1.0,76.0,0.0,0.0
redo_RPB004_8,barcode05,Citrobacter amalonaticus,NZ_CP011132_1,5584358.0,0.0688888499,1.0,3847.0,0.0,0.0
redo_RPB004_8,barcode05,Citrobacter amalonaticus,NZ_CP011133_1,290993.0,0.0,0.0,0.0,0.0,0.0
redo_RPB004_8,barcode05,Citrobacter farmeri,NZ_CP022695_1,5130228.0,0.0900154925,1.0,4618.0,0.0,0.0
redo_RPB004_8,barcode05,Citrobacter farmeri,NZ_CP022696_1,328945.0,0.0,0.0,0.0,0.0,0.0
redo_RPB004_8,barcode05,Citrobacter farmeri,NZ_CP022697_1,149207.0,0.0,0.0,0.0,0.0,0.0
redo_RPB004_8,barcode05,Citrobacter farmeri,NZ_CP022698_1,107249.0,0.0,0.0,0.0,0.0,0.0
redo_RPB004_8,barcode05,Citrobacter freundii,NZ_CP007557_1,5099034.0,0.1089814267,1.0,5557.0,0.0,0.0
redo_RPB004_8,barcode05,Citrobacter freundii,NZ_CP007558_1,272297.0,0.0,0.0,0.0,0.0,0.0
redo_RPB004_8,barcode05,Citrobacter koseri,NC_009792_1,4720462.0,0.0591255686,1.0,2791.0,0.0,0.0
redo_RPB004_8,barcode05,Citrobacter koseri,NC_009793_1,9294.0,0.0,0.0,0.0,0.0,0.0
redo_RPB004_8,barcode05,Citrobacter koseri,NC_009794_1,5601.0,0.0,0.0,0.0,0.0,0.0
redo_RPB004_8,barcode05,Cronobacter malonaticus,NC_023024_1,126488.0,0.0,0.0,0.0,0.0,0.0
redo_RPB004_8,barcode05,Cronobacter malonaticus,NC_023025_1,55913.0,0.0,0.0,0.0,0.0,0.0
redo_RPB004_8,barcode05,Cronobacter malonaticus,NC_023032_1,4377544.0,0.0179781174,1.0,787.0,0.0,0.0
redo_RPB004_8,barcode05,Cutibacterium acnes,NC_006085_1,2560265.0,0.5007684751,10.6178925201,12821.0,5338.0,5337.0
redo_RPB004_8,barcode05,Edwardsiella ictaluri,NC_012779_2,3812301.0,0.1039005052,1.0,3961.0,0.0,0.0
redo_RPB004_8,barcode05,Enterobacter cloacae,NC_014107_1,199562.0,0.0661448572,1.0,132.0,0.0,0.0
redo_RPB004_8,barcode05,Enterobacter cloacae,NC_014108_1,84653.0,0.0,0.0,0.0,0.0,0.0
redo_RPB004_8,barcode05,Enterobacter cloacae,NC_014121_1,5314581.0,0.050596651,1.0,2689.0,0.0,0.0
redo_RPB004_8,barcode05,Enterobacteriaceae bacterium ENNIH3,NZ_CP026197_1,5904433.0,0.0842417892,1.0,4974.0,0.0,0.0
redo_RPB004_8,barcode05,Enterobacteriaceae bacterium ENNIH3,NZ_CP026198_1,174695.0,0.0,0.0,0.0,0.0,0.0
redo_RPB004_8,barcode05,Enterococcus faecalis,NC_004668_1,3218031.0,0.0978859433,1.0,3150.0,0.0,0.0
redo_RPB004_8,barcode05,Enterococcus faecalis,NC_004669_1,66320.0,0.0,0.0,0.0,0.0,0.0
redo_RPB004_8,barcode05,Enterococcus faecalis,NC_004670_1,17963.0,0.0,0.0,0.0,0.0,0.0
redo_RPB004_8,barcode05,Enterococcus faecalis,NC_004671_1,57660.0,0.0,0.0,0.0,0.0,0.0
redo_RPB004_8,barcode05,Enterococcus faecium,NC_017960_1,2698137.0,0.1167472223,1.0,3150.0,0.0,0.0
redo_RPB004_8,barcode05,Enterococcus faecium,NC_017961_1,36262.0,0.0,0.0,0.0,0.0,0.0
redo_RPB004_8,barcode05,Enterococcus faecium,NC_017962_1,66247.0,0.0,0.0,0.0,0.0,0.0
redo_RPB004_8,barcode05,Enterococcus faecium,NC_017963_1,251926.0,0.0,0.0,0.0,0.0,0.0
redo_RPB004_8,barcode05,Escherichia albertii,NZ_CP007025_1,4701875.0,0.7856652931,1.4274654178,36941.0,0.0,0.0
redo_RPB004_8,barcode05,Escherichia coli,NC_000913_3,4641652.0,23.7446710783,8.0634181528,1102145.0,606471.0,333987.0
redo_RPB004_8,barcode05,Escherichia fergusonii,NC_011740_1,4588711.0,0.4924694538,1.6219576954,22598.0,0.0,0.0
redo_RPB004_8,barcode05,Escherichia fergusonii,NC_011743_1,55150.0,0.0,0.0,0.0,0.0,0.0
redo_RPB004_8,barcode05,Escherichia marmotae,NZ_CP025979_1,4671322.0,0.3596840466,1.0,16802.0,0.0,0.0
redo_RPB004_8,barcode05,Escherichia marmotae,NZ_CP025980_1,148809.0,0.0,0.0,0.0,0.0,0.0
redo_RPB004_8,barcode05,Escherichia marmotae,NZ_CP025981_1,76160.0,0.0,0.0,0.0,0.0,0.0
redo_RPB004_8,barcode05,Escherichia virus Mu,NC_000929_1,36717.0,5.3680856279,1.4987316083,1971.0,0.0,0.0
redo_RPB004_8,barcode05,Escherichia virus T7,NC_001604_1,39937.0,1.9480682074,1.1966580977,778.0,0.0,0.0
redo_RPB004_8,barcode05,Fusobacterium hwasookii,NZ_CP013336_1,2424685.0,0.0668128025,1.0,1620.0,0.0,0.0
redo_RPB004_8,barcode05,Fusobacterium hwasookii,NZ_CP013337_1,5838.0,0.0,0.0,0.0,0.0,0.0
redo_RPB004_8,barcode05,Fusobacterium nucleatum,NZ_CP007062_1,2507720.0,5.4270811733,1.0216464848,136096.0,0.0,0.0
redo_RPB004_8,barcode05,Fusobacterium nucleatum,NZ_CP007063_1,6309.0,0.0,0.0,0.0,0.0,0.0
redo_RPB004_8,barcode05,Klebsiella michiganensis,NC_016612_1,5974109.0,0.0887328972,1.5938502169,5301.0,716.0,0.0
redo_RPB004_8,barcode05,Klebsiella oxytoca,NZ_CP011625_1,1919.0,19.4372068786,1.0,373.0,0.0,0.0
redo_RPB004_8,barcode05,Klebsiella oxytoca,NZ_CP011626_1,6538.0,0.0,0.0,0.0,0.0,0.0
redo_RPB004_8,barcode05,Klebsiella oxytoca,NZ_CP011627_1,14274.0,0.0,0.0,0.0,0.0,0.0
redo_RPB004_8,barcode05,Klebsiella oxytoca,NZ_CP011628_1,16069.0,0.0,0.0,0.0,0.0,0.0
redo_RPB004_8,barcode05,Klebsiella oxytoca,NZ_CP011629_1,33610.0,0.0,0.0,0.0,0.0,0.0
redo_RPB004_8,barcode05,Klebsiella oxytoca,NZ_CP011630_1,49200.0,0.0,0.0,0.0,0.0,0.0
redo_RPB004_8,barcode05,Klebsiella oxytoca,NZ_CP011631_1,53596.0,0.0,0.0,0.0,0.0,0.0
redo_RPB004_8,barcode05,Klebsiella oxytoca,NZ_CP011632_1,83652.0,0.0,0.0,0.0,0.0,0.0
redo_RPB004_8,barcode05,Klebsiella oxytoca,NZ_CP011633_1,150318.0,0.0,0.0,0.0,0.0,0.0
redo_RPB004_8,barcode05,Klebsiella oxytoca,NZ_CP011634_1,227680.0,0.0,0.0,0.0,0.0,0.0
redo_RPB004_8,barcode05,Klebsiella oxytoca,NZ_CP011635_1,332956.0,0.0,0.0,0.0,0.0,0.0
redo_RPB004_8,barcode05,Klebsiella oxytoca,NZ_CP011636_1,6257473.0,0.0129924652,2.5067650677,813.0,0.0,0.0
redo_RPB004_8,barcode05,Klebsiella pneumoniae,NC_016838_1,122799.0,0.0,0.0,0.0,0.0,0.0
redo_RPB004_8,barcode05,Klebsiella pneumoniae,NC_016839_1,105974.0,0.0,0.0,0.0,0.0,0.0
redo_RPB004_8,barcode05,Klebsiella pneumoniae,NC_016840_1,3751.0,0.0,0.0,0.0,0.0,0.0
redo_RPB004_8,barcode05,Klebsiella pneumoniae,NC_016841_1,1308.0,0.0,0.0,0.0,0.0,0.0
redo_RPB004_8,barcode05,Klebsiella pneumoniae,NC_016845_1,5333942.0,0.2379478442,1.0635833596,12692.0,0.0,0.0
redo_RPB004_8,barcode05,Klebsiella pneumoniae,NC_016846_1,111195.0,0.0,0.0,0.0,0.0,0.0
redo_RPB004_8,barcode05,Klebsiella pneumoniae,NC_016847_1,3353.0,12.1682075753,85.3921568627,408.0,397.0,394.0
redo_RPB004_8,barcode05,Klebsiella quasipneumoniae,NZ_CP014696_2,5284734.0,0.093363261,1.0,4934.0,0.0,0.0
redo_RPB004_8,barcode05,Klebsiella quasipneumoniae,NZ_CP014697_2,152001.0,0.0,0.0,0.0,0.0,0.0
redo_RPB004_8,barcode05,Klebsiella quasipneumoniae,NZ_CP014698_2,77127.0,0.0,0.0,0.0,0.0,0.0
redo_RPB004_8,barcode05,Lelliottia jeotgali,NZ_CP018628_1,4603334.0,0.0035409119,1.0,163.0,0.0,0.0
redo_RPB004_8,barcode05,Pantoea stewartii,NZ_CP017581_1,4528215.0,0.0969476935,1.0,4390.0,0.0,0.0
redo_RPB004_8,barcode05,Pantoea stewartii,NZ_CP017582_1,4277.0,0.0,0.0,0.0,0.0,0.0
redo_RPB004_8,barcode05,Pantoea stewartii,NZ_CP017583_1,4368.0,0.0,0.0,0.0,0.0,0.0
redo_RPB004_8,barcode05,Pantoea stewartii,NZ_CP017584_1,13414.0,0.0,0.0,0.0,0.0,0.0
redo_RPB004_8,barcode05,Pantoea stewartii,NZ_CP017585_1,25681.0,0.0,0.0,0.0,0.0,0.0
redo_RPB004_8,barcode05,Pantoea stewartii,NZ_CP017586_1,34447.0,0.0,0.0,0.0,0.0,0.0
redo_RPB004_8,barcode05,Pantoea stewartii,NZ_CP017587_1,47481.0,0.0,0.0,0.0,0.0,0.0
redo_RPB004_8,barcode05,Pantoea stewartii,NZ_CP017588_1,65483.0,0.0,0.0,0.0,0.0,0.0
redo_RPB004_8,barcode05,Pantoea stewartii,NZ_CP017589_1,105961.0,0.0,0.0,0.0,0.0,0.0
redo_RPB004_8,barcode05,Pantoea stewartii,NZ_CP017590_1,132938.0,0.0,0.0,0.0,0.0,0.0
redo_RPB004_8,barcode05,Pantoea stewartii,NZ_CP017591_1,304641.0,0.0,0.0,0.0,0.0,0.0
redo_RPB004_8,barcode05,Pantoea stewartii,NZ_CP017592_1,47186.0,0.0,0.0,0.0,0.0,0.0
redo_RPB004_8,barcode05,Pluralibacter gergoviae,NZ_CP009450_1,5489680.0,0.0586008656,1.0,3217.0,0.0,0.0
redo_RPB004_8,barcode05,Raoultella terrigena,NZ_LR131271_1,6073951.0,0.035248885,1.0,2141.0,0.0,0.0
redo_RPB004_8,barcode05,Salmonella enterica,NC_003197_2,4857450.0,0.5128616867,1.0,24912.0,0.0,0.0
redo_RPB004_8,barcode05,Salmonella enterica,NC_003277_2,93933.0,0.0,0.0,0.0,0.0,0.0
redo_RPB004_8,barcode05,Shigella dysenteriae,NC_007606_1,4369232.0,2.8545977874,1.2702928065,124724.0,0.0,0.0
redo_RPB004_8,barcode05,Shigella dysenteriae,NC_007607_1,182726.0,0.2243796723,1.0,410.0,0.0,0.0
redo_RPB004_8,barcode05,Shigella dysenteriae,NC_009344_1,8953.0,0.0,0.0,0.0,0.0,0.0
redo_RPB004_8,barcode05,Shigella flexneri,NC_004337_2,4607202.0,2.0955886024,1.3480134234,96548.0,0.0,0.0
redo_RPB004_8,barcode05,Shigella flexneri,NC_004851_1,221618.0,0.0,0.0,0.0,0.0,0.0
redo_RPB004_8,barcode05,Sodalis glossinidius,NC_007712_1,4171146.0,0.0886087421,1.0,3696.0,0.0,0.0
redo_RPB004_8,barcode05,Sodalis glossinidius,NC_007713_1,83306.0,0.0,0.0,0.0,0.0,0.0
redo_RPB004_8,barcode05,Sodalis glossinidius,NC_007714_1,27240.0,0.0,0.0,0.0,0.0,0.0
redo_RPB004_8,barcode05,Sodalis glossinidius,NC_007715_1,10810.0,0.0,0.0,0.0,0.0,0.0
redo_RPB004_8,barcode05,Staphylococcus aureus,NC_007795_1,2821361.0,0.2937589341,1.0,8288.0,0.0,0.0
redo_RPB004_8,barcode05,Staphylococcus schleiferi,NZ_CP009470_1,2435632.0,0.1094993004,1.0,2667.0,0.0,0.0
redo_RPB004_8,barcode05,Vibrio campbellii,NC_009777_1,89008.0,0.0,0.0,0.0,0.0,0.0
redo_RPB004_8,barcode05,Vibrio campbellii,NC_009783_1,3765351.0,0.0244067552,1.0,919.0,0.0,0.0
redo_RPB004_8,barcode05,Vibrio campbellii,NC_009784_1,2204018.0,0.0,0.0,0.0,0.0,0.0
redo_RPB004_8,barcode06,Brenneria goodwinii,NZ_CP014137_1,5360730.0,0.0453109931,1.0,2429.0,0.0,0.0
redo_RPB004_8,barcode06,Citrobacter freundii,NZ_CP007557_1,5099034.0,0.0110216955,1.0,562.0,0.0,0.0
redo_RPB004_8,barcode06,Citrobacter freundii,NZ_CP007558_1,272297.0,0.0,0.0,0.0,0.0,0.0
redo_RPB004_8,barcode06,Citrobacter koseri,NC_009792_1,4720462.0,0.214428164,1.0,10122.0,0.0,0.0
redo_RPB004_8,barcode06,Citrobacter koseri,NC_009793_1,9294.0,0.0,0.0,0.0,0.0,0.0
redo_RPB004_8,barcode06,Citrobacter koseri,NC_009794_1,5601.0,0.0,0.0,0.0,0.0,0.0
redo_RPB004_8,barcode06,Citrobacter rodentium,NC_013716_1,5346659.0,0.2245140376,1.0,12004.0,0.0,0.0
redo_RPB004_8,barcode06,Citrobacter rodentium,NC_013717_1,54449.0,0.0,0.0,0.0,0.0,0.0
redo_RPB004_8,barcode06,Citrobacter rodentium,NC_013718_1,39265.0,0.0,0.0,0.0,0.0,0.0
redo_RPB004_8,barcode06,Citrobacter rodentium,NC_013719_1,3910.0,0.0,0.0,0.0,0.0,0.0
redo_RPB004_8,barcode06,Cronobacter dublinensis,NZ_CP012266_1,4431067.0,0.0588571556,1.9432515337,2608.0,0.0,0.0
redo_RPB004_8,barcode06,Cronobacter dublinensis,NZ_CP012267_1,197338.0,0.0,0.0,0.0,0.0,0.0
redo_RPB004_8,barcode06,Cutibacterium acnes,NC_006085_1,2560265.0,0.0589782698,1.0,1510.0,0.0,0.0
redo_RPB004_8,barcode06,Edwardsiella ictaluri,NC_012779_2,3812301.0,0.133672551,1.0,5096.0,0.0,0.0
redo_RPB004_8,barcode06,Enterobacter hormaechei,NZ_CP017179_1,4782480.0,0.2320971546,1.0,11100.0,0.0,0.0
redo_RPB004_8,barcode06,Escherichia albertii,NZ_CP007025_1,4701875.0,0.1890735079,1.0,8890.0,0.0,0.0
redo_RPB004_8,barcode06,Escherichia coli,NC_000913_3,4641652.0,16.1910888623,12.9839820953,751534.0,527591.0,343993.0
redo_RPB004_8,barcode06,Escherichia fergusonii,NC_011740_1,4588711.0,0.2965320762,1.2317924598,13607.0,0.0,0.0
redo_RPB004_8,barcode06,Escherichia fergusonii,NC_011743_1,55150.0,0.0,0.0,0.0,0.0,0.0
redo_RPB004_8,barcode06,Escherichia marmotae,NZ_CP025979_1,4671322.0,0.0469674323,1.0,2194.0,0.0,0.0
redo_RPB004_8,barcode06,Escherichia marmotae,NZ_CP025980_1,148809.0,0.0,0.0,0.0,0.0,0.0
redo_RPB004_8,barcode06,Escherichia marmotae,NZ_CP025981_1,76160.0,0.0,0.0,0.0,0.0,0.0
redo_RPB004_8,barcode06,Escherichia virus T7,NC_001604_1,39937.0,0.2128352155,1.0,85.0,0.0,0.0
redo_RPB004_8,barcode06,Fusobacterium hwasookii,NZ_CP013336_1,2424685.0,0.0379018305,1.0,919.0,0.0,0.0
redo_RPB004_8,barcode06,Fusobacterium hwasookii,NZ_CP013337_1,5838.0,0.0,0.0,0.0,0.0,0.0
redo_RPB004_8,barcode06,Fusobacterium nucleatum,NZ_CP007062_1,2507720.0,3.6200612509,1.000022031,90781.0,0.0,0.0
redo_RPB004_8,barcode06,Fusobacterium nucleatum,NZ_CP007063_1,6309.0,0.0,0.0,0.0,0.0,0.0
redo_RPB004_8,barcode06,Klebsiella michiganensis,NC_016612_1,5974109.0,0.0937210888,1.3063046973,5599.0,0.0,0.0
redo_RPB004_8,barcode06,Klebsiella pneumoniae,NC_016838_1,122799.0,0.0,0.0,0.0,0.0,0.0
redo_RPB004_8,barcode06,Klebsiella pneumoniae,NC_016839_1,105974.0,0.0,0.0,0.0,0.0,0.0
redo_RPB004_8,barcode06,Klebsiella pneumoniae,NC_016840_1,3751.0,0.0,0.0,0.0,0.0,0.0
redo_RPB004_8,barcode06,Klebsiella pneumoniae,NC_016841_1,1308.0,0.0,0.0,0.0,0.0,0.0
redo_RPB004_8,barcode06,Klebsiella pneumoniae,NC_016845_1,5333942.0,0.283767615,1.6783826638,15136.0,0.0,0.0
redo_RPB004_8,barcode06,Klebsiella pneumoniae,NC_016846_1,111195.0,0.0,0.0,0.0,0.0,0.0
redo_RPB004_8,barcode06,Klebsiella pneumoniae,NC_016847_1,3353.0,12.1980316135,97.391198044,409.0,397.0,394.0
redo_RPB004_8,barcode06,Klebsiella quasipneumoniae,NZ_CP014696_2,5284734.0,0.0976586523,1.0,5161.0,0.0,0.0
redo_RPB004_8,barcode06,Klebsiella quasipneumoniae,NZ_CP014697_2,152001.0,0.0,0.0,0.0,0.0,0.0
redo_RPB004_8,barcode06,Klebsiella quasipneumoniae,NZ_CP014698_2,77127.0,0.0,0.0,0.0,0.0,0.0
redo_RPB004_8,barcode06,Klebsiella variicola,NC_013850_1,5458505.0,0.0861591223,1.0,4703.0,0.0,0.0
redo_RPB004_8,barcode06,Leclercia adecarboxylata,NZ_CP013990_1,4803917.0,0.0990441758,1.0,4758.0,0.0,0.0
redo_RPB004_8,barcode06,Pectobacterium carotovorum,NC_012917_1,4862913.0,0.021633124,1.0,1052.0,0.0,0.0
redo_RPB004_8,barcode06,Pluralibacter gergoviae,NZ_CP009450_1,5489680.0,0.0438459072,1.0,2407.0,0.0,0.0
redo_RPB004_8,barcode06,Raoultella electrica,NZ_CP041247_1,5266426.0,0.1077391005,1.0,5674.0,0.0,0.0
redo_RPB004_8,barcode06,Raoultella electrica,NZ_CP041248_1,303830.0,0.0,0.0,0.0,0.0,0.0
redo_RPB004_8,barcode06,Raoultella electrica,NZ_CP041249_1,92370.0,0.0,0.0,0.0,0.0,0.0
redo_RPB004_8,barcode06,Raoultella electrica,NZ_CP041250_1,83988.0,0.0,0.0,0.0,0.0,0.0
redo_RPB004_8,barcode06,Raoultella electrica,NZ_CP041251_1,35253.0,0.0,0.0,0.0,0.0,0.0
redo_RPB004_8,barcode06,Raoultella electrica,NZ_CP041252_1,3336.0,0.0,0.0,0.0,0.0,0.0
redo_RPB004_8,barcode06,Salmonella enterica,NC_003197_2,4857450.0,0.2364615179,3.0960299495,11486.0,4766.0,0.0
redo_RPB004_8,barcode06,Salmonella enterica,NC_003277_2,93933.0,0.0,0.0,0.0,0.0,0.0
redo_RPB004_8,barcode06,Serratia marcescens,NZ_HG326223_1,5113802.0,0.1237435474,1.0,6328.0,0.0,0.0
redo_RPB004_8,barcode06,Serratia sp. YD25,NZ_CP016948_1,5117644.0,0.0037126459,1.0,190.0,0.0,0.0
redo_RPB004_8,barcode06,Shigella dysenteriae,NC_007606_1,4369232.0,2.384057427,2.2188547017,104165.0,10732.0,4613.0
redo_RPB004_8,barcode06,Shigella dysenteriae,NC_007607_1,182726.0,0.0,0.0,0.0,0.0,0.0
redo_RPB004_8,barcode06,Shigella dysenteriae,NC_009344_1,8953.0,0.0,0.0,0.0,0.0,0.0
redo_RPB004_8,barcode06,Shigella flexneri,NC_004337_2,4607202.0,2.95552485,1.3270909986,136167.0,0.0,0.0
redo_RPB004_8,barcode06,Shigella flexneri,NC_004851_1,221618.0,0.0,0.0,0.0,0.0,0.0
redo_RPB004_8,barcode06,Shigella sp. PAMC 28760,NZ_CP014768_1,4558287.0,0.2770997087,16.8484680548,12631.0,11977.0,6935.0
redo_RPB004_8,barcode06,Staphylococcus aureus,NC_007795_1,2821361.0,0.4050172948,1.0,11427.0,0.0,0.0
redo_RPB004_8,barcode06,Staphylococcus schleiferi,NZ_CP009470_1,2435632.0,0.3983770947,1.0,9703.0,0.0,0.0
redo_RPB004_8,barcode06,Xenorhabdus bovienii,NC_013892_1,4225498.0,0.0402082784,1.0,1699.0,0.0,0.0
redo_RPB004_8,barcode06,Yersinia enterocolitica,NC_008791_1,67721.0,0.0,0.0,0.0,0.0,0.0
redo_RPB004_8,barcode06,Yersinia enterocolitica,NC_008800_1,4615899.0,0.0031629808,1.0,146.0,0.0,0.0
redo_RPB004_8,barcode07,Escherichia coli,NC_000913_3,4641652.0,0.0945783958,1.0,4390.0,0.0,0.0
redo_RPB004_8,barcode08,Acholeplasma hippikon,NZ_LR215050_1,1456175.0,0.0061119028,1.0,89.0,0.0,0.0
redo_RPB004_8,barcode08,Acholeplasma hippikon,NZ_LR215051_1,9492.0,0.0,0.0,0.0,0.0,0.0
redo_RPB004_8,barcode08,Acinetobacter baumannii,NZ_CP009257_1,4335793.0,0.0219798316,1.0,953.0,0.0,0.0
redo_RPB004_8,barcode08,Ammonifex degensii,NC_013385_1,2129237.0,0.0116473648,1.0,248.0,0.0,0.0
redo_RPB004_8,barcode08,Ammonifex degensii,NC_013386_1,27830.0,0.0,0.0,0.0,0.0,0.0
redo_RPB004_8,barcode08,Auricoccus indicus,NZ_CP019573_1,1745789.0,0.0510370955,1.0,891.0,0.0,0.0
redo_RPB004_8,barcode08,Bacillus anthracis,NC_003997_3,5227293.0,0.0419528808,1.0,2193.0,0.0,0.0
redo_RPB004_8,barcode08,Bacillus cereus,NC_004721_2,15274.0,0.0,0.0,0.0,0.0,0.0
redo_RPB004_8,barcode08,Bacillus cereus,NC_004722_1,5411809.0,0.0972133348,1.0,5261.0,0.0,0.0
redo_RPB004_8,barcode08,Bacillus cytotoxicus,NC_009673_1,7135.0,0.0,0.0,0.0,0.0,0.0
redo_RPB004_8,barcode08,Bacillus cytotoxicus,NC_009674_1,4087024.0,0.0876921692,1.0,3584.0,0.0,0.0
redo_RPB004_8,barcode08,Bacillus licheniformis,NC_006270_3,4222597.0,0.0052574281,1.0,222.0,0.0,0.0
redo_RPB004_8,barcode08,Bacillus subtilis,NC_000964_3,4215606.0,0.003107501,1.0,131.0,0.0,0.0
redo_RPB004_8,barcode08,Bacillus thermocopriae,NZ_CP026365_1,2843874.0,0.0246846379,3.9131054131,702.0,0.0,0.0
redo_RPB004_8,barcode08,Bacillus thuringiensis,NC_020124_1,17706.0,0.0,0.0,0.0,0.0,0.0
redo_RPB004_8,barcode08,Bacillus thuringiensis,NC_022873_1,6002284.0,0.0642088911,1.0,3854.0,0.0,0.0
redo_RPB004_8,barcode08,Bacillus thuringiensis,NC_022874_1,45206.0,0.0,0.0,0.0,0.0,0.0
redo_RPB004_8,barcode08,Bacillus thuringiensis,NC_022875_1,49195.0,0.0,0.0,0.0,0.0,0.0
redo_RPB004_8,barcode08,Bacillus thuringiensis,NC_022876_1,146276.0,0.0,0.0,0.0,0.0,0.0
redo_RPB004_8,barcode08,Bacillus thuringiensis,NC_022877_1,171593.0,0.0,0.0,0.0,0.0,0.0
redo_RPB004_8,barcode08,Bacillus thuringiensis,NC_022882_1,240661.0,0.0,0.0,0.0,0.0,0.0
redo_RPB004_8,barcode08,Bradyrhizobium sp. S23321,NC_017082_1,7231841.0,0.0171740501,1.0,1242.0,0.0,0.0
redo_RPB004_8,barcode08,Brenneria nigrifluens,NZ_CP034036_1,4891702.0,0.0160066987,1.0817369093,783.0,0.0,0.0
redo_RPB004_8,barcode08,Cedecea neteri,NZ_CP009451_1,4876443.0,0.0089819567,1.0,438.0,0.0,0.0
redo_RPB004_8,barcode08,Citrobacter amalonaticus,NZ_CP011132_1,5584358.0,0.0686202425,1.0,3832.0,0.0,0.0
redo_RPB004_8,barcode08,Citrobacter amalonaticus,NZ_CP011133_1,290993.0,0.0,0.0,0.0,0.0,0.0
redo_RPB004_8,barcode08,Citrobacter freundii,NZ_CP007557_1,5099034.0,0.0757202247,1.0,3861.0,0.0,0.0
redo_RPB004_8,barcode08,Citrobacter freundii,NZ_CP007558_1,272297.0,0.0,0.0,0.0,0.0,0.0
redo_RPB004_8,barcode08,Citrobacter koseri,NC_009792_1,4720462.0,0.0896946104,1.0,4234.0,0.0,0.0
redo_RPB004_8,barcode08,Citrobacter koseri,NC_009793_1,9294.0,0.0,0.0,0.0,0.0,0.0
redo_RPB004_8,barcode08,Citrobacter koseri,NC_009794_1,5601.0,0.0,0.0,0.0,0.0,0.0
redo_RPB004_8,barcode08,Citrobacter rodentium,NC_013716_1,5346659.0,0.0263903122,1.0,1411.0,0.0,0.0
redo_RPB004_8,barcode08,Citrobacter rodentium,NC_013717_1,54449.0,0.0,0.0,0.0,0.0,0.0
redo_RPB004_8,barcode08,Citrobacter rodentium,NC_013718_1,39265.0,0.0,0.0,0.0,0.0,0.0
redo_RPB004_8,barcode08,Citrobacter rodentium,NC_013719_1,3910.0,0.0,0.0,0.0,0.0,0.0
redo_RPB004_8,barcode08,Citrobacter werkmanii,NZ_CP019986_1,4929789.0,0.0619499131,1.0,3054.0,0.0,0.0
redo_RPB004_8,barcode08,Citrobacter werkmanii,NZ_CP019987_1,212549.0,0.0,0.0,0.0,0.0,0.0
redo_RPB004_8,barcode08,Cutibacterium acnes,NC_006085_1,2560265.0,1.017160333,11.1972582751,26042.0,15592.0,5881.0
redo_RPB004_8,barcode08,Dickeya dadantii,NC_014500_1,4922802.0,0.0555781037,1.0,2736.0,0.0,0.0
redo_RPB004_8,barcode08,Edwardsiella piscicida,NC_020796_1,3857040.0,0.071946363,1.0,2775.0,0.0,0.0
redo_RPB004_8,barcode08,Enterobacter cancerogenus,NZ_CP025225_1,4796512.0,0.0576252077,1.0,2764.0,0.0,0.0
redo_RPB004_8,barcode08,Enterobacter cloacae,NC_014107_1,199562.0,0.0,0.0,0.0,0.0,0.0
redo_RPB004_8,barcode08,Enterobacter cloacae,NC_014108_1,84653.0,0.0,0.0,0.0,0.0,0.0
redo_RPB004_8,barcode08,Enterobacter cloacae,NC_014121_1,5314581.0,0.0430890036,1.0,2290.0,0.0,0.0
redo_RPB004_8,barcode08,Enterobacter cloacae complex sp.,NZ_CP026975_1,4876999.0,0.0542751803,1.0,2647.0,0.0,0.0
redo_RPB004_8,barcode08,Enterobacter hormaechei,NZ_CP017179_1,4782480.0,0.0870468878,1.0,4163.0,0.0,0.0
redo_RPB004_8,barcode08,Enterobacter roggenkampii,NZ_CP017184_1,4748414.0,0.1185659043,1.0,5630.0,0.0,0.0
redo_RPB004_8,barcode08,Enterobacter roggenkampii,NZ_CP017185_1,151583.0,0.0,0.0,0.0,0.0,0.0
redo_RPB004_8,barcode08,Enterobacter sp. FY-07,NZ_CP012487_1,5118646.0,0.0168794638,1.0,864.0,0.0,0.0
redo_RPB004_8,barcode08,Enterobacter sp. FY-07,NZ_CP012488_1,13955.0,0.0,0.0,0.0,0.0,0.0
redo_RPB004_8,barcode08,Enterobacter sp. FY-07,NZ_CP012489_1,3776.0,0.0,0.0,0.0,0.0,0.0
redo_RPB004_8,barcode08,Enterobacter sp. FY-07,NZ_CP012490_1,2324.0,0.0,0.0,0.0,0.0,0.0
redo_RPB004_8,barcode08,Enterobacter sp. SA187,NZ_CP019113_1,4429597.0,0.0949973553,1.0,4208.0,0.0,0.0
redo_RPB004_8,barcode08,Enterobacteriaceae bacterium strain FGI 57,NC_020063_1,4762179.0,0.1619006761,1.0,7710.0,0.0,0.0
redo_RPB004_8,barcode08,Enterococcus faecalis,NC_004668_1,3218031.0,0.0,0.0,0.0,0.0,0.0
redo_RPB004_8,barcode08,Enterococcus faecalis,NC_004669_1,66320.0,0.3060916767,1.0,203.0,0.0,0.0
redo_RPB004_8,barcode08,Enterococcus faecalis,NC_004670_1,17963.0,0.0,0.0,0.0,0.0,0.0
redo_RPB004_8,barcode08,Enterococcus faecalis,NC_004671_1,57660.0,0.0,0.0,0.0,0.0,0.0
redo_RPB004_8,barcode08,Enterococcus faecium,NC_017960_1,2698137.0,0.1166360344,1.0,3147.0,0.0,0.0
redo_RPB004_8,barcode08,Enterococcus faecium,NC_017961_1,36262.0,0.0,0.0,0.0,0.0,0.0
redo_RPB004_8,barcode08,Enterococcus faecium,NC_017962_1,66247.0,0.0,0.0,0.0,0.0,0.0
redo_RPB004_8,barcode08,Enterococcus faecium,NC_017963_1,251926.0,0.0,0.0,0.0,0.0,0.0
redo_RPB004_8,barcode08,Escherichia albertii,NZ_CP007025_1,4701875.0,1.6307749568,1.361620825,76677.0,0.0,0.0
redo_RPB004_8,barcode08,Escherichia coli,NC_000913_3,4641652.0,48.2413158074,6.8337107013,2239194.0,1083603.0,460715.0
redo_RPB004_8,barcode08,Escherichia fergusonii,NC_011740_1,4588711.0,1.1762998367,1.0345517535,53977.0,0.0,0.0
redo_RPB004_8,barcode08,Escherichia fergusonii,NC_011743_1,55150.0,0.0,0.0,0.0,0.0,0.0
redo_RPB004_8,barcode08,Escherichia marmotae,NZ_CP025979_1,4671322.0,0.5327185752,1.0,24885.0,0.0,0.0
redo_RPB004_8,barcode08,Escherichia marmotae,NZ_CP025980_1,148809.0,0.0,0.0,0.0,0.0,0.0
redo_RPB004_8,barcode08,Escherichia marmotae,NZ_CP025981_1,76160.0,0.0,0.0,0.0,0.0,0.0
redo_RPB004_8,barcode08,Escherichia virus Mu,NC_000929_1,36717.0,5.324509083,1.0,1955.0,0.0,0.0
redo_RPB004_8,barcode08,Escherichia virus T7,NC_001604_1,39937.0,2.0482259559,3.8227383863,818.0,152.0,65.0
redo_RPB004_8,barcode08,Fusobacterium gonidiaformans,NZ_CP028106_1,1678881.0,0.0054798404,1.0,92.0,0.0,0.0
redo_RPB004_8,barcode08,Fusobacterium hwasookii,NZ_CP013336_1,2424685.0,5.5528450087,34.3663203084,134639.0,47501.0,33524.0
redo_RPB004_8,barcode08,Fusobacterium hwasookii,NZ_CP013337_1,5838.0,0.0,0.0,0.0,0.0,0.0
redo_RPB004_8,barcode08,Fusobacterium mortiferum,NZ_CP028102_1,2716766.0,0.0887820298,1.0,2412.0,0.0,0.0
redo_RPB004_8,barcode08,Fusobacterium necrophorum,NZ_CP028107_1,2286018.0,0.0079614421,1.0,182.0,0.0,0.0
redo_RPB004_8,barcode08,Fusobacterium nucleatum,NZ_CP007062_1,2507720.0,79.498628236,363.2251907727,1993603.0,1952302.0,1940066.0
redo_RPB004_8,barcode08,Fusobacterium nucleatum,NZ_CP007063_1,6309.0,0.0,0.0,0.0,0.0,0.0
redo_RPB004_8,barcode08,Fusobacterium periodonticum,NZ_CP024698_1,2222370.0,1.1770317274,49.1718403548,26158.0,10545.0,8458.0
redo_RPB004_8,barcode08,Gemella haemolysans,NZ_LR134484_1,1926227.0,0.0105906521,1.0,204.0,0.0,0.0
redo_RPB004_8,barcode08,Granulosicoccus antarcticus,NZ_CP018632_1,7783862.0,0.0011819326,1.0,92.0,0.0,0.0
redo_RPB004_8,barcode08,Hafnia alvei,NZ_CP009706_1,4712721.0,0.0147897573,1.0,697.0,0.0,0.0
redo_RPB004_8,barcode08,Hydrogenophaga sp. PBC,NZ_CP017311_1,5232477.0,0.0152700146,1.0,799.0,0.0,0.0
redo_RPB004_8,barcode08,Ilyobacter polytropus,NC_014632_1,2046464.0,0.0294654585,1.0,603.0,0.0,0.0
redo_RPB004_8,barcode08,Ilyobacter polytropus,NC_014633_1,961624.0,0.0,0.0,0.0,0.0,0.0
redo_RPB004_8,barcode08,Ilyobacter polytropus,NC_014634_1,124226.0,0.0,0.0,0.0,0.0,0.0
redo_RPB004_8,barcode08,Janthinobacterium svalbardensis,NZ_CP023422_1,6274078.0,0.0615389225,1.0,3861.0,0.0,0.0
redo_RPB004_8,barcode08,Klebsiella aerogenes,NC_015663_1,5280350.0,0.160178776,1.0,8458.0,0.0,0.0
redo_RPB004_8,barcode08,Klebsiella michiganensis,NC_016612_1,5974109.0,0.0709729267,1.7801886792,4240.0,731.0,0.0
redo_RPB004_8,barcode08,Klebsiella oxytoca,NZ_CP011625_1,1919.0,21.7300677436,1.0,417.0,0.0,0.0
redo_RPB004_8,barcode08,Klebsiella oxytoca,NZ_CP011626_1,6538.0,0.0,0.0,0.0,0.0,0.0
redo_RPB004_8,barcode08,Klebsiella oxytoca,NZ_CP011627_1,14274.0,0.0,0.0,0.0,0.0,0.0
redo_RPB004_8,barcode08,Klebsiella oxytoca,NZ_CP011628_1,16069.0,0.0,0.0,0.0,0.0,0.0
redo_RPB004_8,barcode08,Klebsiella oxytoca,NZ_CP011629_1,33610.0,0.0,0.0,0.0,0.0,0.0
redo_RPB004_8,barcode08,Klebsiella oxytoca,NZ_CP011630_1,49200.0,0.0,0.0,0.0,0.0,0.0
redo_RPB004_8,barcode08,Klebsiella oxytoca,NZ_CP011631_1,53596.0,0.0,0.0,0.0,0.0,0.0
redo_RPB004_8,barcode08,Klebsiella oxytoca,NZ_CP011632_1,83652.0,0.0,0.0,0.0,0.0,0.0
redo_RPB004_8,barcode08,Klebsiella oxytoca,NZ_CP011633_1,150318.0,0.0,0.0,0.0,0.0,0.0
redo_RPB004_8,barcode08,Klebsiella oxytoca,NZ_CP011634_1,227680.0,0.0,0.0,0.0,0.0,0.0
redo_RPB004_8,barcode08,Klebsiella oxytoca,NZ_CP011635_1,332956.0,0.0,0.0,0.0,0.0,0.0
redo_RPB004_8,barcode08,Klebsiella oxytoca,NZ_CP011636_1,6257473.0,0.0579147525,1.0013796909,3624.0,0.0,0.0
redo_RPB004_8,barcode08,Klebsiella pneumoniae,NC_016838_1,122799.0,0.0,0.0,0.0,0.0,0.0
redo_RPB004_8,barcode08,Klebsiella pneumoniae,NC_016839_1,105974.0,0.0,0.0,0.0,0.0,0.0
redo_RPB004_8,barcode08,Klebsiella pneumoniae,NC_016840_1,3751.0,0.0,0.0,0.0,0.0,0.0
redo_RPB004_8,barcode08,Klebsiella pneumoniae,NC_016841_1,1308.0,0.0,0.0,0.0,0.0,0.0
redo_RPB004_8,barcode08,Klebsiella pneumoniae,NC_016845_1,5333942.0,0.628915725,1.2647707625,33546.0,0.0,0.0
redo_RPB004_8,barcode08,Klebsiella pneumoniae,NC_016846_1,111195.0,0.0,0.0,0.0,0.0,0.0
redo_RPB004_8,barcode08,Klebsiella pneumoniae,NC_016847_1,3353.0,12.3471518044,129.0748792271,414.0,401.0,400.0
redo_RPB004_8,barcode08,Kluyvera intermedia,NZ_CP011598_1,43621.0,0.0,0.0,0.0,0.0,0.0
redo_RPB004_8,barcode08,Kluyvera intermedia,NZ_CP011599_1,82986.0,0.0,0.0,0.0,0.0,0.0
redo_RPB004_8,barcode08,Kluyvera intermedia,NZ_CP011600_1,215092.0,0.0,0.0,0.0,0.0,0.0
redo_RPB004_8,barcode08,Kluyvera intermedia,NZ_CP011601_1,295619.0,0.0,0.0,0.0,0.0,0.0
redo_RPB004_8,barcode08,Kluyvera intermedia,NZ_CP011602_1,5529134.0,0.0576582156,1.0,3188.0,0.0,0.0
redo_RPB004_8,barcode08,Leclercia adecarboxylata,NZ_CP013990_1,4803917.0,0.0502090273,1.0,2412.0,0.0,0.0
redo_RPB004_8,barcode08,Leclercia sp. LSNIH1,NZ_CP026167_1,4832521.0,0.0798341073,1.0,3858.0,0.0,0.0
redo_RPB004_8,barcode08,Leclercia sp. LSNIH1,NZ_CP026168_1,50622.0,0.0,0.0,0.0,0.0,0.0
redo_RPB004_8,barcode08,Leclercia sp. LSNIH1,NZ_CP026169_1,58627.0,0.0,0.0,0.0,0.0,0.0
redo_RPB004_8,barcode08,Leclercia sp. LSNIH1,NZ_CP026170_1,128920.0,0.0,0.0,0.0,0.0,0.0
redo_RPB004_8,barcode08,Leclercia sp. LSNIH1,NZ_CP026171_1,341250.0,0.0,0.0,0.0,0.0,0.0
redo_RPB004_8,barcode08,Lelliottia amnigena,NZ_CP015774_2,4616122.0,0.0605703229,1.0,2796.0,0.0,0.0
redo_RPB004_8,barcode08,Lelliottia sp. WB101,NZ_CP028520_1,4607442.0,0.0349000595,1.0,1608.0,0.0,0.0
redo_RPB004_8,barcode08,Lelliottia sp. WB101,NZ_CP028521_1,126628.0,0.0,0.0,0.0,0.0,0.0
redo_RPB004_8,barcode08,Leptotrichia hongkongensis,NZ_AP019846_1,2261073.0,0.0100394813,1.0,227.0,0.0,0.0
redo_RPB004_8,barcode08,Leptotrichia hongkongensis,NZ_AP019847_1,23107.0,0.0,0.0,0.0,0.0,0.0
redo_RPB004_8,barcode08,Leptotrichia sp. oral taxon 847,NZ_CP014231_1,2194935.0,0.0105242296,1.0,231.0,0.0,0.0
redo_RPB004_8,barcode08,Melaminivora sp. SC2-9,NZ_CP027667_1,3754020.0,0.0282630354,1.0,1061.0,0.0,0.0
redo_RPB004_8,barcode08,Pantoea agglomerans,NZ_CP016889_1,4182028.0,0.0874456125,1.0,3657.0,0.0,0.0
redo_RPB004_8,barcode08,Pantoea agglomerans,NZ_CP016890_1,543504.0,0.0,0.0,0.0,0.0,0.0
redo_RPB004_8,barcode08,Pantoea agglomerans,NZ_CP016891_1,216117.0,0.0,0.0,0.0,0.0,0.0
redo_RPB004_8,barcode08,Pantoea agglomerans,NZ_CP016892_1,173592.0,0.0,0.0,0.0,0.0,0.0
redo_RPB004_8,barcode08,Pantoea alhagi,NZ_CP019706_1,4239970.0,0.0610617528,1.0,2589.0,0.0,0.0
redo_RPB004_8,barcode08,Pantoea alhagi,NZ_CP019707_1,76331.0,0.0,0.0,0.0,0.0,0.0
redo_RPB004_8,barcode08,Pantoea dispersa,NZ_CP032702_1,3758528.0,0.0889177891,1.0,3342.0,0.0,0.0
redo_RPB004_8,barcode08,Pantoea dispersa,NZ_CP032703_1,556856.0,0.0,0.0,0.0,0.0,0.0
redo_RPB004_8,barcode08,Pantoea dispersa,NZ_CP032704_1,275665.0,0.0,0.0,0.0,0.0,0.0
redo_RPB004_8,barcode08,Pantoea dispersa,NZ_CP032705_1,29830.0,0.0,0.0,0.0,0.0,0.0
redo_RPB004_8,barcode08,Pantoea dispersa,NZ_CP032706_1,5593.0,0.0,0.0,0.0,0.0,0.0
redo_RPB004_8,barcode08,Pectobacterium carotovorum,NC_012917_1,4862913.0,0.0927016379,1.0,4508.0,0.0,0.0
redo_RPB004_8,barcode08,Pragia fontium,NZ_CP010423_1,4094629.0,0.0921695226,1.0,3774.0,0.0,0.0
redo_RPB004_8,barcode08,Proteus mirabilis,NC_010554_1,4063606.0,0.003592868,1.0,146.0,0.0,0.0
redo_RPB004_8,barcode08,Proteus mirabilis,NC_010555_1,36289.0,0.0,0.0,0.0,0.0,0.0
redo_RPB004_8,barcode08,Raoultella terrigena,NZ_LR131271_1,6073951.0,0.1338996643,1.4325587114,8133.0,0.0,0.0
redo_RPB004_8,barcode08,Rubrobacter xylanophilus,NC_008148_1,3225748.0,0.0323335859,1.3652924257,1043.0,0.0,0.0
redo_RPB004_8,barcode08,Salmonella bongori,NC_015761_1,4460105.0,0.1177999173,1.0,5254.0,0.0,0.0
redo_RPB004_8,barcode08,Salmonella enterica,NC_003197_2,4857450.0,0.9762117984,1.5405006432,47419.0,759.0,0.0
redo_RPB004_8,barcode08,Salmonella enterica,NC_003277_2,93933.0,0.0,0.0,0.0,0.0,0.0
redo_RPB004_8,barcode08,Serratia odorifera,NZ_LR134117_1,5272556.0,0.0433376146,1.0,2285.0,0.0,0.0
redo_RPB004_8,barcode08,Serratia plymuthica,NC_021591_1,5328010.0,0.0469406026,1.0,2501.0,0.0,0.0
redo_RPB004_8,barcode08,Serratia plymuthica,NC_021594_1,75721.0,0.0,0.0,0.0,0.0,0.0
redo_RPB004_8,barcode08,Shigella dysenteriae,NC_007606_1,4369232.0,5.4405213548,1.2595568531,237709.0,0.0,0.0
redo_RPB004_8,barcode08,Shigella dysenteriae,NC_007607_1,182726.0,0.496918884,1.0,908.0,0.0,0.0
redo_RPB004_8,barcode08,Shigella dysenteriae,NC_009344_1,8953.0,0.0,0.0,0.0,0.0,0.0
redo_RPB004_8,barcode08,Shigella flexneri,NC_004337_2,4607202.0,3.7283366347,1.4862492141,171772.0,2824.0,0.0
redo_RPB004_8,barcode08,Shigella flexneri,NC_004851_1,221618.0,0.031585882,1.0,70.0,0.0,0.0
redo_RPB004_8,barcode08,Snodgrassella alvi,NZ_CP007446_1,2527978.0,0.0678407803,1.0,1715.0,0.0,0.0
redo_RPB004_8,barcode08,Sodalis endosymbiont of Henestaris halophilus,NZ_LT897836_1,1622395.0,0.2225721849,1.0,3611.0,0.0,0.0
redo_RPB004_8,barcode08,Staphylococcus agnetis,NZ_CP009623_1,2474434.0,0.0448183302,1.0,1109.0,0.0,0.0
redo_RPB004_8,barcode08,Staphylococcus agnetis,NZ_CP009624_1,28965.0,0.0,0.0,0.0,0.0,0.0
redo_RPB004_8,barcode08,Staphylococcus argenteus,NC_016941_1,2762785.0,0.7631791833,1.1065212236,21085.0,0.0,0.0
redo_RPB004_8,barcode08,Staphylococcus argenteus,NC_016942_1,24853.0,8.5542992798,2.9769520226,2126.0,502.0,0.0
redo_RPB004_8,barcode08,Staphylococcus aureus,NC_007795_1,2821361.0,79.9505274228,20.6517043764,2255693.0,1811425.0,1400908.0
redo_RPB004_8,barcode08,Staphylococcus delphini,NZ_LR134263_1,2798161.0,0.8805783513,4.8140827922,24640.0,7459.0,4204.0
redo_RPB004_8,barcode08,Staphylococcus epidermidis,NC_004461_1,2499279.0,0.0425722778,1.0,1064.0,0.0,0.0
redo_RPB004_8,barcode08,Staphylococcus epidermidis,NC_005003_1,6585.0,0.0,0.0,0.0,0.0,0.0
redo_RPB004_8,barcode08,Staphylococcus epidermidis,NC_005004_1,24365.0,0.0,0.0,0.0,0.0,0.0
redo_RPB004_8,barcode08,Staphylococcus epidermidis,NC_005005_1,17261.0,0.0,0.0,0.0,0.0,0.0
redo_RPB004_8,barcode08,Staphylococcus epidermidis,NC_005006_1,8007.0,0.0,0.0,0.0,0.0,0.0
redo_RPB004_8,barcode08,Staphylococcus epidermidis,NC_005007_1,4679.0,0.0,0.0,0.0,0.0,0.0
redo_RPB004_8,barcode08,Staphylococcus epidermidis,NC_005008_1,4439.0,0.0,0.0,0.0,0.0,0.0
redo_RPB004_8,barcode08,Staphylococcus felis,NZ_CP027770_1,2479423.0,0.701090536,7.8562388541,17383.0,6557.0,2905.0
redo_RPB004_8,barcode08,Staphylococcus haemolyticus,NC_007168_1,2685015.0,0.0428303008,1.6730434783,1150.0,0.0,0.0
redo_RPB004_8,barcode08,Staphylococcus haemolyticus,NC_007169_1,2300.0,0.0,0.0,0.0,0.0,0.0
redo_RPB004_8,barcode08,Staphylococcus haemolyticus,NC_007170_1,2366.0,0.0,0.0,0.0,0.0,0.0
redo_RPB004_8,barcode08,Staphylococcus haemolyticus,NC_007171_1,8180.0,0.0,0.0,0.0,0.0,0.0
redo_RPB004_8,barcode08,Staphylococcus hominis,NZ_CP020618_1,2253412.0,0.0222773288,1.0,502.0,0.0,0.0
redo_RPB004_8,barcode08,Staphylococcus hyicus,NZ_CP008747_1,2472129.0,0.0885067082,1.0,2188.0,0.0,0.0
redo_RPB004_8,barcode08,Staphylococcus kloosii,NZ_CP027846_1,2630191.0,0.0153601012,14.3886138614,404.0,396.0,392.0
redo_RPB004_8,barcode08,Staphylococcus kloosii,NZ_CP027847_1,8847.0,0.0,0.0,0.0,0.0,0.0
redo_RPB004_8,barcode08,Staphylococcus lugdunensis,NC_013893_1,2658366.0,0.2953694111,1.0,7852.0,0.0,0.0
redo_RPB004_8,barcode08,Staphylococcus lutrae,NZ_CP020773_1,2533115.0,0.1414069239,3.3015075377,3582.0,1033.0,0.0
redo_RPB004_8,barcode08,Staphylococcus muscae,NZ_CP027848_1,2095131.0,0.1393230304,5.1007194245,2919.0,1506.0,124.0
redo_RPB004_8,barcode08,Staphylococcus nepalensis,NZ_CP017460_1,2913597.0,0.0447899967,1.4206896552,1305.0,0.0,0.0
redo_RPB004_8,barcode08,Staphylococcus nepalensis,NZ_CP017461_1,54521.0,0.0,0.0,0.0,0.0,0.0
redo_RPB004_8,barcode08,Staphylococcus nepalensis,NZ_CP017462_1,22471.0,0.0,0.0,0.0,0.0,0.0
redo_RPB004_8,barcode08,Staphylococcus pasteuri,NC_022737_1,2559946.0,0.1469171615,1.9625099708,3761.0,0.0,0.0
redo_RPB004_8,barcode08,Staphylococcus pettenkoferi,NZ_CP022096_2,2502360.0,0.2153966655,1.0,5390.0,0.0,0.0
redo_RPB004_8,barcode08,Staphylococcus phage 23MRA,NC_028775_1,43098.0,9.1303540768,1.4899618806,3935.0,0.0,0.0
redo_RPB004_8,barcode08,Staphylococcus phage 3MRA,NC_028917_1,41931.0,6.3461400873,1.0450958286,2661.0,0.0,0.0
redo_RPB004_8,barcode08,Staphylococcus phage B166,NC_028859_1,42881.0,6.6113196987,1.0,2835.0,0.0,0.0
redo_RPB004_8,barcode08,Staphylococcus phage StauST398-1,NC_021326_1,45242.0,0.3691260333,1.0,167.0,0.0,0.0
redo_RPB004_8,barcode08,Staphylococcus phage phi5967PVL,NC_019921_1,42461.0,9.0435929441,1.6716145833,3840.0,0.0,0.0
redo_RPB004_8,barcode08,Staphylococcus phage phiBU01,NC_026016_1,43748.0,12.3914236079,1.0,5421.0,0.0,0.0
redo_RPB004_8,barcode08,Staphylococcus phage phiNM3,NC_008617_1,44061.0,4.3644038946,1.0,1923.0,0.0,0.0
redo_RPB004_8,barcode08,Staphylococcus phage phiSa119,NC_025460_1,42600.0,3.2535211268,2.4285714286,1386.0,0.0,0.0
redo_RPB004_8,barcode08,Staphylococcus pseudintermedius,NC_014925_1,2617381.0,0.7992340435,2.1868158134,20919.0,2370.0,0.0
redo_RPB004_8,barcode08,Staphylococcus saprophyticus,NC_007350_1,2516575.0,0.2622612082,1.5906060606,6600.0,0.0,0.0
redo_RPB004_8,barcode08,Staphylococcus saprophyticus,NC_007351_1,38454.0,0.0,0.0,0.0,0.0,0.0
redo_RPB004_8,barcode08,Staphylococcus saprophyticus,NC_007352_1,22870.0,0.0,0.0,0.0,0.0,0.0
redo_RPB004_8,barcode08,Staphylococcus schleiferi,NZ_CP009470_1,2435632.0,91.5380073837,28.7660680799,2229529.0,2004645.0,1719340.0
redo_RPB004_8,barcode08,Staphylococcus schweitzeri,NZ_LR134304_1,2784939.0,0.2505261336,1.0,6977.0,0.0,0.0
redo_RPB004_8,barcode08,Staphylococcus sciuri,NZ_CP022046_2,2764040.0,0.2291211415,6.8888362545,6333.0,5146.0,534.0
redo_RPB004_8,barcode08,Staphylococcus sciuri,NZ_CP022047_2,89775.0,0.0,0.0,0.0,0.0,0.0
redo_RPB004_8,barcode08,Staphylococcus simiae,NZ_LT906460_1,2643976.0,0.0937224846,1.4862792575,2478.0,0.0,0.0
redo_RPB004_8,barcode08,Staphylococcus simulans,NZ_CP014016_2,2647556.0,0.1358233782,1.042269188,3596.0,0.0,0.0
redo_RPB004_8,barcode08,Staphylococcus sp. AntiMn-1,NZ_CP012968_1,2721344.0,0.0553035559,1.0,1505.0,0.0,0.0
redo_RPB004_8,barcode08,Staphylococcus sp. AntiMn-1,NZ_CP013300_1,17052.0,0.0,0.0,0.0,0.0,0.0
redo_RPB004_8,barcode08,Staphylococcus virus 11,NC_004615_1,43604.0,13.9001009082,1.0,6061.0,0.0,0.0
redo_RPB004_8,barcode08,Staphylococcus virus 187,NC_007047_1,39620.0,6.2897526502,4.4309791332,2492.0,1401.0,0.0
redo_RPB004_8,barcode08,Staphylococcus virus 53,NC_007049_1,43883.0,8.759656359,1.0,3844.0,0.0,0.0
redo_RPB004_8,barcode08,Staphylococcus virus 69,NC_007048_1,42732.0,42.4904053169,9.8041526684,18157.0,8926.0,5040.0
redo_RPB004_8,barcode08,Staphylococcus virus 71,NC_007059_1,43114.0,4.2909495755,1.0,1850.0,0.0,0.0
redo_RPB004_8,barcode08,Staphylococcus virus 85,NC_007050_1,44283.0,8.6714992209,1.0,3840.0,0.0,0.0
redo_RPB004_8,barcode08,Staphylococcus virus EW,NC_007056_1,45286.0,10.0317979066,34.4397974906,4543.0,4521.0,4500.0
redo_RPB004_8,barcode08,Staphylococcus virus phiETA2,NC_008798_1,43265.0,5.9771177626,2.7099767981,2586.0,0.0,0.0
redo_RPB004_8,barcode08,Staphylococcus warneri,NC_020164_1,2486042.0,0.2442034366,1.0,6071.0,0.0,0.0
redo_RPB004_8,barcode08,Staphylococcus warneri,NC_020165_1,4374.0,0.0,0.0,0.0,0.0,0.0
redo_RPB004_8,barcode08,Staphylococcus warneri,NC_020264_1,8232.0,0.0,0.0,0.0,0.0,0.0
redo_RPB004_8,barcode08,Staphylococcus warneri,NC_020265_1,3352.0,0.0,0.0,0.0,0.0,0.0
redo_RPB004_8,barcode08,Staphylococcus warneri,NC_020266_1,19866.0,0.0,0.0,0.0,0.0,0.0
redo_RPB004_8,barcode08,Staphylococcus warneri,NC_020267_1,16515.0,0.0,0.0,0.0,0.0,0.0
redo_RPB004_8,barcode08,Staphylococcus warneri,NC_020268_1,6212.0,0.0,0.0,0.0,0.0,0.0
redo_RPB004_8,barcode08,Staphylococcus warneri,NC_020269_1,2937.0,0.0,0.0,0.0,0.0,0.0
redo_RPB004_8,barcode08,Staphylococcus warneri,NC_020274_1,13186.0,0.0,0.0,0.0,0.0,0.0
redo_RPB004_8,barcode08,Staphylococcus xylosus,NZ_CP007208_1,2836901.0,0.0850576033,1.0,2413.0,0.0,0.0
redo_RPB004_8,barcode08,Staphylococcus xylosus,NZ_CP007209_1,30062.0,0.0,0.0,0.0,0.0,0.0
redo_RPB004_8,barcode08,Sulfitobacter donghicola,NZ_CP026367_1,2469323.0,0.0822492643,1.0,2031.0,0.0,0.0
redo_RPB004_8,barcode08,Xanthobacter autotrophicus,NC_009717_1,316164.0,0.0,0.0,0.0,0.0,0.0
redo_RPB004_8,barcode08,Xanthobacter autotrophicus,NC_009720_1,5308934.0,0.0127897616,1.0,679.0,0.0,0.0
redo_RPB004_8,barcode08,[Enterobacter] lignolyticus,NC_014618_1,4814049.0,0.1486482585,1.0,7156.0,0.0,0.0
redo_RPB004_8,barcode08,[Polyangium] brachysporum,NZ_CP011371_1,6476147.0,0.0176185006,1.0,1141.0,0.0,0.0
redo_RPB004_8,barcode09,Acinetobacter baumannii,NZ_CP009257_1,4335793.0,0.0244937893,1.0,1062.0,0.0,0.0
redo_RPB004_8,barcode09,Chania multitudinisentens,NZ_CP007044_2,5488183.0,0.1274556625,1.0,6995.0,0.0,0.0
redo_RPB004_8,barcode09,Citrobacter freundii,NZ_CP007557_1,5099034.0,0.1231017483,1.0,6277.0,0.0,0.0
redo_RPB004_8,barcode09,Citrobacter freundii,NZ_CP007558_1,272297.0,0.0,0.0,0.0,0.0,0.0
redo_RPB004_8,barcode09,Citrobacter koseri,NC_009792_1,4720462.0,0.1038457676,1.0,4902.0,0.0,0.0
redo_RPB004_8,barcode09,Citrobacter koseri,NC_009793_1,9294.0,0.0,0.0,0.0,0.0,0.0
redo_RPB004_8,barcode09,Citrobacter koseri,NC_009794_1,5601.0,0.0,0.0,0.0,0.0,0.0
redo_RPB004_8,barcode09,Cutibacterium acnes,NC_006085_1,2560265.0,2.194968099,7.0940797551,56197.0,28269.0,10934.0
redo_RPB004_8,barcode09,Enterobacter asburiae,NC_015963_1,166725.0,0.0,0.0,0.0,0.0,0.0
redo_RPB004_8,barcode09,Enterobacter asburiae,NC_015968_1,4812833.0,0.1474391486,1.0,7096.0,0.0,0.0
redo_RPB004_8,barcode09,Enterobacter asburiae,NC_015969_1,32574.0,0.0,0.0,0.0,0.0,0.0
redo_RPB004_8,barcode09,Enterobacter cancerogenus,NZ_CP025225_1,4796512.0,0.0388198758,1.0,1862.0,0.0,0.0
redo_RPB004_8,barcode09,Enterobacter hormaechei,NZ_CP017179_1,4782480.0,0.0359646041,1.0,1720.0,0.0,0.0
redo_RPB004_8,barcode09,Enterobacter sp. 638,NC_009425_1,157749.0,0.0,0.0,0.0,0.0,0.0
redo_RPB004_8,barcode09,Enterobacter sp. 638,NC_009436_1,4518712.0,0.1569695081,1.0,7093.0,0.0,0.0
redo_RPB004_8,barcode09,Enterobacteriaceae bacterium ENNIH3,NZ_CP026197_1,5904433.0,0.0874935832,1.0,5166.0,0.0,0.0
redo_RPB004_8,barcode09,Enterobacteriaceae bacterium ENNIH3,NZ_CP026198_1,174695.0,0.0,0.0,0.0,0.0,0.0
redo_RPB004_8,barcode09,Enterobacteriaceae bacterium strain FGI 57,NC_020063_1,4762179.0,0.1116085725,1.0,5315.0,0.0,0.0
redo_RPB004_8,barcode09,Enterobacteriaceae bacterium w6,NZ_CP031104_1,4945486.0,0.0895564157,1.0,4429.0,0.0,0.0
redo_RPB004_8,barcode09,Escherichia albertii,NZ_CP007025_1,4701875.0,1.1444795959,1.1600386531,53812.0,0.0,0.0
redo_RPB004_8,barcode09,Escherichia coli,NC_000913_3,4641652.0,39.7811598112,5.8977142198,1846503.0,753861.0,298818.0
redo_RPB004_8,barcode09,Escherichia fergusonii,NC_011740_1,4588711.0,0.3479408487,1.0,15966.0,0.0,0.0
redo_RPB004_8,barcode09,Escherichia fergusonii,NC_011743_1,55150.0,0.0,0.0,0.0,0.0,0.0
redo_RPB004_8,barcode09,Escherichia marmotae,NZ_CP025979_1,4671322.0,0.2716575736,1.0,12690.0,0.0,0.0
redo_RPB004_8,barcode09,Escherichia marmotae,NZ_CP025980_1,148809.0,0.0,0.0,0.0,0.0,0.0
redo_RPB004_8,barcode09,Escherichia marmotae,NZ_CP025981_1,76160.0,0.0,0.0,0.0,0.0,0.0
redo_RPB004_8,barcode09,Escherichia virus T7,NC_001604_1,39937.0,0.3856073315,3.2402597403,154.0,0.0,0.0
redo_RPB004_8,barcode09,Fusobacterium hwasookii,NZ_CP013336_1,2424685.0,2.3072275368,11.4954328513,55943.0,21649.0,20138.0
redo_RPB004_8,barcode09,Fusobacterium hwasookii,NZ_CP013337_1,5838.0,0.0,0.0,0.0,0.0,0.0
redo_RPB004_8,barcode09,Fusobacterium nucleatum,NZ_CP007062_1,2507720.0,77.9528017482,61.0367462675,1954838.0,1908003.0,1852264.0
redo_RPB004_8,barcode09,Fusobacterium nucleatum,NZ_CP007063_1,6309.0,0.0,0.0,0.0,0.0,0.0
redo_RPB004_8,barcode09,Fusobacterium periodonticum,NZ_CP024698_1,2222370.0,0.6475069408,7.3974982627,14390.0,5711.0,3184.0
redo_RPB004_8,barcode09,Klebsiella aerogenes,NC_015663_1,5280350.0,0.1677161552,1.0,8856.0,0.0,0.0
redo_RPB004_8,barcode09,Klebsiella michiganensis,NC_016612_1,5974109.0,0.1024755323,1.7420777524,6122.0,796.0,0.0
redo_RPB004_8,barcode09,Klebsiella oxytoca,NZ_CP011625_1,1919.0,13.3923918708,1.0,257.0,0.0,0.0
redo_RPB004_8,barcode09,Klebsiella oxytoca,NZ_CP011626_1,6538.0,0.0,0.0,0.0,0.0,0.0
redo_RPB004_8,barcode09,Klebsiella oxytoca,NZ_CP011627_1,14274.0,0.0,0.0,0.0,0.0,0.0
redo_RPB004_8,barcode09,Klebsiella oxytoca,NZ_CP011628_1,16069.0,0.0,0.0,0.0,0.0,0.0
redo_RPB004_8,barcode09,Klebsiella oxytoca,NZ_CP011629_1,33610.0,0.0,0.0,0.0,0.0,0.0
redo_RPB004_8,barcode09,Klebsiella oxytoca,NZ_CP011630_1,49200.0,0.0,0.0,0.0,0.0,0.0
redo_RPB004_8,barcode09,Klebsiella oxytoca,NZ_CP011631_1,53596.0,0.0,0.0,0.0,0.0,0.0
redo_RPB004_8,barcode09,Klebsiella oxytoca,NZ_CP011632_1,83652.0,0.0,0.0,0.0,0.0,0.0
redo_RPB004_8,barcode09,Klebsiella oxytoca,NZ_CP011633_1,150318.0,0.0,0.0,0.0,0.0,0.0
redo_RPB004_8,barcode09,Klebsiella oxytoca,NZ_CP011634_1,227680.0,0.0,0.0,0.0,0.0,0.0
redo_RPB004_8,barcode09,Klebsiella oxytoca,NZ_CP011635_1,332956.0,0.0,0.0,0.0,0.0,0.0
redo_RPB004_8,barcode09,Klebsiella oxytoca,NZ_CP011636_1,6257473.0,0.0103236562,1.0,646.0,0.0,0.0
redo_RPB004_8,barcode09,Klebsiella pneumoniae,NC_016838_1,122799.0,0.0,0.0,0.0,0.0,0.0
redo_RPB004_8,barcode09,Klebsiella pneumoniae,NC_016839_1,105974.0,0.0,0.0,0.0,0.0,0.0
redo_RPB004_8,barcode09,Klebsiella pneumoniae,NC_016840_1,3751.0,0.0,0.0,0.0,0.0,0.0
redo_RPB004_8,barcode09,Klebsiella pneumoniae,NC_016841_1,1308.0,0.0,0.0,0.0,0.0,0.0
redo_RPB004_8,barcode09,Klebsiella pneumoniae,NC_016845_1,5333942.0,0.1217673533,1.1111624326,6495.0,0.0,0.0
redo_RPB004_8,barcode09,Klebsiella pneumoniae,NC_016846_1,111195.0,0.0,0.0,0.0,0.0,0.0
redo_RPB004_8,barcode09,Klebsiella pneumoniae,NC_016847_1,3353.0,12.1383835371,111.8255528256,407.0,401.0,394.0
redo_RPB004_8,barcode09,Kluyvera intermedia,NZ_CP011598_1,43621.0,0.0,0.0,0.0,0.0,0.0
redo_RPB004_8,barcode09,Kluyvera intermedia,NZ_CP011599_1,82986.0,0.0,0.0,0.0,0.0,0.0
redo_RPB004_8,barcode09,Kluyvera intermedia,NZ_CP011600_1,215092.0,0.3435739126,1.0,739.0,0.0,0.0
redo_RPB004_8,barcode09,Kluyvera intermedia,NZ_CP011601_1,295619.0,0.0,0.0,0.0,0.0,0.0
redo_RPB004_8,barcode09,Kluyvera intermedia,NZ_CP011602_1,5529134.0,0.0197499283,1.0,1092.0,0.0,0.0
redo_RPB004_8,barcode09,Lelliottia nimipressuralis,NZ_CP025034_2,4826853.0,0.044190283,1.0,2133.0,0.0,0.0
redo_RPB004_8,barcode09,Pantoea rwandensis,NZ_CP009454_1,4327607.0,0.098183592,1.0,4249.0,0.0,0.0
redo_RPB004_8,barcode09,Plautia stali symbiont,NC_022533_1,19174.0,0.0,0.0,0.0,0.0,0.0
redo_RPB004_8,barcode09,Plautia stali symbiont,NC_022534_1,38222.0,0.0,0.0,0.0,0.0,0.0
redo_RPB004_8,barcode09,Plautia stali symbiont,NC_022546_1,4035456.0,0.0924306943,1.0,3730.0,0.0,0.0
redo_RPB004_8,barcode09,Pluralibacter gergoviae,NZ_CP009450_1,5489680.0,0.1293153699,1.0,7099.0,0.0,0.0
redo_RPB004_8,barcode09,Pseudomonas putida,NC_002947_4,6181873.0,0.0658861805,9.0235698502,4073.0,4044.0,97.0
redo_RPB004_8,barcode09,Salmonella bongori,NC_015761_1,4460105.0,0.1029796384,1.0,4593.0,0.0,0.0
redo_RPB004_8,barcode09,Salmonella enterica,NC_003197_2,4857450.0,0.2419376422,1.586963921,11752.0,0.0,0.0
redo_RPB004_8,barcode09,Salmonella enterica,NC_003277_2,93933.0,0.0,0.0,0.0,0.0,0.0
redo_RPB004_8,barcode09,Shigella dysenteriae,NC_007606_1,4369232.0,4.9807380336,1.2982078853,217620.0,2105.0,0.0
redo_RPB004_8,barcode09,Shigella dysenteriae,NC_007607_1,182726.0,0.6747808194,1.3852392539,1233.0,0.0,0.0
redo_RPB004_8,barcode09,Shigella dysenteriae,NC_009344_1,8953.0,0.0,0.0,0.0,0.0,0.0
redo_RPB004_8,barcode09,Shigella flexneri,NC_004337_2,4607202.0,3.1318791753,1.0968175644,144292.0,0.0,0.0
redo_RPB004_8,barcode09,Shigella flexneri,NC_004851_1,221618.0,0.0,0.0,0.0,0.0,0.0
redo_RPB004_8,barcode09,Staphylococcus aureus,NC_007795_1,2821361.0,23.3338094629,7.4269129055,658331.0,322002.0,148368.0
redo_RPB004_8,barcode09,Staphylococcus delphini,NZ_LR134263_1,2798161.0,0.1646795878,1.7224392361,4608.0,0.0,0.0
redo_RPB004_8,barcode09,Staphylococcus felis,NZ_CP027770_1,2479423.0,0.0571907254,1.7503526093,1418.0,0.0,0.0
redo_RPB004_8,barcode09,Staphylococcus hominis,NZ_CP020618_1,2253412.0,0.1169337875,2.9339658444,2635.0,0.0,0.0
redo_RPB004_8,barcode09,Staphylococcus lugdunensis,NC_013893_1,2658366.0,0.1130393633,1.0,3005.0,0.0,0.0
redo_RPB004_8,barcode09,Staphylococcus lutrae,NZ_CP020773_1,2533115.0,0.1465389451,2.0037715517,3712.0,0.0,0.0
redo_RPB004_8,barcode09,Staphylococcus muscae,NZ_CP027848_1,2095131.0,0.0726446222,5.5670170828,1522.0,1434.0,0.0
redo_RPB004_8,barcode09,Staphylococcus phage phiBU01,NC_026016_1,43748.0,9.2895675231,1.0,4064.0,0.0,0.0
redo_RPB004_8,barcode09,Staphylococcus phage phiNM3,NC_008617_1,44061.0,9.7569278954,6.8311235171,4299.0,4280.0,0.0
redo_RPB004_8,barcode09,Staphylococcus pseudintermedius,NC_014925_1,2617381.0,0.1020103684,1.7550561798,2670.0,0.0,0.0
redo_RPB004_8,barcode09,Staphylococcus schleiferi,NZ_CP009470_1,2435632.0,29.6488139423,7.3210101698,722136.0,376733.0,159083.0
redo_RPB004_8,barcode09,Staphylococcus schweitzeri,NZ_LR134304_1,2784939.0,0.1215825553,1.0,3386.0,0.0,0.0
redo_RPB004_8,barcode09,Staphylococcus virus 80,NC_030652_1,42140.0,8.2344565733,1.0,3470.0,0.0,0.0
redo_RPB004_8,barcode09,Staphylococcus virus phiETA2,NC_008798_1,43265.0,8.1520859817,1.0,3527.0,0.0,0.0
redo_RPB004_8,barcode09,Yersinia rohdei,NZ_CP009787_1,4372253.0,0.0036136976,1.0,158.0,0.0,0.0
redo_RPB004_8,barcode10,Acinetobacter johnsonii,NZ_CP010350_1,3509795.0,0.0764147194,1.0,2682.0,0.0,0.0
redo_RPB004_8,barcode10,Acinetobacter johnsonii,NZ_CP010351_1,398857.0,0.0,0.0,0.0,0.0,0.0
redo_RPB004_8,barcode10,Acinetobacter johnsonii,NZ_CP010352_1,3978.0,0.0,0.0,0.0,0.0,0.0
redo_RPB004_8,barcode10,Acinetobacter johnsonii,NZ_CP010353_1,4724.0,0.0,0.0,0.0,0.0,0.0
redo_RPB004_8,barcode10,Acinetobacter johnsonii,NZ_CP010354_1,11643.0,0.0,0.0,0.0,0.0,0.0
redo_RPB004_8,barcode10,Acinetobacter johnsonii,NZ_CP010355_1,7579.0,0.0,0.0,0.0,0.0,0.0
redo_RPB004_8,barcode10,Acinetobacter johnsonii,NZ_CP010356_1,13940.0,0.0,0.0,0.0,0.0,0.0
redo_RPB004_8,barcode10,Acinetobacter johnsonii,NZ_CP010357_1,13330.0,0.0,0.0,0.0,0.0,0.0
redo_RPB004_8,barcode10,Acinetobacter johnsonii,NZ_CP010358_1,117483.0,0.0,0.0,0.0,0.0,0.0
redo_RPB004_8,barcode10,Bacillus anthracis,NC_003997_3,5227293.0,0.0367876834,1.0,1923.0,0.0,0.0
redo_RPB004_8,barcode10,Chryseobacterium sp. StRB126,NZ_AP014624_1,5503743.0,0.0028162652,1.0,155.0,0.0,0.0
redo_RPB004_8,barcode10,Citrobacter rodentium,NC_013716_1,5346659.0,0.0639838823,1.0,3421.0,0.0,0.0
redo_RPB004_8,barcode10,Citrobacter rodentium,NC_013717_1,54449.0,0.0,0.0,0.0,0.0,0.0
redo_RPB004_8,barcode10,Citrobacter rodentium,NC_013718_1,39265.0,0.0,0.0,0.0,0.0,0.0
redo_RPB004_8,barcode10,Citrobacter rodentium,NC_013719_1,3910.0,0.0,0.0,0.0,0.0,0.0
redo_RPB004_8,barcode10,Cronobacter condimenti,NZ_CP012264_1,4347991.0,0.0787950113,1.0,3426.0,0.0,0.0
redo_RPB004_8,barcode10,Cronobacter condimenti,NZ_CP012265_1,151491.0,0.0,0.0,0.0,0.0,0.0
redo_RPB004_8,barcode10,Cronobacter turicensis,NC_013282_2,4384463.0,0.0215761885,1.0,946.0,0.0,0.0
redo_RPB004_8,barcode10,Cronobacter turicensis,NC_013283_1,138339.0,0.0,0.0,0.0,0.0,0.0
redo_RPB004_8,barcode10,Cronobacter turicensis,NC_013284_1,22448.0,0.0,0.0,0.0,0.0,0.0
redo_RPB004_8,barcode10,Cronobacter turicensis,NC_013285_1,53842.0,0.0,0.0,0.0,0.0,0.0
redo_RPB004_8,barcode10,Cutibacterium acnes,NC_006085_1,2560265.0,1.2444024349,2.6664783427,31860.0,10584.0,0.0
redo_RPB004_8,barcode10,Enterobacter asburiae,NC_015963_1,166725.0,0.0,0.0,0.0,0.0,0.0
redo_RPB004_8,barcode10,Enterobacter asburiae,NC_015968_1,4812833.0,0.0506770129,1.0,2439.0,0.0,0.0
redo_RPB004_8,barcode10,Enterobacter asburiae,NC_015969_1,32574.0,0.0,0.0,0.0,0.0,0.0
redo_RPB004_8,barcode10,Enterobacter cloacae,NC_014107_1,199562.0,0.0,0.0,0.0,0.0,0.0
redo_RPB004_8,barcode10,Enterobacter cloacae,NC_014108_1,84653.0,0.0,0.0,0.0,0.0,0.0
redo_RPB004_8,barcode10,Enterobacter cloacae,NC_014121_1,5314581.0,0.0712003449,1.0,3784.0,0.0,0.0
redo_RPB004_8,barcode10,Enterobacter kobei,NZ_CP017181_1,4880257.0,0.038625015,1.0,1885.0,0.0,0.0
redo_RPB004_8,barcode10,Enterobacter kobei,NZ_CP017182_1,47221.0,0.0,0.0,0.0,0.0,0.0
redo_RPB004_8,barcode10,Enterobacter ludwigii,NZ_CP017279_1,4857439.0,0.0479059027,1.0,2327.0,0.0,0.0
redo_RPB004_8,barcode10,Enterobacter ludwigii,NZ_CP017280_1,95331.0,0.0,0.0,0.0,0.0,0.0
redo_RPB004_8,barcode10,Escherichia albertii,NZ_CP007025_1,4701875.0,0.2577057025,1.0,12117.0,0.0,0.0
redo_RPB004_8,barcode10,Escherichia coli,NC_000913_3,4641652.0,25.3238071273,2.0624343333,1175443.0,77556.0,2739.0
redo_RPB004_8,barcode10,Escherichia fergusonii,NC_011740_1,4588711.0,0.0936646479,1.0,4298.0,0.0,0.0
redo_RPB004_8,barcode10,Escherichia fergusonii,NC_011743_1,55150.0,0.0,0.0,0.0,0.0,0.0
redo_RPB004_8,barcode10,Escherichia marmotae,NZ_CP025979_1,4671322.0,0.2310694917,1.0,10794.0,0.0,0.0
redo_RPB004_8,barcode10,Escherichia marmotae,NZ_CP025980_1,148809.0,0.0,0.0,0.0,0.0,0.0
redo_RPB004_8,barcode10,Escherichia marmotae,NZ_CP025981_1,76160.0,0.0,0.0,0.0,0.0,0.0
redo_RPB004_8,barcode10,Escherichia virus Lambda,NC_001416_1,48502.0,7.8635932539,1.9525432617,3814.0,0.0,0.0
redo_RPB004_8,barcode10,Escherichia virus Mu,NC_000929_1,36717.0,5.3680856279,1.0,1971.0,0.0,0.0
redo_RPB004_8,barcode10,Fusobacterium hwasookii,NZ_CP013336_1,2424685.0,4.678463388,23.6702339604,113438.0,42549.0,29467.0
redo_RPB004_8,barcode10,Fusobacterium hwasookii,NZ_CP013337_1,5838.0,0.0,0.0,0.0,0.0,0.0
redo_RPB004_8,barcode10,Fusobacterium mortiferum,NZ_CP028102_1,2716766.0,0.0437652709,1.0,1189.0,0.0,0.0
redo_RPB004_8,barcode10,Fusobacterium necrophorum,NZ_CP028107_1,2286018.0,0.0027558838,1.0,63.0,0.0,0.0
redo_RPB004_8,barcode10,Fusobacterium nucleatum,NZ_CP007062_1,2507720.0,79.0416394175,194.3498370198,1982143.0,1943566.0,1931424.0
redo_RPB004_8,barcode10,Fusobacterium nucleatum,NZ_CP007063_1,6309.0,0.0,0.0,0.0,0.0,0.0
redo_RPB004_8,barcode10,Fusobacterium periodonticum,NZ_CP024698_1,2222370.0,0.9486269163,30.6465231003,21082.0,9318.0,7429.0
redo_RPB004_8,barcode10,Klebsiella michiganensis,NC_016612_1,5974109.0,0.0136254628,2.5196560197,814.0,0.0,0.0
redo_RPB004_8,barcode10,Klebsiella oxytoca,NZ_CP011625_1,1919.0,15.3725898906,1.0,295.0,0.0,0.0
redo_RPB004_8,barcode10,Klebsiella oxytoca,NZ_CP011626_1,6538.0,0.0,0.0,0.0,0.0,0.0
redo_RPB004_8,barcode10,Klebsiella oxytoca,NZ_CP011627_1,14274.0,0.0,0.0,0.0,0.0,0.0
redo_RPB004_8,barcode10,Klebsiella oxytoca,NZ_CP011628_1,16069.0,0.0,0.0,0.0,0.0,0.0
redo_RPB004_8,barcode10,Klebsiella oxytoca,NZ_CP011629_1,33610.0,0.0,0.0,0.0,0.0,0.0
redo_RPB004_8,barcode10,Klebsiella oxytoca,NZ_CP011630_1,49200.0,0.0,0.0,0.0,0.0,0.0
redo_RPB004_8,barcode10,Klebsiella oxytoca,NZ_CP011631_1,53596.0,0.0,0.0,0.0,0.0,0.0
redo_RPB004_8,barcode10,Klebsiella oxytoca,NZ_CP011632_1,83652.0,0.0,0.0,0.0,0.0,0.0
redo_RPB004_8,barcode10,Klebsiella oxytoca,NZ_CP011633_1,150318.0,0.0,0.0,0.0,0.0,0.0
redo_RPB004_8,barcode10,Klebsiella oxytoca,NZ_CP011634_1,227680.0,0.0,0.0,0.0,0.0,0.0
redo_RPB004_8,barcode10,Klebsiella oxytoca,NZ_CP011635_1,332956.0,0.0,0.0,0.0,0.0,0.0
redo_RPB004_8,barcode10,Klebsiella oxytoca,NZ_CP011636_1,6257473.0,0.0128965798,1.0,807.0,0.0,0.0
redo_RPB004_8,barcode10,Klebsiella pneumoniae,NC_016838_1,122799.0,0.0,0.0,0.0,0.0,0.0
redo_RPB004_8,barcode10,Klebsiella pneumoniae,NC_016839_1,105974.0,0.0,0.0,0.0,0.0,0.0
redo_RPB004_8,barcode10,Klebsiella pneumoniae,NC_016840_1,3751.0,0.0,0.0,0.0,0.0,0.0
redo_RPB004_8,barcode10,Klebsiella pneumoniae,NC_016841_1,1308.0,0.0,0.0,0.0,0.0,0.0
redo_RPB004_8,barcode10,Klebsiella pneumoniae,NC_016845_1,5333942.0,0.04941936,1.0,2636.0,0.0,0.0
redo_RPB004_8,barcode10,Klebsiella pneumoniae,NC_016846_1,111195.0,0.0,0.0,0.0,0.0,0.0
redo_RPB004_8,barcode10,Klebsiella pneumoniae,NC_016847_1,3353.0,11.8103191172,21.5707070707,396.0,391.0,390.0
redo_RPB004_8,barcode10,Klebsiella variicola,NC_013850_1,5458505.0,0.0868919237,1.0,4743.0,0.0,0.0
redo_RPB004_8,barcode10,Kosakonia cowanii,NZ_CP019445_1,4646998.0,0.0896277554,1.0,4165.0,0.0,0.0
redo_RPB004_8,barcode10,Kosakonia cowanii,NZ_CP019446_1,113443.0,0.0,0.0,0.0,0.0,0.0
redo_RPB004_8,barcode10,Kosakonia cowanii,NZ_CP019447_1,96883.0,0.0,0.0,0.0,0.0,0.0
redo_RPB004_8,barcode10,Lelliottia amnigena,NZ_CP015774_2,4616122.0,0.0204717293,1.0,945.0,0.0,0.0
redo_RPB004_8,barcode10,Moraxella osloensis,NZ_CP014234_1,2434688.0,0.0087485542,1.0,213.0,0.0,0.0
redo_RPB004_8,barcode10,Moraxella osloensis,NZ_CP014235_1,81455.0,0.0,0.0,0.0,0.0,0.0
redo_RPB004_8,barcode10,Moraxella osloensis,NZ_CP014236_1,57463.0,0.0,0.0,0.0,0.0,0.0
redo_RPB004_8,barcode10,Moraxella osloensis,NZ_CP014237_1,35189.0,0.0,0.0,0.0,0.0,0.0
redo_RPB004_8,barcode10,Moraxella osloensis,NZ_CP014238_1,40342.0,0.0,0.0,0.0,0.0,0.0
redo_RPB004_8,barcode10,Salmonella enterica,NC_003197_2,4857450.0,0.225282813,1.0,10943.0,0.0,0.0
redo_RPB004_8,barcode10,Salmonella enterica,NC_003277_2,93933.0,0.0,0.0,0.0,0.0,0.0
redo_RPB004_8,barcode10,Serratia marcescens,NZ_HG326223_1,5113802.0,0.0551253255,1.0,2819.0,0.0,0.0
redo_RPB004_8,barcode10,Shigella dysenteriae,NC_007606_1,4369232.0,1.0150067563,1.0001127447,44348.0,0.0,0.0
redo_RPB004_8,barcode10,Shigella dysenteriae,NC_007607_1,182726.0,0.0,0.0,0.0,0.0,0.0
redo_RPB004_8,barcode10,Shigella dysenteriae,NC_009344_1,8953.0,0.0,0.0,0.0,0.0,0.0
redo_RPB004_8,barcode10,Shigella flexneri,NC_004337_2,4607202.0,0.5904451335,1.0,27203.0,0.0,0.0
redo_RPB004_8,barcode10,Shigella flexneri,NC_004851_1,221618.0,0.0,0.0,0.0,0.0,0.0
redo_RPB004_8,barcode10,Shigella sp. PAMC 28760,NZ_CP014768_1,4558287.0,0.0950357009,1.0,4332.0,0.0,0.0
redo_RPB004_8,barcode10,Staphylococcus agnetis,NZ_CP009623_1,2474434.0,0.0763406904,3.5876124934,1889.0,0.0,0.0
redo_RPB004_8,barcode10,Staphylococcus agnetis,NZ_CP009624_1,28965.0,0.0,0.0,0.0,0.0,0.0
redo_RPB004_8,barcode10,Staphylococcus argenteus,NC_016941_1,2762785.0,0.242545113,1.0617818236,6701.0,0.0,0.0
redo_RPB004_8,barcode10,Staphylococcus argenteus,NC_016942_1,24853.0,6.5867299722,1.4386072083,1637.0,0.0,0.0
redo_RPB004_8,barcode10,Staphylococcus aureus,NC_007795_1,2821361.0,80.3835099443,6.3881945881,2267909.0,1300947.0,395586.0
redo_RPB004_8,barcode10,Staphylococcus delphini,NZ_LR134263_1,2798161.0,0.5845625037,3.1181145687,16357.0,4163.0,1089.0
redo_RPB004_8,barcode10,Staphylococcus epidermidis,NC_004461_1,2499279.0,0.0041612001,1.0,104.0,0.0,0.0
redo_RPB004_8,barcode10,Staphylococcus epidermidis,NC_005003_1,6585.0,0.0,0.0,0.0,0.0,0.0
redo_RPB004_8,barcode10,Staphylococcus epidermidis,NC_005004_1,24365.0,0.0,0.0,0.0,0.0,0.0
redo_RPB004_8,barcode10,Staphylococcus epidermidis,NC_005005_1,17261.0,0.0,0.0,0.0,0.0,0.0
redo_RPB004_8,barcode10,Staphylococcus epidermidis,NC_005006_1,8007.0,0.0,0.0,0.0,0.0,0.0
redo_RPB004_8,barcode10,Staphylococcus epidermidis,NC_005007_1,4679.0,0.0,0.0,0.0,0.0,0.0
redo_RPB004_8,barcode10,Staphylococcus epidermidis,NC_005008_1,4439.0,0.0,0.0,0.0,0.0,0.0
redo_RPB004_8,barcode10,Staphylococcus felis,NZ_CP027770_1,2479423.0,0.3902520869,4.7377015296,9676.0,2358.0,695.0
redo_RPB004_8,barcode10,Staphylococcus hominis,NZ_CP020618_1,2253412.0,0.0556933219,1.0,1255.0,0.0,0.0
redo_RPB004_8,barcode10,Staphylococcus lutrae,NZ_CP020773_1,2533115.0,0.2107681649,1.8319910096,5339.0,710.0,0.0
redo_RPB004_8,barcode10,Staphylococcus muscae,NZ_CP027848_1,2095131.0,0.1738793422,4.8399670601,3643.0,1521.0,691.0
redo_RPB004_8,barcode10,Staphylococcus phage YMC/09/04/R1988,NC_022758_1,44459.0,3.8642344632,1.6583236321,1718.0,0.0,0.0
redo_RPB004_8,barcode10,Staphylococcus phage phiNM3,NC_008617_1,44061.0,19.227888609,4.8999055713,8472.0,5633.0,255.0
redo_RPB004_8,barcode10,Staphylococcus pseudintermedius,NC_014925_1,2617381.0,0.5095933683,3.200179937,13338.0,3411.0,0.0
redo_RPB004_8,barcode10,Staphylococcus schleiferi,NZ_CP009470_1,2435632.0,91.5558672246,9.4177538292,2229964.0,1669418.0,817240.0
redo_RPB004_8,barcode10,Staphylococcus schweitzeri,NZ_LR134304_1,2784939.0,0.1391053808,1.0,3874.0,0.0,0.0
redo_RPB004_8,barcode10,Staphylococcus sciuri,NZ_CP022046_2,2764040.0,0.229374394,14.9488958991,6340.0,6332.0,5974.0
redo_RPB004_8,barcode10,Staphylococcus sciuri,NZ_CP022047_2,89775.0,0.0,0.0,0.0,0.0,0.0
redo_RPB004_8,barcode10,Staphylococcus simiae,NZ_LT906460_1,2643976.0,0.0232226011,2.9136807818,614.0,0.0,0.0
redo_RPB004_8,barcode10,Staphylococcus simulans,NZ_CP014016_2,2647556.0,0.0060433094,1.95,160.0,0.0,0.0
redo_RPB004_8,barcode10,Staphylococcus sp. AntiMn-1,NZ_CP012968_1,2721344.0,0.1282822017,1.0,3491.0,0.0,0.0
redo_RPB004_8,barcode10,Staphylococcus sp. AntiMn-1,NZ_CP013300_1,17052.0,0.0,0.0,0.0,0.0,0.0
redo_RPB004_8,barcode10,Staphylococcus virus 69,NC_007048_1,42732.0,36.3638491061,4.381041251,15539.0,7512.0,0.0
redo_RPB004_8,barcode10,Staphylococcus virus 85,NC_007050_1,44283.0,6.1197299189,1.0,2710.0,0.0,0.0
redo_RPB004_8,barcode10,Staphylococcus virus 96,NC_007057_1,43576.0,3.2058931522,1.0,1397.0,0.0,0.0
redo_RPB004_8,barcode10,Staphylococcus virus EW,NC_007056_1,45286.0,10.4381044915,4.773006135,4727.0,2636.0,0.0
redo_RPB004_8,barcode10,Staphylococcus virus phiETA3,NC_008799_1,43282.0,8.4584815859,1.0,3661.0,0.0,0.0
redo_RPB004_8,barcode10,Staphylococcus warneri,NC_020164_1,2486042.0,0.461979323,2.0541575969,11485.0,0.0,0.0
redo_RPB004_8,barcode10,Staphylococcus warneri,NC_020165_1,4374.0,0.0,0.0,0.0,0.0,0.0
redo_RPB004_8,barcode10,Staphylococcus warneri,NC_020264_1,8232.0,0.0,0.0,0.0,0.0,0.0
redo_RPB004_8,barcode10,Staphylococcus warneri,NC_020265_1,3352.0,0.0,0.0,0.0,0.0,0.0
redo_RPB004_8,barcode10,Staphylococcus warneri,NC_020266_1,19866.0,0.0,0.0,0.0,0.0,0.0
redo_RPB004_8,barcode10,Staphylococcus warneri,NC_020267_1,16515.0,0.0,0.0,0.0,0.0,0.0
redo_RPB004_8,barcode10,Staphylococcus warneri,NC_020268_1,6212.0,0.0,0.0,0.0,0.0,0.0
redo_RPB004_8,barcode10,Staphylococcus warneri,NC_020269_1,2937.0,0.0,0.0,0.0,0.0,0.0
redo_RPB004_8,barcode10,Staphylococcus warneri,NC_020274_1,13186.0,0.0,0.0,0.0,0.0,0.0
redo_RPB004_8,barcode11,Acinetobacter johnsonii,NZ_CP010350_1,3509795.0,0.0446179905,1.0,1566.0,0.0,0.0
redo_RPB004_8,barcode11,Acinetobacter johnsonii,NZ_CP010351_1,398857.0,0.0,0.0,0.0,0.0,0.0
redo_RPB004_8,barcode11,Acinetobacter johnsonii,NZ_CP010352_1,3978.0,0.0,0.0,0.0,0.0,0.0
redo_RPB004_8,barcode11,Acinetobacter johnsonii,NZ_CP010353_1,4724.0,0.0,0.0,0.0,0.0,0.0
redo_RPB004_8,barcode11,Acinetobacter johnsonii,NZ_CP010354_1,11643.0,0.0,0.0,0.0,0.0,0.0
redo_RPB004_8,barcode11,Acinetobacter johnsonii,NZ_CP010355_1,7579.0,0.0,0.0,0.0,0.0,0.0
redo_RPB004_8,barcode11,Acinetobacter johnsonii,NZ_CP010356_1,13940.0,0.0,0.0,0.0,0.0,0.0
redo_RPB004_8,barcode11,Acinetobacter johnsonii,NZ_CP010357_1,13330.0,0.0,0.0,0.0,0.0,0.0
redo_RPB004_8,barcode11,Acinetobacter johnsonii,NZ_CP010358_1,117483.0,0.0,0.0,0.0,0.0,0.0
redo_RPB004_8,barcode11,Citrobacter amalonaticus,NZ_CP011132_1,5584358.0,0.0227062807,1.0,1268.0,0.0,0.0
redo_RPB004_8,barcode11,Citrobacter amalonaticus,NZ_CP011133_1,290993.0,0.0,0.0,0.0,0.0,0.0
redo_RPB004_8,barcode11,Citrobacter freundii,NZ_CP007557_1,5099034.0,0.1059220237,1.0,5401.0,0.0,0.0
redo_RPB004_8,barcode11,Citrobacter freundii,NZ_CP007558_1,272297.0,0.0,0.0,0.0,0.0,0.0
redo_RPB004_8,barcode11,Cronobacter dublinensis,NZ_CP012266_1,4431067.0,0.0407802455,1.0,1807.0,0.0,0.0
redo_RPB004_8,barcode11,Cronobacter dublinensis,NZ_CP012267_1,197338.0,0.0,0.0,0.0,0.0,0.0
redo_RPB004_8,barcode11,Cronobacter sakazakii,NZ_CP011047_1,4511265.0,0.0078248562,1.0,353.0,0.0,0.0
redo_RPB004_8,barcode11,Cronobacter sakazakii,NZ_CP011048_1,93905.0,0.0,0.0,0.0,0.0,0.0
redo_RPB004_8,barcode11,Cronobacter sakazakii,NZ_CP011049_1,4938.0,0.0,0.0,0.0,0.0,0.0
redo_RPB004_8,barcode11,Cronobacter sakazakii,NZ_CP011050_1,53457.0,0.0,0.0,0.0,0.0,0.0
redo_RPB004_8,barcode11,Cronobacter turicensis,NC_013282_2,4384463.0,0.097822698,1.0,4289.0,0.0,0.0
redo_RPB004_8,barcode11,Cronobacter turicensis,NC_013283_1,138339.0,0.0,0.0,0.0,0.0,0.0
redo_RPB004_8,barcode11,Cronobacter turicensis,NC_013284_1,22448.0,0.0,0.0,0.0,0.0,0.0
redo_RPB004_8,barcode11,Cronobacter turicensis,NC_013285_1,53842.0,0.0,0.0,0.0,0.0,0.0
redo_RPB004_8,barcode11,Cutibacterium acnes,NC_006085_1,2560265.0,1.5047270497,2.5578455548,38525.0,6727.0,0.0
redo_RPB004_8,barcode11,Enterobacteriaceae bacterium strain FGI 57,NC_020063_1,4762179.0,0.0619674313,1.0,2951.0,0.0,0.0
redo_RPB004_8,barcode11,Escherichia albertii,NZ_CP007025_1,4701875.0,0.5077123488,1.0,23872.0,0.0,0.0
redo_RPB004_8,barcode11,Escherichia coli,NC_000913_3,4641652.0,26.5854269127,2.8656745567,1234003.0,231012.0,21768.0
redo_RPB004_8,barcode11,Escherichia fergusonii,NC_011740_1,4588711.0,0.0961490057,1.0,4412.0,0.0,0.0
redo_RPB004_8,barcode11,Escherichia fergusonii,NC_011743_1,55150.0,0.0,0.0,0.0,0.0,0.0
redo_RPB004_8,barcode11,Escherichia marmotae,NZ_CP025979_1,4671322.0,0.1883406881,1.0,8798.0,0.0,0.0
redo_RPB004_8,barcode11,Escherichia marmotae,NZ_CP025980_1,148809.0,0.0,0.0,0.0,0.0,0.0
redo_RPB004_8,barcode11,Escherichia marmotae,NZ_CP025981_1,76160.0,0.0,0.0,0.0,0.0,0.0
redo_RPB004_8,barcode11,Escherichia virus T7,NC_001604_1,39937.0,0.4281743746,2.865497076,171.0,0.0,0.0
redo_RPB004_8,barcode11,Fusobacterium gonidiaformans,NZ_CP028106_1,1678881.0,0.012329641,1.0,207.0,0.0,0.0
redo_RPB004_8,barcode11,Fusobacterium hwasookii,NZ_CP013336_1,2424685.0,2.8682901078,21.7560354868,69547.0,26733.0,24076.0
redo_RPB004_8,barcode11,Fusobacterium hwasookii,NZ_CP013337_1,5838.0,0.0,0.0,0.0,0.0,0.0
redo_RPB004_8,barcode11,Fusobacterium mortiferum,NZ_CP028102_1,2716766.0,0.059592913,1.0,1619.0,0.0,0.0
redo_RPB004_8,barcode11,Fusobacterium nucleatum,NZ_CP007062_1,2507720.0,78.6482541911,108.3664904238,1972278.0,1934674.0,1919840.0
redo_RPB004_8,barcode11,Fusobacterium nucleatum,NZ_CP007063_1,6309.0,0.0,0.0,0.0,0.0,0.0
redo_RPB004_8,barcode11,Fusobacterium periodonticum,NZ_CP024698_1,2222370.0,0.672255295,17.3214190094,14940.0,7227.0,5366.0
redo_RPB004_8,barcode11,Klebsiella oxytoca,NZ_CP011625_1,1919.0,0.0,0.0,0.0,0.0,0.0
redo_RPB004_8,barcode11,Klebsiella oxytoca,NZ_CP011626_1,6538.0,4.4814928113,1.0,293.0,0.0,0.0
redo_RPB004_8,barcode11,Klebsiella oxytoca,NZ_CP011627_1,14274.0,0.896735323,1.0,128.0,0.0,0.0
redo_RPB004_8,barcode11,Klebsiella oxytoca,NZ_CP011628_1,16069.0,0.0,0.0,0.0,0.0,0.0
redo_RPB004_8,barcode11,Klebsiella oxytoca,NZ_CP011629_1,33610.0,0.0,0.0,0.0,0.0,0.0
redo_RPB004_8,barcode11,Klebsiella oxytoca,NZ_CP011630_1,49200.0,0.0,0.0,0.0,0.0,0.0
redo_RPB004_8,barcode11,Klebsiella oxytoca,NZ_CP011631_1,53596.0,0.0,0.0,0.0,0.0,0.0
redo_RPB004_8,barcode11,Klebsiella oxytoca,NZ_CP011632_1,83652.0,0.0,0.0,0.0,0.0,0.0
redo_RPB004_8,barcode11,Klebsiella oxytoca,NZ_CP011633_1,150318.0,0.0,0.0,0.0,0.0,0.0
redo_RPB004_8,barcode11,Klebsiella oxytoca,NZ_CP011634_1,227680.0,0.0,0.0,0.0,0.0,0.0
redo_RPB004_8,barcode11,Klebsiella oxytoca,NZ_CP011635_1,332956.0,0.0,0.0,0.0,0.0,0.0
redo_RPB004_8,barcode11,Klebsiella oxytoca,NZ_CP011636_1,6257473.0,0.0128006945,1.0,801.0,0.0,0.0
redo_RPB004_8,barcode11,Klebsiella pneumoniae,NC_016838_1,122799.0,0.0,0.0,0.0,0.0,0.0
redo_RPB004_8,barcode11,Klebsiella pneumoniae,NC_016839_1,105974.0,0.0,0.0,0.0,0.0,0.0
redo_RPB004_8,barcode11,Klebsiella pneumoniae,NC_016840_1,3751.0,0.0,0.0,0.0,0.0,0.0
redo_RPB004_8,barcode11,Klebsiella pneumoniae,NC_016841_1,1308.0,0.0,0.0,0.0,0.0,0.0
redo_RPB004_8,barcode11,Klebsiella pneumoniae,NC_016845_1,5333942.0,0.0242597314,1.0,1294.0,0.0,0.0
redo_RPB004_8,barcode11,Klebsiella pneumoniae,NC_016846_1,111195.0,0.0,0.0,0.0,0.0,0.0
redo_RPB004_8,barcode11,Klebsiella pneumoniae,NC_016847_1,3353.0,11.9594393081,42.7905236908,401.0,395.0,391.0
redo_RPB004_8,barcode11,Lelliottia amnigena,NZ_CP015774_2,4616122.0,0.1163964037,1.0,5373.0,0.0,0.0
redo_RPB004_8,barcode11,Macrococcus sp. IME1552,NZ_CP017156_1,2391700.0,0.1168206715,4.231567645,2794.0,1911.0,0.0
redo_RPB004_8,barcode11,Salmonella enterica,NC_003197_2,4857450.0,0.5067885413,1.2841938498,24617.0,0.0,0.0
redo_RPB004_8,barcode11,Salmonella enterica,NC_003277_2,93933.0,0.0,0.0,0.0,0.0,0.0
redo_RPB004_8,barcode11,Shigella dysenteriae,NC_007606_1,4369232.0,2.7004745914,1.1030595813,117990.0,0.0,0.0
redo_RPB004_8,barcode11,Shigella dysenteriae,NC_007607_1,182726.0,0.0,0.0,0.0,0.0,0.0
redo_RPB004_8,barcode11,Shigella dysenteriae,NC_009344_1,8953.0,0.0,0.0,0.0,0.0,0.0
redo_RPB004_8,barcode11,Shigella flexneri,NC_004337_2,4607202.0,1.4394202816,1.0,66317.0,0.0,0.0
redo_RPB004_8,barcode11,Shigella flexneri,NC_004851_1,221618.0,0.0,0.0,0.0,0.0,0.0
redo_RPB004_8,barcode11,Staphylococcus argenteus,NC_016941_1,2762785.0,0.0563199815,1.9350899743,1556.0,0.0,0.0
redo_RPB004_8,barcode11,Staphylococcus argenteus,NC_016942_1,24853.0,0.4385788436,1.0,109.0,0.0,0.0
redo_RPB004_8,barcode11,Staphylococcus aureus,NC_007795_1,2821361.0,36.5636655501,4.1344793926,1031593.0,366426.0,70828.0
redo_RPB004_8,barcode11,Staphylococcus delphini,NZ_LR134263_1,2798161.0,0.0790161824,2.263681592,2211.0,0.0,0.0
redo_RPB004_8,barcode11,Staphylococcus epidermidis,NC_004461_1,2499279.0,0.276719806,3.7445054945,6916.0,3245.0,0.0
redo_RPB004_8,barcode11,Staphylococcus epidermidis,NC_005003_1,6585.0,0.0,0.0,0.0,0.0,0.0
redo_RPB004_8,barcode11,Staphylococcus epidermidis,NC_005004_1,24365.0,0.0,0.0,0.0,0.0,0.0
redo_RPB004_8,barcode11,Staphylococcus epidermidis,NC_005005_1,17261.0,0.0,0.0,0.0,0.0,0.0
redo_RPB004_8,barcode11,Staphylococcus epidermidis,NC_005006_1,8007.0,0.0,0.0,0.0,0.0,0.0
redo_RPB004_8,barcode11,Staphylococcus epidermidis,NC_005007_1,4679.0,0.0,0.0,0.0,0.0,0.0
redo_RPB004_8,barcode11,Staphylococcus epidermidis,NC_005008_1,4439.0,0.0,0.0,0.0,0.0,0.0
redo_RPB004_8,barcode11,Staphylococcus felis,NZ_CP027770_1,2479423.0,0.1463243666,2.1154906284,3628.0,0.0,0.0
redo_RPB004_8,barcode11,Staphylococcus lutrae,NZ_CP020773_1,2533115.0,0.041529895,1.0,1052.0,0.0,0.0
redo_RPB004_8,barcode11,Staphylococcus muscae,NZ_CP027848_1,2095131.0,0.0535050076,1.0,1121.0,0.0,0.0
redo_RPB004_8,barcode11,Staphylococcus saprophyticus,NC_007350_1,2516575.0,0.0102122925,1.0,257.0,0.0,0.0
redo_RPB004_8,barcode11,Staphylococcus saprophyticus,NC_007351_1,38454.0,0.0,0.0,0.0,0.0,0.0
redo_RPB004_8,barcode11,Staphylococcus saprophyticus,NC_007352_1,22870.0,0.0,0.0,0.0,0.0,0.0
redo_RPB004_8,barcode11,Staphylococcus schleiferi,NZ_CP009470_1,2435632.0,22.9889819152,3.7333277374,559927.0,171993.0,16725.0
redo_RPB004_8,barcode11,Staphylococcus virus 85,NC_007050_1,44283.0,4.9432061965,1.0,2189.0,0.0,0.0
redo_RPB004_8,barcode12a,Staphylococcus schleiferi,NZ_CP009470_1,2435632.0,0.1426734416,1.0,3475.0,0.0,0.0
redo_RPB004_8,unclassified,Citrobacter werkmanii,NZ_CP019986_1,4929789.0,0.0519494851,1.0,2561.0,0.0,0.0
redo_RPB004_8,unclassified,Citrobacter werkmanii,NZ_CP019987_1,212549.0,0.0,0.0,0.0,0.0,0.0
redo_RPB004_8,unclassified,Cronobacter muytjensii,NZ_CP012268_1,4364114.0,0.1117065228,1.0,4875.0,0.0,0.0
redo_RPB004_8,unclassified,Cutibacterium acnes,NC_006085_1,2560265.0,1.179604455,1.0,30201.0,0.0,0.0
redo_RPB004_8,unclassified,Edwardsiella ictaluri,NC_012779_2,3812301.0,0.0477926586,1.0,1822.0,0.0,0.0
redo_RPB004_8,unclassified,Enterobacter soli,NC_015963_1,166725.0,0.0,0.0,0.0,0.0,0.0
redo_RPB004_8,unclassified,Enterobacter soli,NC_015968_1,4812833.0,0.1051563601,1.0,5061.0,0.0,0.0
redo_RPB004_8,unclassified,Enterobacter soli,NC_015969_1,32574.0,0.0,0.0,0.0,0.0,0.0
redo_RPB004_8,unclassified,Erwinia sp. Ejp617,NC_017442_1,30866.0,0.0,0.0,0.0,0.0,0.0
redo_RPB004_8,unclassified,Erwinia sp. Ejp617,NC_017443_1,6417.0,0.0,0.0,0.0,0.0,0.0
redo_RPB004_8,unclassified,Erwinia sp. Ejp617,NC_017444_1,2691.0,0.0,0.0,0.0,0.0,0.0
redo_RPB004_8,unclassified,Erwinia sp. Ejp617,NC_017445_1,3909168.0,0.0820123361,1.0,3206.0,0.0,0.0
redo_RPB004_8,unclassified,Erwinia sp. Ejp617,NC_017446_1,5296.0,0.0,0.0,0.0,0.0,0.0
redo_RPB004_8,unclassified,Erwinia sp. Ejp617,NC_017447_1,3237.0,0.0,0.0,0.0,0.0,0.0
redo_RPB004_8,unclassified,Escherichia albertii,NZ_CP007025_1,4701875.0,0.1878612256,1.0,8833.0,0.0,0.0
redo_RPB004_8,unclassified,Escherichia coli,NC_000913_3,4641652.0,17.3675450034,1.2084201151,806141.0,0.0,0.0
redo_RPB004_8,unclassified,Escherichia fergusonii,NC_011740_1,4588711.0,0.0533919003,1.0,2450.0,0.0,0.0
redo_RPB004_8,unclassified,Escherichia fergusonii,NC_011743_1,55150.0,0.0,0.0,0.0,0.0,0.0
redo_RPB004_8,unclassified,Escherichia marmotae,NZ_CP025979_1,4671322.0,0.1573216319,1.0,7349.0,0.0,0.0
redo_RPB004_8,unclassified,Escherichia marmotae,NZ_CP025980_1,148809.0,0.0,0.0,0.0,0.0,0.0
redo_RPB004_8,unclassified,Escherichia marmotae,NZ_CP025981_1,76160.0,0.0,0.0,0.0,0.0,0.0
redo_RPB004_8,unclassified,Escherichia virus T7,NC_001604_1,39937.0,0.3981270501,1.0,159.0,0.0,0.0
redo_RPB004_8,unclassified,Fusobacterium hwasookii,NZ_CP013336_1,2424685.0,1.7672811107,3.6936827612,42851.0,15376.0,1390.0
redo_RPB004_8,unclassified,Fusobacterium hwasookii,NZ_CP013337_1,5838.0,0.0,0.0,0.0,0.0,0.0
redo_RPB004_8,unclassified,Fusobacterium mortiferum,NZ_CP028102_1,2716766.0,0.0535931324,1.0,1456.0,0.0,0.0
redo_RPB004_8,unclassified,Fusobacterium nucleatum,NZ_CP007062_1,2507720.0,77.2570302905,16.4653451293,1937390.0,1876719.0,1610236.0
redo_RPB004_8,unclassified,Fusobacterium nucleatum,NZ_CP007063_1,6309.0,0.0,0.0,0.0,0.0,0.0
redo_RPB004_8,unclassified,Fusobacterium periodonticum,NZ_CP024698_1,2222370.0,0.5314146609,5.3746824725,11810.0,5146.0,2097.0
redo_RPB004_8,unclassified,Klebsiella oxytoca,NZ_CP011625_1,1919.0,0.0,0.0,0.0,0.0,0.0
redo_RPB004_8,unclassified,Klebsiella oxytoca,NZ_CP011626_1,6538.0,0.0,0.0,0.0,0.0,0.0
redo_RPB004_8,unclassified,Klebsiella oxytoca,NZ_CP011627_1,14274.0,0.9387697912,1.0,134.0,0.0,0.0
redo_RPB004_8,unclassified,Klebsiella oxytoca,NZ_CP011628_1,16069.0,0.0,0.0,0.0,0.0,0.0
redo_RPB004_8,unclassified,Klebsiella oxytoca,NZ_CP011629_1,33610.0,0.0,0.0,0.0,0.0,0.0
redo_RPB004_8,unclassified,Klebsiella oxytoca,NZ_CP011630_1,49200.0,0.0,0.0,0.0,0.0,0.0
redo_RPB004_8,unclassified,Klebsiella oxytoca,NZ_CP011631_1,53596.0,0.0,0.0,0.0,0.0,0.0
redo_RPB004_8,unclassified,Klebsiella oxytoca,NZ_CP011632_1,83652.0,0.0,0.0,0.0,0.0,0.0
redo_RPB004_8,unclassified,Klebsiella oxytoca,NZ_CP011633_1,150318.0,0.0,0.0,0.0,0.0,0.0
redo_RPB004_8,unclassified,Klebsiella oxytoca,NZ_CP011634_1,227680.0,0.0,0.0,0.0,0.0,0.0
redo_RPB004_8,unclassified,Klebsiella oxytoca,NZ_CP011635_1,332956.0,0.0,0.0,0.0,0.0,0.0
redo_RPB004_8,unclassified,Klebsiella oxytoca,NZ_CP011636_1,6257473.0,0.0125929429,1.0,788.0,0.0,0.0
redo_RPB004_8,unclassified,Klebsiella pneumoniae,NC_016838_1,122799.0,0.0,0.0,0.0,0.0,0.0
redo_RPB004_8,unclassified,Klebsiella pneumoniae,NC_016839_1,105974.0,0.0,0.0,0.0,0.0,0.0
redo_RPB004_8,unclassified,Klebsiella pneumoniae,NC_016840_1,3751.0,0.0,0.0,0.0,0.0,0.0
redo_RPB004_8,unclassified,Klebsiella pneumoniae,NC_016841_1,1308.0,0.0,0.0,0.0,0.0,0.0
redo_RPB004_8,unclassified,Klebsiella pneumoniae,NC_016845_1,5333942.0,0.0841403975,1.0430035651,4488.0,0.0,0.0
redo_RPB004_8,unclassified,Klebsiella pneumoniae,NC_016846_1,111195.0,0.0,0.0,0.0,0.0,0.0
redo_RPB004_8,unclassified,Klebsiella pneumoniae,NC_016847_1,3353.0,11.7506710409,5.3553299492,394.0,371.0,0.0
redo_RPB004_8,unclassified,Lelliottia amnigena,NZ_CP015774_2,4616122.0,0.0444312347,1.0,2051.0,0.0,0.0
redo_RPB004_8,unclassified,Pseudomonas putida,NC_002947_4,6181873.0,0.0643979584,1.0,3981.0,0.0,0.0
redo_RPB004_8,unclassified,Raoultella ornithinolytica,NC_021066_1,5398151.0,0.002815779,1.0,152.0,0.0,0.0
redo_RPB004_8,unclassified,Salmonella enterica,NC_003197_2,4857450.0,0.0929705916,1.0,4516.0,0.0,0.0
redo_RPB004_8,unclassified,Salmonella enterica,NC_003277_2,93933.0,0.0,0.0,0.0,0.0,0.0
redo_RPB004_8,unclassified,Shigella dysenteriae,NC_007606_1,4369232.0,0.3044013227,1.0,13300.0,0.0,0.0
redo_RPB004_8,unclassified,Shigella dysenteriae,NC_007607_1,182726.0,0.0,0.0,0.0,0.0,0.0
redo_RPB004_8,unclassified,Shigella dysenteriae,NC_009344_1,8953.0,0.0,0.0,0.0,0.0,0.0
redo_RPB004_8,unclassified,Shigella flexneri,NC_004337_2,4607202.0,0.3627364287,1.0,16712.0,0.0,0.0
redo_RPB004_8,unclassified,Shigella flexneri,NC_004851_1,221618.0,0.0,0.0,0.0,0.0,0.0
redo_RPB004_8,unclassified,Staphylococcus agnetis,NZ_CP009623_1,2474434.0,0.0781592881,1.0,1934.0,0.0,0.0
redo_RPB004_8,unclassified,Staphylococcus agnetis,NZ_CP009624_1,28965.0,0.0,0.0,0.0,0.0,0.0
redo_RPB004_8,unclassified,Staphylococcus aureus,NC_007795_1,2821361.0,34.8663995852,1.4048644566,983707.0,4414.0,0.0
redo_RPB004_8,unclassified,Staphylococcus delphini,NZ_LR134263_1,2798161.0,0.1286559279,1.4588888889,3600.0,0.0,0.0
redo_RPB004_8,unclassified,Staphylococcus felis,NZ_CP027770_1,2479423.0,0.0432358658,1.8917910448,1072.0,0.0,0.0
redo_RPB004_8,unclassified,Staphylococcus muscae,NZ_CP027848_1,2095131.0,0.0723582439,1.7414248021,1516.0,0.0,0.0
redo_RPB004_8,unclassified,Staphylococcus pseudintermedius,NC_014925_1,2617381.0,0.0088256161,1.0,231.0,0.0,0.0
redo_RPB004_8,unclassified,Staphylococcus schleiferi,NZ_CP009470_1,2435632.0,48.247682737,1.602440909,1175136.0,15267.0,95.0
redo_RPB004_8,unclassified,Staphylococcus sciuri,NZ_CP022046_2,2764040.0,0.042329344,1.0,1170.0,0.0,0.0
redo_RPB004_8,unclassified,Staphylococcus sciuri,NZ_CP022047_2,89775.0,0.0,0.0,0.0,0.0,0.0
redo_RPB004_8,unclassified,Staphylococcus virus 69,NC_007048_1,42732.0,6.4494992043,1.0,2756.0,0.0,0.0
redo_RPB004_8,unclassified,Staphylococcus virus EW,NC_007056_1,45286.0,9.7557744115,1.5244454504,4418.0,0.0,0.0
