sample_ID	guuid	barcode	human bases	human reads	bacterial bases	bacterial reads	viral bases	viral reads	total bases	total reads
RPB004_63	5e26e38d5f87b0e1dc609381	barcode12a	23693258	5649	7311113708	2712466	14934087	5374	7373758792	2742418
RPB004_63	5e26e38d5f87b0e1dc609381	barcode03	72047	26	373811	148	2980	1	451170	176
RPB004_63	5e26e38d5f87b0e1dc609381	barcode11	66515	24	52345	18	0	0	119482	44
RPB004_63	5e26e38d5f87b0e1dc609381	nobarcode	0	0	0	0	0	0	0	0
RPB004_63	5e26e38d5f87b0e1dc609381	barcode08	5948686852	1930531	105419905	31793	2586270	818	6064447442	1967534
RPB004_63	5e26e38d5f87b0e1dc609381	barcode05	360497	113	29544	10	0	0	390041	123
RPB004_63	5e26e38d5f87b0e1dc609381	barcode06	695785	229	57752	21	0	0	759587	253
RPB004_63	5e26e38d5f87b0e1dc609381	unclassified	600477024	217156	297431859	117643	1196901	432	905623808	341956
RPB004_63	5e26e38d5f87b0e1dc609381	barcode09	137332	47	147987	58	0	0	296312	110
RPB004_63	5e26e38d5f87b0e1dc609381	barcode04	86564	31	1109033	400	0	0	1196246	433
RPB004_63	5e26e38d5f87b0e1dc609381	barcode07	5176745026	1726505	432541462	136295	7624622	2483	5651806566	1878608
RPB004_63	5e26e38d5f87b0e1dc609381	barcode01	83237	29	18854	8	0	0	102307	38
RPB004_63	5e26e38d5f87b0e1dc609381	barcode10	131922	46	81677	28	0	0	217364	76
RPB004_63	5e26e38d5f87b0e1dc609381	barcode02	563783	194	204793	78	0	0	770925	273
