Run_name,Barcode,Taxid,Bases,Reads
RPB004_56,barcode01,Streptococcus oralis,274644643,72544
RPB004_56,unclassified,Staphylococcus aureus,196525140,73377
RPB004_56,barcode02,Streptococcus oralis,68368673,13981
RPB004_56,barcode08,Staphylococcus aureus,3780468439,1290103
RPB004_56,barcode09,Escherichia coli,2069022,433
RPB004_56,barcode09,Staphylococcus aureus,2996392,529
RPB004_56,barcode01,Escherichia virus Mu,10022,3
RPB004_56,barcode01,Escherichia virus M13,12355,3
RPB004_56,barcode01,Escherichia virus T7,5650,2
RPB004_56,unclassified,Staphylococcus phage phi2958PVL,193227,62
RPB004_56,barcode02,Staphylococcus virus 53,8696,1
RPB004_56,barcode08,Staphylococcus phage phi2958PVL,3974674,1236
RPB004_56,barcode09,Human betaherpesvirus 6B,142265,41
