sample_ID	guuid	barcode	human bases	human reads	bacterial bases	bacterial reads	viral bases	viral reads	total bases	total reads
RPB004_60	5df8c68f5f87b07d70142ca7	unclassified	178274146	64430	40069975	11768	24660	17	221105249	77654
RPB004_60	5df8c68f5f87b07d70142ca7	barcode09	13193	5	6467	2	0	0	19660	7
RPB004_60	5df8c68f5f87b07d70142ca7	barcode10	44215	16	34948	10	0	0	100655	34
RPB004_60	5df8c68f5f87b07d70142ca7	barcode12a	30867	12	4339	1	0	0	35206	13
RPB004_60	5df8c68f5f87b07d70142ca7	barcode05	75107	27	180971	49	0	0	305188	95
RPB004_60	5df8c68f5f87b07d70142ca7	barcode02	2954129	558	1681398982	404120	0	0	1730350513	417060
RPB004_60	5df8c68f5f87b07d70142ca7	barcode11	3883	2	41530	10	0	0	58594	16
RPB004_60	5df8c68f5f87b07d70142ca7	barcode04	1545035714	616510	160415434	56011	17461	5	1716554265	677526
RPB004_60	5df8c68f5f87b07d70142ca7	nobarcode	0	0	0	0	0	0	0	0
RPB004_60	5df8c68f5f87b07d70142ca7	barcode01	1803683814	511169	3257910	753	64738	46	1807628915	512582
RPB004_60	5df8c68f5f87b07d70142ca7	barcode03	8774	4	9578	3	0	0	18352	7
RPB004_60	5df8c68f5f87b07d70142ca7	barcode08	2596	1	24584	6	0	0	27180	7
RPB004_60	5df8c68f5f87b07d70142ca7	barcode07	14946	6	8642	2	0	0	23588	8
