Run_name,Barcode,Taxid,Bases,Reads
RPB004_62,barcode03,Enterococcus faecium,8142,2
RPB004_62,barcode03,Staphylococcus aureus,8484,2
RPB004_62,barcode12a,Escherichia coli,4392371,1288
RPB004_62,barcode12a,Staphylococcus aureus,14484713,4330
RPB004_62,barcode12a,Bacillus subtilis,3961732,1162
RPB004_62,barcode09,Enterococcus faecium,1463672594,435939
RPB004_62,barcode07,Escherichia coli,42353,11
RPB004_62,barcode07,Enterococcus faecium,29663,8
RPB004_62,barcode07,Bacillus subtilis,13399,3
RPB004_62,unclassified,Enterococcus faecium,62418384,20468
RPB004_62,barcode01,Enterococcus faecium,16104,5
RPB004_62,barcode04,Enterococcus faecium,8912,3
RPB004_62,barcode04,Enterococcus casseliflavus,2865,1
RPB004_62,barcode05,Enterococcus faecium,18177,5
RPB004_62,barcode06,Enterococcus faecium,8356,3
RPB004_62,barcode02,Enterococcus faecium,130431,41
RPB004_62,barcode08,Escherichia coli,70516,17
RPB004_62,barcode08,Bacillus subtilis,23036,6
RPB004_62,barcode10,Enterococcus faecium,70514135,20371
RPB004_62,barcode11,Escherichia coli,9591055,2424
RPB004_62,barcode11,Staphylococcus aureus,49570926,13828
RPB004_62,barcode11,Bacillus subtilis,8277528,2157
RPB004_62,barcode12a,Staphylococcus virus 11,67365,16
RPB004_62,barcode12a,Proteus phage VB_PmiS-Isfahan,35506,44
RPB004_62,barcode09,Escherichia virus ACGM12,51323,14
RPB004_62,barcode09,Enterococcus phage EF62phi,54270,19
RPB004_62,barcode09,Escherichia virus Rtp,77143,20
RPB004_62,unclassified,Staphylococcus virus 11,12330,3
RPB004_62,unclassified,Escherichia virus ACGM12,10996,4
RPB004_62,unclassified,Proteus phage VB_PmiS-Isfahan,16150,13
RPB004_62,unclassified,Escherichia virus Rtp,7815,2
RPB004_62,barcode10,Escherichia virus Rtp,76657,21
RPB004_62,barcode10,Proteus phage VB_PmiS-Isfahan,17011,18
RPB004_62,barcode11,Escherichia virus ACGM12,344390,67
