sample,barcode,Species name,chrom,len,covBread_1x_percent,avCov,x1,x5,x10
redo_RPB004_37,barcode01,Acinetobacter guillouiae,NZ_AP014630_1,4648418.0,0.0443806904,1.0,2063.0,0.0,0.0
redo_RPB004_37,barcode01,Acinetobacter johnsonii,NZ_CP010350_1,3509795.0,0.0722549323,1.0,2536.0,0.0,0.0
redo_RPB004_37,barcode01,Acinetobacter johnsonii,NZ_CP010352_1,3978.0,0.0,0.0,0.0,0.0,0.0
redo_RPB004_37,barcode01,Acinetobacter johnsonii,NZ_CP010353_1,4724.0,0.0,0.0,0.0,0.0,0.0
redo_RPB004_37,barcode01,Acinetobacter johnsonii,NZ_CP010354_1,11643.0,0.0,0.0,0.0,0.0,0.0
redo_RPB004_37,barcode01,Acinetobacter johnsonii,NZ_CP010355_1,7579.0,0.0,0.0,0.0,0.0,0.0
redo_RPB004_37,barcode01,Acinetobacter johnsonii,NZ_CP010356_1,13940.0,0.0,0.0,0.0,0.0,0.0
redo_RPB004_37,barcode01,Acinetobacter johnsonii,NZ_CP010357_1,13330.0,0.0,0.0,0.0,0.0,0.0
redo_RPB004_37,barcode01,Acinetobacter johnsonii,NZ_CP010358_1,117483.0,0.0,0.0,0.0,0.0,0.0
redo_RPB004_37,barcode01,Acinetobacter johnsonii,NZ_CP010351_1,398857.0,0.0,0.0,0.0,0.0,0.0
redo_RPB004_37,barcode01,Clostridioides difficile,NC_009089_1,4290252.0,0.5295959305,23.1049689714,22721.0,8533.0,6487.0
redo_RPB004_37,barcode01,Clostridioides difficile,NC_008226_2,7881.0,0.0,0.0,0.0,0.0,0.0
redo_RPB004_37,barcode01,Clostridium tetani,NC_004557_1,2799251.0,0.0276502536,1.0,774.0,0.0,0.0
redo_RPB004_37,barcode01,Clostridium tetani,NC_004565_1,74082.0,0.0,0.0,0.0,0.0,0.0
redo_RPB004_37,barcode01,Corynebacterium aurimucosum,NC_012590_1,2790189.0,0.1679456123,1.9150661545,4686.0,0.0,0.0
redo_RPB004_37,barcode01,Corynebacterium aurimucosum,NC_010813_1,29037.0,0.0,0.0,0.0,0.0,0.0
redo_RPB004_37,barcode01,Corynebacterium jeikeium,NC_007164_1,2462499.0,0.0449137238,1.0,1106.0,0.0,0.0
redo_RPB004_37,barcode01,Corynebacterium jeikeium,NC_003080_1,14323.0,0.0,0.0,0.0,0.0,0.0
redo_RPB004_37,barcode01,Corynebacterium marinum,NZ_CP007790_1,2607268.0,0.0246618299,1.0,643.0,0.0,0.0
redo_RPB004_37,barcode01,Corynebacterium marinum,NZ_CP007792_1,96094.0,0.0,0.0,0.0,0.0,0.0
redo_RPB004_37,barcode01,Corynebacterium marinum,NZ_CP007791_1,25857.0,0.0,0.0,0.0,0.0,0.0
redo_RPB004_37,barcode01,Corynebacterium segmentosum,NZ_LR134408_1,2373440.0,0.0683817581,1.0,1623.0,0.0,0.0
redo_RPB004_37,barcode01,Cutibacterium acnes,NC_006085_1,2560265.0,9.8497225873,1.8088976481,252179.0,13029.0,0.0
redo_RPB004_37,barcode01,Enterobacteriaceae bacterium ENNIH3,NZ_CP026197_1,5904433.0,0.0446952315,1.0,2639.0,0.0,0.0
redo_RPB004_37,barcode01,Enterobacteriaceae bacterium ENNIH3,NZ_CP026198_1,174695.0,0.0,0.0,0.0,0.0,0.0
redo_RPB004_37,barcode01,Escherichia albertii,NZ_CP007025_1,4701875.0,0.2325455271,1.0,10934.0,0.0,0.0
redo_RPB004_37,barcode01,Escherichia coli,NC_000913_3,4641652.0,9.734809934,1.5980954109,451856.0,1998.0,0.0
redo_RPB004_37,barcode01,Escherichia marmotae,NZ_CP025979_1,4671322.0,0.0606466435,1.0,2833.0,0.0,0.0
redo_RPB004_37,barcode01,Escherichia marmotae,NZ_CP025980_1,148809.0,0.0,0.0,0.0,0.0,0.0
redo_RPB004_37,barcode01,Escherichia marmotae,NZ_CP025981_1,76160.0,0.0,0.0,0.0,0.0,0.0
redo_RPB004_37,barcode01,Escherichia virus T7,NC_001604_1,39937.0,0.1852918346,1.0,74.0,0.0,0.0
redo_RPB004_37,barcode01,Filifactor alocis,NC_016630_1,1931012.0,0.3500237181,5.2871726587,6759.0,2188.0,1666.0
redo_RPB004_37,barcode01,Finegoldia magna,NC_010376_1,1797577.0,0.0209170456,1.0,376.0,0.0,0.0
redo_RPB004_37,barcode01,Finegoldia magna,NC_010371_1,189163.0,0.0,0.0,0.0,0.0,0.0
redo_RPB004_37,barcode01,Fusobacterium gonidiaformans,NZ_CP028106_1,1678881.0,0.1477770015,5.2962515115,2481.0,1596.0,0.0
redo_RPB004_37,barcode01,Fusobacterium necrophorum,NZ_CP028107_1,2286018.0,0.1192903993,5.8349834983,2727.0,698.0,580.0
redo_RPB004_37,barcode01,Gardnerella vaginalis,NC_013721_1,1617545.0,0.0691170879,1.0,1118.0,0.0,0.0
redo_RPB004_37,barcode01,Gemella sp. ND 6198,NZ_CP022615_1,1797925.0,1.0403659774,85.9974338412,18705.0,15113.0,10760.0
redo_RPB004_37,barcode01,Gemella sp. oral taxon 928,NZ_CP014233_1,1769679.0,0.4099048472,26.2020953956,7254.0,5422.0,4541.0
redo_RPB004_37,barcode01,Human endogenous retrovirus K,NC_022518_1,9472.0,22.5190033784,1.0,2133.0,0.0,0.0
redo_RPB004_37,barcode01,Klebsiella pneumoniae,NC_016845_1,5333942.0,0.0,0.0,0.0,0.0,0.0
redo_RPB004_37,barcode01,Klebsiella pneumoniae,NC_016838_1,122799.0,0.0,0.0,0.0,0.0,0.0
redo_RPB004_37,barcode01,Klebsiella pneumoniae,NC_016846_1,111195.0,0.0,0.0,0.0,0.0,0.0
redo_RPB004_37,barcode01,Klebsiella pneumoniae,NC_016839_1,105974.0,0.0,0.0,0.0,0.0,0.0
redo_RPB004_37,barcode01,Klebsiella pneumoniae,NC_016840_1,3751.0,0.0,0.0,0.0,0.0,0.0
redo_RPB004_37,barcode01,Klebsiella pneumoniae,NC_016847_1,3353.0,11.3629585446,1.0,381.0,0.0,0.0
redo_RPB004_37,barcode01,Klebsiella pneumoniae,NC_016841_1,1308.0,0.0,0.0,0.0,0.0,0.0
redo_RPB004_37,barcode01,Lachnospiraceae bacterium oral taxon 500,NZ_CP027241_1,3201383.0,0.8920832028,105.23204594,28559.0,20464.0,16455.0
redo_RPB004_37,barcode01,Leptotrichia sp. oral taxon 212,NZ_CP012410_1,2444904.0,0.372080049,29.8382983401,9097.0,8735.0,7724.0
redo_RPB004_37,barcode01,Mageeibacillus indolicus,NC_013895_2,1809746.0,0.5017831232,30.5735051206,9081.0,7769.0,7299.0
redo_RPB004_37,barcode01,Massilia oculi,NZ_CP029343_1,5844653.0,0.1121366829,1.0,6554.0,0.0,0.0
redo_RPB004_37,barcode01,Micrococcus luteus,NC_012803_1,2501097.0,0.0189117015,1.0,473.0,0.0,0.0
redo_RPB004_37,barcode01,Micrococcus sp. KBS0714,NZ_CP042169_1,2522703.0,0.1644664473,1.0,4149.0,0.0,0.0
redo_RPB004_37,barcode01,Mogibacterium diversum,NZ_CP027228_1,1815831.0,0.543938285,53.6583982991,9877.0,6919.0,6224.0
redo_RPB004_37,barcode01,Moraxella osloensis,NZ_CP014234_1,2434688.0,0.2967115294,1.8978405316,7224.0,0.0,0.0
redo_RPB004_37,barcode01,Moraxella osloensis,NZ_CP014238_1,40342.0,0.0,0.0,0.0,0.0,0.0
redo_RPB004_37,barcode01,Moraxella osloensis,NZ_CP014237_1,35189.0,0.0,0.0,0.0,0.0,0.0
redo_RPB004_37,barcode01,Moraxella osloensis,NZ_CP014236_1,57463.0,0.0,0.0,0.0,0.0,0.0
redo_RPB004_37,barcode01,Moraxella osloensis,NZ_CP014235_1,81455.0,0.0,0.0,0.0,0.0,0.0
redo_RPB004_37,barcode01,Murdochiella vaginalis,NZ_LT632322_1,1671491.0,0.0539637964,1.0,902.0,0.0,0.0
redo_RPB004_37,barcode01,Mycolicibacterium aurum,NZ_LT549889_1,6038730.0,0.0070047841,1.0,423.0,0.0,0.0
redo_RPB004_37,barcode01,Mycoplasma bovigenitalium,NZ_AP017902_1,853553.0,0.0852905443,1.0,728.0,0.0,0.0
redo_RPB004_37,barcode01,Ndongobacter massiliensis,NZ_LT635480_1,1864878.0,0.0583416181,1.0,1088.0,0.0,0.0
redo_RPB004_37,barcode01,Neisseria subflava,NZ_CP031251_1,2321871.0,0.0708911046,1.0,1646.0,0.0,0.0
redo_RPB004_37,barcode01,Parvimonas micra,NZ_CP009761_1,1627009.0,91.4074845314,486.6539919097,1487208.0,1470643.0,1464654.0
redo_RPB004_37,barcode01,Peptoniphilus ivorii,NZ_LR134523_1,1587771.0,0.0666972756,1.0,1059.0,0.0,0.0
redo_RPB004_37,barcode01,Peptostreptococcaceae bacterium oral taxon 929,NZ_CP027242_1,1646831.0,0.7525362347,112.3573791657,12393.0,10839.0,9824.0
redo_RPB004_37,barcode01,Pseudomonas sp. TKP,NC_023064_1,7012672.0,0.0555280498,1.0,3894.0,0.0,0.0
redo_RPB004_37,barcode01,Roseburia intestinalis,NZ_LR027880_1,4493348.0,0.0029821861,1.0,134.0,0.0,0.0
redo_RPB004_37,barcode01,Salmonella bongori,NC_015761_1,4460105.0,0.0175556405,1.0,783.0,0.0,0.0
redo_RPB004_37,barcode01,Serratia rubidaea,NZ_CP014474_1,4922834.0,0.0621796307,1.0,3061.0,0.0,0.0
redo_RPB004_37,barcode01,Shigella dysenteriae,NC_007606_1,4369232.0,0.6631600245,1.009456428,28975.0,0.0,0.0
redo_RPB004_37,barcode01,Shigella dysenteriae,NC_009344_1,8953.0,0.0,0.0,0.0,0.0,0.0
redo_RPB004_37,barcode01,Shigella dysenteriae,NC_007607_1,182726.0,0.0,0.0,0.0,0.0,0.0
redo_RPB004_37,barcode01,Shigella flexneri,NC_004337_2,4607202.0,0.2992054614,1.0,13785.0,0.0,0.0
redo_RPB004_37,barcode01,Shigella flexneri,NC_004851_1,221618.0,0.0,0.0,0.0,0.0,0.0
redo_RPB004_37,barcode01,Shigella sp. PAMC 28760,NZ_CP014768_1,4558287.0,0.0875986966,1.0,3993.0,0.0,0.0
redo_RPB004_37,barcode01,Shigella virus SfMu,NC_027382_1,37146.0,4.2804070425,1.0,1590.0,0.0,0.0
redo_RPB004_37,barcode01,Staphylococcus aureus,NC_007795_1,2821361.0,0.3427069418,2.1202813114,9669.0,0.0,0.0
redo_RPB004_37,barcode01,Staphylococcus epidermidis,NC_004461_1,2499279.0,5.3779109895,1.0291795936,134409.0,0.0,0.0
redo_RPB004_37,barcode01,Staphylococcus epidermidis,NC_005008_1,4439.0,0.0,0.0,0.0,0.0,0.0
redo_RPB004_37,barcode01,Staphylococcus epidermidis,NC_005007_1,4679.0,0.0,0.0,0.0,0.0,0.0
redo_RPB004_37,barcode01,Staphylococcus epidermidis,NC_005006_1,8007.0,0.0,0.0,0.0,0.0,0.0
redo_RPB004_37,barcode01,Staphylococcus epidermidis,NC_005005_1,17261.0,0.0,0.0,0.0,0.0,0.0
redo_RPB004_37,barcode01,Staphylococcus epidermidis,NC_005004_1,24365.0,0.0,0.0,0.0,0.0,0.0
redo_RPB004_37,barcode01,Staphylococcus epidermidis,NC_005003_1,6585.0,0.0,0.0,0.0,0.0,0.0
redo_RPB004_37,barcode01,Streptobacillus moniliformis,NC_013515_1,1662578.0,0.2107570291,2.158390411,3504.0,142.0,0.0
redo_RPB004_37,barcode01,Streptobacillus moniliformis,NC_013516_1,10702.0,0.0,0.0,0.0,0.0,0.0
redo_RPB004_37,barcode01,Streptococcus anginosus,NC_022239_1,2233640.0,1.4985404989,118.2793678298,33472.0,22858.0,17279.0
redo_RPB004_37,barcode01,Streptococcus constellatus,NC_022236_1,1935414.0,0.8133660292,20.3834328548,15742.0,11797.0,8152.0
redo_RPB004_37,barcode01,Streptococcus dysgalactiae,NC_019042_1,2179445.0,0.0469844387,1.0,1024.0,0.0,0.0
redo_RPB004_37,barcode01,Streptococcus equi,NC_012470_1,2149868.0,0.7677680676,49.5776687265,16506.0,11541.0,9548.0
redo_RPB004_37,barcode01,Streptococcus intermedius,NC_022246_1,1996214.0,1.3475008191,250.3114985687,26899.0,25181.0,22844.0
redo_RPB004_37,barcode01,Streptococcus mitis,NC_013853_1,2146611.0,1.4766531989,1.5330620228,31698.0,244.0,0.0
redo_RPB004_37,barcode01,Streptococcus oralis,NC_015291_1,1958690.0,0.0952677555,1.0,1866.0,0.0,0.0
redo_RPB004_37,barcode01,Streptococcus pneumoniae,NC_003098_1,2038615.0,0.4979851517,1.4876871552,10152.0,0.0,0.0
redo_RPB004_37,barcode01,Streptococcus pseudopneumoniae,NC_015875_1,2190731.0,0.4053441522,1.0,8880.0,0.0,0.0
redo_RPB004_37,barcode01,Streptococcus pseudopneumoniae,NC_015876_1,4727.0,0.0,0.0,0.0,0.0,0.0
redo_RPB004_37,barcode01,Streptococcus pseudoporcinus,NZ_LR134341_1,2156061.0,0.2716991773,1.6351997269,5858.0,0.0,0.0
redo_RPB004_37,barcode01,Streptococcus respiraculi,NZ_CP022680_1,2041601.0,0.172217784,7.0767918089,3516.0,2352.0,910.0
redo_RPB004_37,barcode01,Streptococcus respiraculi,NZ_CP022681_1,26370.0,0.0,0.0,0.0,0.0,0.0
redo_RPB004_37,barcode01,Streptococcus sp. ChDC B345,NZ_CP032621_1,1972481.0,0.214197247,1.0,4225.0,0.0,0.0
redo_RPB004_37,barcode01,Treponema pedis,NC_022097_1,2889325.0,0.0495271387,6.5401816911,1431.0,1197.0,0.0
redo_RPB004_37,barcode01,[Eubacterium] sulci,NZ_CP012068_1,1739380.0,0.4061217215,97.0778595696,7064.0,7048.0,6866.0
redo_RPB004_37,barcode02,Bacillus anthracis,NC_003997_3,5227293.0,0.0106364805,1.0,556.0,0.0,0.0
redo_RPB004_37,barcode02,Clostridioides difficile,NC_009089_1,4290252.0,0.5881472697,24.9826814093,25233.0,11512.0,7406.0
redo_RPB004_37,barcode02,Clostridioides difficile,NC_008226_2,7881.0,0.0,0.0,0.0,0.0,0.0
redo_RPB004_37,barcode02,Clostridium beijerinckii,NZ_CP010086_2,6485394.0,0.0035310114,1.0,229.0,0.0,0.0
redo_RPB004_37,barcode02,Clostridium tetani,NC_004557_1,2799251.0,0.0340805451,1.785115304,954.0,0.0,0.0
redo_RPB004_37,barcode02,Clostridium tetani,NC_004565_1,74082.0,0.0,0.0,0.0,0.0,0.0
redo_RPB004_37,barcode02,Cutibacterium acnes,NC_006085_1,2560265.0,0.2663396172,2.9004252823,6819.0,0.0,0.0
redo_RPB004_37,barcode02,Enterobacter asburiae,NC_015968_1,4812833.0,0.0617515713,1.0,2972.0,0.0,0.0
redo_RPB004_37,barcode02,Enterobacter asburiae,NC_015963_1,166725.0,0.0,0.0,0.0,0.0,0.0
redo_RPB004_37,barcode02,Enterobacter asburiae,NC_015969_1,32574.0,0.0,0.0,0.0,0.0,0.0
redo_RPB004_37,barcode02,Escherichia albertii,NZ_CP007025_1,4701875.0,0.199431078,1.0,9377.0,0.0,0.0
redo_RPB004_37,barcode02,Escherichia coli,NC_000913_3,4641652.0,5.5864162156,1.4764907328,259302.0,0.0,0.0
redo_RPB004_37,barcode02,Filifactor alocis,NC_016630_1,1931012.0,0.1553071654,5.7915971991,2999.0,2155.0,0.0
redo_RPB004_37,barcode02,Fusobacterium gonidiaformans,NZ_CP028106_1,1678881.0,0.2458780581,5.8568313953,4128.0,2315.0,979.0
redo_RPB004_37,barcode02,Fusobacterium necrophorum,NZ_CP028107_1,2286018.0,0.119465376,6.3742218967,2731.0,1888.0,571.0
redo_RPB004_37,barcode02,Gemella sp. ND 6198,NZ_CP022615_1,1797925.0,1.1201802077,118.5790466733,20140.0,17220.0,15086.0
redo_RPB004_37,barcode02,Gemella sp. oral taxon 928,NZ_CP014233_1,1769679.0,0.4192850794,33.9314016173,7420.0,6368.0,5335.0
redo_RPB004_37,barcode02,Lachnospiraceae bacterium oral taxon 500,NZ_CP027241_1,3201383.0,1.0438925927,189.4044405877,33419.0,24077.0,20724.0
redo_RPB004_37,barcode02,Lactobacillus mucosae,NZ_CP011013_1,2326299.0,0.0153462646,1.0,357.0,0.0,0.0
redo_RPB004_37,barcode02,Lactobacillus mucosae,NZ_CP011014_1,108311.0,0.0,0.0,0.0,0.0,0.0
redo_RPB004_37,barcode02,Lactococcus lactis,NC_002662_1,2365589.0,0.0096381916,1.0,228.0,0.0,0.0
redo_RPB004_37,barcode02,Leptotrichia sp. oral taxon 212,NZ_CP012410_1,2444904.0,0.401324551,74.4851202609,9812.0,8357.0,7320.0
redo_RPB004_37,barcode02,Mageeibacillus indolicus,NC_013895_2,1809746.0,0.503827609,43.883965782,9118.0,8829.0,7983.0
redo_RPB004_37,barcode02,Mogibacterium diversum,NZ_CP027228_1,1815831.0,0.4939336315,120.9067900546,8969.0,8467.0,8451.0
redo_RPB004_37,barcode02,Murdochiella vaginalis,NZ_LT632322_1,1671491.0,0.2687420991,1.0,4492.0,0.0,0.0
redo_RPB004_37,barcode02,Parvimonas micra,NZ_CP009761_1,1627009.0,92.0596013913,1054.5834720907,1497818.0,1482920.0,1476599.0
redo_RPB004_37,barcode02,Peptostreptococcaceae bacterium oral taxon 929,NZ_CP027242_1,1646831.0,0.7951028369,277.4001832901,13094.0,12524.0,12503.0
redo_RPB004_37,barcode02,Shigella dysenteriae,NC_007606_1,4369232.0,0.2645773903,1.0,11560.0,0.0,0.0
redo_RPB004_37,barcode02,Shigella dysenteriae,NC_009344_1,8953.0,0.0,0.0,0.0,0.0,0.0
redo_RPB004_37,barcode02,Shigella dysenteriae,NC_007607_1,182726.0,0.0,0.0,0.0,0.0,0.0
redo_RPB004_37,barcode02,Shigella flexneri,NC_004337_2,4607202.0,0.3360825073,1.0,15484.0,0.0,0.0
redo_RPB004_37,barcode02,Shigella flexneri,NC_004851_1,221618.0,0.0,0.0,0.0,0.0,0.0
redo_RPB004_37,barcode02,Staphylococcus agnetis,NZ_CP009623_1,2474434.0,0.0062640588,1.0,155.0,0.0,0.0
redo_RPB004_37,barcode02,Staphylococcus agnetis,NZ_CP009624_1,28965.0,0.0,0.0,0.0,0.0,0.0
redo_RPB004_37,barcode02,Staphylococcus aureus,NC_007795_1,2821361.0,0.0988175565,2.6836441894,2788.0,351.0,0.0
redo_RPB004_37,barcode02,Staphylococcus epidermidis,NC_004461_1,2499279.0,2.161463366,1.0,54021.0,0.0,0.0
redo_RPB004_37,barcode02,Staphylococcus epidermidis,NC_005008_1,4439.0,0.0,0.0,0.0,0.0,0.0
redo_RPB004_37,barcode02,Staphylococcus epidermidis,NC_005007_1,4679.0,0.0,0.0,0.0,0.0,0.0
redo_RPB004_37,barcode02,Staphylococcus epidermidis,NC_005006_1,8007.0,0.0,0.0,0.0,0.0,0.0
redo_RPB004_37,barcode02,Staphylococcus epidermidis,NC_005005_1,17261.0,0.0,0.0,0.0,0.0,0.0
redo_RPB004_37,barcode02,Staphylococcus epidermidis,NC_005004_1,24365.0,0.0,0.0,0.0,0.0,0.0
redo_RPB004_37,barcode02,Staphylococcus epidermidis,NC_005003_1,6585.0,0.0,0.0,0.0,0.0,0.0
redo_RPB004_37,barcode02,Streptobacillus moniliformis,NC_013515_1,1662578.0,0.1844124005,1.6265492498,3066.0,143.0,107.0
redo_RPB004_37,barcode02,Streptobacillus moniliformis,NC_013516_1,10702.0,0.0,0.0,0.0,0.0,0.0
redo_RPB004_37,barcode02,Streptococcus anginosus,NC_022239_1,2233640.0,1.6260901488,216.3340491727,36321.0,27379.0,19563.0
redo_RPB004_37,barcode02,Streptococcus constellatus,NC_022236_1,1935414.0,1.2610738581,15.8416847626,24407.0,13398.0,10535.0
redo_RPB004_37,barcode02,Streptococcus dysgalactiae,NC_019042_1,2179445.0,0.0969054048,2.453125,2112.0,348.0,0.0
redo_RPB004_37,barcode02,Streptococcus equi,NC_012470_1,2149868.0,0.8597272019,90.1320132013,18483.0,12490.0,9557.0
redo_RPB004_37,barcode02,Streptococcus intermedius,NC_022246_1,1996214.0,1.4382726501,477.7051652677,28711.0,26896.0,25959.0
redo_RPB004_37,barcode02,Streptococcus pseudoporcinus,NZ_LR134341_1,2156061.0,0.6849527912,3.0912107259,14768.0,4228.0,0.0
redo_RPB004_37,barcode02,Streptococcus respiraculi,NZ_CP022680_1,2041601.0,0.218798874,4.1443922095,4467.0,2251.0,0.0
redo_RPB004_37,barcode02,Streptococcus respiraculi,NZ_CP022681_1,26370.0,0.0,0.0,0.0,0.0,0.0
redo_RPB004_37,barcode02,Taylorella equigenitalis,NC_018108_1,1732123.0,0.0237858397,1.0,412.0,0.0,0.0
redo_RPB004_37,barcode02,Treponema pedis,NC_022097_1,2889325.0,0.0554800862,5.425452277,1603.0,1175.0,0.0
redo_RPB004_37,barcode02,[Eubacterium] sulci,NZ_CP012068_1,1739380.0,0.4066391473,118.2272020359,7073.0,7051.0,7049.0
redo_RPB004_37,barcode03,Parvimonas micra,NZ_CP009761_1,1627009.0,1.7099475172,1.0080514719,27821.0,0.0,0.0
redo_RPB004_37,barcode03,Staphylococcus epidermidis,NC_004461_1,2499279.0,0.0696200784,1.0,1740.0,0.0,0.0
redo_RPB004_37,barcode03,Staphylococcus epidermidis,NC_005008_1,4439.0,0.0,0.0,0.0,0.0,0.0
redo_RPB004_37,barcode03,Staphylococcus epidermidis,NC_005007_1,4679.0,0.0,0.0,0.0,0.0,0.0
redo_RPB004_37,barcode03,Staphylococcus epidermidis,NC_005006_1,8007.0,0.0,0.0,0.0,0.0,0.0
redo_RPB004_37,barcode03,Staphylococcus epidermidis,NC_005005_1,17261.0,0.0,0.0,0.0,0.0,0.0
redo_RPB004_37,barcode03,Staphylococcus epidermidis,NC_005004_1,24365.0,0.0,0.0,0.0,0.0,0.0
redo_RPB004_37,barcode03,Staphylococcus epidermidis,NC_005003_1,6585.0,0.0,0.0,0.0,0.0,0.0
redo_RPB004_37,barcode04,Anaerococcus mediterraneensis,NZ_LT635772_1,2080215.0,0.1266695991,2.3111954459,2635.0,0.0,0.0
redo_RPB004_37,barcode04,Bacillus amyloliquefaciens,NC_014551_1,3980199.0,0.0016330842,1.0,65.0,0.0,0.0
redo_RPB004_37,barcode04,Clostridioides difficile,NC_009089_1,4290252.0,0.5895457889,22.8028703594,25293.0,10209.0,7552.0
redo_RPB004_37,barcode04,Clostridioides difficile,NC_008226_2,7881.0,0.0,0.0,0.0,0.0,0.0
redo_RPB004_37,barcode04,Clostridium beijerinckii,NZ_CP010086_2,6485394.0,0.0051037763,1.0,331.0,0.0,0.0
redo_RPB004_37,barcode04,Clostridium tetani,NC_004557_1,2799251.0,0.0295436172,1.0,827.0,0.0,0.0
redo_RPB004_37,barcode04,Clostridium tetani,NC_004565_1,74082.0,0.0,0.0,0.0,0.0,0.0
redo_RPB004_37,barcode04,Corynebacterium sp. 2183,NZ_CP026947_1,2511302.0,0.0192330512,1.0,483.0,0.0,0.0
redo_RPB004_37,barcode04,Cutibacterium acnes,NC_006085_1,2560265.0,0.694068778,1.9396736072,17770.0,0.0,0.0
redo_RPB004_37,barcode04,Escherichia coli,NC_000913_3,4641652.0,10.4462592198,1.5822071073,484879.0,13553.0,0.0
redo_RPB004_37,barcode04,Escherichia fergusonii,NC_011740_1,4588711.0,0.1107282633,1.0,5081.0,0.0,0.0
redo_RPB004_37,barcode04,Escherichia fergusonii,NC_011743_1,55150.0,0.0,0.0,0.0,0.0,0.0
redo_RPB004_37,barcode04,Filifactor alocis,NC_016630_1,1931012.0,0.3130482876,4.7273779983,6045.0,2482.0,1164.0
redo_RPB004_37,barcode04,Finegoldia magna,NC_010376_1,1797577.0,0.0033378264,1.0,60.0,0.0,0.0
redo_RPB004_37,barcode04,Finegoldia magna,NC_010371_1,189163.0,0.0,0.0,0.0,0.0,0.0
redo_RPB004_37,barcode04,Fusobacterium gonidiaformans,NZ_CP028106_1,1678881.0,0.2389091305,4.8950386437,4011.0,2427.0,0.0
redo_RPB004_37,barcode04,Fusobacterium necrophorum,NZ_CP028107_1,2286018.0,0.1199465621,4.2603938731,2742.0,985.0,0.0
redo_RPB004_37,barcode04,Gemella sp. ND 6198,NZ_CP022615_1,1797925.0,1.0537703186,99.6647313417,18946.0,16355.0,12736.0
redo_RPB004_37,barcode04,Gemella sp. oral taxon 928,NZ_CP014233_1,1769679.0,0.736969812,15.1029750038,13042.0,5403.0,4918.0
redo_RPB004_37,barcode04,Histophilus somni,NC_010519_1,2263857.0,0.0529627092,1.0,1199.0,0.0,0.0
redo_RPB004_37,barcode04,Klebsiella pneumoniae,NC_016845_1,5333942.0,0.0,0.0,0.0,0.0,0.0
redo_RPB004_37,barcode04,Klebsiella pneumoniae,NC_016838_1,122799.0,0.0,0.0,0.0,0.0,0.0
redo_RPB004_37,barcode04,Klebsiella pneumoniae,NC_016846_1,111195.0,0.0,0.0,0.0,0.0,0.0
redo_RPB004_37,barcode04,Klebsiella pneumoniae,NC_016839_1,105974.0,0.0,0.0,0.0,0.0,0.0
redo_RPB004_37,barcode04,Klebsiella pneumoniae,NC_016840_1,3751.0,0.0,0.0,0.0,0.0,0.0
redo_RPB004_37,barcode04,Klebsiella pneumoniae,NC_016847_1,3353.0,11.5419027736,1.0,387.0,0.0,0.0
redo_RPB004_37,barcode04,Klebsiella pneumoniae,NC_016841_1,1308.0,0.0,0.0,0.0,0.0,0.0
redo_RPB004_37,barcode04,Lachnospiraceae bacterium oral taxon 500,NZ_CP027241_1,3201383.0,0.9544624932,189.4247283676,30556.0,22916.0,18565.0
redo_RPB004_37,barcode04,Leptotrichia sp. oral taxon 212,NZ_CP012410_1,2444904.0,0.4023061846,57.9379829199,9836.0,8895.0,7320.0
redo_RPB004_37,barcode04,Mageeibacillus indolicus,NC_013895_2,1809746.0,0.5042696599,38.8873548104,9126.0,8800.0,7611.0
redo_RPB004_37,barcode04,Mogibacterium diversum,NZ_CP027228_1,1815831.0,0.5637639186,82.5454723063,10237.0,8459.0,8440.0
redo_RPB004_37,barcode04,Mycoplasma mycoides,NC_005364_2,1211703.0,0.0058595217,1.0,71.0,0.0,0.0
redo_RPB004_37,barcode04,Parvimonas micra,NZ_CP009761_1,1627009.0,91.9128904634,904.1899706506,1495431.0,1482207.0,1474603.0
redo_RPB004_37,barcode04,Peptostreptococcaceae bacterium oral taxon 929,NZ_CP027242_1,1646831.0,0.7960743999,225.1418764302,13110.0,12397.0,12229.0
redo_RPB004_37,barcode04,Salmonella enterica,NC_003197_2,4857450.0,0.0718895717,1.0,3492.0,0.0,0.0
redo_RPB004_37,barcode04,Salmonella enterica,NC_003277_2,93933.0,0.0,0.0,0.0,0.0,0.0
redo_RPB004_37,barcode04,Shigella dysenteriae,NC_007606_1,4369232.0,0.3936389736,1.0,17199.0,0.0,0.0
redo_RPB004_37,barcode04,Shigella dysenteriae,NC_009344_1,8953.0,0.0,0.0,0.0,0.0,0.0
redo_RPB004_37,barcode04,Shigella dysenteriae,NC_007607_1,182726.0,0.0558212843,1.0,102.0,0.0,0.0
redo_RPB004_37,barcode04,Shigella flexneri,NC_004337_2,4607202.0,0.3916042752,1.0,18042.0,0.0,0.0
redo_RPB004_37,barcode04,Shigella flexneri,NC_004851_1,221618.0,0.0,0.0,0.0,0.0,0.0
redo_RPB004_37,barcode04,Staphylococcus epidermidis,NC_004461_1,2499279.0,4.4729700045,1.0294654358,111792.0,0.0,0.0
redo_RPB004_37,barcode04,Staphylococcus epidermidis,NC_005008_1,4439.0,0.0,0.0,0.0,0.0,0.0
redo_RPB004_37,barcode04,Staphylococcus epidermidis,NC_005007_1,4679.0,0.0,0.0,0.0,0.0,0.0
redo_RPB004_37,barcode04,Staphylococcus epidermidis,NC_005006_1,8007.0,0.0,0.0,0.0,0.0,0.0
redo_RPB004_37,barcode04,Staphylococcus epidermidis,NC_005005_1,17261.0,0.0,0.0,0.0,0.0,0.0
redo_RPB004_37,barcode04,Staphylococcus epidermidis,NC_005004_1,24365.0,0.0,0.0,0.0,0.0,0.0
redo_RPB004_37,barcode04,Staphylococcus epidermidis,NC_005003_1,6585.0,0.0,0.0,0.0,0.0,0.0
redo_RPB004_37,barcode04,Streptobacillus moniliformis,NC_013515_1,1662578.0,0.1992086988,1.5102657005,3312.0,143.0,101.0
redo_RPB004_37,barcode04,Streptobacillus moniliformis,NC_013516_1,10702.0,0.0,0.0,0.0,0.0,0.0
redo_RPB004_37,barcode04,Streptococcus anginosus,NC_022239_1,2233640.0,1.6121219176,175.7264572746,36009.0,25324.0,20594.0
redo_RPB004_37,barcode04,Streptococcus constellatus,NC_022236_1,1935414.0,1.0431359905,11.5343008569,20189.0,10657.0,7893.0
redo_RPB004_37,barcode04,Streptococcus dysgalactiae,NC_019042_1,2179445.0,0.0330359335,1.0,720.0,0.0,0.0
redo_RPB004_37,barcode04,Streptococcus equi,NC_012470_1,2149868.0,0.9597798563,62.5008723466,20634.0,13777.0,11132.0
redo_RPB004_37,barcode04,Streptococcus intermedius,NC_022246_1,1996214.0,1.4150787441,414.0287453979,28248.0,26891.0,24924.0
redo_RPB004_37,barcode04,Streptococcus pseudoporcinus,NZ_LR134341_1,2156061.0,0.4859324481,2.6040851389,10477.0,2016.0,0.0
redo_RPB004_37,barcode04,Streptococcus respiraculi,NZ_CP022680_1,2041601.0,0.187744814,3.1823636838,3833.0,0.0,0.0
redo_RPB004_37,barcode04,Streptococcus respiraculi,NZ_CP022681_1,26370.0,0.0,0.0,0.0,0.0,0.0
redo_RPB004_37,barcode04,Treponema pedis,NC_022097_1,2889325.0,0.0481081221,8.5021582734,1390.0,1379.0,0.0
redo_RPB004_37,barcode04,[Eubacterium] sulci,NZ_CP012068_1,1739380.0,0.4061217215,120.7147508494,7064.0,7051.0,7046.0
redo_RPB004_37,barcode05,Parvimonas micra,NZ_CP009761_1,1627009.0,9.5215822408,1.0644086834,154917.0,0.0,0.0
redo_RPB004_37,barcode05,Staphylococcus epidermidis,NC_004461_1,2499279.0,0.0978282137,1.0,2445.0,0.0,0.0
redo_RPB004_37,barcode05,Staphylococcus epidermidis,NC_005008_1,4439.0,0.0,0.0,0.0,0.0,0.0
redo_RPB004_37,barcode05,Staphylococcus epidermidis,NC_005007_1,4679.0,0.0,0.0,0.0,0.0,0.0
redo_RPB004_37,barcode05,Staphylococcus epidermidis,NC_005006_1,8007.0,0.0,0.0,0.0,0.0,0.0
redo_RPB004_37,barcode05,Staphylococcus epidermidis,NC_005005_1,17261.0,0.0,0.0,0.0,0.0,0.0
redo_RPB004_37,barcode05,Staphylococcus epidermidis,NC_005004_1,24365.0,0.0,0.0,0.0,0.0,0.0
redo_RPB004_37,barcode05,Staphylococcus epidermidis,NC_005003_1,6585.0,0.0,0.0,0.0,0.0,0.0
redo_RPB004_37,barcode06,Parvimonas micra,NZ_CP009761_1,1627009.0,0.2676076162,1.0,4354.0,0.0,0.0
redo_RPB004_37,barcode06,Staphylococcus epidermidis,NC_004461_1,2499279.0,0.1894546387,1.0,4735.0,0.0,0.0
redo_RPB004_37,barcode06,Staphylococcus epidermidis,NC_005008_1,4439.0,0.0,0.0,0.0,0.0,0.0
redo_RPB004_37,barcode06,Staphylococcus epidermidis,NC_005007_1,4679.0,0.0,0.0,0.0,0.0,0.0
redo_RPB004_37,barcode06,Staphylococcus epidermidis,NC_005006_1,8007.0,0.0,0.0,0.0,0.0,0.0
redo_RPB004_37,barcode06,Staphylococcus epidermidis,NC_005005_1,17261.0,0.0,0.0,0.0,0.0,0.0
redo_RPB004_37,barcode06,Staphylococcus epidermidis,NC_005004_1,24365.0,0.0,0.0,0.0,0.0,0.0
redo_RPB004_37,barcode06,Staphylococcus epidermidis,NC_005003_1,6585.0,0.0,0.0,0.0,0.0,0.0
redo_RPB004_37,barcode07,Parvimonas micra,NZ_CP009761_1,1627009.0,1.7408631421,1.0,28324.0,0.0,0.0
redo_RPB004_37,barcode07,Staphylococcus epidermidis,NC_004461_1,2499279.0,0.4594124946,1.0,11482.0,0.0,0.0
redo_RPB004_37,barcode07,Staphylococcus epidermidis,NC_005008_1,4439.0,0.0,0.0,0.0,0.0,0.0
redo_RPB004_37,barcode07,Staphylococcus epidermidis,NC_005007_1,4679.0,0.0,0.0,0.0,0.0,0.0
redo_RPB004_37,barcode07,Staphylococcus epidermidis,NC_005006_1,8007.0,0.0,0.0,0.0,0.0,0.0
redo_RPB004_37,barcode07,Staphylococcus epidermidis,NC_005005_1,17261.0,0.0,0.0,0.0,0.0,0.0
redo_RPB004_37,barcode07,Staphylococcus epidermidis,NC_005004_1,24365.0,0.0,0.0,0.0,0.0,0.0
redo_RPB004_37,barcode07,Staphylococcus epidermidis,NC_005003_1,6585.0,0.0,0.0,0.0,0.0,0.0
redo_RPB004_37,barcode08,Parvimonas micra,NZ_CP009761_1,1627009.0,1.1920032403,1.0631638651,19394.0,0.0,0.0
redo_RPB004_37,barcode08,Staphylococcus epidermidis,NC_004461_1,2499279.0,0.1743302769,1.0,4357.0,0.0,0.0
redo_RPB004_37,barcode08,Staphylococcus epidermidis,NC_005008_1,4439.0,0.0,0.0,0.0,0.0,0.0
redo_RPB004_37,barcode08,Staphylococcus epidermidis,NC_005007_1,4679.0,0.0,0.0,0.0,0.0,0.0
redo_RPB004_37,barcode08,Staphylococcus epidermidis,NC_005006_1,8007.0,0.0,0.0,0.0,0.0,0.0
redo_RPB004_37,barcode08,Staphylococcus epidermidis,NC_005005_1,17261.0,0.0,0.0,0.0,0.0,0.0
redo_RPB004_37,barcode08,Staphylococcus epidermidis,NC_005004_1,24365.0,0.0,0.0,0.0,0.0,0.0
redo_RPB004_37,barcode08,Staphylococcus epidermidis,NC_005003_1,6585.0,0.0,0.0,0.0,0.0,0.0
redo_RPB004_37,barcode08,Streptococcus intermedius,NC_022246_1,1996214.0,0.0873152878,1.0,1743.0,0.0,0.0
redo_RPB004_37,barcode09,Anaerococcus prevotii,NC_013171_1,1883067.0,0.1493839571,1.0,2813.0,0.0,0.0
redo_RPB004_37,barcode09,Anaerococcus prevotii,NC_013164_1,115566.0,0.0,0.0,0.0,0.0,0.0
redo_RPB004_37,barcode09,Corynebacterium imitans,NZ_CP009211_1,2565321.0,0.1022484126,1.0,2623.0,0.0,0.0
redo_RPB004_37,barcode09,Cutibacterium acnes,NC_006085_1,2560265.0,3.1595948076,2.2956090687,80894.0,5221.0,0.0
redo_RPB004_37,barcode09,Enterobacteriaceae bacterium w6,NZ_CP031104_1,4945486.0,0.091416698,1.0,4521.0,0.0,0.0
redo_RPB004_37,barcode09,Escherichia albertii,NZ_CP007025_1,4701875.0,0.1734414462,1.0,8155.0,0.0,0.0
redo_RPB004_37,barcode09,Escherichia coli,NC_000913_3,4641652.0,5.4266886014,2.461645652,251888.0,41519.0,1867.0
redo_RPB004_37,barcode09,Escherichia marmotae,NZ_CP025979_1,4671322.0,0.031490015,1.0,1471.0,0.0,0.0
redo_RPB004_37,barcode09,Escherichia marmotae,NZ_CP025980_1,148809.0,0.0,0.0,0.0,0.0,0.0
redo_RPB004_37,barcode09,Escherichia marmotae,NZ_CP025981_1,76160.0,0.0,0.0,0.0,0.0,0.0
redo_RPB004_37,barcode09,Parvimonas micra,NZ_CP009761_1,1627009.0,2.3808718944,1.0,38737.0,0.0,0.0
redo_RPB004_37,barcode09,Shigella dysenteriae,NC_007606_1,4369232.0,0.2462675363,1.0,10760.0,0.0,0.0
redo_RPB004_37,barcode09,Shigella dysenteriae,NC_009344_1,8953.0,0.0,0.0,0.0,0.0,0.0
redo_RPB004_37,barcode09,Shigella dysenteriae,NC_007607_1,182726.0,0.0,0.0,0.0,0.0,0.0
redo_RPB004_37,barcode09,Shigella flexneri,NC_004337_2,4607202.0,0.2167693103,1.6025833584,9987.0,0.0,0.0
redo_RPB004_37,barcode09,Shigella flexneri,NC_004851_1,221618.0,0.0,0.0,0.0,0.0,0.0
redo_RPB004_37,barcode09,Staphylococcus epidermidis,NC_004461_1,2499279.0,1.0652672231,2.9914362981,26624.0,6243.0,1224.0
redo_RPB004_37,barcode09,Staphylococcus epidermidis,NC_005008_1,4439.0,0.0,0.0,0.0,0.0,0.0
redo_RPB004_37,barcode09,Staphylococcus epidermidis,NC_005007_1,4679.0,0.0,0.0,0.0,0.0,0.0
redo_RPB004_37,barcode09,Staphylococcus epidermidis,NC_005006_1,8007.0,0.0,0.0,0.0,0.0,0.0
redo_RPB004_37,barcode09,Staphylococcus epidermidis,NC_005005_1,17261.0,0.0,0.0,0.0,0.0,0.0
redo_RPB004_37,barcode09,Staphylococcus epidermidis,NC_005004_1,24365.0,0.0,0.0,0.0,0.0,0.0
redo_RPB004_37,barcode09,Staphylococcus epidermidis,NC_005003_1,6585.0,0.0,0.0,0.0,0.0,0.0
redo_RPB004_37,barcode09,Staphylococcus hominis,NZ_CP020618_1,2253412.0,0.0844940916,1.0,1904.0,0.0,0.0
redo_RPB004_37,barcode10,Acinetobacter baumannii,NZ_CP009257_1,4335793.0,0.047142472,1.6179060665,2044.0,0.0,0.0
redo_RPB004_37,barcode10,Acinetobacter johnsonii,NZ_CP010350_1,3509795.0,0.183942367,2.9721189591,6456.0,0.0,0.0
redo_RPB004_37,barcode10,Acinetobacter johnsonii,NZ_CP010352_1,3978.0,0.0,0.0,0.0,0.0,0.0
redo_RPB004_37,barcode10,Acinetobacter johnsonii,NZ_CP010353_1,4724.0,0.0,0.0,0.0,0.0,0.0
redo_RPB004_37,barcode10,Acinetobacter johnsonii,NZ_CP010354_1,11643.0,0.0,0.0,0.0,0.0,0.0
redo_RPB004_37,barcode10,Acinetobacter johnsonii,NZ_CP010355_1,7579.0,0.0,0.0,0.0,0.0,0.0
redo_RPB004_37,barcode10,Acinetobacter johnsonii,NZ_CP010356_1,13940.0,0.0,0.0,0.0,0.0,0.0
redo_RPB004_37,barcode10,Acinetobacter johnsonii,NZ_CP010357_1,13330.0,0.0,0.0,0.0,0.0,0.0
redo_RPB004_37,barcode10,Acinetobacter johnsonii,NZ_CP010358_1,117483.0,0.0,0.0,0.0,0.0,0.0
redo_RPB004_37,barcode10,Acinetobacter johnsonii,NZ_CP010351_1,398857.0,0.0,0.0,0.0,0.0,0.0
redo_RPB004_37,barcode10,Aerococcus christensenii,NZ_CP014159_1,1634920.0,0.0248941844,1.0,407.0,0.0,0.0
redo_RPB004_37,barcode10,Aeromonas sp. ASNIH2,NZ_CP026406_1,4801408.0,0.0168075698,1.0,807.0,0.0,0.0
redo_RPB004_37,barcode10,Aeromonas sp. ASNIH2,NZ_CP026411_1,4613.0,0.0,0.0,0.0,0.0,0.0
redo_RPB004_37,barcode10,Aeromonas sp. ASNIH2,NZ_CP026407_1,13512.0,0.0,0.0,0.0,0.0,0.0
redo_RPB004_37,barcode10,Aeromonas sp. ASNIH2,NZ_CP026409_1,8238.0,0.0,0.0,0.0,0.0,0.0
redo_RPB004_37,barcode10,Aeromonas sp. ASNIH2,NZ_CP026410_1,6782.0,0.0,0.0,0.0,0.0,0.0
redo_RPB004_37,barcode10,Aeromonas sp. ASNIH2,NZ_CP026408_1,29979.0,0.0,0.0,0.0,0.0,0.0
redo_RPB004_37,barcode10,Auricoccus indicus,NZ_CP019573_1,1745789.0,0.0139192079,1.0,243.0,0.0,0.0
redo_RPB004_37,barcode10,Bacillus anthracis,NC_003997_3,5227293.0,0.1117021755,1.0,5839.0,0.0,0.0
redo_RPB004_37,barcode10,Bacillus cereus,NC_004722_1,5411809.0,0.1197566285,1.2621509026,6481.0,0.0,0.0
redo_RPB004_37,barcode10,Bacillus cereus,NC_004721_2,15274.0,0.0,0.0,0.0,0.0,0.0
redo_RPB004_37,barcode10,Bacillus filamentosus,NZ_CP011974_1,4865574.0,0.0065562665,1.0,319.0,0.0,0.0
redo_RPB004_37,barcode10,Bacillus filamentosus,NZ_CP015323_1,95077.0,0.0,0.0,0.0,0.0,0.0
redo_RPB004_37,barcode10,Bacillus filamentosus,NZ_CP015324_1,58079.0,0.0,0.0,0.0,0.0,0.0
redo_RPB004_37,barcode10,Bacillus filamentosus,NZ_CP015325_1,84656.0,0.0,0.0,0.0,0.0,0.0
redo_RPB004_37,barcode10,Bacillus filamentosus,NZ_CP015326_1,69170.0,0.0,0.0,0.0,0.0,0.0
redo_RPB004_37,barcode10,Bacillus filamentosus,NZ_CP015327_1,56750.0,0.0,0.0,0.0,0.0,0.0
redo_RPB004_37,barcode10,Bacillus filamentosus,NZ_CP015328_1,69165.0,0.0,0.0,0.0,0.0,0.0
redo_RPB004_37,barcode10,Bacillus filamentosus,NZ_CP015329_1,10461.0,0.0,0.0,0.0,0.0,0.0
redo_RPB004_37,barcode10,Bacillus filamentosus,NZ_CP015330_1,5053.0,0.0,0.0,0.0,0.0,0.0
redo_RPB004_37,barcode10,Bacillus thuringiensis,NC_022873_1,6002284.0,0.1714180802,1.0684225872,10289.0,0.0,0.0
redo_RPB004_37,barcode10,Bacillus thuringiensis,NC_020124_1,17706.0,0.0,0.0,0.0,0.0,0.0
redo_RPB004_37,barcode10,Bacillus thuringiensis,NC_022874_1,45206.0,0.0,0.0,0.0,0.0,0.0
redo_RPB004_37,barcode10,Bacillus thuringiensis,NC_022875_1,49195.0,0.0,0.0,0.0,0.0,0.0
redo_RPB004_37,barcode10,Bacillus thuringiensis,NC_022876_1,146276.0,0.0,0.0,0.0,0.0,0.0
redo_RPB004_37,barcode10,Bacillus thuringiensis,NC_022877_1,171593.0,0.0,0.0,0.0,0.0,0.0
redo_RPB004_37,barcode10,Bacillus thuringiensis,NC_022882_1,240661.0,0.0,0.0,0.0,0.0,0.0
redo_RPB004_37,barcode10,Brochothrix thermosphacta,NZ_CP023483_1,2647794.0,0.037691754,1.0,998.0,0.0,0.0
redo_RPB004_37,barcode10,Candidatus Baumannia cicadellinicola,NC_007984_1,686194.0,0.5313366191,1.0,3646.0,0.0,0.0
redo_RPB004_37,barcode10,Clostridium baratii,NZ_CP006905_1,3153266.0,0.0365335497,1.0,1152.0,0.0,0.0
redo_RPB004_37,barcode10,Clostridium baratii,NZ_CP006906_1,185364.0,0.0,0.0,0.0,0.0,0.0
redo_RPB004_37,barcode10,Comamonas kerstersii,NZ_CP020121_1,3547915.0,0.0249160422,1.0,884.0,0.0,0.0
redo_RPB004_37,barcode10,Cutibacterium acnes,NC_006085_1,2560265.0,0.2964927459,3.8689237255,7591.0,3369.0,0.0
redo_RPB004_37,barcode10,Dialister pneumosintes,NZ_CP017037_1,1274073.0,0.118203588,1.0,1506.0,0.0,0.0
redo_RPB004_37,barcode10,Dolosigranulum pigrum,NZ_CP041626_1,2082055.0,0.1737706257,3.9071310116,3618.0,0.0,0.0
redo_RPB004_37,barcode10,Enterobacter asburiae,NC_015968_1,4812833.0,0.0708937958,1.0,3412.0,0.0,0.0
redo_RPB004_37,barcode10,Enterobacter asburiae,NC_015963_1,166725.0,0.0,0.0,0.0,0.0,0.0
redo_RPB004_37,barcode10,Enterobacter asburiae,NC_015969_1,32574.0,0.0,0.0,0.0,0.0,0.0
redo_RPB004_37,barcode10,Enterobacter roggenkampii,NZ_CP017184_1,4748414.0,0.0465629155,1.0,2211.0,0.0,0.0
redo_RPB004_37,barcode10,Enterobacter roggenkampii,NZ_CP017185_1,151583.0,0.0,0.0,0.0,0.0,0.0
redo_RPB004_37,barcode10,Enterococcus faecium,NC_017960_1,2698137.0,0.146916187,1.2906155399,3964.0,0.0,0.0
redo_RPB004_37,barcode10,Enterococcus faecium,NC_017961_1,36262.0,0.0,0.0,0.0,0.0,0.0
redo_RPB004_37,barcode10,Enterococcus faecium,NC_017962_1,66247.0,0.0,0.0,0.0,0.0,0.0
redo_RPB004_37,barcode10,Enterococcus faecium,NC_017963_1,251926.0,0.0,0.0,0.0,0.0,0.0
redo_RPB004_37,barcode10,Escherichia albertii,NZ_CP007025_1,4701875.0,1.3614994018,1.2123687828,64016.0,0.0,0.0
redo_RPB004_37,barcode10,Escherichia coli,NC_000913_3,4641652.0,22.6709800735,5.3089352167,1052308.0,505142.0,119662.0
redo_RPB004_37,barcode10,Escherichia fergusonii,NC_011740_1,4588711.0,0.2986023744,1.2555101445,13702.0,0.0,0.0
redo_RPB004_37,barcode10,Escherichia fergusonii,NC_011743_1,55150.0,0.0,0.0,0.0,0.0,0.0
redo_RPB004_37,barcode10,Escherichia marmotae,NZ_CP025979_1,4671322.0,0.1122594418,1.1994660564,5244.0,0.0,0.0
redo_RPB004_37,barcode10,Escherichia marmotae,NZ_CP025980_1,148809.0,0.0,0.0,0.0,0.0,0.0
redo_RPB004_37,barcode10,Escherichia marmotae,NZ_CP025981_1,76160.0,0.0,0.0,0.0,0.0,0.0
redo_RPB004_37,barcode10,Escherichia virus Mu,NC_000929_1,36717.0,5.4007680366,1.5804336863,1983.0,0.0,0.0
redo_RPB004_37,barcode10,Klebsiella aerogenes,NC_015663_1,5280350.0,0.0308502277,1.0,1629.0,0.0,0.0
redo_RPB004_37,barcode10,Klebsiella michiganensis,NC_016612_1,5974109.0,0.0219614339,1.0,1312.0,0.0,0.0
redo_RPB004_37,barcode10,Klebsiella pneumoniae,NC_016845_1,5333942.0,0.1631063855,1.321954023,8700.0,0.0,0.0
redo_RPB004_37,barcode10,Klebsiella pneumoniae,NC_016838_1,122799.0,0.0,0.0,0.0,0.0,0.0
redo_RPB004_37,barcode10,Klebsiella pneumoniae,NC_016846_1,111195.0,0.0,0.0,0.0,0.0,0.0
redo_RPB004_37,barcode10,Klebsiella pneumoniae,NC_016839_1,105974.0,0.0,0.0,0.0,0.0,0.0
redo_RPB004_37,barcode10,Klebsiella pneumoniae,NC_016840_1,3751.0,0.0,0.0,0.0,0.0,0.0
redo_RPB004_37,barcode10,Klebsiella pneumoniae,NC_016847_1,3353.0,0.0,0.0,0.0,0.0,0.0
redo_RPB004_37,barcode10,Klebsiella pneumoniae,NC_016841_1,1308.0,0.0,0.0,0.0,0.0,0.0
redo_RPB004_37,barcode10,Lactobacillus paracasei,NZ_AP012541_1,2995875.0,0.0623857804,1.0,1869.0,0.0,0.0
redo_RPB004_37,barcode10,Lactobacillus paracasei,NZ_AP012542_1,11154.0,0.0,0.0,0.0,0.0,0.0
redo_RPB004_37,barcode10,Lactobacillus paracasei,NZ_AP012543_1,10775.0,0.0,0.0,0.0,0.0,0.0
redo_RPB004_37,barcode10,Lactobacillus sanfranciscensis,NC_015978_1,1298316.0,0.0694746117,1.0,902.0,0.0,0.0
redo_RPB004_37,barcode10,Lactobacillus sanfranciscensis,NC_015979_1,58739.0,0.0,0.0,0.0,0.0,0.0
redo_RPB004_37,barcode10,Lactobacillus sanfranciscensis,NC_015980_1,18715.0,0.0,0.0,0.0,0.0,0.0
redo_RPB004_37,barcode10,Lysinibacillus sphaericus,NZ_CP017560_1,3436578.0,0.0135890994,1.0,467.0,0.0,0.0
redo_RPB004_37,barcode10,Macrococcus caseolyticus,NC_011999_1,2102324.0,0.1681948168,1.0,3536.0,0.0,0.0
redo_RPB004_37,barcode10,Macrococcus caseolyticus,NC_011995_1,15667.0,0.0,0.0,0.0,0.0,0.0
redo_RPB004_37,barcode10,Macrococcus caseolyticus,NC_011996_1,80545.0,0.0,0.0,0.0,0.0,0.0
redo_RPB004_37,barcode10,Macrococcus caseolyticus,NC_011997_1,2131.0,0.0,0.0,0.0,0.0,0.0
redo_RPB004_37,barcode10,Macrococcus caseolyticus,NC_011998_1,3417.0,0.0,0.0,0.0,0.0,0.0
redo_RPB004_37,barcode10,Macrococcus caseolyticus,NC_012000_1,4398.0,0.0,0.0,0.0,0.0,0.0
redo_RPB004_37,barcode10,Macrococcus caseolyticus,NC_012001_1,4226.0,0.0,0.0,0.0,0.0,0.0
redo_RPB004_37,barcode10,Macrococcus caseolyticus,NC_012002_1,4061.0,0.0,0.0,0.0,0.0,0.0
redo_RPB004_37,barcode10,Macrococcus caseolyticus,NC_012003_1,2968.0,0.0,0.0,0.0,0.0,0.0
redo_RPB004_37,barcode10,Magnetospirillum magneticum,NC_007626_1,4967148.0,0.0050532016,1.0,251.0,0.0,0.0
redo_RPB004_37,barcode10,Novibacillus thermophilus,NZ_CP019699_1,3629225.0,0.2549304604,2.3620838738,9252.0,2278.0,0.0
redo_RPB004_37,barcode10,Parvimonas micra,NZ_CP009761_1,1627009.0,11.3552537202,1.039220356,184751.0,0.0,0.0
redo_RPB004_37,barcode10,Persephonella marina,NC_012440_1,1930284.0,0.0347617242,1.0,671.0,0.0,0.0
redo_RPB004_37,barcode10,Persephonella marina,NC_012439_1,53682.0,0.0,0.0,0.0,0.0,0.0
redo_RPB004_37,barcode10,Planococcus sp. MB-3u-03,NZ_CP025135_1,3378540.0,0.0452858335,1.3117647059,1530.0,0.0,0.0
redo_RPB004_37,barcode10,Planococcus sp. MB-3u-03,NZ_CP025124_1,70808.0,0.0,0.0,0.0,0.0,0.0
redo_RPB004_37,barcode10,Planococcus sp. MB-3u-03,NZ_CP025133_1,1329.0,0.0,0.0,0.0,0.0,0.0
redo_RPB004_37,barcode10,Planococcus sp. MB-3u-03,NZ_CP025134_1,1226.0,0.0,0.0,0.0,0.0,0.0
redo_RPB004_37,barcode10,Planococcus sp. MB-3u-03,NZ_CP025123_1,129321.0,0.0,0.0,0.0,0.0,0.0
redo_RPB004_37,barcode10,Planococcus sp. MB-3u-03,NZ_CP025125_1,7275.0,0.0,0.0,0.0,0.0,0.0
redo_RPB004_37,barcode10,Planococcus sp. MB-3u-03,NZ_CP025126_1,7049.0,0.0,0.0,0.0,0.0,0.0
redo_RPB004_37,barcode10,Planococcus sp. MB-3u-03,NZ_CP025127_1,6800.0,0.0,0.0,0.0,0.0,0.0
redo_RPB004_37,barcode10,Planococcus sp. MB-3u-03,NZ_CP025130_1,1636.0,0.0,0.0,0.0,0.0,0.0
redo_RPB004_37,barcode10,Planococcus sp. MB-3u-03,NZ_CP025128_1,5115.0,0.0,0.0,0.0,0.0,0.0
redo_RPB004_37,barcode10,Planococcus sp. MB-3u-03,NZ_CP025129_1,2168.0,0.0,0.0,0.0,0.0,0.0
redo_RPB004_37,barcode10,Planococcus sp. MB-3u-03,NZ_CP025131_1,1598.0,0.0,0.0,0.0,0.0,0.0
redo_RPB004_37,barcode10,Planococcus sp. MB-3u-03,NZ_CP025132_1,1566.0,0.0,0.0,0.0,0.0,0.0
redo_RPB004_37,barcode10,Pseudomonas orientalis,NZ_CP018049_1,5986236.0,0.0499646188,1.0,2991.0,0.0,0.0
redo_RPB004_37,barcode10,Pseudomonas sp. TKP,NC_023064_1,7012672.0,0.0601625172,1.0,4219.0,0.0,0.0
redo_RPB004_37,barcode10,Pseudomonas sp. phDV1,NZ_CP031606_1,4727682.0,0.0889230705,2.7787821123,4204.0,0.0,0.0
redo_RPB004_37,barcode10,Raoultella planticola,NZ_CP026047_1,5489763.0,0.0479073505,1.0,2630.0,0.0,0.0
redo_RPB004_37,barcode10,Raoultella planticola,NZ_CP026048_1,127313.0,0.0,0.0,0.0,0.0,0.0
redo_RPB004_37,barcode10,Raoultella planticola,NZ_CP026049_1,206855.0,0.0,0.0,0.0,0.0,0.0
redo_RPB004_37,barcode10,Salinicoccus halodurans,NZ_CP011366_1,2778379.0,0.0543122447,1.0,1509.0,0.0,0.0
redo_RPB004_37,barcode10,Salmonella enterica,NC_003197_2,4857450.0,0.4423514395,1.3934937404,21487.0,0.0,0.0
redo_RPB004_37,barcode10,Salmonella enterica,NC_003277_2,93933.0,0.0,0.0,0.0,0.0,0.0
redo_RPB004_37,barcode10,Serratia sp. YD25,NZ_CP016948_1,5117644.0,0.0099655232,1.9058823529,510.0,0.0,0.0
redo_RPB004_37,barcode10,Shewanella sp. FDAARGOS_354,NZ_CP022089_2,5031863.0,0.0533599583,1.0536312849,2685.0,0.0,0.0
redo_RPB004_37,barcode10,Shewanella sp. FDAARGOS_354,NZ_CP022090_2,38118.0,0.0,0.0,0.0,0.0,0.0
redo_RPB004_37,barcode10,Shigella dysenteriae,NC_007606_1,4369232.0,1.9926385232,1.2044726233,87063.0,0.0,0.0
redo_RPB004_37,barcode10,Shigella dysenteriae,NC_009344_1,8953.0,0.0,0.0,0.0,0.0,0.0
redo_RPB004_37,barcode10,Shigella dysenteriae,NC_007607_1,182726.0,0.0,0.0,0.0,0.0,0.0
redo_RPB004_37,barcode10,Shigella flexneri,NC_004337_2,4607202.0,1.270510822,1.1492611258,58535.0,0.0,0.0
redo_RPB004_37,barcode10,Shigella flexneri,NC_004851_1,221618.0,0.0,0.0,0.0,0.0,0.0
redo_RPB004_37,barcode10,Snodgrassella alvi,NZ_CP007446_1,2527978.0,0.0145570887,1.0,368.0,0.0,0.0
redo_RPB004_37,barcode10,Sphingobium yanoikuyae,NZ_CP020925_1,5260163.0,0.1403378565,1.7366567326,7382.0,0.0,0.0
redo_RPB004_37,barcode10,Sphingobium yanoikuyae,NZ_CP020927_1,189183.0,0.0,0.0,0.0,0.0,0.0
redo_RPB004_37,barcode10,Sphingobium yanoikuyae,NZ_CP020926_1,220037.0,0.0,0.0,0.0,0.0,0.0
redo_RPB004_37,barcode10,Staphylococcus agnetis,NZ_CP009623_1,2474434.0,0.3064135071,25.5775520971,7582.0,5086.0,4068.0
redo_RPB004_37,barcode10,Staphylococcus agnetis,NZ_CP009624_1,28965.0,0.0,0.0,0.0,0.0,0.0
redo_RPB004_37,barcode10,Staphylococcus argenteus,NC_016941_1,2762785.0,0.1550609258,1.0,4284.0,0.0,0.0
redo_RPB004_37,barcode10,Staphylococcus argenteus,NC_016942_1,24853.0,12.1353558926,1.9512599469,3016.0,0.0,0.0
redo_RPB004_37,barcode10,Staphylococcus aureus,NC_007795_1,2821361.0,1.5424116233,17.5780499575,43517.0,23342.0,14827.0
redo_RPB004_37,barcode10,Staphylococcus capitis,NZ_CP007601_1,2443604.0,1.6223577961,91.4242256079,39644.0,23763.0,19609.0
redo_RPB004_37,barcode10,Staphylococcus capitis,NZ_CP007602_1,59661.0,0.0,0.0,0.0,0.0,0.0
redo_RPB004_37,barcode10,Staphylococcus carnosus,NC_012121_1,2566424.0,0.0901643688,1.0,2314.0,0.0,0.0
redo_RPB004_37,barcode10,Staphylococcus cohnii,NZ_CP027422_1,2557319.0,0.2946445086,1.0,7535.0,0.0,0.0
redo_RPB004_37,barcode10,Staphylococcus cohnii,NZ_CP027420_1,36910.0,0.0,0.0,0.0,0.0,0.0
redo_RPB004_37,barcode10,Staphylococcus cohnii,NZ_CP027419_1,32058.0,0.0,0.0,0.0,0.0,0.0
redo_RPB004_37,barcode10,Staphylococcus cohnii,NZ_CP027421_1,29852.0,0.0,0.0,0.0,0.0,0.0
redo_RPB004_37,barcode10,Staphylococcus cohnii,NZ_CP027423_1,2670.0,0.0,0.0,0.0,0.0,0.0
redo_RPB004_37,barcode10,Staphylococcus cohnii,NZ_CP027424_1,2473.0,0.0,0.0,0.0,0.0,0.0
redo_RPB004_37,barcode10,Staphylococcus condimenti,NZ_CP015114_1,2659676.0,0.0919660891,1.0,2446.0,0.0,0.0
redo_RPB004_37,barcode10,Staphylococcus epidermidis,NC_004461_1,2499279.0,94.4523200491,410.8409460707,2360627.0,2355027.0,2348886.0
redo_RPB004_37,barcode10,Staphylococcus epidermidis,NC_005008_1,4439.0,0.0,0.0,0.0,0.0,0.0
redo_RPB004_37,barcode10,Staphylococcus epidermidis,NC_005007_1,4679.0,0.0,0.0,0.0,0.0,0.0
redo_RPB004_37,barcode10,Staphylococcus epidermidis,NC_005006_1,8007.0,0.0,0.0,0.0,0.0,0.0
redo_RPB004_37,barcode10,Staphylococcus epidermidis,NC_005005_1,17261.0,9.0840623371,4.7608418367,1568.0,1272.0,0.0
redo_RPB004_37,barcode10,Staphylococcus epidermidis,NC_005004_1,24365.0,17.3732813462,29.7999055044,4233.0,4228.0,4220.0
redo_RPB004_37,barcode10,Staphylococcus epidermidis,NC_005003_1,6585.0,0.0,0.0,0.0,0.0,0.0
redo_RPB004_37,barcode10,Staphylococcus haemolyticus,NC_007168_1,2685015.0,2.1487403236,14.4061774188,57694.0,32894.0,22595.0
redo_RPB004_37,barcode10,Staphylococcus haemolyticus,NC_007169_1,2300.0,0.0,0.0,0.0,0.0,0.0
redo_RPB004_37,barcode10,Staphylococcus haemolyticus,NC_007170_1,2366.0,0.0,0.0,0.0,0.0,0.0
redo_RPB004_37,barcode10,Staphylococcus haemolyticus,NC_007171_1,8180.0,0.0,0.0,0.0,0.0,0.0
redo_RPB004_37,barcode10,Staphylococcus hominis,NZ_CP020618_1,2253412.0,0.8681945423,2.7624718871,19564.0,1252.0,1220.0
redo_RPB004_37,barcode10,Staphylococcus kloosii,NZ_CP027846_1,2630191.0,0.1157330399,1.0,3044.0,0.0,0.0
redo_RPB004_37,barcode10,Staphylococcus kloosii,NZ_CP027847_1,8847.0,0.0,0.0,0.0,0.0,0.0
redo_RPB004_37,barcode10,Staphylococcus lugdunensis,NC_013893_1,2658366.0,0.8759140013,2.597895641,23285.0,1378.0,1209.0
redo_RPB004_37,barcode10,Staphylococcus lutrae,NZ_CP020773_1,2533115.0,0.1145625051,1.0,2902.0,0.0,0.0
redo_RPB004_37,barcode10,Staphylococcus muscae,NZ_CP027848_1,2095131.0,0.0777994312,1.0,1630.0,0.0,0.0
redo_RPB004_37,barcode10,Staphylococcus pasteuri,NC_022737_1,2559946.0,0.5446989897,58.4530263913,13944.0,10692.0,8557.0
redo_RPB004_37,barcode10,Staphylococcus pettenkoferi,NZ_CP022096_2,2502360.0,0.0911139884,1.0,2280.0,0.0,0.0
redo_RPB004_37,barcode10,Staphylococcus phage CNPx,NC_031241_1,43293.0,9.7960409304,111.0997406272,4241.0,3345.0,2475.0
redo_RPB004_37,barcode10,Staphylococcus phage StB12,NC_020490_2,44714.0,3.2115221184,2.1128133705,1436.0,0.0,0.0
redo_RPB004_37,barcode10,Staphylococcus phage StB20,NC_019915_1,40917.0,4.1547523034,18.4447058824,1700.0,1700.0,1588.0
redo_RPB004_37,barcode10,Staphylococcus piscifermentans,NZ_LT906447_1,2613271.0,0.177823119,1.3128900366,4647.0,0.0,0.0
redo_RPB004_37,barcode10,Staphylococcus pseudintermedius,NC_014925_1,2617381.0,0.2719130306,2.2058451595,7117.0,0.0,0.0
redo_RPB004_37,barcode10,Staphylococcus saprophyticus,NC_007350_1,2516575.0,0.1331969045,1.0,3352.0,0.0,0.0
redo_RPB004_37,barcode10,Staphylococcus saprophyticus,NC_007351_1,38454.0,3.8877620014,5.1096989967,1495.0,976.0,0.0
redo_RPB004_37,barcode10,Staphylococcus saprophyticus,NC_007352_1,22870.0,5.7149103629,1.4881407804,1307.0,0.0,0.0
redo_RPB004_37,barcode10,Staphylococcus schleiferi,NZ_CP009470_1,2435632.0,0.0975516827,1.0,2376.0,0.0,0.0
redo_RPB004_37,barcode10,Staphylococcus schweitzeri,NZ_LR134304_1,2784939.0,0.0524248466,1.0,1460.0,0.0,0.0
redo_RPB004_37,barcode10,Staphylococcus sciuri,NZ_CP022046_2,2764040.0,0.0564391253,1.0,1560.0,0.0,0.0
redo_RPB004_37,barcode10,Staphylococcus sciuri,NZ_CP022047_2,89775.0,0.0,0.0,0.0,0.0,0.0
redo_RPB004_37,barcode10,Staphylococcus simiae,NZ_LT906460_1,2643976.0,0.1743207957,13.2926882187,4609.0,2579.0,2441.0
redo_RPB004_37,barcode10,Staphylococcus simulans,NZ_CP014016_2,2647556.0,0.3019388447,1.6958969227,7994.0,0.0,0.0
redo_RPB004_37,barcode10,Staphylococcus sp. AntiMn-1,NZ_CP012968_1,2721344.0,0.0673931704,1.0,1834.0,0.0,0.0
redo_RPB004_37,barcode10,Staphylococcus sp. AntiMn-1,NZ_CP013300_1,17052.0,0.0,0.0,0.0,0.0,0.0
redo_RPB004_37,barcode10,Staphylococcus virus CNPH82,NC_008722_1,43420.0,7.8926761861,151.0239276335,3427.0,3403.0,3353.0
redo_RPB004_37,barcode10,Staphylococcus virus EW,NC_007056_1,45286.0,0.2075696683,1.7765957447,94.0,0.0,0.0
redo_RPB004_37,barcode10,Staphylococcus virus IPLA5,NC_018281_1,43581.0,20.58695303,75.8030539456,8972.0,8024.0,7505.0
redo_RPB004_37,barcode10,Staphylococcus virus IPLA7,NC_018284_1,42123.0,18.7949576241,35.5665024631,7917.0,7218.0,7092.0
redo_RPB004_37,barcode10,Staphylococcus virus PH15,NC_008723_1,44041.0,8.6850888944,217.6081045752,3825.0,3823.0,3823.0
redo_RPB004_37,barcode10,Staphylococcus warneri,NC_020164_1,2486042.0,0.2196262171,1.0,5460.0,0.0,0.0
redo_RPB004_37,barcode10,Staphylococcus warneri,NC_020165_1,4374.0,0.0,0.0,0.0,0.0,0.0
redo_RPB004_37,barcode10,Staphylococcus warneri,NC_020274_1,13186.0,0.0,0.0,0.0,0.0,0.0
redo_RPB004_37,barcode10,Staphylococcus warneri,NC_020264_1,8232.0,0.0,0.0,0.0,0.0,0.0
redo_RPB004_37,barcode10,Staphylococcus warneri,NC_020265_1,3352.0,0.0,0.0,0.0,0.0,0.0
redo_RPB004_37,barcode10,Staphylococcus warneri,NC_020266_1,19866.0,0.0,0.0,0.0,0.0,0.0
redo_RPB004_37,barcode10,Staphylococcus warneri,NC_020267_1,16515.0,0.0,0.0,0.0,0.0,0.0
redo_RPB004_37,barcode10,Staphylococcus warneri,NC_020268_1,6212.0,0.0,0.0,0.0,0.0,0.0
redo_RPB004_37,barcode10,Staphylococcus warneri,NC_020269_1,2937.0,0.0,0.0,0.0,0.0,0.0
redo_RPB004_37,barcode10,Streptococcus gallolyticus,NZ_CP018822_1,2492900.0,0.0453287336,1.0,1130.0,0.0,0.0
redo_RPB004_37,barcode10,Sulfitobacter donghicola,NZ_CP026367_1,2469323.0,0.5409984842,6.3688150311,13359.0,4944.0,2740.0
redo_RPB004_37,barcode10,Vibrio cholerae,NC_002505_1,2961149.0,0.0861152208,1.0,2550.0,0.0,0.0
redo_RPB004_37,barcode10,Vibrio cholerae,NC_002506_1,1072315.0,0.0,0.0,0.0,0.0,0.0
redo_RPB004_37,barcode11,Acinetobacter johnsonii,NZ_CP010350_1,3509795.0,0.3848657828,3.8599348534,13508.0,6403.0,0.0
redo_RPB004_37,barcode11,Acinetobacter johnsonii,NZ_CP010352_1,3978.0,0.0,0.0,0.0,0.0,0.0
redo_RPB004_37,barcode11,Acinetobacter johnsonii,NZ_CP010353_1,4724.0,0.0,0.0,0.0,0.0,0.0
redo_RPB004_37,barcode11,Acinetobacter johnsonii,NZ_CP010354_1,11643.0,0.0,0.0,0.0,0.0,0.0
redo_RPB004_37,barcode11,Acinetobacter johnsonii,NZ_CP010355_1,7579.0,0.0,0.0,0.0,0.0,0.0
redo_RPB004_37,barcode11,Acinetobacter johnsonii,NZ_CP010356_1,13940.0,0.0,0.0,0.0,0.0,0.0
redo_RPB004_37,barcode11,Acinetobacter johnsonii,NZ_CP010357_1,13330.0,0.0,0.0,0.0,0.0,0.0
redo_RPB004_37,barcode11,Acinetobacter johnsonii,NZ_CP010358_1,117483.0,0.0,0.0,0.0,0.0,0.0
redo_RPB004_37,barcode11,Acinetobacter johnsonii,NZ_CP010351_1,398857.0,0.0,0.0,0.0,0.0,0.0
redo_RPB004_37,barcode11,Acinetobacter sp. NCu2D-2,NZ_CP015594_1,2738313.0,0.0387099649,1.0,1060.0,0.0,0.0
redo_RPB004_37,barcode11,Acinetobacter sp. NCu2D-2,NZ_CP015595_1,309964.0,0.0,0.0,0.0,0.0,0.0
redo_RPB004_37,barcode11,Anoxybacillus gonensis,NZ_CP012152_1,2803668.0,0.08014501,1.0,2247.0,0.0,0.0
redo_RPB004_37,barcode11,Auricoccus indicus,NZ_CP019573_1,1745789.0,0.0314470993,1.0,549.0,0.0,0.0
redo_RPB004_37,barcode11,Bacillus albus,NZ_CP034548_1,4939577.0,0.0548022634,1.0,2707.0,0.0,0.0
redo_RPB004_37,barcode11,Bacillus anthracis,NC_003997_3,5227293.0,0.0395424553,1.0,2067.0,0.0,0.0
redo_RPB004_37,barcode11,Bacillus cereus,NC_004722_1,5411809.0,0.0409105347,1.0,2214.0,0.0,0.0
redo_RPB004_37,barcode11,Bacillus cereus,NC_004721_2,15274.0,0.0,0.0,0.0,0.0,0.0
redo_RPB004_37,barcode11,Bacillus megaterium,NZ_CP009920_1,5343114.0,0.0201942163,1.0,1079.0,0.0,0.0
redo_RPB004_37,barcode11,Bacillus megaterium,NZ_CP009919_1,74772.0,0.0,0.0,0.0,0.0,0.0
redo_RPB004_37,barcode11,Bacillus megaterium,NZ_CP009921_1,301264.0,0.0,0.0,0.0,0.0,0.0
redo_RPB004_37,barcode11,Bacillus megaterium,NZ_CP009915_1,11065.0,0.0,0.0,0.0,0.0,0.0
redo_RPB004_37,barcode11,Bacillus megaterium,NZ_CP009918_1,10610.0,0.0,0.0,0.0,0.0,0.0
redo_RPB004_37,barcode11,Bacillus megaterium,NZ_CP009916_1,3767.0,0.0,0.0,0.0,0.0,0.0
redo_RPB004_37,barcode11,Bacillus megaterium,NZ_CP009917_1,2048.0,0.0,0.0,0.0,0.0,0.0
redo_RPB004_37,barcode11,Bacillus sp. FJAT-14266,NZ_CP017072_1,4109356.0,0.0659227383,1.0,2709.0,0.0,0.0
redo_RPB004_37,barcode11,Bacillus subtilis,NC_000964_3,4215606.0,0.0268526043,1.0,1132.0,0.0,0.0
redo_RPB004_37,barcode11,Bacillus thuringiensis,NC_022873_1,6002284.0,0.0964632796,1.0,5790.0,0.0,0.0
redo_RPB004_37,barcode11,Bacillus thuringiensis,NC_020124_1,17706.0,0.0,0.0,0.0,0.0,0.0
redo_RPB004_37,barcode11,Bacillus thuringiensis,NC_022874_1,45206.0,0.0,0.0,0.0,0.0,0.0
redo_RPB004_37,barcode11,Bacillus thuringiensis,NC_022875_1,49195.0,0.0,0.0,0.0,0.0,0.0
redo_RPB004_37,barcode11,Bacillus thuringiensis,NC_022876_1,146276.0,0.0,0.0,0.0,0.0,0.0
redo_RPB004_37,barcode11,Bacillus thuringiensis,NC_022877_1,171593.0,0.0,0.0,0.0,0.0,0.0
redo_RPB004_37,barcode11,Bacillus thuringiensis,NC_022882_1,240661.0,0.0,0.0,0.0,0.0,0.0
redo_RPB004_37,barcode11,Bacillus velezensis,NC_009725_1,3918589.0,0.0132445633,1.0,519.0,0.0,0.0
redo_RPB004_37,barcode11,Brochothrix thermosphacta,NZ_CP023483_1,2647794.0,0.0555934487,1.0,1472.0,0.0,0.0
redo_RPB004_37,barcode11,Caminibacter mediatlanticus,NZ_CP040463_1,1685887.0,0.2231466285,1.0,3762.0,0.0,0.0
redo_RPB004_37,barcode11,Cellulosilyticum lentocellum,NC_015275_1,4714237.0,0.0117728489,1.0,555.0,0.0,0.0
redo_RPB004_37,barcode11,Citrobacter farmeri,NZ_CP022695_1,5130228.0,0.1252380986,1.0,6425.0,0.0,0.0
redo_RPB004_37,barcode11,Citrobacter farmeri,NZ_CP022696_1,328945.0,0.0,0.0,0.0,0.0,0.0
redo_RPB004_37,barcode11,Citrobacter farmeri,NZ_CP022697_1,149207.0,0.0,0.0,0.0,0.0,0.0
redo_RPB004_37,barcode11,Citrobacter farmeri,NZ_CP022698_1,107249.0,0.0,0.0,0.0,0.0,0.0
redo_RPB004_37,barcode11,Corynebacterium humireducens,NZ_CP005286_1,2681312.0,0.0328943443,1.0,882.0,0.0,0.0
redo_RPB004_37,barcode11,Cutibacterium acnes,NC_006085_1,2560265.0,0.3357074365,1.6823734729,8595.0,0.0,0.0
redo_RPB004_37,barcode11,Dolosigranulum pigrum,NZ_CP041626_1,2082055.0,0.1884676437,1.0,3924.0,0.0,0.0
redo_RPB004_37,barcode11,Escherichia albertii,NZ_CP007025_1,4701875.0,0.3512641234,1.0,16516.0,0.0,0.0
redo_RPB004_37,barcode11,Escherichia coli,NC_000913_3,4641652.0,8.5958835346,1.9817915692,398991.0,28373.0,0.0
redo_RPB004_37,barcode11,Haematospirillum jordaniae,NZ_CP014525_1,2131542.0,0.005723556,1.0,122.0,0.0,0.0
redo_RPB004_37,barcode11,Haematospirillum jordaniae,NZ_CP014526_1,32967.0,0.0,0.0,0.0,0.0,0.0
redo_RPB004_37,barcode11,Haematospirillum jordaniae,NZ_CP014527_1,303116.0,0.0,0.0,0.0,0.0,0.0
redo_RPB004_37,barcode11,Klebsiella pneumoniae,NC_016845_1,5333942.0,0.0,0.0,0.0,0.0,0.0
redo_RPB004_37,barcode11,Klebsiella pneumoniae,NC_016838_1,122799.0,0.0,0.0,0.0,0.0,0.0
redo_RPB004_37,barcode11,Klebsiella pneumoniae,NC_016846_1,111195.0,0.0,0.0,0.0,0.0,0.0
redo_RPB004_37,barcode11,Klebsiella pneumoniae,NC_016839_1,105974.0,0.0,0.0,0.0,0.0,0.0
redo_RPB004_37,barcode11,Klebsiella pneumoniae,NC_016840_1,3751.0,0.0,0.0,0.0,0.0,0.0
redo_RPB004_37,barcode11,Klebsiella pneumoniae,NC_016847_1,3353.0,11.5419027736,1.0,387.0,0.0,0.0
redo_RPB004_37,barcode11,Klebsiella pneumoniae,NC_016841_1,1308.0,0.0,0.0,0.0,0.0,0.0
redo_RPB004_37,barcode11,Lactobacillus paracasei,NZ_AP012541_1,2995875.0,0.0568448283,1.0,1703.0,0.0,0.0
redo_RPB004_37,barcode11,Lactobacillus paracasei,NZ_AP012542_1,11154.0,0.0,0.0,0.0,0.0,0.0
redo_RPB004_37,barcode11,Lactobacillus paracasei,NZ_AP012543_1,10775.0,0.0,0.0,0.0,0.0,0.0
redo_RPB004_37,barcode11,Lactococcus garvieae,NC_015930_1,1950135.0,0.1542970102,1.0,3009.0,0.0,0.0
redo_RPB004_37,barcode11,Listeria monocytogenes,NC_003210_1,2944528.0,0.1446072172,1.2811178957,4258.0,0.0,0.0
redo_RPB004_37,barcode11,Macrococcus caseolyticus,NC_011999_1,2102324.0,0.0695896541,1.0,1463.0,0.0,0.0
redo_RPB004_37,barcode11,Macrococcus caseolyticus,NC_011995_1,15667.0,0.0,0.0,0.0,0.0,0.0
redo_RPB004_37,barcode11,Macrococcus caseolyticus,NC_011996_1,80545.0,0.0,0.0,0.0,0.0,0.0
redo_RPB004_37,barcode11,Macrococcus caseolyticus,NC_011997_1,2131.0,0.0,0.0,0.0,0.0,0.0
redo_RPB004_37,barcode11,Macrococcus caseolyticus,NC_011998_1,3417.0,0.0,0.0,0.0,0.0,0.0
redo_RPB004_37,barcode11,Macrococcus caseolyticus,NC_012000_1,4398.0,0.0,0.0,0.0,0.0,0.0
redo_RPB004_37,barcode11,Macrococcus caseolyticus,NC_012001_1,4226.0,0.0,0.0,0.0,0.0,0.0
redo_RPB004_37,barcode11,Macrococcus caseolyticus,NC_012002_1,4061.0,0.0,0.0,0.0,0.0,0.0
redo_RPB004_37,barcode11,Macrococcus caseolyticus,NC_012003_1,2968.0,0.0,0.0,0.0,0.0,0.0
redo_RPB004_37,barcode11,Macrococcus sp. IME1552,NZ_CP017156_1,2391700.0,0.0186478237,1.0,446.0,0.0,0.0
redo_RPB004_37,barcode11,Pantoea stewartii,NZ_CP017581_1,4528215.0,0.059537809,1.0,2696.0,0.0,0.0
redo_RPB004_37,barcode11,Pantoea stewartii,NZ_CP017582_1,4277.0,0.0,0.0,0.0,0.0,0.0
redo_RPB004_37,barcode11,Pantoea stewartii,NZ_CP017583_1,4368.0,0.0,0.0,0.0,0.0,0.0
redo_RPB004_37,barcode11,Pantoea stewartii,NZ_CP017584_1,13414.0,0.0,0.0,0.0,0.0,0.0
redo_RPB004_37,barcode11,Pantoea stewartii,NZ_CP017585_1,25681.0,0.0,0.0,0.0,0.0,0.0
redo_RPB004_37,barcode11,Pantoea stewartii,NZ_CP017586_1,34447.0,0.0,0.0,0.0,0.0,0.0
redo_RPB004_37,barcode11,Pantoea stewartii,NZ_CP017587_1,47481.0,0.0,0.0,0.0,0.0,0.0
redo_RPB004_37,barcode11,Pantoea stewartii,NZ_CP017588_1,65483.0,0.0,0.0,0.0,0.0,0.0
redo_RPB004_37,barcode11,Pantoea stewartii,NZ_CP017589_1,105961.0,0.0,0.0,0.0,0.0,0.0
redo_RPB004_37,barcode11,Pantoea stewartii,NZ_CP017590_1,132938.0,0.0,0.0,0.0,0.0,0.0
redo_RPB004_37,barcode11,Pantoea stewartii,NZ_CP017591_1,304641.0,0.0,0.0,0.0,0.0,0.0
redo_RPB004_37,barcode11,Pantoea stewartii,NZ_CP017592_1,47186.0,0.0,0.0,0.0,0.0,0.0
redo_RPB004_37,barcode11,Parvimonas micra,NZ_CP009761_1,1627009.0,5.0310108918,1.0,81855.0,0.0,0.0
redo_RPB004_37,barcode11,Pasteurella multocida,NZ_CP008918_1,2271840.0,0.0674783435,1.0,1533.0,0.0,0.0
redo_RPB004_37,barcode11,Pediococcus claussenii,NC_016605_1,1829111.0,0.017549509,1.0,321.0,0.0,0.0
redo_RPB004_37,barcode11,Pediococcus claussenii,NC_016635_1,1815.0,0.0,0.0,0.0,0.0,0.0
redo_RPB004_37,barcode11,Pediococcus claussenii,NC_016606_1,2450.0,0.0,0.0,0.0,0.0,0.0
redo_RPB004_37,barcode11,Pediococcus claussenii,NC_016636_1,17830.0,0.0,0.0,0.0,0.0,0.0
redo_RPB004_37,barcode11,Pediococcus claussenii,NC_016607_1,23136.0,0.0,0.0,0.0,0.0,0.0
redo_RPB004_37,barcode11,Pediococcus claussenii,NC_016608_1,36338.0,0.0,0.0,0.0,0.0,0.0
redo_RPB004_37,barcode11,Pediococcus claussenii,NC_017017_1,18800.0,0.0,0.0,0.0,0.0,0.0
redo_RPB004_37,barcode11,Pediococcus claussenii,NC_017018_1,16067.0,0.0,0.0,0.0,0.0,0.0
redo_RPB004_37,barcode11,Pediococcus claussenii,NC_017019_1,33246.0,0.0,0.0,0.0,0.0,0.0
redo_RPB004_37,barcode11,Planococcus sp. MB-3u-03,NZ_CP025135_1,3378540.0,0.1452698503,1.0354523227,4908.0,0.0,0.0
redo_RPB004_37,barcode11,Planococcus sp. MB-3u-03,NZ_CP025124_1,70808.0,0.0,0.0,0.0,0.0,0.0
redo_RPB004_37,barcode11,Planococcus sp. MB-3u-03,NZ_CP025133_1,1329.0,0.0,0.0,0.0,0.0,0.0
redo_RPB004_37,barcode11,Planococcus sp. MB-3u-03,NZ_CP025134_1,1226.0,0.0,0.0,0.0,0.0,0.0
redo_RPB004_37,barcode11,Planococcus sp. MB-3u-03,NZ_CP025123_1,129321.0,0.0,0.0,0.0,0.0,0.0
redo_RPB004_37,barcode11,Planococcus sp. MB-3u-03,NZ_CP025125_1,7275.0,0.0,0.0,0.0,0.0,0.0
redo_RPB004_37,barcode11,Planococcus sp. MB-3u-03,NZ_CP025126_1,7049.0,0.0,0.0,0.0,0.0,0.0
redo_RPB004_37,barcode11,Planococcus sp. MB-3u-03,NZ_CP025127_1,6800.0,0.0,0.0,0.0,0.0,0.0
redo_RPB004_37,barcode11,Planococcus sp. MB-3u-03,NZ_CP025130_1,1636.0,0.0,0.0,0.0,0.0,0.0
redo_RPB004_37,barcode11,Planococcus sp. MB-3u-03,NZ_CP025128_1,5115.0,0.0,0.0,0.0,0.0,0.0
redo_RPB004_37,barcode11,Planococcus sp. MB-3u-03,NZ_CP025129_1,2168.0,0.0,0.0,0.0,0.0,0.0
redo_RPB004_37,barcode11,Planococcus sp. MB-3u-03,NZ_CP025131_1,1598.0,0.0,0.0,0.0,0.0,0.0
redo_RPB004_37,barcode11,Planococcus sp. MB-3u-03,NZ_CP025132_1,1566.0,0.0,0.0,0.0,0.0,0.0
redo_RPB004_37,barcode11,Salinicoccus halodurans,NZ_CP011366_1,2778379.0,0.0453861766,1.0,1261.0,0.0,0.0
redo_RPB004_37,barcode11,Serratia sp. YD25,NZ_CP016948_1,5117644.0,0.0098287415,1.0,503.0,0.0,0.0
redo_RPB004_37,barcode11,Shigella dysenteriae,NC_007606_1,4369232.0,0.8829240471,1.0,38577.0,0.0,0.0
redo_RPB004_37,barcode11,Shigella dysenteriae,NC_009344_1,8953.0,0.0,0.0,0.0,0.0,0.0
redo_RPB004_37,barcode11,Shigella dysenteriae,NC_007607_1,182726.0,0.0,0.0,0.0,0.0,0.0
redo_RPB004_37,barcode11,Shigella flexneri,NC_004337_2,4607202.0,0.2047663636,1.0,9434.0,0.0,0.0
redo_RPB004_37,barcode11,Shigella flexneri,NC_004851_1,221618.0,0.0,0.0,0.0,0.0,0.0
redo_RPB004_37,barcode11,Sphingobium yanoikuyae,NZ_CP020925_1,5260163.0,0.0866322964,1.8534123327,4557.0,0.0,0.0
redo_RPB004_37,barcode11,Sphingobium yanoikuyae,NZ_CP020927_1,189183.0,0.0,0.0,0.0,0.0,0.0
redo_RPB004_37,barcode11,Sphingobium yanoikuyae,NZ_CP020926_1,220037.0,0.0,0.0,0.0,0.0,0.0
redo_RPB004_37,barcode11,Staphylococcus agnetis,NZ_CP009623_1,2474434.0,0.3469480293,40.6933022714,8585.0,7238.0,6079.0
redo_RPB004_37,barcode11,Staphylococcus agnetis,NZ_CP009624_1,28965.0,0.0,0.0,0.0,0.0,0.0
redo_RPB004_37,barcode11,Staphylococcus argenteus,NC_016941_1,2762785.0,0.1823160326,1.0,5037.0,0.0,0.0
redo_RPB004_37,barcode11,Staphylococcus argenteus,NC_016942_1,24853.0,11.8255341407,1.8792106159,2939.0,0.0,0.0
redo_RPB004_37,barcode11,Staphylococcus aureus,NC_007795_1,2821361.0,1.8262462691,25.691431344,51525.0,28442.0,15242.0
redo_RPB004_37,barcode11,Staphylococcus auricularis,NZ_LS483491_1,2216666.0,0.054270693,1.0,1203.0,0.0,0.0
redo_RPB004_37,barcode11,Staphylococcus capitis,NZ_CP007601_1,2443604.0,2.0306890969,160.1230704123,49622.0,24338.0,22449.0
redo_RPB004_37,barcode11,Staphylococcus capitis,NZ_CP007602_1,59661.0,0.0,0.0,0.0,0.0,0.0
redo_RPB004_37,barcode11,Staphylococcus cohnii,NZ_CP027422_1,2557319.0,0.1435487712,1.0,3671.0,0.0,0.0
redo_RPB004_37,barcode11,Staphylococcus cohnii,NZ_CP027420_1,36910.0,0.0,0.0,0.0,0.0,0.0
redo_RPB004_37,barcode11,Staphylococcus cohnii,NZ_CP027419_1,32058.0,0.0,0.0,0.0,0.0,0.0
redo_RPB004_37,barcode11,Staphylococcus cohnii,NZ_CP027421_1,29852.0,2.5090446201,1.0,749.0,0.0,0.0
redo_RPB004_37,barcode11,Staphylococcus cohnii,NZ_CP027423_1,2670.0,0.0,0.0,0.0,0.0,0.0
redo_RPB004_37,barcode11,Staphylococcus cohnii,NZ_CP027424_1,2473.0,0.0,0.0,0.0,0.0,0.0
redo_RPB004_37,barcode11,Staphylococcus epidermidis,NC_004461_1,2499279.0,94.7617692943,886.0211800481,2368361.0,2360099.0,2353356.0
redo_RPB004_37,barcode11,Staphylococcus epidermidis,NC_005008_1,4439.0,0.0,0.0,0.0,0.0,0.0
redo_RPB004_37,barcode11,Staphylococcus epidermidis,NC_005007_1,4679.0,0.0,0.0,0.0,0.0,0.0
redo_RPB004_37,barcode11,Staphylococcus epidermidis,NC_005006_1,8007.0,0.0,0.0,0.0,0.0,0.0
redo_RPB004_37,barcode11,Staphylococcus epidermidis,NC_005005_1,17261.0,9.0956491513,11.9267515924,1570.0,1561.0,1285.0
redo_RPB004_37,barcode11,Staphylococcus epidermidis,NC_005004_1,24365.0,17.4964087831,18.6368754398,4263.0,4126.0,3459.0
redo_RPB004_37,barcode11,Staphylococcus epidermidis,NC_005003_1,6585.0,0.0,0.0,0.0,0.0,0.0
redo_RPB004_37,barcode11,Staphylococcus haemolyticus,NC_007168_1,2685015.0,2.8748070309,18.3064944487,77189.0,37814.0,24537.0
redo_RPB004_37,barcode11,Staphylococcus haemolyticus,NC_007169_1,2300.0,0.0,0.0,0.0,0.0,0.0
redo_RPB004_37,barcode11,Staphylococcus haemolyticus,NC_007170_1,2366.0,0.0,0.0,0.0,0.0,0.0
redo_RPB004_37,barcode11,Staphylococcus haemolyticus,NC_007171_1,8180.0,0.0,0.0,0.0,0.0,0.0
redo_RPB004_37,barcode11,Staphylococcus hominis,NZ_CP020618_1,2253412.0,1.0627439634,2.3389009521,23948.0,1478.0,1108.0
redo_RPB004_37,barcode11,Staphylococcus kloosii,NZ_CP027846_1,2630191.0,0.0789676491,1.0,2077.0,0.0,0.0
redo_RPB004_37,barcode11,Staphylococcus kloosii,NZ_CP027847_1,8847.0,0.0,0.0,0.0,0.0,0.0
redo_RPB004_37,barcode11,Staphylococcus lugdunensis,NC_013893_1,2658366.0,0.5312285818,9.8852145588,14122.0,1377.0,1221.0
redo_RPB004_37,barcode11,Staphylococcus lutrae,NZ_CP020773_1,2533115.0,0.0584655651,1.0,1481.0,0.0,0.0
redo_RPB004_37,barcode11,Staphylococcus muscae,NZ_CP027848_1,2095131.0,0.0189009661,1.2601010101,396.0,0.0,0.0
redo_RPB004_37,barcode11,Staphylococcus nepalensis,NZ_CP017460_1,2913597.0,0.0038097239,1.0,111.0,0.0,0.0
redo_RPB004_37,barcode11,Staphylococcus nepalensis,NZ_CP017461_1,54521.0,0.0,0.0,0.0,0.0,0.0
redo_RPB004_37,barcode11,Staphylococcus nepalensis,NZ_CP017462_1,22471.0,0.0,0.0,0.0,0.0,0.0
redo_RPB004_37,barcode11,Staphylococcus pasteuri,NC_022737_1,2559946.0,0.6754439351,100.9207101961,17291.0,12489.0,11230.0
redo_RPB004_37,barcode11,Staphylococcus pettenkoferi,NZ_CP022096_2,2502360.0,0.1378698509,1.0,3450.0,0.0,0.0
redo_RPB004_37,barcode11,Staphylococcus phage CNPx,NC_031241_1,43293.0,10.9440325226,185.6806669481,4738.0,4214.0,4170.0
redo_RPB004_37,barcode11,Staphylococcus phage SPbeta-like,NC_029119_1,127726.0,2.7551164211,1.9562375675,3519.0,0.0,0.0
redo_RPB004_37,barcode11,Staphylococcus phage StB12,NC_020490_2,44714.0,4.3342129982,1.6671826625,1938.0,0.0,0.0
redo_RPB004_37,barcode11,Staphylococcus phage StB20,NC_019915_1,40917.0,6.3641029401,13.3383256528,2604.0,1698.0,1683.0
redo_RPB004_37,barcode11,Staphylococcus phage StB20-like,NC_028821_1,40670.0,0.941726088,1.0,383.0,0.0,0.0
redo_RPB004_37,barcode11,Staphylococcus pseudintermedius,NC_014925_1,2617381.0,0.2355790005,2.3168991242,6166.0,1302.0,0.0
redo_RPB004_37,barcode11,Staphylococcus saprophyticus,NC_007350_1,2516575.0,0.0,0.0,0.0,0.0,0.0
redo_RPB004_37,barcode11,Staphylococcus saprophyticus,NC_007351_1,38454.0,3.5626982889,1.0,1370.0,0.0,0.0
redo_RPB004_37,barcode11,Staphylococcus saprophyticus,NC_007352_1,22870.0,3.4368167906,2.5534351145,786.0,0.0,0.0
redo_RPB004_37,barcode11,Staphylococcus schleiferi,NZ_CP009470_1,2435632.0,0.2134558915,1.0,5199.0,0.0,0.0
redo_RPB004_37,barcode11,Staphylococcus sciuri,NZ_CP022046_2,2764040.0,0.0706936224,1.0,1954.0,0.0,0.0
redo_RPB004_37,barcode11,Staphylococcus sciuri,NZ_CP022047_2,89775.0,0.0,0.0,0.0,0.0,0.0
redo_RPB004_37,barcode11,Staphylococcus simiae,NZ_LT906460_1,2643976.0,0.1046151705,16.4414316703,2766.0,2560.0,2255.0
redo_RPB004_37,barcode11,Staphylococcus simulans,NZ_CP014016_2,2647556.0,0.36135213,2.4106825546,9567.0,0.0,0.0
redo_RPB004_37,barcode11,Staphylococcus sp. AntiMn-1,NZ_CP012968_1,2721344.0,0.0196961501,1.0,536.0,0.0,0.0
redo_RPB004_37,barcode11,Staphylococcus sp. AntiMn-1,NZ_CP013300_1,17052.0,0.0,0.0,0.0,0.0,0.0
redo_RPB004_37,barcode11,Staphylococcus virus CNPH82,NC_008722_1,43420.0,8.6342699217,422.489463857,3749.0,3426.0,3413.0
redo_RPB004_37,barcode11,Staphylococcus virus EW,NC_007056_1,45286.0,0.1832796008,1.0,83.0,0.0,0.0
redo_RPB004_37,barcode11,Staphylococcus virus IPLA5,NC_018281_1,43581.0,19.5773387485,173.969878106,8532.0,8193.0,8148.0
redo_RPB004_37,barcode11,Staphylococcus virus IPLA7,NC_018284_1,42123.0,19.1391876172,53.4915653684,8062.0,7854.0,7134.0
redo_RPB004_37,barcode11,Staphylococcus virus PH15,NC_008723_1,44041.0,8.6964419518,500.7407310705,3830.0,3823.0,3823.0
redo_RPB004_37,barcode11,Staphylococcus warneri,NC_020164_1,2486042.0,0.2615000068,1.8777111214,6501.0,0.0,0.0
redo_RPB004_37,barcode11,Staphylococcus warneri,NC_020165_1,4374.0,0.0,0.0,0.0,0.0,0.0
redo_RPB004_37,barcode11,Staphylococcus warneri,NC_020274_1,13186.0,0.0,0.0,0.0,0.0,0.0
redo_RPB004_37,barcode11,Staphylococcus warneri,NC_020264_1,8232.0,0.0,0.0,0.0,0.0,0.0
redo_RPB004_37,barcode11,Staphylococcus warneri,NC_020265_1,3352.0,0.0,0.0,0.0,0.0,0.0
redo_RPB004_37,barcode11,Staphylococcus warneri,NC_020266_1,19866.0,0.0,0.0,0.0,0.0,0.0
redo_RPB004_37,barcode11,Staphylococcus warneri,NC_020267_1,16515.0,0.0,0.0,0.0,0.0,0.0
redo_RPB004_37,barcode11,Staphylococcus warneri,NC_020268_1,6212.0,0.0,0.0,0.0,0.0,0.0
redo_RPB004_37,barcode11,Staphylococcus warneri,NC_020269_1,2937.0,0.0,0.0,0.0,0.0,0.0
redo_RPB004_37,barcode11,Streptococcus agalactiae,NC_004116_1,2160267.0,0.0544377153,1.0,1176.0,0.0,0.0
redo_RPB004_37,barcode11,Streptococcus intermedius,NC_022246_1,1996214.0,0.1125129871,1.0,2246.0,0.0,0.0
redo_RPB004_37,barcode11,Streptococcus pasteurianus,NC_015600_1,2100077.0,0.0357605935,1.0,751.0,0.0,0.0
redo_RPB004_37,barcode11,Streptococcus pyogenes,NC_002737_2,1852433.0,0.1889407066,1.2465714286,3500.0,0.0,0.0
redo_RPB004_37,barcode11,Streptococcus suis,NC_012926_1,2146229.0,0.0167270128,1.0,359.0,0.0,0.0
redo_RPB004_37,barcode11,Streptococcus suis,NC_012923_1,24579.0,0.0,0.0,0.0,0.0,0.0
redo_RPB004_37,barcode11,Sulfitobacter donghicola,NZ_CP026367_1,2469323.0,0.5773647271,10.328961212,14257.0,6565.0,3918.0
redo_RPB004_37,barcode11,Synechococcus sp. CB0101,NZ_CP039373_1,2789647.0,0.0087824732,1.0,245.0,0.0,0.0
redo_RPB004_37,barcode11,Weissella ceti,NZ_CP009224_1,1390397.0,0.0584725082,1.0,813.0,0.0,0.0
redo_RPB004_37,barcode12a,Parvimonas micra,NZ_CP009761_1,1627009.0,2.4801337915,1.0342733941,40352.0,0.0,0.0
redo_RPB004_37,barcode12a,Staphylococcus epidermidis,NC_004461_1,2499279.0,0.157205338,1.2494273352,3929.0,0.0,0.0
redo_RPB004_37,barcode12a,Staphylococcus epidermidis,NC_005008_1,4439.0,0.0,0.0,0.0,0.0,0.0
redo_RPB004_37,barcode12a,Staphylococcus epidermidis,NC_005007_1,4679.0,0.0,0.0,0.0,0.0,0.0
redo_RPB004_37,barcode12a,Staphylococcus epidermidis,NC_005006_1,8007.0,0.0,0.0,0.0,0.0,0.0
redo_RPB004_37,barcode12a,Staphylococcus epidermidis,NC_005005_1,17261.0,0.0,0.0,0.0,0.0,0.0
redo_RPB004_37,barcode12a,Staphylococcus epidermidis,NC_005004_1,24365.0,0.0,0.0,0.0,0.0,0.0
redo_RPB004_37,barcode12a,Staphylococcus epidermidis,NC_005003_1,6585.0,0.0,0.0,0.0,0.0,0.0
redo_RPB004_37,unclassified,Acinetobacter baumannii,NZ_CP009257_1,4335793.0,0.0875272413,1.0,3795.0,0.0,0.0
redo_RPB004_37,unclassified,Acinetobacter johnsonii,NZ_CP010350_1,3509795.0,0.1990999474,1.0,6988.0,0.0,0.0
redo_RPB004_37,unclassified,Acinetobacter johnsonii,NZ_CP010352_1,3978.0,0.0,0.0,0.0,0.0,0.0
redo_RPB004_37,unclassified,Acinetobacter johnsonii,NZ_CP010353_1,4724.0,0.0,0.0,0.0,0.0,0.0
redo_RPB004_37,unclassified,Acinetobacter johnsonii,NZ_CP010354_1,11643.0,0.0,0.0,0.0,0.0,0.0
redo_RPB004_37,unclassified,Acinetobacter johnsonii,NZ_CP010355_1,7579.0,0.0,0.0,0.0,0.0,0.0
redo_RPB004_37,unclassified,Acinetobacter johnsonii,NZ_CP010356_1,13940.0,0.0,0.0,0.0,0.0,0.0
redo_RPB004_37,unclassified,Acinetobacter johnsonii,NZ_CP010357_1,13330.0,0.0,0.0,0.0,0.0,0.0
redo_RPB004_37,unclassified,Acinetobacter johnsonii,NZ_CP010358_1,117483.0,0.0,0.0,0.0,0.0,0.0
redo_RPB004_37,unclassified,Acinetobacter johnsonii,NZ_CP010351_1,398857.0,0.0,0.0,0.0,0.0,0.0
redo_RPB004_37,unclassified,Aeromonas sp. ASNIH2,NZ_CP026406_1,4801408.0,0.0221185119,1.0,1062.0,0.0,0.0
redo_RPB004_37,unclassified,Aeromonas sp. ASNIH2,NZ_CP026411_1,4613.0,0.0,0.0,0.0,0.0,0.0
redo_RPB004_37,unclassified,Aeromonas sp. ASNIH2,NZ_CP026407_1,13512.0,0.0,0.0,0.0,0.0,0.0
redo_RPB004_37,unclassified,Aeromonas sp. ASNIH2,NZ_CP026409_1,8238.0,0.0,0.0,0.0,0.0,0.0
redo_RPB004_37,unclassified,Aeromonas sp. ASNIH2,NZ_CP026410_1,6782.0,0.0,0.0,0.0,0.0,0.0
redo_RPB004_37,unclassified,Aeromonas sp. ASNIH2,NZ_CP026408_1,29979.0,0.0,0.0,0.0,0.0,0.0
redo_RPB004_37,unclassified,Ammonifex degensii,NC_013385_1,2129237.0,0.0094400013,1.0,201.0,0.0,0.0
redo_RPB004_37,unclassified,Ammonifex degensii,NC_013386_1,27830.0,0.0,0.0,0.0,0.0,0.0
redo_RPB004_37,unclassified,Arsenophonus nasoniae,NZ_CP038613_1,3871978.0,0.0074122322,1.0,287.0,0.0,0.0
redo_RPB004_37,unclassified,Arsenophonus nasoniae,NZ_CP038622_1,50328.0,0.0,0.0,0.0,0.0,0.0
redo_RPB004_37,unclassified,Arsenophonus nasoniae,NZ_CP038623_1,46250.0,0.0,0.0,0.0,0.0,0.0
redo_RPB004_37,unclassified,Arsenophonus nasoniae,NZ_CP038624_1,34725.0,0.0,0.0,0.0,0.0,0.0
redo_RPB004_37,unclassified,Arsenophonus nasoniae,NZ_CP038625_1,33626.0,0.0,0.0,0.0,0.0,0.0
redo_RPB004_37,unclassified,Arsenophonus nasoniae,NZ_CP038626_1,32417.0,0.0,0.0,0.0,0.0,0.0
redo_RPB004_37,unclassified,Arsenophonus nasoniae,NZ_CP038627_1,15977.0,0.0,0.0,0.0,0.0,0.0
redo_RPB004_37,unclassified,Arsenophonus nasoniae,NZ_CP038628_1,8312.0,0.0,0.0,0.0,0.0,0.0
redo_RPB004_37,unclassified,Arsenophonus nasoniae,NZ_CP038629_1,3641.0,0.0,0.0,0.0,0.0,0.0
redo_RPB004_37,unclassified,Arsenophonus nasoniae,NZ_CP038630_1,7173.0,0.0,0.0,0.0,0.0,0.0
redo_RPB004_37,unclassified,Arsenophonus nasoniae,NZ_CP038614_1,222851.0,0.0,0.0,0.0,0.0,0.0
redo_RPB004_37,unclassified,Arsenophonus nasoniae,NZ_CP038615_1,85190.0,0.0,0.0,0.0,0.0,0.0
redo_RPB004_37,unclassified,Arsenophonus nasoniae,NZ_CP038616_1,85274.0,0.0,0.0,0.0,0.0,0.0
redo_RPB004_37,unclassified,Arsenophonus nasoniae,NZ_CP038617_1,133306.0,0.0,0.0,0.0,0.0,0.0
redo_RPB004_37,unclassified,Arsenophonus nasoniae,NZ_CP038618_1,61872.0,0.0,0.0,0.0,0.0,0.0
redo_RPB004_37,unclassified,Arsenophonus nasoniae,NZ_CP038619_1,121472.0,0.0,0.0,0.0,0.0,0.0
redo_RPB004_37,unclassified,Arsenophonus nasoniae,NZ_CP038620_1,120926.0,0.0,0.0,0.0,0.0,0.0
redo_RPB004_37,unclassified,Arsenophonus nasoniae,NZ_CP038621_1,51789.0,0.0,0.0,0.0,0.0,0.0
redo_RPB004_37,unclassified,Auricoccus indicus,NZ_CP019573_1,1745789.0,0.023714206,1.0,414.0,0.0,0.0
redo_RPB004_37,unclassified,Bacillus cereus,NC_004722_1,5411809.0,0.0781069694,1.0,4227.0,0.0,0.0
redo_RPB004_37,unclassified,Bacillus cereus,NC_004721_2,15274.0,0.0,0.0,0.0,0.0,0.0
redo_RPB004_37,unclassified,Bacillus sp. Lzh-5,NZ_CP024647_1,4015817.0,0.0997057386,1.0,4004.0,0.0,0.0
redo_RPB004_37,unclassified,Bacillus sp. Lzh-5,NZ_CP024648_1,8933.0,0.0,0.0,0.0,0.0,0.0
redo_RPB004_37,unclassified,Bacillus subtilis,NC_000964_3,4215606.0,0.0187873345,1.0,792.0,0.0,0.0
redo_RPB004_37,unclassified,Bacillus thuringiensis,NC_022873_1,6002284.0,0.0385020102,1.0,2311.0,0.0,0.0
redo_RPB004_37,unclassified,Bacillus thuringiensis,NC_020124_1,17706.0,0.0,0.0,0.0,0.0,0.0
redo_RPB004_37,unclassified,Bacillus thuringiensis,NC_022874_1,45206.0,0.0,0.0,0.0,0.0,0.0
redo_RPB004_37,unclassified,Bacillus thuringiensis,NC_022875_1,49195.0,0.0,0.0,0.0,0.0,0.0
redo_RPB004_37,unclassified,Bacillus thuringiensis,NC_022876_1,146276.0,0.0,0.0,0.0,0.0,0.0
redo_RPB004_37,unclassified,Bacillus thuringiensis,NC_022877_1,171593.0,0.0,0.0,0.0,0.0,0.0
redo_RPB004_37,unclassified,Bacillus thuringiensis,NC_022882_1,240661.0,0.0,0.0,0.0,0.0,0.0
redo_RPB004_37,unclassified,Bacillus velezensis,NC_009725_1,3918589.0,0.0547135716,1.0,2144.0,0.0,0.0
redo_RPB004_37,unclassified,Butyrivibrio hungatei,NZ_CP017831_1,3143784.0,0.0168586646,1.0,530.0,0.0,0.0
redo_RPB004_37,unclassified,Butyrivibrio hungatei,NZ_CP017830_1,91776.0,0.0,0.0,0.0,0.0,0.0
redo_RPB004_37,unclassified,Butyrivibrio hungatei,NZ_CP017832_1,144470.0,0.0,0.0,0.0,0.0,0.0
redo_RPB004_37,unclassified,Butyrivibrio hungatei,NZ_CP017833_1,6284.0,0.0,0.0,0.0,0.0,0.0
redo_RPB004_37,unclassified,Citrobacter farmeri,NZ_CP022695_1,5130228.0,0.0679307041,1.0,3485.0,0.0,0.0
redo_RPB004_37,unclassified,Citrobacter farmeri,NZ_CP022696_1,328945.0,0.0,0.0,0.0,0.0,0.0
redo_RPB004_37,unclassified,Citrobacter farmeri,NZ_CP022697_1,149207.0,0.0,0.0,0.0,0.0,0.0
redo_RPB004_37,unclassified,Citrobacter farmeri,NZ_CP022698_1,107249.0,0.0,0.0,0.0,0.0,0.0
redo_RPB004_37,unclassified,Clostridioides difficile,NC_009089_1,4290252.0,0.3531261101,11.3630363036,15150.0,9618.0,5249.0
redo_RPB004_37,unclassified,Clostridioides difficile,NC_008226_2,7881.0,0.0,0.0,0.0,0.0,0.0
redo_RPB004_37,unclassified,Cutibacterium acnes,NC_006085_1,2560265.0,1.1600361681,1.1860942761,29700.0,0.0,0.0
redo_RPB004_37,unclassified,Enterobacter asburiae,NC_015968_1,4812833.0,0.0540014582,1.0,2599.0,0.0,0.0
redo_RPB004_37,unclassified,Enterobacter asburiae,NC_015963_1,166725.0,0.0,0.0,0.0,0.0,0.0
redo_RPB004_37,unclassified,Enterobacter asburiae,NC_015969_1,32574.0,0.0,0.0,0.0,0.0,0.0
redo_RPB004_37,unclassified,Enterobacter sp. FY-07,NZ_CP012487_1,5118646.0,0.0739062635,1.0,3783.0,0.0,0.0
redo_RPB004_37,unclassified,Enterobacter sp. FY-07,NZ_CP012488_1,13955.0,0.0,0.0,0.0,0.0,0.0
redo_RPB004_37,unclassified,Enterobacter sp. FY-07,NZ_CP012489_1,3776.0,0.0,0.0,0.0,0.0,0.0
redo_RPB004_37,unclassified,Enterobacter sp. FY-07,NZ_CP012490_1,2324.0,0.0,0.0,0.0,0.0,0.0
redo_RPB004_37,unclassified,Escherichia albertii,NZ_CP007025_1,4701875.0,0.0668244052,1.0,3142.0,0.0,0.0
redo_RPB004_37,unclassified,Escherichia coli,NC_000913_3,4641652.0,7.3310321411,1.1692512953,340281.0,157.0,0.0
redo_RPB004_37,unclassified,Escherichia fergusonii,NC_011740_1,4588711.0,0.0311198504,1.0,1428.0,0.0,0.0
redo_RPB004_37,unclassified,Escherichia fergusonii,NC_011743_1,55150.0,0.0,0.0,0.0,0.0,0.0
redo_RPB004_37,unclassified,Escherichia marmotae,NZ_CP025979_1,4671322.0,0.0097188762,1.0,454.0,0.0,0.0
redo_RPB004_37,unclassified,Escherichia marmotae,NZ_CP025980_1,148809.0,0.0,0.0,0.0,0.0,0.0
redo_RPB004_37,unclassified,Escherichia marmotae,NZ_CP025981_1,76160.0,0.0,0.0,0.0,0.0,0.0
redo_RPB004_37,unclassified,Filifactor alocis,NC_016630_1,1931012.0,0.263644141,2.7279512866,5091.0,1124.0,0.0
redo_RPB004_37,unclassified,Fusobacterium gonidiaformans,NZ_CP028106_1,1678881.0,0.2511792081,1.9257766184,4217.0,0.0,0.0
redo_RPB004_37,unclassified,Fusobacterium necrophorum,NZ_CP028107_1,2286018.0,0.0895443518,1.0,2047.0,0.0,0.0
redo_RPB004_37,unclassified,Gemella sp. ND 6198,NZ_CP022615_1,1797925.0,1.0947620173,17.7238733933,19683.0,12478.0,9526.0
redo_RPB004_37,unclassified,Gemella sp. oral taxon 928,NZ_CP014233_1,1769679.0,0.3544710651,7.406504065,6273.0,3891.0,2377.0
redo_RPB004_37,unclassified,Geobacillus sp. C56-T3,NC_014206_1,3650813.0,0.055576662,1.0,2029.0,0.0,0.0
redo_RPB004_37,unclassified,Lachnospiraceae bacterium oral taxon 500,NZ_CP027241_1,3201383.0,0.7557671169,31.4107873528,24195.0,13079.0,9257.0
redo_RPB004_37,unclassified,Lactobacillus fermentum,NC_010610_1,2098685.0,0.0381667568,1.0,801.0,0.0,0.0
redo_RPB004_37,unclassified,Leclercia adecarboxylata,NZ_CP013990_1,4803917.0,0.0568702582,1.0,2732.0,0.0,0.0
redo_RPB004_37,unclassified,Leptotrichia sp. oral taxon 212,NZ_CP012410_1,2444904.0,0.3480709263,7.3115158637,8510.0,6871.0,1153.0
redo_RPB004_37,unclassified,Lysinibacillus fusiformis,NZ_CP010820_1,4843789.0,0.0264462387,1.0,1281.0,0.0,0.0
redo_RPB004_37,unclassified,Lysinibacillus sp. SGAir0095,NZ_CP028083_1,4142194.0,0.005190486,1.0,215.0,0.0,0.0
redo_RPB004_37,unclassified,Mageeibacillus indolicus,NC_013895_2,1809746.0,0.4706737852,15.2574548016,8518.0,6660.0,5294.0
redo_RPB004_37,unclassified,Mogibacterium diversum,NZ_CP027228_1,1815831.0,0.5338051834,13.2925822759,9693.0,7013.0,5731.0
redo_RPB004_37,unclassified,Murdochiella vaginalis,NZ_LT632322_1,1671491.0,0.0792107167,1.0,1324.0,0.0,0.0
redo_RPB004_37,unclassified,Neisseria meningitidis,NC_003112_2,2272360.0,0.0051928392,1.0,118.0,0.0,0.0
redo_RPB004_37,unclassified,Nitrospira defluvii,NC_014355_1,4317083.0,0.0472309659,1.0,2039.0,0.0,0.0
redo_RPB004_37,unclassified,Parvimonas micra,NZ_CP009761_1,1627009.0,91.3396914215,145.7831007903,1486105.0,1462788.0,1450899.0
redo_RPB004_37,unclassified,Peptostreptococcaceae bacterium oral taxon 929,NZ_CP027242_1,1646831.0,0.7824117957,26.0311214591,12885.0,10532.0,7836.0
redo_RPB004_37,unclassified,Planococcus sp. MB-3u-03,NZ_CP025135_1,3378540.0,0.0179071433,1.0,605.0,0.0,0.0
redo_RPB004_37,unclassified,Planococcus sp. MB-3u-03,NZ_CP025124_1,70808.0,0.0,0.0,0.0,0.0,0.0
redo_RPB004_37,unclassified,Planococcus sp. MB-3u-03,NZ_CP025133_1,1329.0,0.0,0.0,0.0,0.0,0.0
redo_RPB004_37,unclassified,Planococcus sp. MB-3u-03,NZ_CP025134_1,1226.0,0.0,0.0,0.0,0.0,0.0
redo_RPB004_37,unclassified,Planococcus sp. MB-3u-03,NZ_CP025123_1,129321.0,0.0,0.0,0.0,0.0,0.0
redo_RPB004_37,unclassified,Planococcus sp. MB-3u-03,NZ_CP025125_1,7275.0,0.0,0.0,0.0,0.0,0.0
redo_RPB004_37,unclassified,Planococcus sp. MB-3u-03,NZ_CP025126_1,7049.0,0.0,0.0,0.0,0.0,0.0
redo_RPB004_37,unclassified,Planococcus sp. MB-3u-03,NZ_CP025127_1,6800.0,0.0,0.0,0.0,0.0,0.0
redo_RPB004_37,unclassified,Planococcus sp. MB-3u-03,NZ_CP025130_1,1636.0,0.0,0.0,0.0,0.0,0.0
redo_RPB004_37,unclassified,Planococcus sp. MB-3u-03,NZ_CP025128_1,5115.0,0.0,0.0,0.0,0.0,0.0
redo_RPB004_37,unclassified,Planococcus sp. MB-3u-03,NZ_CP025129_1,2168.0,0.0,0.0,0.0,0.0,0.0
redo_RPB004_37,unclassified,Planococcus sp. MB-3u-03,NZ_CP025131_1,1598.0,0.0,0.0,0.0,0.0,0.0
redo_RPB004_37,unclassified,Planococcus sp. MB-3u-03,NZ_CP025132_1,1566.0,0.0,0.0,0.0,0.0,0.0
redo_RPB004_37,unclassified,Pseudomonas aeruginosa,NC_002516_2,6264404.0,0.0034480535,1.0,216.0,0.0,0.0
redo_RPB004_37,unclassified,Pseudomonas sp. TKP,NC_023064_1,7012672.0,0.0017682276,1.0,124.0,0.0,0.0
redo_RPB004_37,unclassified,Shewanella bicestrii,NZ_CP022358_1,4800597.0,0.04741077,1.0,2276.0,0.0,0.0
redo_RPB004_37,unclassified,Shewanella bicestrii,NZ_CP022360_1,10479.0,0.0,0.0,0.0,0.0,0.0
redo_RPB004_37,unclassified,Shewanella bicestrii,NZ_CP022359_1,193338.0,0.0,0.0,0.0,0.0,0.0
redo_RPB004_37,unclassified,Shigella dysenteriae,NC_007606_1,4369232.0,0.0429137203,1.0,1875.0,0.0,0.0
redo_RPB004_37,unclassified,Shigella dysenteriae,NC_009344_1,8953.0,0.0,0.0,0.0,0.0,0.0
redo_RPB004_37,unclassified,Shigella dysenteriae,NC_007607_1,182726.0,0.0,0.0,0.0,0.0,0.0
redo_RPB004_37,unclassified,Shigella flexneri,NC_004337_2,4607202.0,0.1624196204,1.2508352265,7483.0,0.0,0.0
redo_RPB004_37,unclassified,Shigella flexneri,NC_004851_1,221618.0,0.0,0.0,0.0,0.0,0.0
redo_RPB004_37,unclassified,Shigella virus SfMu,NC_027382_1,37146.0,2.1294352016,1.0,791.0,0.0,0.0
redo_RPB004_37,unclassified,Staphylococcus agnetis,NZ_CP009623_1,2474434.0,0.299381596,2.6449784017,7408.0,1563.0,0.0
redo_RPB004_37,unclassified,Staphylococcus agnetis,NZ_CP009624_1,28965.0,0.0,0.0,0.0,0.0,0.0
redo_RPB004_37,unclassified,Staphylococcus argenteus,NC_016941_1,2762785.0,0.0405388041,1.0,1120.0,0.0,0.0
redo_RPB004_37,unclassified,Staphylococcus argenteus,NC_016942_1,24853.0,0.0,0.0,0.0,0.0,0.0
redo_RPB004_37,unclassified,Staphylococcus aureus,NC_007795_1,2821361.0,1.0451693349,3.0957677699,29488.0,5453.0,782.0
redo_RPB004_37,unclassified,Staphylococcus capitis,NZ_CP007601_1,2443604.0,1.0683809652,18.4415290918,26107.0,14923.0,12953.0
redo_RPB004_37,unclassified,Staphylococcus capitis,NZ_CP007602_1,59661.0,0.0,0.0,0.0,0.0,0.0
redo_RPB004_37,unclassified,Staphylococcus carnosus,NC_012121_1,2566424.0,0.0051433434,1.0,132.0,0.0,0.0
redo_RPB004_37,unclassified,Staphylococcus delphini,NZ_LR134263_1,2798161.0,0.0084341108,1.0,236.0,0.0,0.0
redo_RPB004_37,unclassified,Staphylococcus epidermidis,NC_004461_1,2499279.0,94.3404477851,56.9843576575,2357831.0,2339548.0,2332732.0
redo_RPB004_37,unclassified,Staphylococcus epidermidis,NC_005008_1,4439.0,0.0,0.0,0.0,0.0,0.0
redo_RPB004_37,unclassified,Staphylococcus epidermidis,NC_005007_1,4679.0,0.0,0.0,0.0,0.0,0.0
redo_RPB004_37,unclassified,Staphylococcus epidermidis,NC_005006_1,8007.0,0.0,0.0,0.0,0.0,0.0
redo_RPB004_37,unclassified,Staphylococcus epidermidis,NC_005005_1,17261.0,0.0,0.0,0.0,0.0,0.0
redo_RPB004_37,unclassified,Staphylococcus epidermidis,NC_005004_1,24365.0,16.2446131746,2.7660434563,3958.0,130.0,0.0
redo_RPB004_37,unclassified,Staphylococcus epidermidis,NC_005003_1,6585.0,0.0,0.0,0.0,0.0,0.0
redo_RPB004_37,unclassified,Staphylococcus equorum,NZ_CP013114_1,2822193.0,0.0900717988,1.0,2542.0,0.0,0.0
redo_RPB004_37,unclassified,Staphylococcus felis,NZ_CP027770_1,2479423.0,0.0532381929,1.0,1320.0,0.0,0.0
redo_RPB004_37,unclassified,Staphylococcus haemolyticus,NC_007168_1,2685015.0,1.7489660207,2.2867546848,46960.0,4786.0,0.0
redo_RPB004_37,unclassified,Staphylococcus haemolyticus,NC_007169_1,2300.0,0.0,0.0,0.0,0.0,0.0
redo_RPB004_37,unclassified,Staphylococcus haemolyticus,NC_007170_1,2366.0,0.0,0.0,0.0,0.0,0.0
redo_RPB004_37,unclassified,Staphylococcus haemolyticus,NC_007171_1,8180.0,0.0,0.0,0.0,0.0,0.0
redo_RPB004_37,unclassified,Staphylococcus hominis,NZ_CP020618_1,2253412.0,0.2503314973,1.4710157773,5641.0,268.0,0.0
redo_RPB004_37,unclassified,Staphylococcus lugdunensis,NC_013893_1,2658366.0,0.1664932519,1.2916854948,4426.0,0.0,0.0
redo_RPB004_37,unclassified,Staphylococcus pasteuri,NC_022737_1,2559946.0,0.3258662487,12.9514504915,8342.0,6623.0,4952.0
redo_RPB004_37,unclassified,Staphylococcus pettenkoferi,NZ_CP022096_2,2502360.0,0.0386035582,1.0,966.0,0.0,0.0
redo_RPB004_37,unclassified,Staphylococcus phage CNPx,NC_031241_1,43293.0,7.7356616543,16.688862347,3349.0,1952.0,1546.0
redo_RPB004_37,unclassified,Staphylococcus phage StB20,NC_019915_1,40917.0,4.1547523034,3.4070588235,1700.0,0.0,0.0
redo_RPB004_37,unclassified,Staphylococcus saprophyticus,NC_007350_1,2516575.0,0.0231664067,1.3036020583,583.0,0.0,0.0
redo_RPB004_37,unclassified,Staphylococcus saprophyticus,NC_007351_1,38454.0,0.0,0.0,0.0,0.0,0.0
redo_RPB004_37,unclassified,Staphylococcus saprophyticus,NC_007352_1,22870.0,3.1394840402,1.2395543175,718.0,0.0,0.0
redo_RPB004_37,unclassified,Staphylococcus schleiferi,NZ_CP009470_1,2435632.0,0.0993992524,1.0,2421.0,0.0,0.0
redo_RPB004_37,unclassified,Staphylococcus simiae,NZ_LT906460_1,2643976.0,0.0772699903,3.8991678904,2043.0,1017.0,0.0
redo_RPB004_37,unclassified,Staphylococcus sp. AntiMn-1,NZ_CP012968_1,2721344.0,0.1120769737,1.0,3050.0,0.0,0.0
redo_RPB004_37,unclassified,Staphylococcus sp. AntiMn-1,NZ_CP013300_1,17052.0,0.0,0.0,0.0,0.0,0.0
redo_RPB004_37,unclassified,Staphylococcus virus CNPH82,NC_008722_1,43420.0,9.5416858591,14.1832005793,4143.0,2717.0,2382.0
redo_RPB004_37,unclassified,Staphylococcus virus IPLA5,NC_018281_1,43581.0,17.8334595351,10.9269171384,7772.0,6631.0,3962.0
redo_RPB004_37,unclassified,Staphylococcus virus IPLA7,NC_018284_1,42123.0,16.8838876623,5.7802305962,7112.0,4046.0,932.0
redo_RPB004_37,unclassified,Staphylococcus virus PH15,NC_008723_1,44041.0,8.6805476715,33.6641381114,3823.0,3823.0,3798.0
redo_RPB004_37,unclassified,Staphylococcus xylosus,NZ_CP007208_1,2836901.0,0.0783601543,1.0,2223.0,0.0,0.0
redo_RPB004_37,unclassified,Staphylococcus xylosus,NZ_CP007209_1,30062.0,0.0,0.0,0.0,0.0,0.0
redo_RPB004_37,unclassified,Streptobacillus moniliformis,NC_013515_1,1662578.0,0.1035139404,1.059848925,1721.0,0.0,0.0
redo_RPB004_37,unclassified,Streptobacillus moniliformis,NC_013516_1,10702.0,0.0,0.0,0.0,0.0,0.0
redo_RPB004_37,unclassified,Streptococcus anginosus,NC_022239_1,2233640.0,1.2455006178,35.3234723221,27820.0,17187.0,14449.0
redo_RPB004_37,unclassified,Streptococcus constellatus,NC_022236_1,1935414.0,0.8863219962,5.1282499709,17154.0,7550.0,2833.0
redo_RPB004_37,unclassified,Streptococcus dysgalactiae,NC_019042_1,2179445.0,0.033907715,1.0,739.0,0.0,0.0
redo_RPB004_37,unclassified,Streptococcus equi,NC_012470_1,2149868.0,0.8302835337,8.829859944,17850.0,7846.0,5193.0
redo_RPB004_37,unclassified,Streptococcus intermedius,NC_022246_1,1996214.0,1.440076064,70.4473510279,28747.0,23292.0,18964.0
redo_RPB004_37,unclassified,Streptococcus pluranimalium,NZ_CP025536_1,2065522.0,0.033502427,1.0,692.0,0.0,0.0
redo_RPB004_37,unclassified,Streptococcus pseudoporcinus,NZ_LR134341_1,2156061.0,0.4321306308,2.4427390791,9317.0,558.0,0.0
redo_RPB004_37,unclassified,Streptococcus respiraculi,NZ_CP022680_1,2041601.0,0.1518905996,3.2879716221,3101.0,729.0,0.0
redo_RPB004_37,unclassified,Streptococcus respiraculi,NZ_CP022681_1,26370.0,0.0,0.0,0.0,0.0,0.0
redo_RPB004_37,unclassified,Sulfitobacter donghicola,NZ_CP026367_1,2469323.0,0.1426301865,2.1351504827,3522.0,0.0,0.0
redo_RPB004_37,unclassified,Treponema pedis,NC_022097_1,2889325.0,0.0044647106,1.0,129.0,0.0,0.0
redo_RPB004_37,unclassified,Weissella ceti,NZ_CP009224_1,1390397.0,0.2625868727,1.0,3651.0,0.0,0.0
redo_RPB004_37,unclassified,[Eubacterium] sulci,NZ_CP012068_1,1739380.0,0.4063516885,23.5144312394,7068.0,6983.0,6241.0
