Run_name,Barcode,Taxid,Bases,Reads
redo_RPB004_19,barcode02,Pseudomonas alcaliphila,202407,72
redo_RPB004_19,barcode02,Pseudomonas sp. LPH1,4678,2
redo_RPB004_19,barcode02,Rhodomicrobium vannielii,4339,1
redo_RPB004_19,barcode02,Paracoccus yeei,668016,155
redo_RPB004_19,barcode02,Acinetobacter sp. TTH0-4,287991,67
redo_RPB004_19,barcode02,Azoarcus sp. DN11,12867,3
redo_RPB004_19,barcode02,Streptococcus mitis,1338,1
redo_RPB004_19,barcode02,Shigella dysenteriae,26982,8
redo_RPB004_19,barcode02,Acinetobacter sp. NCu2D-2,535055,127
redo_RPB004_19,barcode02,Moraxella osloensis,29838646,7280
redo_RPB004_19,barcode02,Conexibacter woesei,14775,3
redo_RPB004_19,barcode02,Virgibacillus sp. 6R,9353,3
redo_RPB004_19,barcode02,Rhodobacteraceae bacterium QY30,137211,48
redo_RPB004_19,barcode02,Streptococcus pneumoniae,4696,2
redo_RPB004_19,barcode02,Acinetobacter pittii,617732,141
redo_RPB004_19,barcode02,Aquitalea sp. USM4,2123,1
redo_RPB004_19,barcode02,Pseudomonas synxantha,15908,3
redo_RPB004_19,barcode02,Pseudomonas amygdali,10478,4
redo_RPB004_19,barcode02,Streptococcus gordonii,10411,6
redo_RPB004_19,barcode02,Cutibacterium acnes,3938003,1007
redo_RPB004_19,barcode02,Streptomyces malaysiensis,3140,1
redo_RPB004_19,barcode02,Staphylococcus hyicus,21773,7
redo_RPB004_19,barcode02,Serinicoccus chungangensis,2003,1
redo_RPB004_19,barcode02,Acinetobacter bereziniae,157111,34
redo_RPB004_19,barcode02,Ochrobactrum anthropi,13670,3
redo_RPB004_19,barcode02,Pseudomonas parafulva,5315,1
redo_RPB004_19,barcode02,Acinetobacter nosocomialis,45005,9
redo_RPB004_19,barcode02,Caulobacter sp. FWC26,9052,2
redo_RPB004_19,barcode02,Brevibacterium aurantiacum,53551,19
redo_RPB004_19,barcode02,Mesorhizobium opportunistum,21818,4
redo_RPB004_19,barcode02,Microlunatus phosphovorus,23301,5
redo_RPB004_19,barcode02,Pseudopropionibacterium propionicum,42702,12
redo_RPB004_19,barcode02,Bradyrhizobium sp. ORS 285,8198,2
redo_RPB004_19,barcode02,Acinetobacter sp. WCHA45,95620,23
redo_RPB004_19,barcode02,Staphylococcus caprae,297227,89
redo_RPB004_19,barcode02,Paracoccus denitrificans,32066,8
redo_RPB004_19,barcode02,Streptococcus agalactiae,82436,23
redo_RPB004_19,barcode02,Caulobacter mirabilis,2185,1
redo_RPB004_19,barcode02,Pseudomonas mucidolens,6226,2
redo_RPB004_19,barcode02,Methylobacterium sp. 4-46,10539,3
redo_RPB004_19,barcode02,Burkholderia vietnamiensis,4275,1
redo_RPB004_19,barcode02,Streptococcus milleri,5405,3
redo_RPB004_19,barcode02,Acinetobacter soli,8839,3
redo_RPB004_19,barcode02,Listeria ivanovii,6713,2
redo_RPB004_19,barcode02,Carnobacterium sp. CP1,2337,1
redo_RPB004_19,barcode02,Salipiger profundus,16626,4
redo_RPB004_19,barcode02,Niveispirillum cyanobacteriorum,3114,1
redo_RPB004_19,barcode02,Acinetobacter guillouiae,26461,6
redo_RPB004_19,barcode02,Paracoccus mutanolyticus,153693,39
redo_RPB004_19,barcode02,Massilia plicata,3956,1
redo_RPB004_19,barcode02,Acinetobacter tandoii,196981,48
redo_RPB004_19,barcode02,Paenibacillus xylanexedens,16476,4
redo_RPB004_19,barcode02,Azospira oryzae,4287,1
redo_RPB004_19,barcode02,Dickeya sp. NCPPB 569,4339,1
redo_RPB004_19,barcode02,Sphingobium sp. SYK-6,5697,1
redo_RPB004_19,barcode02,Collimonas pratensis,14697,2
redo_RPB004_19,barcode02,Acinetobacter equi,191474,37
redo_RPB004_19,barcode02,Corynebacterium aquilae,4471,1
redo_RPB004_19,barcode02,Corynebacterium resistens,14838,5
redo_RPB004_19,barcode02,Nitrospirillum amazonense,6640,2
redo_RPB004_19,barcode02,Achromobacter denitrificans,5932,2
redo_RPB004_19,barcode02,Acinetobacter sp. DUT-2,4384,2
redo_RPB004_19,barcode02,Paracoccus aminovorans,190401,43
redo_RPB004_19,barcode02,Rhodobacter sp. LPB0142,22866,8
redo_RPB004_19,barcode02,Methylorubrum extorquens,553,1
redo_RPB004_19,barcode02,Staphylococcus kloosii,511,1
redo_RPB004_19,barcode02,Methylorubrum populi,80538,12
redo_RPB004_19,barcode02,Staphylococcus pasteuri,25976,7
redo_RPB004_19,barcode02,Thalassospira marina,3293,1
redo_RPB004_19,barcode02,Rhodovulum sulfidophilum,832,1
redo_RPB004_19,barcode02,Simiduia agarivorans,4268,1
redo_RPB004_19,barcode02,Staphylococcus cohnii,285525,123
redo_RPB004_19,barcode02,Methylobacterium sp. DM1,6679,1
redo_RPB004_19,barcode02,Desulfovibrio carbinolicus,11256,2
redo_RPB004_19,barcode02,Staphylococcus haemolyticus,167656,69
redo_RPB004_19,barcode02,Kocuria rhizophila,384698,86
redo_RPB004_19,barcode02,Edwardsiella tarda,9775,4
redo_RPB004_19,barcode02,Serratia marcescens,3800,1
redo_RPB004_19,barcode02,Acinetobacter sp. WCHA55,51122,17
redo_RPB004_19,barcode02,Methylococcus capsulatus,4258,1
redo_RPB004_19,barcode02,Rhizobium sp. ACO-34A,13480,2
redo_RPB004_19,barcode02,Massilia oculi,5359,1
redo_RPB004_19,barcode02,Acinetobacter sp. ACNIH2,95636,23
redo_RPB004_19,barcode02,Staphylococcus simiae,2473,1
redo_RPB004_19,barcode02,Providencia alcalifaciens,4313,1
redo_RPB004_19,barcode02,Pseudomonas stutzeri,10427,2
redo_RPB004_19,barcode02,Hydrogenophilus thermoluteolus,12407,2
redo_RPB004_19,barcode02,Kocuria rosea,1513,1
redo_RPB004_19,barcode02,Staphylococcus hominis,57991,23
redo_RPB004_19,barcode02,Staphylococcus schleiferi,11590,5
redo_RPB004_19,barcode02,Pseudomonas psychrotolerans,321202,79
redo_RPB004_19,barcode02,Phaeobacter piscinae,7787,2
redo_RPB004_19,barcode02,Pseudomonas aeruginosa,96051,23
redo_RPB004_19,barcode02,Rhodospirillum rubrum,221774,41
redo_RPB004_19,barcode02,Paracoccus sp. CBA4604,158275,32
redo_RPB004_19,barcode02,Acidobacterium capsulatum,12812,3
redo_RPB004_19,barcode02,Massilia albidiflava,5313,1
redo_RPB004_19,barcode02,Dickeya zeae,7377,1
redo_RPB004_19,barcode02,Acinetobacter sp. ACNIH1,7910803,2079
redo_RPB004_19,barcode02,Cedecea lapagei,4356,1
redo_RPB004_19,barcode02,Streptosporangium roseum,4851,1
redo_RPB004_19,barcode02,Staphylococcus sp. AntiMn-1,1759,1
redo_RPB004_19,barcode02,Halioglobus japonicus,240741,57
redo_RPB004_19,barcode02,Anaeromyxobacter dehalogenans,4226,1
redo_RPB004_19,barcode02,Kocuria palustris,1737,1
redo_RPB004_19,barcode02,Rhodococcus coprophilus,3472,1
redo_RPB004_19,barcode02,Legionella israelensis,1928,1
redo_RPB004_19,barcode02,Polaromonas sp. JS666,4266,1
redo_RPB004_19,barcode02,Pasteurella multocida,21448,5
redo_RPB004_19,barcode02,Streptococcus constellatus,7210,4
redo_RPB004_19,barcode02,Escherichia albertii,5642,2
redo_RPB004_19,barcode02,Blastochloris viridis,187577,44
redo_RPB004_19,barcode02,Herbaspirillum hiltneri,178,1
redo_RPB004_19,barcode02,Acinetobacter ursingii,131677,53
redo_RPB004_19,barcode02,Buchnera aphidicola,4247,1
redo_RPB004_19,barcode02,Arthrobacter alpinus,3415,1
redo_RPB004_19,barcode02,Sagittula sp. P11,5459,1
redo_RPB004_19,barcode02,Bordetella hinzii,16708,3
redo_RPB004_19,barcode02,Sinorhizobium fredii,2515,1
redo_RPB004_19,barcode02,Enterococcus faecalis,15541,5
redo_RPB004_19,barcode02,Thioalkalivibrio sulfidiphilus,1299595,184
redo_RPB004_19,barcode02,Planococcus sp. PAMC 21323,2458,1
redo_RPB004_19,barcode02,Acinetobacter radioresistens,3554570,618
redo_RPB004_19,barcode02,Frankia alni,6245,2
redo_RPB004_19,barcode02,Pseudoalteromonas donghaensis,86875,16
redo_RPB004_19,barcode02,Bacterioplanes sanyensis,7201,1
redo_RPB004_19,barcode02,Klebsiella aerogenes,3502,1
redo_RPB004_19,barcode02,Pseudomonas sp. HLS-6,15105,3
redo_RPB004_19,barcode02,Nitrobacter hamburgensis,3341,1
redo_RPB004_19,barcode02,Alcanivorax dieselolei,53974,13
redo_RPB004_19,barcode02,Morganella morganii,73699,22
redo_RPB004_19,barcode02,Pseudomonas sp. LG1D9,6548,2
redo_RPB004_19,barcode02,Pseudomonas mendocina,8077,3
redo_RPB004_19,barcode02,Acinetobacter sp. WCHAc010052,131638,43
redo_RPB004_19,barcode02,Sorangium cellulosum,20802,5
redo_RPB004_19,barcode02,Rhodobacter sp. CZR27,53473,8
redo_RPB004_19,barcode02,Lactobacillus johnsonii,2345,1
redo_RPB004_19,barcode02,Acinetobacter oleivorans,4181,1
redo_RPB004_19,barcode02,Rhizobium sp. NXC24,9409,2
redo_RPB004_19,barcode02,Pseudomonas oleovorans,230961,39
redo_RPB004_19,barcode02,Psychrobacter alimentarius,2161,1
redo_RPB004_19,barcode02,Enterococcus cecorum,6228,2
redo_RPB004_19,barcode02,Sulfitobacter sp. SK025,15561,4
redo_RPB004_19,barcode02,Moraxella catarrhalis,26245,6
redo_RPB004_19,barcode02,Staphylococcus auricularis,2450,1
redo_RPB004_19,barcode02,Haematobacter massiliensis,4975,1
redo_RPB004_19,barcode02,Tetragenococcus halophilus,4701,2
redo_RPB004_19,barcode02,Pseudomonas brassicacearum,9753,3
redo_RPB004_19,barcode02,Pseudomonas alcaligenes,3261,1
redo_RPB004_19,barcode02,Celeribacter indicus,15808,4
redo_RPB004_19,barcode02,Phaeobacter inhibens,374,1
redo_RPB004_19,barcode02,Acinetobacter sp. WCHAc010034,138449,41
redo_RPB004_19,barcode02,Parvularcula bermudensis,22348,4
redo_RPB004_19,barcode02,Oleispira antarctica,5195,1
redo_RPB004_19,barcode02,Moraxella bovoculi,8324,3
redo_RPB004_19,barcode02,Acinetobacter sp. SWBY1,815060,172
redo_RPB004_19,barcode02,Massilia sp. WG5,9700,3
redo_RPB004_19,barcode02,Escherichia coli,203191,83
redo_RPB004_19,barcode02,Moraxella bovis,564476,176
redo_RPB004_19,barcode02,Paracoccus zhejiangensis,33070,9
redo_RPB004_19,barcode02,Lactobacillus heilongjiangensis,23891,6
redo_RPB004_19,barcode02,Halocynthiibacter arcticus,253965,46
redo_RPB004_19,barcode02,Phreatobacter stygius,538841,97
redo_RPB004_19,barcode02,Pseudomonas azotoformans,14852,2
redo_RPB004_19,barcode02,Mesorhizobium australicum,11025,2
redo_RPB004_19,barcode02,Staphylococcus equorum,1880,1
redo_RPB004_19,barcode02,Psychromonas ingrahamii,12485,4
redo_RPB004_19,barcode02,Acinetobacter junii,1035783,234
redo_RPB004_19,barcode02,Gordonia sp. YC-JH1,7230,3
redo_RPB004_19,barcode02,Acinetobacter johnsonii,1983797,508
redo_RPB004_19,barcode02,Burkholderiales bacterium YL45,8598,2
redo_RPB004_19,barcode02,Acinetobacter haemolyticus,568380,175
redo_RPB004_19,barcode02,Ottowia oryzae,25523,6
redo_RPB004_19,barcode02,Legionella cherrii,4004,1
redo_RPB004_19,barcode02,Agrobacterium sp. RAC06,5549,1
redo_RPB004_19,barcode02,Corynebacterium segmentosum,27712,8
redo_RPB004_19,barcode02,Marinovum algicola,3782,1
redo_RPB004_19,barcode02,Providencia stuartii,8494,2
redo_RPB004_19,barcode02,Corynebacterium ulcerans,4465,1
redo_RPB004_19,barcode02,Bacillus pseudofirmus,6589,2
redo_RPB004_19,barcode02,Acinetobacter sp. LoGeW2-3,433944,129
redo_RPB004_19,barcode02,Novosphingobium pentaromativorans,3096,1
redo_RPB004_19,barcode02,Streptococcus sp. NPS 308,11558,5
redo_RPB004_19,barcode02,Staphylococcus capitis,204381,75
redo_RPB004_19,barcode02,Bordetella genomosp. 8,3370,1
redo_RPB004_19,barcode02,Acinetobacter schindleri,15196337,3542
redo_RPB004_19,barcode02,Acidimicrobium ferrooxidans,5193,1
redo_RPB004_19,barcode02,Paracoccus contaminans,1354520,329
redo_RPB004_19,barcode02,Acinetobacter indicus,1878456,551
redo_RPB004_19,barcode02,Rhodopseudomonas palustris,86980,21
redo_RPB004_19,barcode02,Staphylococcus saprophyticus,31905,14
redo_RPB004_19,barcode02,Shigella boydii,16572,4
redo_RPB004_19,barcode02,Oceanisphaera avium,17072,4
redo_RPB004_19,barcode02,Rhizobium sp. Q54,32756,9
redo_RPB004_19,barcode02,Herbaspirillum huttiense,557932,138
redo_RPB004_19,barcode02,Photobacterium profundum,7401,1
redo_RPB004_19,barcode02,Pseudomonas oryzihabitans,2115750,439
redo_RPB004_19,barcode02,Aggregatibacter aphrophilus,4235,1
redo_RPB004_19,barcode02,Paracoccus sp. BM15,3496,1
redo_RPB004_19,barcode02,Kocuria indica,203616,51
redo_RPB004_19,barcode02,Staphylococcus aureus,3310955,915
redo_RPB004_19,barcode02,Stella humosa,3914,1
redo_RPB004_19,barcode02,Staphylococcus pseudintermedius,33220,10
redo_RPB004_19,barcode02,Azotobacter vinelandii,4074,1
redo_RPB004_19,barcode02,Paraburkholderia rhizoxinica,4829,1
redo_RPB004_19,barcode02,Corynebacterium diphtheriae,62251,14
redo_RPB004_19,barcode02,Acidovorax sp. T1,3249,1
redo_RPB004_19,barcode02,Massilia sp. NR 4-1,26691,5
redo_RPB004_19,barcode02,Actinomyces naeslundii,12438,3
redo_RPB004_19,barcode02,Rhodobacter sphaeroides,493109,109
redo_RPB004_19,barcode02,Acinetobacter baumannii,3471401,766
redo_RPB004_19,barcode02,Rhodovulum sp. MB263,33604,5
redo_RPB004_19,barcode02,Rhizobium etli,2841,2
redo_RPB004_19,barcode02,Ruegeria pomeroyi,3699,1
redo_RPB004_19,barcode02,Yangia pacifica,17194,4
redo_RPB004_19,barcode02,Acinetobacter wuhouensis,183365,59
redo_RPB004_19,barcode02,Rhodobacter blasticus,37743,9
redo_RPB004_19,barcode02,Chloroherpeton thalassium,4063,1
redo_RPB004_19,barcode02,Azospirillum brasilense,8273,2
redo_RPB004_19,barcode02,Pseudomonas chlororaphis,5281,2
redo_RPB004_19,barcode02,Psychromonas sp. CNPT3,4300,1
redo_RPB004_19,barcode02,Bacillus mesonae,2132,1
redo_RPB004_19,barcode02,Pseudomonas sp. phDV1,576275,121
redo_RPB004_19,barcode02,Salinicola tamaricis,3990,2
redo_RPB004_19,barcode02,Thiocystis violascens,3215,1
redo_RPB004_19,barcode02,Staphylococcus warneri,13107,6
redo_RPB004_19,barcode02,Actinobacillus porcitonsillarum,14118,4
redo_RPB004_19,barcode02,Rummeliibacillus stabekisii,2344,1
redo_RPB004_19,barcode02,Rhodobaca barguzinensis,6738,1
redo_RPB004_19,barcode02,Sphingobium yanoikuyae,4101,1
redo_RPB004_19,barcode02,Acinetobacter sp. ADP1,12264,3
redo_RPB004_19,barcode02,Shigella sonnei,7161,2
redo_RPB004_19,barcode02,Polynucleobacter necessarius,5524,1
redo_RPB004_19,barcode02,Acinetobacter calcoaceticus,5930,2
redo_RPB004_19,barcode02,Desulfovibrio piger,4047,1
redo_RPB004_19,barcode02,Zhongshania aliphaticivorans,12678,3
redo_RPB004_19,barcode02,Defluviimonas alba,65823,15
redo_RPB004_19,barcode02,Frateuria aurantia,2151,1
redo_RPB004_19,barcode02,Stenotrophomonas sp. MYb57,4450,1
redo_RPB004_19,barcode02,Stella vacuolata,2604,1
redo_RPB004_19,barcode02,Acinetobacter lactucae,5148,2
redo_RPB004_19,barcode02,Azoarcus sp. CIB,8541,2
redo_RPB004_19,barcode02,Pseudomonas syringae,12196,3
redo_RPB004_19,barcode02,Acinetobacter sp. TGL-Y2,153800,34
redo_RPB004_19,barcode02,Rhodovulum sp. P5,14893,3
redo_RPB004_19,barcode02,Mycoplasma bovigenitalium,2417,1
redo_RPB004_19,barcode02,Glaesserella parasuis,3909,1
redo_RPB004_19,barcode02,Phreatobacter cathodiphilus,1890,1
redo_RPB004_19,barcode02,Kocuria sp. BT304,134796,31
redo_RPB004_19,barcode02,Novosphingobium sp. P6W,4351,1
redo_RPB004_19,barcode02,Aminobacter aminovorans,5507,1
redo_RPB004_19,barcode02,Corynebacterium camporealensis,134869,31
redo_RPB004_19,barcode02,Acinetobacter larvae,11650,3
redo_RPB004_19,barcode02,Pseudomonas sp. ATCC 13867,12300,2
redo_RPB004_19,barcode02,Shigella flexneri,17400,4
redo_RPB004_19,barcode02,Cellvibrio sp. PSBB023,2202,1
redo_RPB004_19,barcode02,Escherichia fergusonii,1972,1
redo_RPB004_19,barcode02,Corynebacterium stationis,137915,31
redo_RPB004_19,barcode02,Francisella sp. CA97-1460,2086,1
redo_RPB004_19,barcode02,Streptococcus oralis,2224,2
redo_RPB004_19,barcode02,Delftia tsuruhatensis,4394,1
redo_RPB004_19,barcode02,Persephonella marina,5548,1
redo_RPB004_19,barcode02,Pseudomonas monteilii,307136,59
redo_RPB004_19,barcode02,Rhodobacter capsulatus,133899,32
redo_RPB004_19,barcode02,Staphylococcus epidermidis,15567834,4450
redo_RPB004_19,barcode02,Oceanobacillus iheyensis,3110,1
redo_RPB004_19,barcode02,Staphylococcus felis,11997,5
redo_RPB004_19,barcode02,Acinetobacter sp. WCHAc010005,109113,29
redo_RPB004_19,barcode02,Klebsiella michiganensis,4205,1
redo_RPB004_19,barcode02,Aerococcus urinaeequi,11872,5
redo_RPB004_19,barcode02,Lactobacillus sp. CBA3605,3080,1
redo_RPB004_19,barcode02,Methylovulum psychrotolerans,23767,9
redo_RPB004_19,barcode02,Pseudomonas cremoricolorata,3143,1
redo_RPB004_19,barcode02,Tetragenococcus osmophilus,6297,2
redo_RPB004_19,barcode02,Pseudomonas sp. MRSN12121,5189,1
redo_RPB004_19,barcode02,Comamonas serinivorans,6200,1
redo_RPB004_19,barcode02,Martelella sp. AD-3,4543,1
redo_RPB004_19,barcode02,Providencia heimbachae,4246,1
redo_RPB004_19,barcode02,Gemmatirosa kalamazoonesis,34613,7
redo_RPB004_19,barcode09,Stenotrophomonas maltophilia,94573,18
redo_RPB004_19,barcode09,Pseudomonas mendocina,16558,4
redo_RPB004_19,barcode09,Paracoccus yeei,10792,3
redo_RPB004_19,barcode09,Acinetobacter sp. WCHAc010052,37793,5
redo_RPB004_19,barcode09,Kocuria palustris,3475,1
redo_RPB004_19,barcode09,Acinetobacter sp. NCu2D-2,38369,10
redo_RPB004_19,barcode09,Moraxella osloensis,1958829,347
redo_RPB004_19,barcode09,Kocuria rhizophila,35118,5
redo_RPB004_19,barcode09,Acinetobacter baumannii,456310,86
redo_RPB004_19,barcode09,Staphylococcus aureus,8545,2
redo_RPB004_19,barcode09,Methylovulum psychrotolerans,9258,3
redo_RPB004_19,barcode09,Gordonia bronchialis,7678,1
redo_RPB004_19,barcode09,Acinetobacter wuhouensis,39287,6
redo_RPB004_19,barcode09,Pseudomonas putida,11145,2
redo_RPB004_19,barcode09,Pseudomonas chlororaphis,16284,4
redo_RPB004_19,barcode09,Streptococcus gordonii,10388,2
redo_RPB004_19,barcode09,Cutibacterium acnes,331609,64
redo_RPB004_19,barcode09,Acinetobacter sp. ACNIH2,10554,2
redo_RPB004_19,barcode09,Acinetobacter sp. WCHAc010034,6486,1
redo_RPB004_19,barcode09,Pseudomonas citronellolis,2978,1
redo_RPB004_19,barcode09,Agrobacterium tumefaciens,5959,1
redo_RPB004_19,barcode09,Acinetobacter sp. TTH0-4,5960,1
redo_RPB004_19,barcode09,Pseudomonas psychrotolerans,57808,12
redo_RPB004_19,barcode09,Acinetobacter nosocomialis,17277,3
redo_RPB004_19,barcode09,Phaeobacter piscinae,2708,1
redo_RPB004_19,barcode09,Arcobacter molluscorum,4817,1
redo_RPB004_19,barcode09,Acinetobacter sp. SWBY1,179051,31
redo_RPB004_19,barcode09,Cellvibrio japonicus,10453,2
redo_RPB004_19,barcode09,Escherichia coli,40642,12
redo_RPB004_19,barcode09,Staphylococcus pseudintermedius,3418,1
redo_RPB004_19,barcode09,Acinetobacter calcoaceticus,18898,3
redo_RPB004_19,barcode09,Azospirillum thiophilum,15474,2
redo_RPB004_19,barcode09,Acinetobacter sp. WCHA45,7586,5
redo_RPB004_19,barcode09,Magnetospirillum sp. XM-1,15528,3
redo_RPB004_19,barcode09,Microbacterium sp. XT11,6751,1
redo_RPB004_19,barcode09,Gordonibacter massiliensis,7697,1
redo_RPB004_19,barcode09,Acinetobacter junii,23559,7
redo_RPB004_19,barcode09,Acinetobacter sp. TGL-Y2,4786,1
redo_RPB004_19,barcode09,Acinetobacter johnsonii,306467,65
redo_RPB004_19,barcode09,Acinetobacter haemolyticus,69885,18
redo_RPB004_19,barcode09,Citromicrobium sp. JL477,8600,2
redo_RPB004_19,barcode09,Kocuria sp. BT304,4793,1
redo_RPB004_19,barcode09,Acinetobacter sp. LoGeW2-3,99875,22
redo_RPB004_19,barcode09,Staphylococcus capitis,23411,8
redo_RPB004_19,barcode09,Candidatus Symbiobacter mobilis,4323,1
redo_RPB004_19,barcode09,Pantoea agglomerans,8649,1
redo_RPB004_19,barcode09,Acinetobacter schindleri,1676054,339
redo_RPB004_19,barcode09,Acinetobacter guillouiae,6334,1
redo_RPB004_19,barcode09,Acinetobacter tandoii,5728,2
redo_RPB004_19,barcode09,Klebsiella pneumoniae,39526,5
redo_RPB004_19,barcode09,Acinetobacter indicus,124754,29
redo_RPB004_19,barcode09,Psychrobacter alimentarius,7118,2
redo_RPB004_19,barcode09,Staphylococcus epidermidis,285895,75
redo_RPB004_19,barcode09,Gordonia rubripertincta,7793,1
redo_RPB004_19,barcode09,Acinetobacter sp. WCHAc010005,16382,3
redo_RPB004_19,barcode09,Pseudomonas oryzihabitans,131524,28
redo_RPB004_19,barcode09,Acinetobacter equi,5293,1
redo_RPB004_19,barcode09,Kytococcus sedentarius,6793,1
redo_RPB004_19,barcode09,Acinetobacter ursingii,1235433,227
redo_RPB004_19,barcode09,Acinetobacter sp. ACNIH1,1201908,214
redo_RPB004_19,barcode09,Ramlibacter tataouinensis,5574,1
redo_RPB004_19,barcode09,Acinetobacter radioresistens,577681,93
redo_RPB004_19,barcode01,Paracoccus yeei,23159,3
redo_RPB004_19,barcode01,Acinetobacter sp. TTH0-4,23699,5
redo_RPB004_19,barcode01,Microbacterium chocolatum,7206,2
redo_RPB004_19,barcode01,Pelagibaca abyssi,6818,1
redo_RPB004_19,barcode01,Acinetobacter sp. NCu2D-2,129494,27
redo_RPB004_19,barcode01,Moraxella osloensis,555895,114
redo_RPB004_19,barcode01,Rhodobacter sphaeroides,8670,1
redo_RPB004_19,barcode01,Acinetobacter baumannii,171593,36
redo_RPB004_19,barcode01,Staphylococcus aureus,2495,1
redo_RPB004_19,barcode01,Acinetobacter wuhouensis,3589,1
redo_RPB004_19,barcode01,Acinetobacter sp. ACNIH2,8592,2
redo_RPB004_19,barcode01,Staphylococcus simiae,10871,3
redo_RPB004_19,barcode01,Marinobacter sp. CP1,3724,1
redo_RPB004_19,barcode01,Pseudomonas stutzeri,4323,1
redo_RPB004_19,barcode01,Cutibacterium acnes,286365,52
redo_RPB004_19,barcode01,Acinetobacter sp. WCHA55,4910,1
redo_RPB004_19,barcode01,Acinetobacter sp. WCHAc010034,20974,3
redo_RPB004_19,barcode01,Acinetobacter sp. WCHAc010052,9878,3
redo_RPB004_19,barcode01,Pseudomonas psychrotolerans,16273,3
redo_RPB004_19,barcode01,Acinetobacter equi,21894,4
redo_RPB004_19,barcode01,Phaeobacter piscinae,4062,1
redo_RPB004_19,barcode01,Pseudomonas aeruginosa,10944,3
redo_RPB004_19,barcode01,Acinetobacter sp. SWBY1,12747,3
redo_RPB004_19,barcode01,Escherichia coli,37728,5
redo_RPB004_19,barcode01,Acinetobacter schindleri,1750755,357
redo_RPB004_19,barcode01,Acinetobacter sp. TGL-Y2,2674,1
redo_RPB004_19,barcode01,Acinetobacter sp. ACNIH1,505855,105
redo_RPB004_19,barcode01,Staphylococcus caprae,10743,2
redo_RPB004_19,barcode01,Acinetobacter lactucae,3820,1
redo_RPB004_19,barcode01,Acinetobacter junii,7523,2
redo_RPB004_19,barcode01,Marinobacter hydrocarbonoclasticus,3372,1
redo_RPB004_19,barcode01,Acinetobacter johnsonii,128363,28
redo_RPB004_19,barcode01,Pseudomonas lurida,6838,1
redo_RPB004_19,barcode01,Acinetobacter haemolyticus,94601,19
redo_RPB004_19,barcode01,Streptomyces sp. S063,2288,1
redo_RPB004_19,barcode01,Pseudomonas putida,2382,1
redo_RPB004_19,barcode01,Kocuria sp. BT304,20195,5
redo_RPB004_19,barcode01,Acinetobacter pittii,88769,15
redo_RPB004_19,barcode01,Acinetobacter sp. LoGeW2-3,69734,14
redo_RPB004_19,barcode01,Staphylococcus capitis,32362,6
redo_RPB004_19,barcode01,Acinetobacter guillouiae,6253,1
redo_RPB004_19,barcode01,Acinetobacter nosocomialis,11615,3
redo_RPB004_19,barcode01,Acinetobacter indicus,125892,25
redo_RPB004_19,barcode01,Kocuria rhizophila,3808,1
redo_RPB004_19,barcode01,Staphylococcus epidermidis,47399,12
redo_RPB004_19,barcode01,Acinetobacter sp. WCHAc010005,12177,3
redo_RPB004_19,barcode01,Serratia fonticola,6169,1
redo_RPB004_19,barcode01,Pseudomonas oryzihabitans,46856,8
redo_RPB004_19,barcode01,Streptomyces sp. CdTB01,5156,1
redo_RPB004_19,barcode01,Streptomyces peucetius,6760,1
redo_RPB004_19,barcode01,Acinetobacter ursingii,134301,26
redo_RPB004_19,barcode01,Polynucleobacter necessarius,5907,1
redo_RPB004_19,barcode01,Acinetobacter sp. DUT-2,5045,1
redo_RPB004_19,barcode01,Acinetobacter radioresistens,495576,102
redo_RPB004_19,barcode04,Stenotrophomonas maltophilia,8838,3
redo_RPB004_19,barcode04,Acinetobacter sp. ADP1,16744,6
redo_RPB004_19,barcode04,Shigella dysenteriae,11164,4
redo_RPB004_19,barcode04,Pseudomonas fluorescens,39828,10
redo_RPB004_19,barcode04,Escherichia marmotae,4261,1
redo_RPB004_19,barcode04,Pseudomonas sp. HLS-6,5729,1
redo_RPB004_19,barcode04,Paracoccus yeei,228756,41
redo_RPB004_19,barcode04,Acinetobacter sp. TTH0-4,126108,28
redo_RPB004_19,barcode04,Epibacterium mobile,3671,1
redo_RPB004_19,barcode04,Corynebacterium diphtheriae,13114,4
redo_RPB004_19,barcode04,Methylophilus sp. TWE2,56875,8
redo_RPB004_19,barcode04,Acinetobacter sp. NCu2D-2,652599,155
redo_RPB004_19,barcode04,Moraxella osloensis,2897642,545
redo_RPB004_19,barcode04,Pseudomonas sp. CMR12a,7001,2
redo_RPB004_19,barcode04,Comamonas kerstersii,13479,3
redo_RPB004_19,barcode04,Pantoea vagans,4848,1
redo_RPB004_19,barcode04,Staphylococcus cohnii,80956,34
redo_RPB004_19,barcode04,Paracoccus zhejiangensis,6854,2
redo_RPB004_19,barcode04,Rhodococcus ruber,7702,1
redo_RPB004_19,barcode04,Vibrio chagasii,5913,1
redo_RPB004_19,barcode04,Staphylococcus lugdunensis,25529,8
redo_RPB004_19,barcode04,Acinetobacter pittii,503077,109
redo_RPB004_19,barcode04,Halomonas beimenensis,5199,1
redo_RPB004_19,barcode04,Pseudomonas cremoricolorata,4834,1
redo_RPB004_19,barcode04,Pseudomonas synxantha,5102,1
redo_RPB004_19,barcode04,Halomonas elongata,5180,1
redo_RPB004_19,barcode04,Phaeobacter gallaeciensis,7935,2
redo_RPB004_19,barcode04,Acinetobacter sp. WCHAc010034,120876,30
redo_RPB004_19,barcode04,Staphylococcus carnosus,2377,1
redo_RPB004_19,barcode04,Corynebacterium glyciniphilum,5848,1
redo_RPB004_19,barcode04,Pannonibacter phragmitetus,5419,2
redo_RPB004_19,barcode04,Acinetobacter bereziniae,31395,8
redo_RPB004_19,barcode04,Celeribacter indicus,10126,2
redo_RPB004_19,barcode04,Acinetobacter nosocomialis,144137,30
redo_RPB004_19,barcode04,Sulfitobacter sp. BSw21498,25289,4
redo_RPB004_19,barcode04,Acinetobacter sp. SWBY1,948790,218
redo_RPB004_19,barcode04,Paracoccus contaminans,3695,1
redo_RPB004_19,barcode04,Escherichia coli,295355,76
redo_RPB004_19,barcode04,Roseomonas gilardii,4025,1
redo_RPB004_19,barcode04,Acinetobacter schindleri,10045501,2152
redo_RPB004_19,barcode04,Acinetobacter sp. WCHAc010052,295993,62
redo_RPB004_19,barcode04,Pseudomonas aeruginosa,21650,4
redo_RPB004_19,barcode04,Shewanella benthica,3663,1
redo_RPB004_19,barcode04,Corynebacterium striatum,27441,9
redo_RPB004_19,barcode04,Mesorhizobium australicum,3989,1
redo_RPB004_19,barcode04,Paracoccus denitrificans,64364,12
redo_RPB004_19,barcode04,Agarilytica rhodophyticola,2709,1
redo_RPB004_19,barcode04,Aquitalea sp. THG-DN7.12,36144,8
redo_RPB004_19,barcode04,Streptococcus agalactiae,57498,16
redo_RPB004_19,barcode04,Acinetobacter johnsonii,3083333,679
redo_RPB004_19,barcode04,Providencia rustigianii,7033,1
redo_RPB004_19,barcode04,Acinetobacter haemolyticus,910109,190
redo_RPB004_19,barcode04,Leisingera aquaemixtae,18934,3
redo_RPB004_19,barcode04,Enterobacter kobei,3060,1
redo_RPB004_19,barcode04,Shigella sp. PAMC 28760,3473,2
redo_RPB004_19,barcode04,Corynebacterium segmentosum,5014,2
redo_RPB004_19,barcode04,Colwellia sp. PAMC 20917,2453,1
redo_RPB004_19,barcode04,Acinetobacter sp. LoGeW2-3,795801,172
redo_RPB004_19,barcode04,Pseudomonas fulva,4887,1
redo_RPB004_19,barcode04,Salipiger profundus,113405,18
redo_RPB004_19,barcode04,Staphylococcus capitis,4547,2
redo_RPB004_19,barcode04,Bordetella genomosp. 8,3972,1
redo_RPB004_19,barcode04,Acinetobacter guillouiae,174772,35
redo_RPB004_19,barcode04,Ferriphaselus amnicola,4470,1
redo_RPB004_19,barcode04,Acinetobacter tandoii,135400,27
redo_RPB004_19,barcode04,Undibacterium parvum,4479,1
redo_RPB004_19,barcode04,Acinetobacter indicus,854138,210
redo_RPB004_19,barcode04,Psychrobacter alimentarius,61337,13
redo_RPB004_19,barcode04,Aeromonas sp. CU5,9639,2
redo_RPB004_19,barcode04,Staphylococcus saprophyticus,6963,3
redo_RPB004_19,barcode04,Paracoccus aminovorans,12568,2
redo_RPB004_19,barcode04,Ketobacter alkanivorans,13551,3
redo_RPB004_19,barcode04,Vibrio anguillarum,5906,1
redo_RPB004_19,barcode04,Maricaulis maris,3648,1
redo_RPB004_19,barcode04,Pseudomonas oryzihabitans,362285,73
redo_RPB004_19,barcode04,Acinetobacter equi,58538,12
redo_RPB004_19,barcode04,Shewanella bicestrii,7273,2
redo_RPB004_19,barcode04,Acinetobacter sp. WCHA55,118849,31
redo_RPB004_19,barcode04,Staphylococcus pseudintermedius,46170,11
redo_RPB004_19,barcode04,Acinetobacter sp. DUT-2,122490,28
redo_RPB004_19,barcode04,Azotobacter vinelandii,6694,1
redo_RPB004_19,barcode04,Rhodobacter sp. LPB0142,18881,3
redo_RPB004_19,barcode04,Lawsonella clevelandensis,441709,77
redo_RPB004_19,barcode04,Staphylococcus kloosii,12806,4
redo_RPB004_19,barcode04,Acinetobacter oleivorans,46565,9
redo_RPB004_19,barcode04,Defluviimonas alba,4014,1
redo_RPB004_19,barcode04,Burkholderia pseudomallei,3944,1
redo_RPB004_19,barcode04,Staphylococcus pasteuri,5603,2
redo_RPB004_19,barcode04,Staphylococcus caprae,12766,4
redo_RPB004_19,barcode04,Rhodovulum sulfidophilum,166485,27
redo_RPB004_19,barcode04,Methylovulum psychrotolerans,385387,90
redo_RPB004_19,barcode04,Pseudomonas mandelii,6710,1
redo_RPB004_19,barcode04,Achromobacter xylosoxidans,2343,1
redo_RPB004_19,barcode04,Staphylococcus haemolyticus,62291,22
redo_RPB004_19,barcode04,Acinetobacter baumannii,1430795,257
redo_RPB004_19,barcode04,Rhodovulum sp. MB263,63194,10
redo_RPB004_19,barcode04,Staphylococcus aureus,2890352,720
redo_RPB004_19,barcode04,Yangia pacifica,3268,1
redo_RPB004_19,barcode04,Acinetobacter wuhouensis,319083,80
redo_RPB004_19,barcode04,Acinetobacter sp. ACNIH2,125019,24
redo_RPB004_19,barcode04,Acinetobacter lactucae,15832,3
redo_RPB004_19,barcode04,Staphylococcus simiae,2774,1
redo_RPB004_19,barcode04,Vibrio campbellii,4115,1
redo_RPB004_19,barcode04,Mycobacterium,5873,1
redo_RPB004_19,barcode04,Pseudomonas chlororaphis,65963,11
redo_RPB004_19,barcode04,Marinobacter sp. CP1,2766,1
redo_RPB004_19,barcode04,Pseudomonas stutzeri,12035,2
redo_RPB004_19,barcode04,Antarctobacter heliothermus,22416,4
redo_RPB004_19,barcode04,Oblitimonas alkaliphila,205533,30
redo_RPB004_19,barcode04,Sulfitobacter sp. AM1-D1,6335,1
redo_RPB004_19,barcode04,Staphylococcus hominis,21464,9
redo_RPB004_19,barcode04,Agrobacterium tumefaciens,15963,4
redo_RPB004_19,barcode04,Rhodobacteraceae bacterium QY30,3187,1
redo_RPB004_19,barcode04,Pantoea ananatis,10746,3
redo_RPB004_19,barcode04,Pseudomonas psychrotolerans,208895,37
redo_RPB004_19,barcode04,Pseudomonas sp. TKP,4919,1
redo_RPB004_19,barcode04,Staphylococcus argenteus,2752,1
redo_RPB004_19,barcode04,Actinomyces viscosus,5683,1
redo_RPB004_19,barcode04,Acinetobacter junii,153731,30
redo_RPB004_19,barcode04,Paracoccus sp. CBA4604,3767,1
redo_RPB004_19,barcode04,Agrobacterium fabrum,36003,9
redo_RPB004_19,barcode04,Corynebacterium singulare,3258,1
redo_RPB004_19,barcode04,Acinetobacter calcoaceticus,15016,4
redo_RPB004_19,barcode04,Marinobacter hydrocarbonoclasticus,4915,1
redo_RPB004_19,barcode04,Tetragenococcus koreensis,2538,1
redo_RPB004_19,barcode04,Acinetobacter sp. ACNIH1,6560190,1309
redo_RPB004_19,barcode04,Haematobacter massiliensis,3701,1
redo_RPB004_19,barcode04,Neisseria meningitidis,20083,4
redo_RPB004_19,barcode04,Ottowia oryzae,3459,1
redo_RPB004_19,barcode04,Celeribacter manganoxidans,9136,3
redo_RPB004_19,barcode04,Enterobacter hormaechei subsp. hoffmannii,3877,1
redo_RPB004_19,barcode04,Pandoraea norimbergensis,24657,6
redo_RPB004_19,barcode04,Paracoccus sp. BM15,16323,3
redo_RPB004_19,barcode04,Hafnia alvei,4502,1
redo_RPB004_19,barcode04,Acinetobacter sp. TGL-Y2,277948,67
redo_RPB004_19,barcode04,Micrococcus luteus,2156,1
redo_RPB004_19,barcode04,Photobacterium profundum,2082,1
redo_RPB004_19,barcode04,Bacillus glycinifermentans,12269,3
redo_RPB004_19,barcode04,Pasteurella multocida,10293,2
redo_RPB004_19,barcode04,Enterobacter ludwigii,3194,1
redo_RPB004_19,barcode04,Paraburkholderia caribensis,8064,2
redo_RPB004_19,barcode04,Leclercia adecarboxylata,19825,4
redo_RPB004_19,barcode04,Polymorphum gilvum,12019,3
redo_RPB004_19,barcode04,Acinetobacter ursingii,1308186,262
redo_RPB004_19,barcode04,Pseudomonas sp. ATCC 13867,4023,1
redo_RPB004_19,barcode04,Shigella flexneri,11333,3
redo_RPB004_19,barcode04,Mycobacterium avium,5873,1
redo_RPB004_19,barcode04,Shigella boydii,3243,1
redo_RPB004_19,barcode04,Pantoea agglomerans,3431,1
redo_RPB004_19,barcode04,Celeribacter ethanolicus,12277,3
redo_RPB004_19,barcode04,Acinetobacter larvae,34000,8
redo_RPB004_19,barcode04,Rhodobacter capsulatus,3285,1
redo_RPB004_19,barcode04,Staphylococcus epidermidis,7369362,1825
redo_RPB004_19,barcode04,Cutibacterium acnes,282387,69
redo_RPB004_19,barcode04,Acinetobacter sp. WCHAc010005,53963,13
redo_RPB004_19,barcode04,Acinetobacter sp. WCHA45,146481,32
redo_RPB004_19,barcode04,Moritella yayanosii,5999,1
redo_RPB004_19,barcode04,Aerococcus urinaeequi,4759,2
redo_RPB004_19,barcode04,Acinetobacter soli,61982,15
redo_RPB004_19,barcode04,Microbulbifer sp. A4B17,19546,4
redo_RPB004_19,barcode04,Acinetobacter radioresistens,5462029,1157
redo_RPB004_19,barcode04,Tannerella forsythia,5151,1
redo_RPB004_19,barcode04,Trichormus variabilis,4302,1
redo_RPB004_19,barcode04,Legionella waltersii,4437,1
redo_RPB004_19,barcode04,Escherichia albertii,3768,1
redo_RPB004_19,barcode04,Comamonas serinivorans,4067,1
redo_RPB004_19,barcode08,Cutibacterium acnes,3672,1
redo_RPB004_19,barcode06,Shigella dysenteriae,4167,1
redo_RPB004_19,barcode06,Acinetobacter johnsonii,31389,6
redo_RPB004_19,barcode06,Acinetobacter haemolyticus,22878,4
redo_RPB004_19,barcode06,Pseudomonas oleovorans,3372,1
redo_RPB004_19,barcode06,Moraxella osloensis,380193,69
redo_RPB004_19,barcode06,Acinetobacter baumannii,12429,3
redo_RPB004_19,barcode06,Acinetobacter wuhouensis,25155,5
redo_RPB004_19,barcode06,Staphylococcus capitis,12369,2
redo_RPB004_19,barcode06,Acinetobacter schindleri,196985,34
redo_RPB004_19,barcode06,Acinetobacter pittii,10176,2
redo_RPB004_19,barcode06,Acinetobacter tandoii,6240,1
redo_RPB004_19,barcode06,Cutibacterium acnes,4361,1
redo_RPB004_19,barcode06,Staphylococcus epidermidis,46780,10
redo_RPB004_19,barcode06,Cronobacter condimenti,3978,1
redo_RPB004_19,barcode06,Acinetobacter sp. WCHAc010005,7062,1
redo_RPB004_19,barcode06,Dermacoccus nishinomiyaensis,7723,1
redo_RPB004_19,barcode06,Pseudomonas psychrotolerans,6709,1
redo_RPB004_19,barcode06,Bradyrhizobium diazoefficiens,7742,1
redo_RPB004_19,barcode06,Acinetobacter radioresistens,25955,5
redo_RPB004_19,barcode06,Acinetobacter ursingii,16590,4
redo_RPB004_19,barcode06,Serratia rubidaea,3975,1
redo_RPB004_19,barcode06,Acinetobacter sp. ACNIH1,44969,11
redo_RPB004_19,barcode07,Acinetobacter sp. ACNIH1,6071,1
redo_RPB004_19,barcode10,Cedecea lapagei,4819,1
redo_RPB004_19,barcode10,Rhizobium sp. NXC14,5861,1
redo_RPB004_19,barcode10,Oligotropha carboxidovorans,9353,1
redo_RPB004_19,barcode10,Ochrobactrum anthropi,13965,2
redo_RPB004_19,barcode10,Aeromonas caviae,12477,2
redo_RPB004_19,barcode10,Chania multitudinisentens,4768,1
redo_RPB004_19,barcode10,Rhizobium tropici,13730,2
redo_RPB004_19,barcode10,Thalassospira indica,20992,4
redo_RPB004_19,barcode10,Staphylococcus haemolyticus,75625,14
redo_RPB004_19,barcode10,Moraxella osloensis,311063,48
redo_RPB004_19,barcode10,Rhizobium sp. IE4771,4925,1
redo_RPB004_19,barcode10,Rhizobium sp. Q54,5219,1
redo_RPB004_19,barcode10,Staphylococcus aureus,259663,67
redo_RPB004_19,barcode10,Sphingobium amiense,29509,5
redo_RPB004_19,barcode10,Staphylococcus cohnii,3718,1
redo_RPB004_19,barcode10,Neorhizobium galegae,86858,14
redo_RPB004_19,barcode10,Acinetobacter wuhouensis,3883,1
redo_RPB004_19,barcode10,Pseudomonas putida,6756,1
redo_RPB004_19,barcode10,Bradyrhizobium icense,5015,1
redo_RPB004_19,barcode10,Rhizobium leguminosarum,12315,2
redo_RPB004_19,barcode10,Komagataeibacter xylinus,4953,1
redo_RPB004_19,barcode10,Escherichia fergusonii,4799,1
redo_RPB004_19,barcode10,Cutibacterium acnes,59830,10
redo_RPB004_19,barcode10,Neorhizobium sp. NCHU2750,309601,56
redo_RPB004_19,barcode10,Hymenobacter sp. PAMC 26554,14787,2
redo_RPB004_19,barcode10,Klebsiella aerogenes,231,1
redo_RPB004_19,barcode10,Staphylococcus hominis,11530,4
redo_RPB004_19,barcode10,Agrobacterium tumefaciens,93648,17
redo_RPB004_19,barcode10,Sphingomonas sanxanigenens,14236,2
redo_RPB004_19,barcode10,Rhizobium sp. NT-26,9988,2
redo_RPB004_19,barcode10,Sphingomonas wittichii DC-6,6242,1
redo_RPB004_19,barcode10,Pandoraea oxalativorans,5198,1
redo_RPB004_19,barcode10,Escherichia coli,65676,15
redo_RPB004_19,barcode10,Bordetella avium,9241,2
redo_RPB004_19,barcode10,Rhizobium sp. S41,58837,11
redo_RPB004_19,barcode10,Candidatus Liberibacter solanacearum,14849,2
redo_RPB004_19,barcode10,Sinorhizobium meliloti,5986,1
redo_RPB004_19,barcode10,Bacillus subtilis,28587,5
redo_RPB004_19,barcode10,Hydrogenophaga sp. RAC07,12533,2
redo_RPB004_19,barcode10,Staphylococcus equorum,9257,3
redo_RPB004_19,barcode10,Aminobacter sp. MSH1,6567,1
redo_RPB004_19,barcode10,Acinetobacter johnsonii,22846,7
redo_RPB004_19,barcode10,Janthinobacterium agaricidamnosum,5666,1
redo_RPB004_19,barcode10,Escherichia albertii,4760,1
redo_RPB004_19,barcode10,Agrobacterium fabrum,4837,1
redo_RPB004_19,barcode10,Shinella sp. HZN7,26447,4
redo_RPB004_19,barcode10,Pantoea ananatis,567,1
redo_RPB004_19,barcode10,Rhizobium gallicum,4122,1
redo_RPB004_19,barcode10,Methylosinus trichosporium,7416,1
redo_RPB004_19,barcode10,Acinetobacter schindleri,19405,4
redo_RPB004_19,barcode10,Halotalea alkalilenta,5414,1
redo_RPB004_19,barcode10,Variibacter gotjawalensis,4812,1
redo_RPB004_19,barcode10,Sphingopyxis macrogoltabida,9190,2
redo_RPB004_19,barcode10,Staphylococcus epidermidis,2077334,509
redo_RPB004_19,barcode10,Shigella boydii,4778,1
redo_RPB004_19,barcode10,Rhizobium sp. ACO-34A,6921,1
redo_RPB004_19,barcode10,Acinetobacter baumannii,20362,3
redo_RPB004_19,barcode10,Sphingobium sp. SYK-6,6447,1
redo_RPB004_19,barcode10,Bosea sp. AS-1,3542,1
redo_RPB004_19,barcode10,Brucella sp. 09RB8910,11401,2
redo_RPB004_19,barcode10,Staphylococcus saprophyticus,5218,2
redo_RPB004_19,barcode10,Ensifer sojae,11818,2
redo_RPB004_19,barcode10,Micrococcus luteus,1625,1
redo_RPB004_19,barcode10,Acinetobacter sp. ACNIH1,18650,4
redo_RPB004_19,unclassified,Stenotrophomonas maltophilia,6436,1
redo_RPB004_19,unclassified,Lawsonella clevelandensis,13557,3
redo_RPB004_19,unclassified,Corynebacterium diphtheriae,3283,1
redo_RPB004_19,unclassified,Pseudomonas fluorescens,3757,1
redo_RPB004_19,unclassified,Corynebacterium nuruki,3037,1
redo_RPB004_19,unclassified,Marinobacterium aestuarii,4712,1
redo_RPB004_19,unclassified,Acinetobacter sp. TTH0-4,6187,2
redo_RPB004_19,unclassified,Pseudomonas alcaliphila,5519,2
redo_RPB004_19,unclassified,Staphylococcus lugdunensis,1504,1
redo_RPB004_19,unclassified,Psychrobacter alimentarius,3945,1
redo_RPB004_19,unclassified,Staphylococcus cohnii,2381,1
redo_RPB004_19,unclassified,Kocuria indica,5367,1
redo_RPB004_19,unclassified,Staphylococcus haemolyticus,13872,5
redo_RPB004_19,unclassified,Moraxella osloensis,596464,182
redo_RPB004_19,unclassified,Rhodobacter sphaeroides,8538,2
redo_RPB004_19,unclassified,Acinetobacter baumannii,108328,26
redo_RPB004_19,unclassified,Staphylococcus aureus,120916,34
redo_RPB004_19,unclassified,Methylovulum psychrotolerans,13344,3
redo_RPB004_19,unclassified,Neorhizobium galegae,7334,1
redo_RPB004_19,unclassified,Acinetobacter wuhouensis,22258,6
redo_RPB004_19,unclassified,Acinetobacter sp. ACNIH2,2537,1
redo_RPB004_19,unclassified,Rhodobacteraceae bacterium QY30,2858,1
redo_RPB004_19,unclassified,Phreatobacter stygius,4944,1
redo_RPB004_19,unclassified,Acinetobacter pittii,23986,6
redo_RPB004_19,unclassified,Herbaspirillum huttiense,3357,1
redo_RPB004_19,unclassified,Salmonella bongori,3814,1
redo_RPB004_19,unclassified,Escherichia fergusonii,2730,1
redo_RPB004_19,unclassified,Cutibacterium acnes,87824,27
redo_RPB004_19,unclassified,Pseudomonas putida,4848,2
redo_RPB004_19,unclassified,Acinetobacter sp. WCHAc010034,2537,1
redo_RPB004_19,unclassified,Staphylococcus hominis,5765,2
redo_RPB004_19,unclassified,Staphylococcus schleiferi,5036,2
redo_RPB004_19,unclassified,Acinetobacter bereziniae,4838,1
redo_RPB004_19,unclassified,Grimontia hollisae,4546,1
redo_RPB004_19,unclassified,Pseudomonas psychrotolerans,5398,2
redo_RPB004_19,unclassified,Pseudomonas aeruginosa,9905,2
redo_RPB004_19,unclassified,Acinetobacter sp. SWBY1,50162,13
redo_RPB004_19,unclassified,Brevibacterium aurantiacum,2941,1
redo_RPB004_19,unclassified,Escherichia coli,10856,4
redo_RPB004_19,unclassified,Moraxella bovis,3344,1
redo_RPB004_19,unclassified,Paracoccus zhejiangensis,3723,1
redo_RPB004_19,unclassified,Acinetobacter calcoaceticus,5234,1
redo_RPB004_19,unclassified,Acinetobacter sp. TGL-Y2,7300,2
redo_RPB004_19,unclassified,Acinetobacter sp. WCHAc010052,7525,2
redo_RPB004_19,unclassified,Acinetobacter sp. ACNIH1,283731,75
redo_RPB004_19,unclassified,Staphylococcus caprae,3859,1
redo_RPB004_19,unclassified,Rhodospirillum rubrum,11209,2
redo_RPB004_19,unclassified,Acinetobacter sp. NCu2D-2,21016,6
redo_RPB004_19,unclassified,Acinetobacter junii,16994,4
redo_RPB004_19,unclassified,Streptococcus agalactiae,8451,2
redo_RPB004_19,unclassified,Acinetobacter johnsonii,87260,23
redo_RPB004_19,unclassified,Acinetobacter haemolyticus,23528,5
redo_RPB004_19,unclassified,Ottowia oryzae,4187,1
redo_RPB004_19,unclassified,Corynebacterium segmentosum,4285,1
redo_RPB004_19,unclassified,Blastochloris viridis,4017,1
redo_RPB004_19,unclassified,Paracoccus yeei,14616,3
redo_RPB004_19,unclassified,Corynebacterium resistens,1133,1
redo_RPB004_19,unclassified,Acinetobacter sp. LoGeW2-3,32696,10
redo_RPB004_19,unclassified,Clostridium botulinum,1275,1
redo_RPB004_19,unclassified,Pseudomonas oleovorans,236,1
redo_RPB004_19,unclassified,Staphylococcus capitis,9229,3
redo_RPB004_19,unclassified,Paenalcaligenes hominis,4209,1
redo_RPB004_19,unclassified,Acinetobacter schindleri,436353,114
redo_RPB004_19,unclassified,Corynebacterium stationis,4556,1
redo_RPB004_19,unclassified,Acinetobacter tandoii,16767,4
redo_RPB004_19,unclassified,Paracoccus contaminans,22057,6
redo_RPB004_19,unclassified,Acinetobacter indicus,44627,14
redo_RPB004_19,unclassified,Pseudomonas monteilii,3125,1
redo_RPB004_19,unclassified,Staphylococcus epidermidis,514520,158
redo_RPB004_19,unclassified,Paracoccus aminovorans,1970,1
redo_RPB004_19,unclassified,Halomonas sp. R57-5,932,1
redo_RPB004_19,unclassified,Acinetobacter sp. WCHAc010005,8828,2
redo_RPB004_19,unclassified,Azotobacter vinelandii,6629,1
redo_RPB004_19,unclassified,Psychromonas ingrahamii,2261,1
redo_RPB004_19,unclassified,Pseudomonas sp. phDV1,16914,5
redo_RPB004_19,unclassified,Pseudomonas oryzihabitans,49175,10
redo_RPB004_19,unclassified,Acinetobacter equi,4825,1
redo_RPB004_19,unclassified,Citrobacter pasteurii,5967,1
redo_RPB004_19,unclassified,Kocuria rhizophila,5510,1
redo_RPB004_19,unclassified,Salipiger profundus,11129,2
redo_RPB004_19,unclassified,Acinetobacter ursingii,75289,19
redo_RPB004_19,unclassified,Staphylococcus pseudintermedius,12946,3
redo_RPB004_19,unclassified,Acinetobacter sp. DUT-2,17143,4
redo_RPB004_19,unclassified,Thioalkalivibrio sulfidiphilus,7211,1
redo_RPB004_19,unclassified,Acinetobacter radioresistens,204562,53
redo_RPB004_19,barcode05,Stenotrophomonas maltophilia,4568,1
redo_RPB004_19,barcode05,Acinetobacter johnsonii,31624,6
redo_RPB004_19,barcode05,Acinetobacter haemolyticus,7360,2
redo_RPB004_19,barcode05,Acinetobacter sp. NCu2D-2,16796,4
redo_RPB004_19,barcode05,Moraxella osloensis,110746,24
redo_RPB004_19,barcode05,Acinetobacter baumannii,14564,3
redo_RPB004_19,barcode05,Escherichia coli,3233,1
redo_RPB004_19,barcode05,Acinetobacter sp. LoGeW2-3,13824,2
redo_RPB004_19,barcode05,Acinetobacter wuhouensis,8519,2
redo_RPB004_19,barcode05,Acinetobacter sp. ACNIH2,4518,1
redo_RPB004_19,barcode05,Acinetobacter schindleri,103326,21
redo_RPB004_19,barcode05,Staphylococcus carnosus,2202,1
redo_RPB004_19,barcode05,Acinetobacter tandoii,7497,2
redo_RPB004_19,barcode05,Acinetobacter indicus,88185,14
redo_RPB004_19,barcode05,Cutibacterium acnes,4156,1
redo_RPB004_19,barcode05,Staphylococcus epidermidis,36208,7
redo_RPB004_19,barcode05,Agrobacterium tumefaciens,6321,1
redo_RPB004_19,barcode05,Rhizobium sp. NT-26,8893,2
redo_RPB004_19,barcode05,Acinetobacter sp. SWBY1,4791,2
redo_RPB004_19,barcode05,Acinetobacter ursingii,93098,16
redo_RPB004_19,barcode05,Acinetobacter sp. ACNIH1,140348,25
redo_RPB004_19,barcode05,Acinetobacter radioresistens,15849,4
redo_RPB004_19,barcode05,Acinetobacter sp. WCHA45,6880,1
redo_RPB004_19,barcode02,Shigella virus SfMu,752,1
redo_RPB004_19,barcode02,Ostreococcus lucimarinus virus OlV5,5671,1
redo_RPB004_19,barcode09,Sulfitobacter phage pCB2047-C,2803,1
redo_RPB004_19,barcode10,Rabbit associated gemykroznavirus 1,2860,1
redo_RPB004_19,barcode10,TTV-like mini virus,5746,2
