Run_name,Barcode,Taxid,Bases,Reads
RPB004_64,barcode07,Bacillus subtilis,17681,7
RPB004_64,barcode07,Escherichia coli,63811,20
RPB004_64,barcode11,Bacillus subtilis,120277,31
RPB004_64,barcode11,Escherichia coli,156643,44
RPB004_64,barcode12a,Moraxella osloensis,3733,1
RPB004_64,barcode12a,Acinetobacter sp. ACNIH1,3818,1
RPB004_64,barcode12a,Escherichia coli,2641,1
RPB004_64,unclassified,Staphylococcus aureus,1481899,617
RPB004_64,barcode10,Staphylococcus aureus,30644435,10590
RPB004_64,barcode08,Enterococcus faecalis,19732,5
RPB004_64,barcode08,Bacillus subtilis,47438,10
RPB004_64,barcode08,Escherichia coli,65902,15
RPB004_64,barcode09,Acinetobacter johnsonii,20269,4
RPB004_64,barcode09,Escherichia coli,61402,17
RPB004_64,barcode07,Escherichia virus Rtp,3317,1
RPB004_64,barcode11,Proteus phage VB_PmiS-Isfahan,449,1
RPB004_64,barcode12a,Proteus phage VB_PmiS-Isfahan,224,1
RPB004_64,unclassified,Staphylococcus phage DW2,1959,1
RPB004_64,unclassified,Proteus phage VB_PmiS-Isfahan,859,1
RPB004_64,barcode10,Staphylococcus virus 71,22737,7
RPB004_64,barcode10,Staphylococcus phage DW2,37314,13
RPB004_64,barcode10,Staphylococcus phage JS01,61666,19
