sample,barcode,Species name,chrom,len,covBread_1x_percent,avCov,x1,x5,x10
redo_RPB004_3,barcode01,Streptococcus pyogenes,NC_002737_2,1852433.0,0.2264049496,1.0,4194.0,0.0,0.0
redo_RPB004_3,barcode02,Streptococcus pyogenes,NC_002737_2,1852433.0,0.1802494341,1.0,3339.0,0.0,0.0
redo_RPB004_3,barcode03,Streptococcus pyogenes,NC_002737_2,1852433.0,0.3507819176,1.0,6498.0,0.0,0.0
redo_RPB004_3,barcode05,Actinoplanes friuliensis,NC_022657_1,9376071.0,0.0021544205,1.0,202.0,0.0,0.0
redo_RPB004_3,barcode05,Aerococcus urinae,NZ_CP014161_1,1974262.0,0.148055324,1.0,2923.0,0.0,0.0
redo_RPB004_3,barcode05,Anaerostipes hadrus,NZ_CP012098_1,3172613.0,0.1062215908,1.5789317507,3370.0,0.0,0.0
redo_RPB004_3,barcode05,Bacillus altitudinis,NZ_CP022319_1,3812576.0,0.1195254862,1.0,4557.0,0.0,0.0
redo_RPB004_3,barcode05,Bacillus altitudinis,NZ_CP022320_1,32110.0,0.0,0.0,0.0,0.0,0.0
redo_RPB004_3,barcode05,Bacillus anthracis,NC_003997_3,5227293.0,0.0538137043,1.1876999645,2813.0,0.0,0.0
redo_RPB004_3,barcode05,Bacillus cereus,NC_004721_2,15274.0,0.0,0.0,0.0,0.0,0.0
redo_RPB004_3,barcode05,Bacillus cereus,NC_004722_1,5411809.0,0.0671864066,1.0,3636.0,0.0,0.0
redo_RPB004_3,barcode05,Bacillus licheniformis,NC_006270_3,4222597.0,0.0913655743,1.0,3858.0,0.0,0.0
redo_RPB004_3,barcode05,Bacillus subtilis,NC_000964_3,4215606.0,0.0708083251,1.0,2985.0,0.0,0.0
redo_RPB004_3,barcode05,Bacillus thuringiensis,NC_020124_1,17706.0,0.0,0.0,0.0,0.0,0.0
redo_RPB004_3,barcode05,Bacillus thuringiensis,NC_022873_1,6002284.0,0.087550006,1.0,5255.0,0.0,0.0
redo_RPB004_3,barcode05,Bacillus thuringiensis,NC_022874_1,45206.0,0.0,0.0,0.0,0.0,0.0
redo_RPB004_3,barcode05,Bacillus thuringiensis,NC_022875_1,49195.0,0.0,0.0,0.0,0.0,0.0
redo_RPB004_3,barcode05,Bacillus thuringiensis,NC_022876_1,146276.0,0.0,0.0,0.0,0.0,0.0
redo_RPB004_3,barcode05,Bacillus thuringiensis,NC_022877_1,171593.0,0.0,0.0,0.0,0.0,0.0
redo_RPB004_3,barcode05,Bacillus thuringiensis,NC_022882_1,240661.0,0.0,0.0,0.0,0.0,0.0
redo_RPB004_3,barcode05,Bacillus velezensis,NC_009725_1,3918589.0,0.150002973,1.350289214,5878.0,0.0,0.0
redo_RPB004_3,barcode05,Blautia producta,NZ_CP035945_1,6354838.0,0.0531720872,2.7765611128,3379.0,0.0,0.0
redo_RPB004_3,barcode05,Brevibacillus brevis,NC_012491_1,6296436.0,0.0346704072,1.0,2183.0,0.0,0.0
redo_RPB004_3,barcode05,Candidatus Sulcia muelleri,NZ_AP013293_1,285352.0,0.3784799125,1.0,1080.0,0.0,0.0
redo_RPB004_3,barcode05,Citrobacter braakii,NZ_CP020448_2,5244290.0,0.0354671462,2.9080645161,1860.0,0.0,0.0
redo_RPB004_3,barcode05,Citrobacter freundii complex sp. CFNIH3,NZ_CP026235_1,5334524.0,0.0322615476,1.0,1721.0,0.0,0.0
redo_RPB004_3,barcode05,Citrobacter freundii complex sp. CFNIH3,NZ_CP026236_1,65291.0,0.0,0.0,0.0,0.0,0.0
redo_RPB004_3,barcode05,Citrobacter freundii complex sp. CFNIH3,NZ_CP026237_1,235027.0,0.0,0.0,0.0,0.0,0.0
redo_RPB004_3,barcode05,Clostridium botulinum,NC_010674_1,3800327.0,0.0546005646,1.0,2075.0,0.0,0.0
redo_RPB004_3,barcode05,Clostridium botulinum,NC_010680_1,47642.0,0.0,0.0,0.0,0.0,0.0
redo_RPB004_3,barcode05,Clostridium drakei,NZ_CP020953_1,5695241.0,0.0148193904,5.7191943128,844.0,801.0,0.0
redo_RPB004_3,barcode05,Clostridium kluyveri,NC_009466_1,59182.0,0.0,0.0,0.0,0.0,0.0
redo_RPB004_3,barcode05,Clostridium kluyveri,NC_009706_1,3964618.0,0.0273670755,1.0,1085.0,0.0,0.0
redo_RPB004_3,barcode05,Clostridium perfringens,NC_008261_1,3256683.0,0.0719136618,1.0,2342.0,0.0,0.0
redo_RPB004_3,barcode05,Clostridium scatologenes,NZ_CP009933_1,5749410.0,0.0149580566,30.023255814,860.0,845.0,843.0
redo_RPB004_3,barcode05,Conexibacter woesei,NC_013739_1,6359369.0,0.0184452262,1.0,1173.0,0.0,0.0
redo_RPB004_3,barcode05,Corynebacterium humireducens,NZ_CP005286_1,2681312.0,0.0584788342,1.0,1568.0,0.0,0.0
redo_RPB004_3,barcode05,Cryobacterium sp. LW097,NZ_CP021992_1,3790170.0,0.0241150133,1.0,914.0,0.0,0.0
redo_RPB004_3,barcode05,Cryobacterium sp. LW097,NZ_CP021994_1,169719.0,0.0,0.0,0.0,0.0,0.0
redo_RPB004_3,barcode05,Cutibacterium acnes,NC_006085_1,2560265.0,0.5561143085,2.1023317882,14238.0,0.0,0.0
redo_RPB004_3,barcode05,Cyanobacterium aponinum,NC_019776_1,4114099.0,0.0017257728,1.0,71.0,0.0,0.0
redo_RPB004_3,barcode05,Cyanobacterium aponinum,NC_019777_1,62874.0,0.0,0.0,0.0,0.0,0.0
redo_RPB004_3,barcode05,Desulfosporosinus orientis,NC_016584_1,5863081.0,0.038341616,1.0,2248.0,0.0,0.0
redo_RPB004_3,barcode05,Enterococcus faecalis,NC_004668_1,3218031.0,0.0311370524,1.0,1002.0,0.0,0.0
redo_RPB004_3,barcode05,Enterococcus faecalis,NC_004669_1,66320.0,0.0,0.0,0.0,0.0,0.0
redo_RPB004_3,barcode05,Enterococcus faecalis,NC_004670_1,17963.0,0.0,0.0,0.0,0.0,0.0
redo_RPB004_3,barcode05,Enterococcus faecalis,NC_004671_1,57660.0,0.0,0.0,0.0,0.0,0.0
redo_RPB004_3,barcode05,Enterococcus faecium,NC_017960_1,2698137.0,0.3682170327,2.0198288878,9935.0,139.0,0.0
redo_RPB004_3,barcode05,Enterococcus faecium,NC_017961_1,36262.0,0.0,0.0,0.0,0.0,0.0
redo_RPB004_3,barcode05,Enterococcus faecium,NC_017962_1,66247.0,0.0,0.0,0.0,0.0,0.0
redo_RPB004_3,barcode05,Enterococcus faecium,NC_017963_1,251926.0,0.0,0.0,0.0,0.0,0.0
redo_RPB004_3,barcode05,Enterococcus hirae,NC_015845_1,28699.0,0.0,0.0,0.0,0.0,0.0
redo_RPB004_3,barcode05,Enterococcus hirae,NC_018081_1,2827741.0,0.0567944518,1.0,1606.0,0.0,0.0
redo_RPB004_3,barcode05,Escherichia coli,NC_000913_3,4641652.0,0.8060707696,3.5293598824,37415.0,12851.0,2107.0
redo_RPB004_3,barcode05,Escherichia phage D108,NC_013594_1,37235.0,0.9560897006,1.0,356.0,0.0,0.0
redo_RPB004_3,barcode05,Escherichia virus T7,NC_001604_1,39937.0,0.1702681724,1.0,68.0,0.0,0.0
redo_RPB004_3,barcode05,Geoalkalibacter subterraneus,NZ_CP010311_1,3475523.0,0.0221837116,1.0,771.0,0.0,0.0
redo_RPB004_3,barcode05,Geoalkalibacter subterraneus,NZ_CP010312_1,242122.0,0.0,0.0,0.0,0.0,0.0
redo_RPB004_3,barcode05,Herbinix luporum,NZ_LN879430_1,2609352.0,0.1267364464,3.7614151799,3307.0,486.0,0.0
redo_RPB004_3,barcode05,Klebsiella oxytoca,NZ_CP011625_1,1919.0,16.9359041167,1.0,325.0,0.0,0.0
redo_RPB004_3,barcode05,Klebsiella oxytoca,NZ_CP011626_1,6538.0,0.0,0.0,0.0,0.0,0.0
redo_RPB004_3,barcode05,Klebsiella oxytoca,NZ_CP011627_1,14274.0,0.0,0.0,0.0,0.0,0.0
redo_RPB004_3,barcode05,Klebsiella oxytoca,NZ_CP011628_1,16069.0,0.0,0.0,0.0,0.0,0.0
redo_RPB004_3,barcode05,Klebsiella oxytoca,NZ_CP011629_1,33610.0,0.0,0.0,0.0,0.0,0.0
redo_RPB004_3,barcode05,Klebsiella oxytoca,NZ_CP011630_1,49200.0,0.0,0.0,0.0,0.0,0.0
redo_RPB004_3,barcode05,Klebsiella oxytoca,NZ_CP011631_1,53596.0,0.0,0.0,0.0,0.0,0.0
redo_RPB004_3,barcode05,Klebsiella oxytoca,NZ_CP011632_1,83652.0,0.0,0.0,0.0,0.0,0.0
redo_RPB004_3,barcode05,Klebsiella oxytoca,NZ_CP011633_1,150318.0,0.0,0.0,0.0,0.0,0.0
redo_RPB004_3,barcode05,Klebsiella oxytoca,NZ_CP011634_1,227680.0,0.0,0.0,0.0,0.0,0.0
redo_RPB004_3,barcode05,Klebsiella oxytoca,NZ_CP011635_1,332956.0,0.0,0.0,0.0,0.0,0.0
redo_RPB004_3,barcode05,Klebsiella oxytoca,NZ_CP011636_1,6257473.0,0.0125450002,1.0,785.0,0.0,0.0
redo_RPB004_3,barcode05,Klebsiella pneumoniae,NC_016838_1,122799.0,0.0,0.0,0.0,0.0,0.0
redo_RPB004_3,barcode05,Klebsiella pneumoniae,NC_016839_1,105974.0,0.0,0.0,0.0,0.0,0.0
redo_RPB004_3,barcode05,Klebsiella pneumoniae,NC_016840_1,3751.0,0.0,0.0,0.0,0.0,0.0
redo_RPB004_3,barcode05,Klebsiella pneumoniae,NC_016841_1,1308.0,0.0,0.0,0.0,0.0,0.0
redo_RPB004_3,barcode05,Klebsiella pneumoniae,NC_016845_1,5333942.0,0.0,0.0,0.0,0.0,0.0
redo_RPB004_3,barcode05,Klebsiella pneumoniae,NC_016846_1,111195.0,0.0,0.0,0.0,0.0,0.0
redo_RPB004_3,barcode05,Klebsiella pneumoniae,NC_016847_1,3353.0,11.60155085,2.1928020566,389.0,0.0,0.0
redo_RPB004_3,barcode05,Kocuria flava,NZ_CP013254_1,3504335.0,0.0788737378,1.0,2764.0,0.0,0.0
redo_RPB004_3,barcode05,Kocuria flava,NZ_CP013255_1,113210.0,0.5299885169,1.0,600.0,0.0,0.0
redo_RPB004_3,barcode05,Kocuria flava,NZ_CP013256_1,10611.0,0.0,0.0,0.0,0.0,0.0
redo_RPB004_3,barcode05,Kocuria flava,NZ_CP013257_1,5666.0,0.0,0.0,0.0,0.0,0.0
redo_RPB004_3,barcode05,Kocuria flava,NZ_CP013258_1,4520.0,0.0,0.0,0.0,0.0,0.0
redo_RPB004_3,barcode05,Lactobacillus bombi,NZ_CP031513_1,1842084.0,0.2138338968,1.6570195481,3939.0,0.0,0.0
redo_RPB004_3,barcode05,Lactobacillus curvatus,NZ_CP022474_1,2114309.0,0.1025394112,1.0,2168.0,0.0,0.0
redo_RPB004_3,barcode05,Lactobacillus delbrueckii,NC_008054_1,1864998.0,0.1659519206,1.0,3095.0,0.0,0.0
redo_RPB004_3,barcode05,Lactobacillus helveticus,NZ_CP012381_1,2160583.0,0.2469703779,1.9171664168,5336.0,0.0,0.0
redo_RPB004_3,barcode05,Lactobacillus salivarius,NC_006529_1,20417.0,0.0,0.0,0.0,0.0,0.0
redo_RPB004_3,barcode05,Lactobacillus salivarius,NC_006530_1,44013.0,0.0,0.0,0.0,0.0,0.0
redo_RPB004_3,barcode05,Lactobacillus salivarius,NC_007929_1,1827111.0,0.1031136039,1.0,1884.0,0.0,0.0
redo_RPB004_3,barcode05,Lactobacillus salivarius,NC_007930_1,242436.0,0.0,0.0,0.0,0.0,0.0
redo_RPB004_3,barcode05,Lactococcus lactis,NC_002662_1,2365589.0,0.1928483773,1.2553704516,4562.0,0.0,0.0
redo_RPB004_3,barcode05,Lactococcus piscium,NZ_LN774769_1,2394138.0,0.127310957,1.0,3048.0,0.0,0.0
redo_RPB004_3,barcode05,Lactococcus piscium,NZ_LN774770_1,55671.0,0.0,0.0,0.0,0.0,0.0
redo_RPB004_3,barcode05,Lactococcus piscium,NZ_LN774771_1,53257.0,0.0,0.0,0.0,0.0,0.0
redo_RPB004_3,barcode05,Lactococcus raffinolactis,NZ_CP023392_1,2217417.0,0.2853319876,1.387703493,6327.0,0.0,0.0
redo_RPB004_3,barcode05,Lactococcus raffinolactis,NZ_CP023393_1,47753.0,0.0,0.0,0.0,0.0,0.0
redo_RPB004_3,barcode05,Lactococcus raffinolactis,NZ_CP023394_1,27065.0,0.0,0.0,0.0,0.0,0.0
redo_RPB004_3,barcode05,Listeria monocytogenes,NC_003210_1,2944528.0,0.0636774383,1.0,1875.0,0.0,0.0
redo_RPB004_3,barcode05,Mycobacterium sp. QIA-37,NZ_CP010071_1,4855372.0,0.0335916589,1.0,1631.0,0.0,0.0
redo_RPB004_3,barcode05,Paenisporosarcina antarctica,NZ_CP038015_1,3897111.0,0.0556822734,1.0,2170.0,0.0,0.0
redo_RPB004_3,barcode05,Paenisporosarcina antarctica,NZ_CP038016_1,75413.0,0.0,0.0,0.0,0.0,0.0
redo_RPB004_3,barcode05,Pectobacterium carotovorum,NC_012917_1,4862913.0,0.0177876923,1.0,865.0,0.0,0.0
redo_RPB004_3,barcode05,Pseudonocardia autotrophica,NZ_AP018920_1,7246130.0,0.0048853664,1.0,354.0,0.0,0.0
redo_RPB004_3,barcode05,Pseudonocardia autotrophica,NZ_AP018921_1,289155.0,0.0,0.0,0.0,0.0,0.0
redo_RPB004_3,barcode05,Roseburia intestinalis,NZ_LR027880_1,4493348.0,0.0686125357,1.0,3083.0,0.0,0.0
redo_RPB004_3,barcode05,Shigella dysenteriae,NC_007606_1,4369232.0,0.0521601966,1.0,2279.0,0.0,0.0
redo_RPB004_3,barcode05,Shigella dysenteriae,NC_007607_1,182726.0,0.0,0.0,0.0,0.0,0.0
redo_RPB004_3,barcode05,Shigella dysenteriae,NC_009344_1,8953.0,0.0,0.0,0.0,0.0,0.0
redo_RPB004_3,barcode05,Shigella flexneri,NC_004337_2,4607202.0,0.0345111849,1.0,1590.0,0.0,0.0
redo_RPB004_3,barcode05,Shigella flexneri,NC_004851_1,221618.0,0.0,0.0,0.0,0.0,0.0
redo_RPB004_3,barcode05,Solibacillus silvestris,NZ_CP014609_1,3991226.0,0.0359789198,1.0,1436.0,0.0,0.0
redo_RPB004_3,barcode05,Sphingomonas sp. HKS19,NZ_CP042306_1,3403025.0,0.0068468495,1.0,233.0,0.0,0.0
redo_RPB004_3,barcode05,Staphylococcus aureus,NC_007795_1,2821361.0,0.3135366229,1.1971512548,8846.0,0.0,0.0
redo_RPB004_3,barcode05,Streptococcus acidominimus,NZ_LT906454_1,2330811.0,0.5924976328,1.1876176684,13810.0,0.0,0.0
redo_RPB004_3,barcode05,Streptococcus agalactiae,NC_004116_1,2160267.0,2.6685127348,1.4153728728,57647.0,0.0,0.0
redo_RPB004_3,barcode05,Streptococcus anginosus,NC_022239_1,2233640.0,0.1652459662,1.0,3691.0,0.0,0.0
redo_RPB004_3,barcode05,Streptococcus dysgalactiae,NC_019042_1,2179445.0,23.2796881775,11.9989908705,507368.0,169585.0,91000.0
redo_RPB004_3,barcode05,Streptococcus equi,NC_012470_1,2149868.0,0.7657214303,1.5410642692,16462.0,0.0,0.0
redo_RPB004_3,barcode05,Streptococcus equinus,NZ_CP020438_1,2074978.0,0.1928213215,1.5003749063,4001.0,0.0,0.0
redo_RPB004_3,barcode05,Streptococcus equinus,NZ_CP020439_1,236564.0,0.0,0.0,0.0,0.0,0.0
redo_RPB004_3,barcode05,Streptococcus ferus,NZ_LS483343_1,1872314.0,0.2022096721,1.0,3786.0,0.0,0.0
redo_RPB004_3,barcode05,Streptococcus gordonii,NC_009785_1,2196662.0,0.126419085,1.0,2777.0,0.0,0.0
redo_RPB004_3,barcode05,Streptococcus himalayensis,NZ_CP016953_1,2275471.0,0.4330971478,8.8058853374,9855.0,6669.0,3753.0
redo_RPB004_3,barcode05,Streptococcus iniae,NZ_CP010783_1,2086959.0,0.0878790623,1.0,1834.0,0.0,0.0
redo_RPB004_3,barcode05,Streptococcus intermedius,NC_022246_1,1996214.0,0.3849787648,2.0445022772,7685.0,0.0,0.0
redo_RPB004_3,barcode05,Streptococcus macedonicus,NC_016749_1,2130034.0,0.1978372176,1.0,4214.0,0.0,0.0
redo_RPB004_3,barcode05,Streptococcus macedonicus,NC_016750_1,12728.0,0.0,0.0,0.0,0.0,0.0
redo_RPB004_3,barcode05,Streptococcus marmotae,NZ_CP015196_1,2309282.0,0.1102074151,1.0,2545.0,0.0,0.0
redo_RPB004_3,barcode05,Streptococcus marmotae,NZ_CP015197_1,5997.0,0.0,0.0,0.0,0.0,0.0
redo_RPB004_3,barcode05,Streptococcus marmotae,NZ_CP015198_1,7512.0,0.0,0.0,0.0,0.0,0.0
redo_RPB004_3,barcode05,Streptococcus merionis,NZ_LT906439_1,2384128.0,0.186441332,1.6614173228,4445.0,0.0,0.0
redo_RPB004_3,barcode05,Streptococcus mitis,NC_013853_1,2146611.0,0.0664302941,1.0,1426.0,0.0,0.0
redo_RPB004_3,barcode05,Streptococcus mutans,NC_004350_2,2032925.0,0.1697554017,1.0,3451.0,0.0,0.0
redo_RPB004_3,barcode05,Streptococcus parauberis,NC_015558_1,2143887.0,0.1089609667,1.0,2336.0,0.0,0.0
redo_RPB004_3,barcode05,Streptococcus pasteurianus,NC_015600_1,2100077.0,0.3946045788,1.3512730783,8287.0,0.0,0.0
redo_RPB004_3,barcode05,Streptococcus pluranimalium,NZ_CP025536_1,2065522.0,0.4450690915,1.3369955401,9193.0,0.0,0.0
redo_RPB004_3,barcode05,Streptococcus pneumoniae,NC_003098_1,2038615.0,0.154712881,1.0,3154.0,0.0,0.0
redo_RPB004_3,barcode05,Streptococcus porcinus,NZ_LS483388_1,2033046.0,0.145840281,1.0,2965.0,0.0,0.0
redo_RPB004_3,barcode05,Streptococcus pyogenes,NC_002737_2,1852433.0,93.4803579941,161.8601822181,1731661.0,1724800.0,1721720.0
redo_RPB004_3,barcode05,Streptococcus ruminantium,NZ_AP018400_1,2090539.0,0.1655075557,1.0,3460.0,0.0,0.0
redo_RPB004_3,barcode05,Streptococcus salivarius,NZ_CP009913_1,2188923.0,0.2179153858,1.0,4770.0,0.0,0.0
redo_RPB004_3,barcode05,Streptococcus sanguinis,NC_009009_1,2388435.0,0.0996049715,1.0,2379.0,0.0,0.0
redo_RPB004_3,barcode05,Streptococcus sobrinus,NZ_CP029491_1,2145290.0,0.1294463686,1.0,2777.0,0.0,0.0
redo_RPB004_3,barcode05,Streptococcus suis,NC_012923_1,24579.0,0.0,0.0,0.0,0.0,0.0
redo_RPB004_3,barcode05,Streptococcus suis,NC_012926_1,2146229.0,0.8500490861,8.5963056347,18244.0,5537.0,1719.0
redo_RPB004_3,barcode05,Streptococcus thermophilus,NC_017581_1,1929905.0,0.933672901,1.2621122149,18019.0,0.0,0.0
redo_RPB004_3,barcode05,Streptococcus troglodytae,NZ_AP014612_1,2097874.0,0.2571174437,1.0,5394.0,0.0,0.0
redo_RPB004_3,barcode05,Streptococcus uberis,NC_012004_1,1852352.0,0.1288092112,1.0,2386.0,0.0,0.0
redo_RPB004_3,barcode05,Streptococcus urinalis,NZ_LR134323_1,2144000.0,0.4298507463,1.404296875,9216.0,0.0,0.0
redo_RPB004_3,barcode05,Sulfurospirillum multivorans,NZ_CP007201_1,3175729.0,0.0753212884,1.0,2392.0,0.0,0.0
redo_RPB004_3,barcode05,Synechococcus sp. WH 8102,NC_005070_1,2434428.0,0.1535884405,1.0,3739.0,0.0,0.0
redo_RPB004_3,barcode05,Turicibacter sp. H121,NZ_CP013476_1,2622031.0,0.1178475769,1.5566343042,3090.0,0.0,0.0
redo_RPB004_3,barcode05,Vagococcus penaei,NZ_CP019609_1,2365304.0,0.1521580313,1.0,3599.0,0.0,0.0
redo_RPB004_3,barcode06,Cutibacterium acnes,NC_006085_1,2560265.0,0.2065411198,4.1223524962,5288.0,1155.0,0.0
redo_RPB004_3,barcode06,Enterococcus faecium,NC_017960_1,2698137.0,0.1333512716,1.9549749861,3598.0,0.0,0.0
redo_RPB004_3,barcode06,Enterococcus faecium,NC_017961_1,36262.0,0.0,0.0,0.0,0.0,0.0
redo_RPB004_3,barcode06,Enterococcus faecium,NC_017962_1,66247.0,1.6106389723,1.8481724461,1067.0,0.0,0.0
redo_RPB004_3,barcode06,Enterococcus faecium,NC_017963_1,251926.0,0.6104967332,1.8250975293,1538.0,0.0,0.0
redo_RPB004_3,barcode06,Escherichia coli,NC_000913_3,4641652.0,7.0420832928,2.7580865729,326869.0,64526.0,402.0
redo_RPB004_3,barcode06,Escherichia fergusonii,NC_011740_1,4588711.0,0.097369392,1.0,4468.0,0.0,0.0
redo_RPB004_3,barcode06,Escherichia fergusonii,NC_011743_1,55150.0,0.0,0.0,0.0,0.0,0.0
redo_RPB004_3,barcode06,Escherichia virus Mu,NC_000929_1,36717.0,5.4416210475,1.9029029029,1998.0,0.0,0.0
redo_RPB004_3,barcode06,Kocuria flava,NZ_CP013254_1,3504335.0,0.0401788071,1.0,1408.0,0.0,0.0
redo_RPB004_3,barcode06,Kocuria flava,NZ_CP013255_1,113210.0,0.0,0.0,0.0,0.0,0.0
redo_RPB004_3,barcode06,Kocuria flava,NZ_CP013256_1,10611.0,0.0,0.0,0.0,0.0,0.0
redo_RPB004_3,barcode06,Kocuria flava,NZ_CP013257_1,5666.0,0.0,0.0,0.0,0.0,0.0
redo_RPB004_3,barcode06,Kocuria flava,NZ_CP013258_1,4520.0,0.0,0.0,0.0,0.0,0.0
redo_RPB004_3,barcode06,Shigella dysenteriae,NC_007606_1,4369232.0,0.0451795647,1.0,1974.0,0.0,0.0
redo_RPB004_3,barcode06,Shigella dysenteriae,NC_007607_1,182726.0,0.0,0.0,0.0,0.0,0.0
redo_RPB004_3,barcode06,Shigella dysenteriae,NC_009344_1,8953.0,0.0,0.0,0.0,0.0,0.0
redo_RPB004_3,barcode06,Staphylococcus capitis,NZ_CP007601_1,2443604.0,0.1855456121,5.2326863697,4534.0,4126.0,0.0
redo_RPB004_3,barcode06,Staphylococcus capitis,NZ_CP007602_1,59661.0,0.0,0.0,0.0,0.0,0.0
redo_RPB004_3,barcode06,Staphylococcus epidermidis,NC_004461_1,2499279.0,0.150603434,3.9017003188,3764.0,0.0,0.0
redo_RPB004_3,barcode06,Staphylococcus epidermidis,NC_005003_1,6585.0,0.0,0.0,0.0,0.0,0.0
redo_RPB004_3,barcode06,Staphylococcus epidermidis,NC_005004_1,24365.0,0.0,0.0,0.0,0.0,0.0
redo_RPB004_3,barcode06,Staphylococcus epidermidis,NC_005005_1,17261.0,0.0,0.0,0.0,0.0,0.0
redo_RPB004_3,barcode06,Staphylococcus epidermidis,NC_005006_1,8007.0,0.0,0.0,0.0,0.0,0.0
redo_RPB004_3,barcode06,Staphylococcus epidermidis,NC_005007_1,4679.0,0.0,0.0,0.0,0.0,0.0
redo_RPB004_3,barcode06,Staphylococcus epidermidis,NC_005008_1,4439.0,0.0,0.0,0.0,0.0,0.0
redo_RPB004_3,barcode06,Streptococcus pyogenes,NC_002737_2,1852433.0,0.3816602274,1.0,7070.0,0.0,0.0
redo_RPB004_3,barcode07,Acinetobacter junii,NZ_CP019041_1,3378307.0,0.0212236484,1.0,717.0,0.0,0.0
redo_RPB004_3,barcode07,Acinetobacter oleivorans,NC_014259_1,4152543.0,0.0297408118,1.0,1235.0,0.0,0.0
redo_RPB004_3,barcode07,Chryseobacterium haifense,NZ_CP033933_1,2764180.0,0.0592219031,1.2687843616,1637.0,0.0,0.0
redo_RPB004_3,barcode07,Cutibacterium acnes,NC_006085_1,2560265.0,0.2327102858,1.3801611279,5958.0,0.0,0.0
redo_RPB004_3,barcode07,Dinoroseobacter shibae,NC_009952_1,3789584.0,0.0554150535,1.0,2100.0,0.0,0.0
redo_RPB004_3,barcode07,Dinoroseobacter shibae,NC_009955_1,190506.0,0.0,0.0,0.0,0.0,0.0
redo_RPB004_3,barcode07,Dinoroseobacter shibae,NC_009956_1,152970.0,0.0,0.0,0.0,0.0,0.0
redo_RPB004_3,barcode07,Dinoroseobacter shibae,NC_009957_1,126304.0,0.0,0.0,0.0,0.0,0.0
redo_RPB004_3,barcode07,Dinoroseobacter shibae,NC_009958_1,86208.0,0.0,0.0,0.0,0.0,0.0
redo_RPB004_3,barcode07,Dinoroseobacter shibae,NC_009959_1,72296.0,0.0,0.0,0.0,0.0,0.0
redo_RPB004_3,barcode07,Enterococcus faecium,NC_017960_1,2698137.0,0.0,0.0,0.0,0.0,0.0
redo_RPB004_3,barcode07,Enterococcus faecium,NC_017961_1,36262.0,0.0,0.0,0.0,0.0,0.0
redo_RPB004_3,barcode07,Enterococcus faecium,NC_017962_1,66247.0,0.4362461696,4.9584775087,289.0,179.0,0.0
redo_RPB004_3,barcode07,Enterococcus faecium,NC_017963_1,251926.0,0.0,0.0,0.0,0.0,0.0
redo_RPB004_3,barcode07,Escherichia coli,NC_000913_3,4641652.0,6.3385191307,5.189332862,294212.0,106796.0,38215.0
redo_RPB004_3,barcode07,Escherichia fergusonii,NC_011740_1,4588711.0,0.1188133225,1.0,5452.0,0.0,0.0
redo_RPB004_3,barcode07,Escherichia fergusonii,NC_011743_1,55150.0,0.0,0.0,0.0,0.0,0.0
redo_RPB004_3,barcode07,Escherichia marmotae,NZ_CP025979_1,4671322.0,0.0434138345,1.0,2028.0,0.0,0.0
redo_RPB004_3,barcode07,Escherichia marmotae,NZ_CP025980_1,148809.0,0.0,0.0,0.0,0.0,0.0
redo_RPB004_3,barcode07,Escherichia marmotae,NZ_CP025981_1,76160.0,0.0,0.0,0.0,0.0,0.0
redo_RPB004_3,barcode07,Klebsiella pneumoniae,NC_016838_1,122799.0,0.0,0.0,0.0,0.0,0.0
redo_RPB004_3,barcode07,Klebsiella pneumoniae,NC_016839_1,105974.0,0.0,0.0,0.0,0.0,0.0
redo_RPB004_3,barcode07,Klebsiella pneumoniae,NC_016840_1,3751.0,0.0,0.0,0.0,0.0,0.0
redo_RPB004_3,barcode07,Klebsiella pneumoniae,NC_016841_1,1308.0,0.0,0.0,0.0,0.0,0.0
redo_RPB004_3,barcode07,Klebsiella pneumoniae,NC_016845_1,5333942.0,0.1220298233,1.0,6509.0,0.0,0.0
redo_RPB004_3,barcode07,Klebsiella pneumoniae,NC_016846_1,111195.0,0.0,0.0,0.0,0.0,0.0
redo_RPB004_3,barcode07,Klebsiella pneumoniae,NC_016847_1,3353.0,0.0,0.0,0.0,0.0,0.0
redo_RPB004_3,barcode07,Kocuria palustris,NZ_CP012507_1,2854447.0,0.0512533601,1.8687628161,1463.0,0.0,0.0
redo_RPB004_3,barcode07,Leclercia sp. LSNIH1,NZ_CP026167_1,4832521.0,0.0084427983,1.0,408.0,0.0,0.0
redo_RPB004_3,barcode07,Leclercia sp. LSNIH1,NZ_CP026168_1,50622.0,0.0,0.0,0.0,0.0,0.0
redo_RPB004_3,barcode07,Leclercia sp. LSNIH1,NZ_CP026169_1,58627.0,0.0,0.0,0.0,0.0,0.0
redo_RPB004_3,barcode07,Leclercia sp. LSNIH1,NZ_CP026170_1,128920.0,0.0,0.0,0.0,0.0,0.0
redo_RPB004_3,barcode07,Leclercia sp. LSNIH1,NZ_CP026171_1,341250.0,0.0,0.0,0.0,0.0,0.0
redo_RPB004_3,barcode07,Moraxella osloensis,NZ_CP014234_1,2434688.0,0.0506019662,1.0,1232.0,0.0,0.0
redo_RPB004_3,barcode07,Moraxella osloensis,NZ_CP014235_1,81455.0,0.0,0.0,0.0,0.0,0.0
redo_RPB004_3,barcode07,Moraxella osloensis,NZ_CP014236_1,57463.0,0.0,0.0,0.0,0.0,0.0
redo_RPB004_3,barcode07,Moraxella osloensis,NZ_CP014237_1,35189.0,0.0,0.0,0.0,0.0,0.0
redo_RPB004_3,barcode07,Moraxella osloensis,NZ_CP014238_1,40342.0,0.0,0.0,0.0,0.0,0.0
redo_RPB004_3,barcode07,Pantoea agglomerans,NZ_CP016889_1,4182028.0,0.0162361419,1.0,679.0,0.0,0.0
redo_RPB004_3,barcode07,Pantoea agglomerans,NZ_CP016890_1,543504.0,0.0,0.0,0.0,0.0,0.0
redo_RPB004_3,barcode07,Pantoea agglomerans,NZ_CP016891_1,216117.0,0.0,0.0,0.0,0.0,0.0
redo_RPB004_3,barcode07,Pantoea agglomerans,NZ_CP016892_1,173592.0,0.0,0.0,0.0,0.0,0.0
redo_RPB004_3,barcode07,Paracoccus contaminans,NZ_CP020612_1,2939512.0,0.0919880579,1.0,2704.0,0.0,0.0
redo_RPB004_3,barcode07,Paracoccus contaminans,NZ_CP020613_1,93982.0,0.0,0.0,0.0,0.0,0.0
redo_RPB004_3,barcode07,Paracoccus denitrificans,NC_008686_1,2852282.0,0.0915056786,1.0,2610.0,0.0,0.0
redo_RPB004_3,barcode07,Paracoccus denitrificans,NC_008687_1,1730097.0,0.0,0.0,0.0,0.0,0.0
redo_RPB004_3,barcode07,Paracoccus denitrificans,NC_008688_1,653815.0,0.0,0.0,0.0,0.0,0.0
redo_RPB004_3,barcode07,Paracoccus mutanolyticus,NZ_CP030239_1,3592357.0,0.0511085062,1.0,1836.0,0.0,0.0
redo_RPB004_3,barcode07,Salmonella enterica,NC_003197_2,4857450.0,0.0070613182,1.0,343.0,0.0,0.0
redo_RPB004_3,barcode07,Salmonella enterica,NC_003277_2,93933.0,0.0,0.0,0.0,0.0,0.0
redo_RPB004_3,barcode07,Shigella dysenteriae,NC_007606_1,4369232.0,0.0961725081,1.0,4202.0,0.0,0.0
redo_RPB004_3,barcode07,Shigella dysenteriae,NC_007607_1,182726.0,0.0,0.0,0.0,0.0,0.0
redo_RPB004_3,barcode07,Shigella dysenteriae,NC_009344_1,8953.0,0.0,0.0,0.0,0.0,0.0
redo_RPB004_3,barcode07,Shigella flexneri,NC_004337_2,4607202.0,0.0656580719,1.0,3025.0,0.0,0.0
redo_RPB004_3,barcode07,Shigella flexneri,NC_004851_1,221618.0,0.0,0.0,0.0,0.0,0.0
redo_RPB004_3,barcode07,Streptococcus pyogenes,NC_002737_2,1852433.0,2.0325701388,1.0718952512,37652.0,0.0,0.0
redo_RPB004_3,barcode10,Bosea sp. PAMC 26642,NZ_CP014301_1,5503156.0,0.0421212846,1.0,2318.0,0.0,0.0
redo_RPB004_3,barcode10,Bosea sp. PAMC 26642,NZ_CP014302_1,7199.0,0.0,0.0,0.0,0.0,0.0
redo_RPB004_3,barcode10,Cutibacterium acnes,NC_006085_1,2560265.0,0.7437511351,1.0079823548,19042.0,0.0,0.0
redo_RPB004_3,barcode10,Escherichia coli,NC_000913_3,4641652.0,0.388676273,1.2726567263,18041.0,0.0,0.0
redo_RPB004_3,barcode10,Staphylococcus sp. AntiMn-1,NZ_CP012968_1,2721344.0,0.0906537358,1.0,2467.0,0.0,0.0
redo_RPB004_3,barcode10,Staphylococcus sp. AntiMn-1,NZ_CP013300_1,17052.0,0.0,0.0,0.0,0.0,0.0
redo_RPB004_3,unclassified,Acinetobacter ursingii,NZ_AP018824_1,3429552.0,0.1041243871,1.0,3571.0,0.0,0.0
redo_RPB004_3,unclassified,Acinetobacter ursingii,NZ_AP018825_1,105528.0,0.0,0.0,0.0,0.0,0.0
redo_RPB004_3,unclassified,Acinetobacter ursingii,NZ_AP018826_1,33916.0,0.0,0.0,0.0,0.0,0.0
redo_RPB004_3,unclassified,Bacillus licheniformis,NC_006270_3,4222597.0,0.0853503188,1.0,3604.0,0.0,0.0
redo_RPB004_3,unclassified,Bacillus thuringiensis,NC_020124_1,17706.0,0.0,0.0,0.0,0.0,0.0
redo_RPB004_3,unclassified,Bacillus thuringiensis,NC_022873_1,6002284.0,0.006364244,1.0,382.0,0.0,0.0
redo_RPB004_3,unclassified,Bacillus thuringiensis,NC_022874_1,45206.0,0.0,0.0,0.0,0.0,0.0
redo_RPB004_3,unclassified,Bacillus thuringiensis,NC_022875_1,49195.0,0.0,0.0,0.0,0.0,0.0
redo_RPB004_3,unclassified,Bacillus thuringiensis,NC_022876_1,146276.0,0.0,0.0,0.0,0.0,0.0
redo_RPB004_3,unclassified,Bacillus thuringiensis,NC_022877_1,171593.0,0.0,0.0,0.0,0.0,0.0
redo_RPB004_3,unclassified,Bacillus thuringiensis,NC_022882_1,240661.0,0.0,0.0,0.0,0.0,0.0
redo_RPB004_3,unclassified,Blautia producta,NZ_CP035945_1,6354838.0,0.0310944197,1.0,1976.0,0.0,0.0
redo_RPB004_3,unclassified,Chryseobacterium haifense,NZ_CP033933_1,2764180.0,0.0425442627,1.0,1176.0,0.0,0.0
redo_RPB004_3,unclassified,Citrobacter freundii complex sp. CFNIH3,NZ_CP026235_1,5334524.0,0.0666226265,1.0,3554.0,0.0,0.0
redo_RPB004_3,unclassified,Citrobacter freundii complex sp. CFNIH3,NZ_CP026236_1,65291.0,0.0,0.0,0.0,0.0,0.0
redo_RPB004_3,unclassified,Citrobacter freundii complex sp. CFNIH3,NZ_CP026237_1,235027.0,0.0,0.0,0.0,0.0,0.0
redo_RPB004_3,unclassified,Clostridium scatologenes,NZ_CP009933_1,5749410.0,0.0145232293,1.3892215569,835.0,0.0,0.0
redo_RPB004_3,unclassified,Enterobacter sp. SA187,NZ_CP019113_1,4429597.0,0.0746794799,1.0,3308.0,0.0,0.0
redo_RPB004_3,unclassified,Enterococcus faecium,NC_017960_1,2698137.0,0.0734951561,1.0,1983.0,0.0,0.0
redo_RPB004_3,unclassified,Enterococcus faecium,NC_017961_1,36262.0,0.0,0.0,0.0,0.0,0.0
redo_RPB004_3,unclassified,Enterococcus faecium,NC_017962_1,66247.0,0.0,0.0,0.0,0.0,0.0
redo_RPB004_3,unclassified,Enterococcus faecium,NC_017963_1,251926.0,0.0,0.0,0.0,0.0,0.0
redo_RPB004_3,unclassified,Escherichia albertii,NZ_CP007025_1,4701875.0,0.0234587266,1.0,1103.0,0.0,0.0
redo_RPB004_3,unclassified,Escherichia coli,NC_000913_3,4641652.0,1.3977566608,1.1092649393,64879.0,0.0,0.0
redo_RPB004_3,unclassified,Helicobacter pylori,NC_000915_1,1667867.0,0.086157949,1.0,1437.0,0.0,0.0
redo_RPB004_3,unclassified,Klebsiella quasipneumoniae,NZ_CP014696_2,5284734.0,0.0404939965,1.0,2140.0,0.0,0.0
redo_RPB004_3,unclassified,Klebsiella quasipneumoniae,NZ_CP014697_2,152001.0,0.0,0.0,0.0,0.0,0.0
redo_RPB004_3,unclassified,Klebsiella quasipneumoniae,NZ_CP014698_2,77127.0,0.0,0.0,0.0,0.0,0.0
redo_RPB004_3,unclassified,Lactococcus raffinolactis,NZ_CP023392_1,2217417.0,0.134255307,1.0,2977.0,0.0,0.0
redo_RPB004_3,unclassified,Lactococcus raffinolactis,NZ_CP023393_1,47753.0,0.0,0.0,0.0,0.0,0.0
redo_RPB004_3,unclassified,Lactococcus raffinolactis,NZ_CP023394_1,27065.0,0.0,0.0,0.0,0.0,0.0
redo_RPB004_3,unclassified,Pseudonocardia autotrophica,NZ_AP018920_1,7246130.0,0.0046369579,1.0,336.0,0.0,0.0
redo_RPB004_3,unclassified,Pseudonocardia autotrophica,NZ_AP018921_1,289155.0,0.0,0.0,0.0,0.0,0.0
redo_RPB004_3,unclassified,Staphylococcus aureus,NC_007795_1,2821361.0,0.0124762482,1.0,352.0,0.0,0.0
redo_RPB004_3,unclassified,Staphylococcus capitis,NZ_CP007601_1,2443604.0,0.1216236346,1.0,2972.0,0.0,0.0
redo_RPB004_3,unclassified,Staphylococcus capitis,NZ_CP007602_1,59661.0,0.0,0.0,0.0,0.0,0.0
redo_RPB004_3,unclassified,Staphylococcus epidermidis,NC_004461_1,2499279.0,0.0513748165,1.0,1284.0,0.0,0.0
redo_RPB004_3,unclassified,Staphylococcus epidermidis,NC_005003_1,6585.0,0.0,0.0,0.0,0.0,0.0
redo_RPB004_3,unclassified,Staphylococcus epidermidis,NC_005004_1,24365.0,0.0,0.0,0.0,0.0,0.0
redo_RPB004_3,unclassified,Staphylococcus epidermidis,NC_005005_1,17261.0,0.0,0.0,0.0,0.0,0.0
redo_RPB004_3,unclassified,Staphylococcus epidermidis,NC_005006_1,8007.0,0.0,0.0,0.0,0.0,0.0
redo_RPB004_3,unclassified,Staphylococcus epidermidis,NC_005007_1,4679.0,0.0,0.0,0.0,0.0,0.0
redo_RPB004_3,unclassified,Staphylococcus epidermidis,NC_005008_1,4439.0,0.0,0.0,0.0,0.0,0.0
redo_RPB004_3,unclassified,Streptococcus agalactiae,NC_004116_1,2160267.0,0.4118009487,1.0,8896.0,0.0,0.0
redo_RPB004_3,unclassified,Streptococcus dysgalactiae,NC_019042_1,2179445.0,5.451892569,1.635965023,118821.0,5068.0,0.0
redo_RPB004_3,unclassified,Streptococcus halotolerans,NZ_CP014835_1,2182100.0,0.0987122497,1.0,2154.0,0.0,0.0
redo_RPB004_3,unclassified,Streptococcus himalayensis,NZ_CP016953_1,2275471.0,0.1589561018,1.0,3617.0,0.0,0.0
redo_RPB004_3,unclassified,Streptococcus iniae,NZ_CP010783_1,2086959.0,0.1196956912,1.0,2498.0,0.0,0.0
redo_RPB004_3,unclassified,Streptococcus intermedius,NC_022246_1,1996214.0,0.1807922397,1.0,3609.0,0.0,0.0
redo_RPB004_3,unclassified,Streptococcus parauberis,NC_015558_1,2143887.0,0.0530811559,1.0,1138.0,0.0,0.0
redo_RPB004_3,unclassified,Streptococcus pluranimalium,NZ_CP025536_1,2065522.0,0.1500831267,1.0,3100.0,0.0,0.0
redo_RPB004_3,unclassified,Streptococcus porcinus,NZ_LS483388_1,2033046.0,0.0049679151,1.0,101.0,0.0,0.0
redo_RPB004_3,unclassified,Streptococcus pyogenes,NC_002737_2,1852433.0,91.2657029971,5.2489323545,1690636.0,951344.0,75634.0
redo_RPB004_3,unclassified,Streptococcus salivarius,NZ_CP009913_1,2188923.0,0.1751089463,1.0,3833.0,0.0,0.0
