sample,barcode,Species name,chrom,len,covBread_1x_percent,avCov,x1,x5,x10
redo_RPB004_18,barcode01,Agrobacterium tumefaciens,NC_011985_1,4005130.0,0.0613962593,1.0,2459.0,0.0,0.0
redo_RPB004_18,barcode01,Agrobacterium tumefaciens,NC_011983_1,2650913.0,0.0,0.0,0.0,0.0,0.0
redo_RPB004_18,barcode01,Agrobacterium tumefaciens,NC_011994_1,44420.0,0.0,0.0,0.0,0.0,0.0
redo_RPB004_18,barcode01,Agrobacterium tumefaciens,NC_011990_1,184668.0,0.0,0.0,0.0,0.0,0.0
redo_RPB004_18,barcode01,Agrobacterium tumefaciens,NC_011987_1,388169.0,0.0,0.0,0.0,0.0,0.0
redo_RPB004_18,barcode01,Cutibacterium acnes,NC_006085_1,2560265.0,1.388215673,2.3469416465,35542.0,2458.0,0.0
redo_RPB004_18,barcode01,Escherichia coli,NC_000913_3,4641652.0,0.3740694046,4.0752174163,17363.0,7052.0,3142.0
redo_RPB004_18,barcode01,Herbaspirillum huttiense,NZ_CP037993_1,5691775.0,0.0498438536,3.8829749736,2837.0,0.0,0.0
redo_RPB004_18,barcode01,Shewanella putrefaciens,NC_009438_1,4659220.0,0.1452389026,2.8869513817,6767.0,2452.0,0.0
redo_RPB004_18,barcode01,Shewanella sp. FDAARGOS_354,NZ_CP022089_2,5031863.0,0.3065862485,7.9052959098,15427.0,9993.0,6351.0
redo_RPB004_18,barcode01,Shewanella sp. FDAARGOS_354,NZ_CP022090_2,38118.0,0.0,0.0,0.0,0.0,0.0
redo_RPB004_18,barcode01,Staphylococcus aureus,NC_007795_1,2821361.0,1.3382193913,3.2009746795,37756.0,8983.0,0.0
redo_RPB004_18,barcode01,Staphylococcus epidermidis,NC_004461_1,2499279.0,0.0592971013,1.0,1482.0,0.0,0.0
redo_RPB004_18,barcode01,Staphylococcus epidermidis,NC_005008_1,4439.0,0.0,0.0,0.0,0.0,0.0
redo_RPB004_18,barcode01,Staphylococcus epidermidis,NC_005007_1,4679.0,0.0,0.0,0.0,0.0,0.0
redo_RPB004_18,barcode01,Staphylococcus epidermidis,NC_005006_1,8007.0,0.0,0.0,0.0,0.0,0.0
redo_RPB004_18,barcode01,Staphylococcus epidermidis,NC_005005_1,17261.0,0.0,0.0,0.0,0.0,0.0
redo_RPB004_18,barcode01,Staphylococcus epidermidis,NC_005004_1,24365.0,0.0,0.0,0.0,0.0,0.0
redo_RPB004_18,barcode01,Staphylococcus epidermidis,NC_005003_1,6585.0,0.0,0.0,0.0,0.0,0.0
redo_RPB004_18,barcode01,Staphylococcus hominis,NZ_CP020618_1,2253412.0,0.0755299075,1.0,1702.0,0.0,0.0
redo_RPB004_18,barcode01,Thioalkalivibrio paradoxus,NZ_CP007029_1,3756729.0,0.0104612284,1.9440203562,393.0,0.0,0.0
redo_RPB004_18,barcode01,Veillonella parvula,NC_013520_1,2132142.0,0.2895210544,3.212538474,6173.0,2816.0,0.0
redo_RPB004_18,barcode01,Veillonella rodentium,NZ_LT906470_1,2041290.0,0.0499684023,1.0,1020.0,0.0,0.0
redo_RPB004_18,barcode02,Acinetobacter guillouiae,NZ_AP014630_1,4648418.0,0.033108038,1.0,1539.0,0.0,0.0
redo_RPB004_18,barcode02,Acinetobacter johnsonii,NZ_CP010350_1,3509795.0,0.044390057,1.0,1558.0,0.0,0.0
redo_RPB004_18,barcode02,Acinetobacter johnsonii,NZ_CP010352_1,3978.0,0.0,0.0,0.0,0.0,0.0
redo_RPB004_18,barcode02,Acinetobacter johnsonii,NZ_CP010353_1,4724.0,0.0,0.0,0.0,0.0,0.0
redo_RPB004_18,barcode02,Acinetobacter johnsonii,NZ_CP010354_1,11643.0,0.0,0.0,0.0,0.0,0.0
redo_RPB004_18,barcode02,Acinetobacter johnsonii,NZ_CP010355_1,7579.0,0.0,0.0,0.0,0.0,0.0
redo_RPB004_18,barcode02,Acinetobacter johnsonii,NZ_CP010356_1,13940.0,0.0,0.0,0.0,0.0,0.0
redo_RPB004_18,barcode02,Acinetobacter johnsonii,NZ_CP010357_1,13330.0,0.0,0.0,0.0,0.0,0.0
redo_RPB004_18,barcode02,Acinetobacter johnsonii,NZ_CP010358_1,117483.0,0.0,0.0,0.0,0.0,0.0
redo_RPB004_18,barcode02,Acinetobacter johnsonii,NZ_CP010351_1,398857.0,0.0,0.0,0.0,0.0,0.0
redo_RPB004_18,barcode02,Beutenbergia cavernae,NC_012669_1,4669183.0,0.0211171847,1.8995943205,986.0,0.0,0.0
redo_RPB004_18,barcode02,Conexibacter woesei,NC_013739_1,6359369.0,0.0141208978,1.0,898.0,0.0,0.0
redo_RPB004_18,barcode02,Cutibacterium acnes,NC_006085_1,2560265.0,0.4382358857,4.8913547237,11220.0,3105.0,3072.0
redo_RPB004_18,barcode02,Escherichia coli,NC_000913_3,4641652.0,0.3110745915,6.8769997922,14439.0,6178.0,3629.0
redo_RPB004_18,barcode02,Exiguobacterium sp. AT1b,NC_012673_1,2999895.0,0.0439348711,1.0,1318.0,0.0,0.0
redo_RPB004_18,barcode02,Kocuria rhizophila,NC_010617_1,2697540.0,0.0454117455,1.0,1225.0,0.0,0.0
redo_RPB004_18,barcode02,Nocardioides daphniae,NZ_CP038462_1,3558816.0,0.0517025887,1.0,1840.0,0.0,0.0
redo_RPB004_18,barcode02,Pseudonocardia sp. HH130629-09,NZ_CP011868_1,6058802.0,0.0096223643,1.0,583.0,0.0,0.0
redo_RPB004_18,barcode02,Pseudonocardia sp. HH130629-09,NZ_CP011869_1,242173.0,0.0,0.0,0.0,0.0,0.0
redo_RPB004_18,barcode02,Pseudorhodoplanes sinuspersici,NZ_CP021112_1,5971615.0,0.0391518877,2.8656971771,2338.0,0.0,0.0
redo_RPB004_18,barcode02,Rhodoplanes sp. Z2-YC6860,NZ_CP007440_1,8193889.0,0.0378452771,3.1267333118,3101.0,0.0,0.0
redo_RPB004_18,barcode02,Shewanella sp. FDAARGOS_354,NZ_CP022089_2,5031863.0,0.2019132874,10.0228346457,10160.0,6774.0,6717.0
redo_RPB004_18,barcode02,Shewanella sp. FDAARGOS_354,NZ_CP022090_2,38118.0,0.0,0.0,0.0,0.0,0.0
redo_RPB004_18,barcode02,Shewanella sp. MR-4,NC_008321_1,4706287.0,0.0341883102,2.5500310752,1609.0,0.0,0.0
redo_RPB004_18,barcode02,Shewanella sp. MR-7,NC_008322_1,4792610.0,0.0272711529,13.6595256312,1307.0,1305.0,1293.0
redo_RPB004_18,barcode02,Shewanella sp. MR-7,NC_008320_1,6499.0,0.0,0.0,0.0,0.0,0.0
redo_RPB004_18,barcode02,Shewanella sp. W3-18-1,NC_008750_1,4708380.0,0.3258233193,8.7511896226,15341.0,3270.0,3269.0
redo_RPB004_18,barcode02,Shigella dysenteriae,NC_007606_1,4369232.0,0.0384278061,1.0,1679.0,0.0,0.0
redo_RPB004_18,barcode02,Shigella dysenteriae,NC_009344_1,8953.0,0.0,0.0,0.0,0.0,0.0
redo_RPB004_18,barcode02,Shigella dysenteriae,NC_007607_1,182726.0,0.0,0.0,0.0,0.0,0.0
redo_RPB004_18,barcode02,Shigella flexneri,NC_004337_2,4607202.0,0.0552178958,1.9512578616,2544.0,0.0,0.0
redo_RPB004_18,barcode02,Shigella flexneri,NC_004851_1,221618.0,0.0,0.0,0.0,0.0,0.0
redo_RPB004_18,barcode02,Sphingomonas sp. Cra20,NZ_CP024923_1,4882990.0,0.0323572238,1.0,1580.0,0.0,0.0
redo_RPB004_18,barcode02,Sphingomonas sp. Cra20,NZ_CP024924_1,155488.0,0.0,0.0,0.0,0.0,0.0
redo_RPB004_18,barcode02,Staphylococcus aureus,NC_007795_1,2821361.0,1.4207327598,4.6118650833,40084.0,8616.0,4667.0
redo_RPB004_18,barcode02,Streptococcus oralis,NC_015291_1,1958690.0,0.792417381,15.1345918433,15521.0,11755.0,4656.0
redo_RPB004_18,barcode02,Streptococcus sp. I-G2,NC_022584_1,1992567.0,0.0555062891,1.0,1106.0,0.0,0.0
redo_RPB004_18,barcode02,Veillonella parvula,NC_013520_1,2132142.0,0.2975411581,6.1830075662,6344.0,2328.0,2258.0
redo_RPB004_18,barcode08,Acinetobacter baumannii,NZ_CP009257_1,4335793.0,0.0175285121,1.0,760.0,0.0,0.0
redo_RPB004_18,barcode08,Acinetobacter haemolyticus,NZ_CP018871_1,3442728.0,0.0213493485,1.0,735.0,0.0,0.0
redo_RPB004_18,barcode08,Acinetobacter haemolyticus,NZ_CP018872_1,56602.0,0.0,0.0,0.0,0.0,0.0
redo_RPB004_18,barcode08,Acinetobacter haemolyticus,NZ_CP018873_1,39508.0,1.3364381897,1.0,528.0,0.0,0.0
redo_RPB004_18,barcode08,Acinetobacter indicus,NZ_CP024620_2,3157380.0,0.1163939722,1.0,3675.0,0.0,0.0
redo_RPB004_18,barcode08,Acinetobacter johnsonii,NZ_CP010350_1,3509795.0,0.0170950155,1.0,600.0,0.0,0.0
redo_RPB004_18,barcode08,Acinetobacter johnsonii,NZ_CP010352_1,3978.0,0.0,0.0,0.0,0.0,0.0
redo_RPB004_18,barcode08,Acinetobacter johnsonii,NZ_CP010353_1,4724.0,0.0,0.0,0.0,0.0,0.0
redo_RPB004_18,barcode08,Acinetobacter johnsonii,NZ_CP010354_1,11643.0,0.0,0.0,0.0,0.0,0.0
redo_RPB004_18,barcode08,Acinetobacter johnsonii,NZ_CP010355_1,7579.0,0.0,0.0,0.0,0.0,0.0
redo_RPB004_18,barcode08,Acinetobacter johnsonii,NZ_CP010356_1,13940.0,0.0,0.0,0.0,0.0,0.0
redo_RPB004_18,barcode08,Acinetobacter johnsonii,NZ_CP010357_1,13330.0,0.0,0.0,0.0,0.0,0.0
redo_RPB004_18,barcode08,Acinetobacter johnsonii,NZ_CP010358_1,117483.0,0.0,0.0,0.0,0.0,0.0
redo_RPB004_18,barcode08,Acinetobacter johnsonii,NZ_CP010351_1,398857.0,0.0,0.0,0.0,0.0,0.0
redo_RPB004_18,barcode08,Acinetobacter oleivorans,NC_014259_1,4152543.0,0.0670673368,1.0,2785.0,0.0,0.0
redo_RPB004_18,barcode08,Acinetobacter radioresistens,NZ_CP027365_1,3132860.0,1.1930632074,1.169168205,37377.0,0.0,0.0
redo_RPB004_18,barcode08,Acinetobacter schindleri,NZ_CP015615_1,3001209.0,1.2108453627,1.2629058888,36340.0,0.0,0.0
redo_RPB004_18,barcode08,Acinetobacter schindleri,NZ_CP015616_1,179461.0,0.0,0.0,0.0,0.0,0.0
redo_RPB004_18,barcode08,Acinetobacter schindleri,NZ_CP015617_1,45079.0,0.0,0.0,0.0,0.0,0.0
redo_RPB004_18,barcode08,Acinetobacter schindleri,NZ_CP015618_1,14058.0,0.0,0.0,0.0,0.0,0.0
redo_RPB004_18,barcode08,Acinetobacter schindleri,NZ_CP015619_1,10218.0,0.0,0.0,0.0,0.0,0.0
redo_RPB004_18,barcode08,Acinetobacter schindleri,NZ_CP015620_1,10085.0,0.0,0.0,0.0,0.0,0.0
redo_RPB004_18,barcode08,Acinetobacter schindleri,NZ_CP015621_1,7943.0,0.0,0.0,0.0,0.0,0.0
redo_RPB004_18,barcode08,Acinetobacter sp. ACNIH1,NZ_CP026420_1,3307251.0,0.5919115301,1.1309256232,19576.0,0.0,0.0
redo_RPB004_18,barcode08,Acinetobacter sp. ACNIH1,NZ_CP026424_1,18295.0,0.0,0.0,0.0,0.0,0.0
redo_RPB004_18,barcode08,Acinetobacter sp. ACNIH1,NZ_CP026421_1,11503.0,0.0,0.0,0.0,0.0,0.0
redo_RPB004_18,barcode08,Acinetobacter sp. ACNIH1,NZ_CP026422_1,13080.0,0.0,0.0,0.0,0.0,0.0
redo_RPB004_18,barcode08,Acinetobacter sp. ACNIH1,NZ_CP026423_1,40249.0,0.0,0.0,0.0,0.0,0.0
redo_RPB004_18,barcode08,Acinetobacter sp. ACNIH1,NZ_CP026426_1,257654.0,1.2745775342,1.0,3284.0,0.0,0.0
redo_RPB004_18,barcode08,Acinetobacter sp. ACNIH1,NZ_CP026425_1,39361.0,0.0,0.0,0.0,0.0,0.0
redo_RPB004_18,barcode08,Acinetobacter sp. ACNIH1,NZ_CP026427_1,8765.0,0.0,0.0,0.0,0.0,0.0
redo_RPB004_18,barcode08,Acinetobacter sp. LoGeW2-3,NZ_CP024011_1,3178335.0,0.0626113987,1.0,1990.0,0.0,0.0
redo_RPB004_18,barcode08,Acinetobacter sp. LoGeW2-3,NZ_CP024012_1,179399.0,0.0,0.0,0.0,0.0,0.0
redo_RPB004_18,barcode08,Acinetobacter sp. NCu2D-2,NZ_CP015594_1,2738313.0,0.0490082763,1.0,1342.0,0.0,0.0
redo_RPB004_18,barcode08,Acinetobacter sp. NCu2D-2,NZ_CP015595_1,309964.0,0.0,0.0,0.0,0.0,0.0
redo_RPB004_18,barcode08,Acinetobacter sp. WCHAc010034,NZ_CP032279_1,3630637.0,0.0426096027,1.0,1547.0,0.0,0.0
redo_RPB004_18,barcode08,Acinetobacter sp. WCHAc010034,NZ_CP032267_1,3470.0,0.0,0.0,0.0,0.0,0.0
redo_RPB004_18,barcode08,Acinetobacter sp. WCHAc010034,NZ_CP032269_1,2817.0,0.0,0.0,0.0,0.0,0.0
redo_RPB004_18,barcode08,Acinetobacter sp. WCHAc010034,NZ_CP032268_1,66814.0,0.0,0.0,0.0,0.0,0.0
redo_RPB004_18,barcode08,Acinetobacter sp. WCHAc010034,NZ_CP032270_1,14502.0,0.0,0.0,0.0,0.0,0.0
redo_RPB004_18,barcode08,Acinetobacter sp. WCHAc010034,NZ_CP032271_1,13204.0,0.0,0.0,0.0,0.0,0.0
redo_RPB004_18,barcode08,Acinetobacter sp. WCHAc010034,NZ_CP032272_1,12457.0,0.0,0.0,0.0,0.0,0.0
redo_RPB004_18,barcode08,Acinetobacter sp. WCHAc010034,NZ_CP032273_1,11378.0,0.0,0.0,0.0,0.0,0.0
redo_RPB004_18,barcode08,Acinetobacter sp. WCHAc010034,NZ_CP032274_1,10922.0,0.0,0.0,0.0,0.0,0.0
redo_RPB004_18,barcode08,Acinetobacter sp. WCHAc010034,NZ_CP032275_1,10090.0,0.0,0.0,0.0,0.0,0.0
redo_RPB004_18,barcode08,Acinetobacter sp. WCHAc010034,NZ_CP032276_1,8540.0,0.0,0.0,0.0,0.0,0.0
redo_RPB004_18,barcode08,Acinetobacter sp. WCHAc010034,NZ_CP032277_1,5934.0,0.0,0.0,0.0,0.0,0.0
redo_RPB004_18,barcode08,Acinetobacter sp. WCHAc010034,NZ_CP032278_1,49649.0,0.0,0.0,0.0,0.0,0.0
redo_RPB004_18,barcode08,Acinetobacter ursingii,NZ_AP018824_1,3429552.0,0.1936112938,1.0,6640.0,0.0,0.0
redo_RPB004_18,barcode08,Acinetobacter ursingii,NZ_AP018825_1,105528.0,0.0,0.0,0.0,0.0,0.0
redo_RPB004_18,barcode08,Acinetobacter ursingii,NZ_AP018826_1,33916.0,0.0,0.0,0.0,0.0,0.0
redo_RPB004_18,barcode08,Escherichia coli,NC_000913_3,4641652.0,0.0959356712,1.0,4453.0,0.0,0.0
redo_RPB004_18,barcode08,Escherichia fergusonii,NC_011740_1,4588711.0,0.0643317917,1.0,2952.0,0.0,0.0
redo_RPB004_18,barcode08,Escherichia fergusonii,NC_011743_1,55150.0,0.0,0.0,0.0,0.0,0.0
redo_RPB004_18,barcode08,Ketogulonicigenium robustum,NZ_CP019937_1,2452467.0,0.028257261,1.0,693.0,0.0,0.0
redo_RPB004_18,barcode08,Ketogulonicigenium robustum,NZ_CP019938_1,226430.0,0.0,0.0,0.0,0.0,0.0
redo_RPB004_18,barcode08,Ketogulonicigenium robustum,NZ_CP019939_1,19694.0,0.0,0.0,0.0,0.0,0.0
redo_RPB004_18,barcode08,Ketogulonicigenium robustum,NZ_CP019940_1,7028.0,0.0,0.0,0.0,0.0,0.0
redo_RPB004_18,barcode08,Ketogulonicigenium robustum,NZ_CP019941_1,4005.0,0.0,0.0,0.0,0.0,0.0
redo_RPB004_18,barcode08,Ketogulonicigenium robustum,NZ_CP019942_1,4211.0,0.0,0.0,0.0,0.0,0.0
redo_RPB004_18,barcode08,Moraxella osloensis,NZ_CP014234_1,2434688.0,2.2942980784,1.4505988292,55859.0,0.0,0.0
redo_RPB004_18,barcode08,Moraxella osloensis,NZ_CP014238_1,40342.0,0.0,0.0,0.0,0.0,0.0
redo_RPB004_18,barcode08,Moraxella osloensis,NZ_CP014237_1,35189.0,0.0,0.0,0.0,0.0,0.0
redo_RPB004_18,barcode08,Moraxella osloensis,NZ_CP014236_1,57463.0,0.0,0.0,0.0,0.0,0.0
redo_RPB004_18,barcode08,Moraxella osloensis,NZ_CP014235_1,81455.0,0.0,0.0,0.0,0.0,0.0
redo_RPB004_18,barcode08,Pseudomonas aeruginosa,NC_002516_2,6264404.0,6.2157708858,1.2735855114,389381.0,200.0,0.0
redo_RPB004_18,barcode08,Pseudomonas monteilii,NZ_CP013997_1,4714359.0,0.0608990533,1.0,2871.0,0.0,0.0
redo_RPB004_18,barcode08,Pseudomonas oryzihabitans,NZ_CP013987_1,4834356.0,0.1393567209,1.0,6737.0,0.0,0.0
redo_RPB004_18,barcode08,Pseudomonas phage JBD44,NC_030929_1,49033.0,13.992617217,2.0294417723,6861.0,0.0,0.0
redo_RPB004_18,barcode08,Pseudomonas psychrotolerans,NZ_CP018758_1,5271920.0,0.0533961062,1.0,2815.0,0.0,0.0
redo_RPB004_18,barcode08,Pseudomonas psychrotolerans,NZ_CP018759_1,114250.0,0.0,0.0,0.0,0.0,0.0
redo_RPB004_18,barcode08,Staphylococcus capitis,NZ_CP007601_1,2443604.0,0.0683007558,1.0431396046,1669.0,0.0,0.0
redo_RPB004_18,barcode08,Staphylococcus capitis,NZ_CP007602_1,59661.0,0.0,0.0,0.0,0.0,0.0
redo_RPB004_18,barcode09,Acinetobacter baumannii,NZ_CP009257_1,4335793.0,0.0879193264,1.0,3812.0,0.0,0.0
redo_RPB004_18,barcode09,Acinetobacter haemolyticus,NZ_CP018871_1,3442728.0,0.1005888354,1.0,3463.0,0.0,0.0
redo_RPB004_18,barcode09,Acinetobacter haemolyticus,NZ_CP018872_1,56602.0,0.0,0.0,0.0,0.0,0.0
redo_RPB004_18,barcode09,Acinetobacter haemolyticus,NZ_CP018873_1,39508.0,0.0,0.0,0.0,0.0,0.0
redo_RPB004_18,barcode09,Acinetobacter indicus,NZ_CP024620_2,3157380.0,0.2045366728,1.2895633323,6458.0,0.0,0.0
redo_RPB004_18,barcode09,Acinetobacter johnsonii,NZ_CP010350_1,3509795.0,0.0584934448,1.0,2053.0,0.0,0.0
redo_RPB004_18,barcode09,Acinetobacter johnsonii,NZ_CP010352_1,3978.0,0.0,0.0,0.0,0.0,0.0
redo_RPB004_18,barcode09,Acinetobacter johnsonii,NZ_CP010353_1,4724.0,0.0,0.0,0.0,0.0,0.0
redo_RPB004_18,barcode09,Acinetobacter johnsonii,NZ_CP010354_1,11643.0,0.0,0.0,0.0,0.0,0.0
redo_RPB004_18,barcode09,Acinetobacter johnsonii,NZ_CP010355_1,7579.0,0.0,0.0,0.0,0.0,0.0
redo_RPB004_18,barcode09,Acinetobacter johnsonii,NZ_CP010356_1,13940.0,0.0,0.0,0.0,0.0,0.0
redo_RPB004_18,barcode09,Acinetobacter johnsonii,NZ_CP010357_1,13330.0,0.0,0.0,0.0,0.0,0.0
redo_RPB004_18,barcode09,Acinetobacter johnsonii,NZ_CP010358_1,117483.0,0.0,0.0,0.0,0.0,0.0
redo_RPB004_18,barcode09,Acinetobacter johnsonii,NZ_CP010351_1,398857.0,0.0,0.0,0.0,0.0,0.0
redo_RPB004_18,barcode09,Acinetobacter radioresistens,NZ_CP027365_1,3132860.0,0.2397489834,3.2163493543,7511.0,0.0,0.0
redo_RPB004_18,barcode09,Acinetobacter schindleri,NZ_CP015615_1,3001209.0,1.0284188805,2.5144662239,30865.0,8942.0,0.0
redo_RPB004_18,barcode09,Acinetobacter schindleri,NZ_CP015616_1,179461.0,0.0,0.0,0.0,0.0,0.0
redo_RPB004_18,barcode09,Acinetobacter schindleri,NZ_CP015617_1,45079.0,0.0,0.0,0.0,0.0,0.0
redo_RPB004_18,barcode09,Acinetobacter schindleri,NZ_CP015618_1,14058.0,0.0,0.0,0.0,0.0,0.0
redo_RPB004_18,barcode09,Acinetobacter schindleri,NZ_CP015619_1,10218.0,0.0,0.0,0.0,0.0,0.0
redo_RPB004_18,barcode09,Acinetobacter schindleri,NZ_CP015620_1,10085.0,0.0,0.0,0.0,0.0,0.0
redo_RPB004_18,barcode09,Acinetobacter schindleri,NZ_CP015621_1,7943.0,0.0,0.0,0.0,0.0,0.0
redo_RPB004_18,barcode09,Acinetobacter sp. ACNIH1,NZ_CP026420_1,3307251.0,0.4211957302,2.0657573582,13930.0,0.0,0.0
redo_RPB004_18,barcode09,Acinetobacter sp. ACNIH1,NZ_CP026424_1,18295.0,2.3558349276,1.0,431.0,0.0,0.0
redo_RPB004_18,barcode09,Acinetobacter sp. ACNIH1,NZ_CP026421_1,11503.0,0.0,0.0,0.0,0.0,0.0
redo_RPB004_18,barcode09,Acinetobacter sp. ACNIH1,NZ_CP026422_1,13080.0,0.0,0.0,0.0,0.0,0.0
redo_RPB004_18,barcode09,Acinetobacter sp. ACNIH1,NZ_CP026423_1,40249.0,0.0,0.0,0.0,0.0,0.0
redo_RPB004_18,barcode09,Acinetobacter sp. ACNIH1,NZ_CP026426_1,257654.0,0.0,0.0,0.0,0.0,0.0
redo_RPB004_18,barcode09,Acinetobacter sp. ACNIH1,NZ_CP026425_1,39361.0,0.0,0.0,0.0,0.0,0.0
redo_RPB004_18,barcode09,Acinetobacter sp. ACNIH1,NZ_CP026427_1,8765.0,0.0,0.0,0.0,0.0,0.0
redo_RPB004_18,barcode09,Acinetobacter sp. LoGeW2-3,NZ_CP024011_1,3178335.0,0.1578814065,1.0,5018.0,0.0,0.0
redo_RPB004_18,barcode09,Acinetobacter sp. LoGeW2-3,NZ_CP024012_1,179399.0,0.0,0.0,0.0,0.0,0.0
redo_RPB004_18,barcode09,Acinetobacter sp. NCu2D-2,NZ_CP015594_1,2738313.0,0.0490447951,1.0,1343.0,0.0,0.0
redo_RPB004_18,barcode09,Acinetobacter sp. NCu2D-2,NZ_CP015595_1,309964.0,0.0,0.0,0.0,0.0,0.0
redo_RPB004_18,barcode09,Acinetobacter sp. SWBY1,NZ_CP026616_1,2914878.0,0.1053217322,1.0,3070.0,0.0,0.0
redo_RPB004_18,barcode09,Acinetobacter sp. SWBY1,NZ_CP026617_1,38161.0,0.0,0.0,0.0,0.0,0.0
redo_RPB004_18,barcode09,Acinetobacter sp. TGL-Y2,NZ_CP015110_1,3383728.0,0.012382792,1.0,419.0,0.0,0.0
redo_RPB004_18,barcode09,Acinetobacter sp. TGL-Y2,NZ_CP015111_1,298877.0,0.0,0.0,0.0,0.0,0.0
redo_RPB004_18,barcode09,Acinetobacter sp. TGL-Y2,NZ_CP015112_1,8682.0,0.0,0.0,0.0,0.0,0.0
redo_RPB004_18,barcode09,Acinetobacter sp. TTH0-4,NZ_CP012608_1,2962453.0,0.1227023686,1.0,3635.0,0.0,0.0
redo_RPB004_18,barcode09,Acinetobacter sp. WCHAc010005,NZ_CP032134_1,3600635.0,0.0115257448,1.0,415.0,0.0,0.0
redo_RPB004_18,barcode09,Acinetobacter sp. WCHAc010005,NZ_CP032127_1,18155.0,0.0,0.0,0.0,0.0,0.0
redo_RPB004_18,barcode09,Acinetobacter sp. WCHAc010005,NZ_CP032128_1,5433.0,0.0,0.0,0.0,0.0,0.0
redo_RPB004_18,barcode09,Acinetobacter sp. WCHAc010005,NZ_CP032129_1,4353.0,0.0,0.0,0.0,0.0,0.0
redo_RPB004_18,barcode09,Acinetobacter sp. WCHAc010005,NZ_CP032130_1,1398.0,0.0,0.0,0.0,0.0,0.0
redo_RPB004_18,barcode09,Acinetobacter sp. WCHAc010005,NZ_CP032131_1,1243.0,0.0,0.0,0.0,0.0,0.0
redo_RPB004_18,barcode09,Acinetobacter sp. WCHAc010005,NZ_CP032132_1,39357.0,0.0,0.0,0.0,0.0,0.0
redo_RPB004_18,barcode09,Acinetobacter sp. WCHAc010005,NZ_CP032133_1,66715.0,0.0,0.0,0.0,0.0,0.0
redo_RPB004_18,barcode09,Acinetobacter sp. WCHAc010034,NZ_CP032279_1,3630637.0,0.0567668979,1.0,2061.0,0.0,0.0
redo_RPB004_18,barcode09,Acinetobacter sp. WCHAc010034,NZ_CP032267_1,3470.0,0.0,0.0,0.0,0.0,0.0
redo_RPB004_18,barcode09,Acinetobacter sp. WCHAc010034,NZ_CP032269_1,2817.0,0.0,0.0,0.0,0.0,0.0
redo_RPB004_18,barcode09,Acinetobacter sp. WCHAc010034,NZ_CP032268_1,66814.0,0.0,0.0,0.0,0.0,0.0
redo_RPB004_18,barcode09,Acinetobacter sp. WCHAc010034,NZ_CP032270_1,14502.0,0.0,0.0,0.0,0.0,0.0
redo_RPB004_18,barcode09,Acinetobacter sp. WCHAc010034,NZ_CP032271_1,13204.0,0.0,0.0,0.0,0.0,0.0
redo_RPB004_18,barcode09,Acinetobacter sp. WCHAc010034,NZ_CP032272_1,12457.0,0.0,0.0,0.0,0.0,0.0
redo_RPB004_18,barcode09,Acinetobacter sp. WCHAc010034,NZ_CP032273_1,11378.0,0.0,0.0,0.0,0.0,0.0
redo_RPB004_18,barcode09,Acinetobacter sp. WCHAc010034,NZ_CP032274_1,10922.0,0.0,0.0,0.0,0.0,0.0
redo_RPB004_18,barcode09,Acinetobacter sp. WCHAc010034,NZ_CP032275_1,10090.0,0.0,0.0,0.0,0.0,0.0
redo_RPB004_18,barcode09,Acinetobacter sp. WCHAc010034,NZ_CP032276_1,8540.0,0.0,0.0,0.0,0.0,0.0
redo_RPB004_18,barcode09,Acinetobacter sp. WCHAc010034,NZ_CP032277_1,5934.0,0.0,0.0,0.0,0.0,0.0
redo_RPB004_18,barcode09,Acinetobacter sp. WCHAc010034,NZ_CP032278_1,49649.0,0.0,0.0,0.0,0.0,0.0
redo_RPB004_18,barcode09,Cutibacterium acnes,NC_006085_1,2560265.0,0.2732139056,2.0315939957,6995.0,0.0,0.0
redo_RPB004_18,barcode09,Escherichia coli,NC_000913_3,4641652.0,0.0977884598,1.0,4539.0,0.0,0.0
redo_RPB004_18,barcode09,Moraxella osloensis,NZ_CP014234_1,2434688.0,0.4610447006,2.1461915367,11225.0,0.0,0.0
redo_RPB004_18,barcode09,Moraxella osloensis,NZ_CP014238_1,40342.0,0.0,0.0,0.0,0.0,0.0
redo_RPB004_18,barcode09,Moraxella osloensis,NZ_CP014237_1,35189.0,0.0,0.0,0.0,0.0,0.0
redo_RPB004_18,barcode09,Moraxella osloensis,NZ_CP014236_1,57463.0,0.0,0.0,0.0,0.0,0.0
redo_RPB004_18,barcode09,Moraxella osloensis,NZ_CP014235_1,81455.0,0.0,0.0,0.0,0.0,0.0
redo_RPB004_18,barcode09,Pseudomonas oryzihabitans,NZ_CP013987_1,4834356.0,0.0907256313,1.0,4386.0,0.0,0.0
redo_RPB004_18,barcode09,Pseudomonas psychrotolerans,NZ_CP018758_1,5271920.0,0.1015758964,2.9142857143,5355.0,0.0,0.0
redo_RPB004_18,barcode09,Pseudomonas psychrotolerans,NZ_CP018759_1,114250.0,0.0,0.0,0.0,0.0,0.0
redo_RPB004_18,barcode09,Staphylococcus capitis,NZ_CP007601_1,2443604.0,0.0799229335,1.0,1953.0,0.0,0.0
redo_RPB004_18,barcode09,Staphylococcus capitis,NZ_CP007602_1,59661.0,0.0,0.0,0.0,0.0,0.0
redo_RPB004_18,barcode11,Aeromonas caviae,NZ_CP026055_1,4518310.0,0.0515458213,1.0042936883,2329.0,0.0,0.0
redo_RPB004_18,barcode11,Cutibacterium acnes,NC_006085_1,2560265.0,1.7264619092,2.0685489344,44202.0,4344.0,0.0
redo_RPB004_18,barcode11,Egicoccus halophilus,NZ_CP036250_1,3980161.0,0.0328881168,1.0,1309.0,0.0,0.0
redo_RPB004_18,barcode11,Escherichia coli,NC_000913_3,4641652.0,0.401516529,1.6559532114,18637.0,0.0,0.0
redo_RPB004_18,barcode11,Neisseria mucosa,NZ_CP028150_1,2688408.0,0.1947993013,1.3570746611,5237.0,0.0,0.0
redo_RPB004_18,barcode11,Neisseria sp. 10022,NZ_CP023429_1,2511904.0,0.0178748869,1.0,449.0,0.0,0.0
redo_RPB004_18,barcode11,Neisseria subflava,NZ_CP031251_1,2321871.0,0.0485815103,1.0,1128.0,0.0,0.0
redo_RPB004_18,barcode11,Shewanella sp. FDAARGOS_354,NZ_CP022089_2,5031863.0,0.2092664288,2.2108262108,10530.0,3.0,0.0
redo_RPB004_18,barcode11,Shewanella sp. FDAARGOS_354,NZ_CP022090_2,38118.0,0.0,0.0,0.0,0.0,0.0
redo_RPB004_18,unclassified,Acinetobacter haemolyticus,NZ_CP018871_1,3442728.0,0.0304700226,1.0,1049.0,0.0,0.0
redo_RPB004_18,unclassified,Acinetobacter haemolyticus,NZ_CP018872_1,56602.0,0.0,0.0,0.0,0.0,0.0
redo_RPB004_18,unclassified,Acinetobacter haemolyticus,NZ_CP018873_1,39508.0,0.0,0.0,0.0,0.0,0.0
redo_RPB004_18,unclassified,Acinetobacter radioresistens,NZ_CP027365_1,3132860.0,0.2652528361,1.0,8310.0,0.0,0.0
redo_RPB004_18,unclassified,Acinetobacter schindleri,NZ_CP015615_1,3001209.0,0.2799871652,1.0,8403.0,0.0,0.0
redo_RPB004_18,unclassified,Acinetobacter schindleri,NZ_CP015616_1,179461.0,0.0,0.0,0.0,0.0,0.0
redo_RPB004_18,unclassified,Acinetobacter schindleri,NZ_CP015617_1,45079.0,0.0,0.0,0.0,0.0,0.0
redo_RPB004_18,unclassified,Acinetobacter schindleri,NZ_CP015618_1,14058.0,0.0,0.0,0.0,0.0,0.0
redo_RPB004_18,unclassified,Acinetobacter schindleri,NZ_CP015619_1,10218.0,0.0,0.0,0.0,0.0,0.0
redo_RPB004_18,unclassified,Acinetobacter schindleri,NZ_CP015620_1,10085.0,0.0,0.0,0.0,0.0,0.0
redo_RPB004_18,unclassified,Acinetobacter schindleri,NZ_CP015621_1,7943.0,0.0,0.0,0.0,0.0,0.0
redo_RPB004_18,unclassified,Moraxella osloensis,NZ_CP014234_1,2434688.0,0.0883891488,1.0,2152.0,0.0,0.0
redo_RPB004_18,unclassified,Moraxella osloensis,NZ_CP014238_1,40342.0,0.0,0.0,0.0,0.0,0.0
redo_RPB004_18,unclassified,Moraxella osloensis,NZ_CP014237_1,35189.0,0.0,0.0,0.0,0.0,0.0
redo_RPB004_18,unclassified,Moraxella osloensis,NZ_CP014236_1,57463.0,0.0,0.0,0.0,0.0,0.0
redo_RPB004_18,unclassified,Moraxella osloensis,NZ_CP014235_1,81455.0,0.0,0.0,0.0,0.0,0.0
redo_RPB004_18,unclassified,Pseudomonas aeruginosa,NC_002516_2,6264404.0,0.2802181979,1.0,17554.0,0.0,0.0
redo_RPB004_18,unclassified,Shewanella sp. FDAARGOS_354,NZ_CP022089_2,5031863.0,0.017687286,1.0,890.0,0.0,0.0
redo_RPB004_18,unclassified,Shewanella sp. FDAARGOS_354,NZ_CP022090_2,38118.0,0.0,0.0,0.0,0.0,0.0
redo_RPB004_18,unclassified,Shewanella sp. W3-18-1,NC_008750_1,4708380.0,0.0680064056,1.0,3202.0,0.0,0.0
redo_RPB004_18,unclassified,Staphylococcus aureus,NC_007795_1,2821361.0,0.1470566865,1.0,4149.0,0.0,0.0
redo_RPB004_18,unclassified,Streptococcus oralis,NC_015291_1,1958690.0,0.229643282,1.0,4498.0,0.0,0.0
