Run_name,Barcode,Taxid,Bases,Reads
redo_RPB004_21,barcode09,Moraxella osloensis,80538,18
redo_RPB004_21,barcode09,Staphylococcus lugdunensis,331467,86
redo_RPB004_21,barcode10,Staphylococcus lugdunensis,14938326,4022
redo_RPB004_21,barcode01,Staphylococcus lugdunensis,928595,239
redo_RPB004_21,barcode03,Staphylococcus lugdunensis,3292,1
redo_RPB004_21,barcode05,Staphylococcus lugdunensis,111177524,29270
redo_RPB004_21,barcode02,Staphylococcus lugdunensis,62843184,17184
redo_RPB004_21,barcode04,Staphylococcus lugdunensis,538411,157
redo_RPB004_21,barcode07,Escherichia coli,41684,18
redo_RPB004_21,unclassified,Staphylococcus lugdunensis,2442526,795
