Run_name,Barcode,Taxid,Bases,Reads
redo_RPB004_50,barcode11,Bacillus subtilis,431258,104
redo_RPB004_50,barcode11,Escherichia coli,865947,215
redo_RPB004_50,barcode07,Staphylococcus epidermidis,46191758,11406
redo_RPB004_50,barcode05,Staphylococcus epidermidis,2017745,1742
redo_RPB004_50,barcode09,Bacillus subtilis,180092,53
redo_RPB004_50,barcode09,Escherichia coli,189326,52
redo_RPB004_50,barcode10,Bacillus subtilis,27018,13
redo_RPB004_50,barcode10,Escherichia coli,68686,28
redo_RPB004_50,barcode06,Staphylococcus epidermidis,69473425,21014
redo_RPB004_50,barcode01,Staphylococcus epidermidis,817505,827
redo_RPB004_50,unclassified,Staphylococcus epidermidis,2879683,1007
redo_RPB004_50,barcode11,Shigella virus SfMu,2816,1
redo_RPB004_50,barcode05,Human endogenous retrovirus K,878,1
redo_RPB004_50,barcode05,Staphylococcus phage StB20-like,1180,1
redo_RPB004_50,barcode05,Proteus phage VB_PmiS-Isfahan,411,2
redo_RPB004_50,barcode06,Escherichia virus Mu,3779,1
redo_RPB004_50,barcode01,Proteus phage VB_PmiS-Isfahan,1135,2
redo_RPB004_50,barcode01,Escherichia virus T7,871,1
