Run_name,Barcode,Taxid,Bases,Reads
redo_RPB004_28,barcode06,Staphylococcus aureus,49074084,15234
redo_RPB004_28,barcode09,Staphylococcus aureus,188002206,47398
redo_RPB004_28,barcode09,Staphylococcus epidermidis,960342182,294757
redo_RPB004_28,barcode11,Staphylococcus capitis,209561023,70197
redo_RPB004_28,barcode07,Staphylococcus aureus,934153615,272653
redo_RPB004_28,barcode02,Staphylococcus aureus,18134,9
redo_RPB004_28,barcode02,Staphylococcus epidermidis,32915,12
redo_RPB004_28,unclassified,Staphylococcus aureus,38367562,16758
redo_RPB004_28,unclassified,Staphylococcus epidermidis,39287301,19251
redo_RPB004_28,barcode03,Staphylococcus capitis,2320,1
redo_RPB004_28,barcode03,Staphylococcus epidermidis,7285,5
redo_RPB004_28,barcode12a,Staphylococcus aureus,6342,3
redo_RPB004_28,barcode05,Staphylococcus aureus,4634,1
redo_RPB004_28,barcode05,Staphylococcus epidermidis,3661,2
redo_RPB004_28,barcode08,Staphylococcus epidermidis,69240851,23885
redo_RPB004_28,barcode08,Staphylococcus aureus,26244016,6740
redo_RPB004_28,barcode08,Staphylococcus hominis,15178204,3616
redo_RPB004_28,barcode04,Staphylococcus epidermidis,13271,5
redo_RPB004_28,barcode04,Staphylococcus hominis,4666,1
redo_RPB004_28,barcode12,Staphylococcus aureus,19429,5
redo_RPB004_28,barcode12,Staphylococcus epidermidis,113617,39
redo_RPB004_28,barcode10,Staphylococcus capitis,19648826,8148
redo_RPB004_28,barcode01,Staphylococcus aureus,8561,3
redo_RPB004_28,barcode01,Staphylococcus epidermidis,9925,5
redo_RPB004_28,barcode06,Staphylococcus phage tp310-2,6890,2
redo_RPB004_28,barcode06,Staphylococcus virus phiSLT,7326,2
redo_RPB004_28,barcode06,Staphylococcus phage phiBU01,4104,1
redo_RPB004_28,barcode06,Staphylococcus phage 23MRA,2226,1
redo_RPB004_28,barcode09,Staphylococcus phage SPbeta-like,13537,4
redo_RPB004_28,barcode11,Staphylococcus phage StB12,1375,3
redo_RPB004_28,barcode11,Staphylococcus phage StB20,1525,3
redo_RPB004_28,barcode07,Staphylococcus phage tp310-2,121336,35
redo_RPB004_28,barcode07,Staphylococcus phage 23MRA,184350,59
redo_RPB004_28,unclassified,Staphylococcus phage tp310-2,7861,2
redo_RPB004_28,unclassified,Staphylococcus phage StB12,4131,1
redo_RPB004_28,unclassified,Staphylococcus phage StB20,3607,2
redo_RPB004_28,unclassified,Staphylococcus virus phiSLT,4624,1
redo_RPB004_28,unclassified,Staphylococcus phage 23MRA,5443,3
redo_RPB004_28,barcode08,Proteus phage VB_PmiS-Isfahan,1548,1
redo_RPB004_28,barcode10,Staphylococcus virus CNPH82,1234,1
redo_RPB004_28,barcode10,Staphylococcus phage StB20,2158,1
