Run_name,Barcode,Taxid,Bases,Reads
redo_RPB004_7,barcode04,Staphylococcus epidermidis,1561441871,488614
redo_RPB004_7,barcode09,Staphylococcus epidermidis,23959,6
redo_RPB004_7,barcode12a,Staphylococcus epidermidis,63407,18
redo_RPB004_7,barcode08,Staphylococcus haemolyticus,4641,1
redo_RPB004_7,barcode08,Staphylococcus aureus,2370,1
redo_RPB004_7,barcode08,Staphylococcus epidermidis,14068,4
redo_RPB004_7,barcode06,Staphylococcus epidermidis,676875874,184452
redo_RPB004_7,barcode01,Bacillus subtilis,21472954,5661
redo_RPB004_7,barcode01,Escherichia coli,38541620,9650
redo_RPB004_7,barcode07,Staphylococcus epidermidis,159170872,47800
redo_RPB004_7,barcode10,Staphylococcus epidermidis,42699,13
redo_RPB004_7,unclassified,Staphylococcus epidermidis,65625771,24001
redo_RPB004_7,barcode11,Staphylococcus cohnii,2393,1
redo_RPB004_7,barcode11,Staphylococcus epidermidis,14832,4
redo_RPB004_7,barcode05,Staphylococcus epidermidis,585927589,173218
redo_RPB004_7,barcode03,Staphylococcus aureus,2759,2
redo_RPB004_7,barcode03,Escherichia coli,8746,2
redo_RPB004_7,barcode03,Staphylococcus epidermidis,11885,5
redo_RPB004_7,barcode02,Staphylococcus epidermidis,109171,35
redo_RPB004_7,barcode04,Escherichia virus Mu,11751,3
redo_RPB004_7,barcode04,Staphylococcus phage SPbeta-like,7130,2
redo_RPB004_7,barcode04,Escherichia virus T7,4062,1
redo_RPB004_7,barcode04,Shigella virus SfMu,3205,1
redo_RPB004_7,barcode04,Escherichia virus Lambda,5267,1
redo_RPB004_7,barcode06,Escherichia virus T7,34900,15
redo_RPB004_7,barcode06,Escherichia virus Lambda,7658,1
redo_RPB004_7,barcode01,Escherichia virus Mu,159374,40
redo_RPB004_7,barcode01,Escherichia virus T7,105437,29
redo_RPB004_7,barcode07,Staphylococcus phage SPbeta-like,5315,1
redo_RPB004_7,unclassified,Escherichia virus T7,3465,3
redo_RPB004_7,unclassified,Escherichia virus Lambda,5252,1
redo_RPB004_7,barcode05,Escherichia virus Mu,17046,3
redo_RPB004_7,barcode05,Escherichia virus T7,24400,10
