Run_name,Barcode,Taxid,Bases,Reads
RPB004_62,barcode03,Enterococcus faecium,8142,2
RPB004_62,barcode03,Staphylococcus aureus,8484,2
RPB004_62,barcode12a,Enterobacter soli,1849,1
RPB004_62,barcode12a,Shigella flexneri,68619,21
RPB004_62,barcode12a,Rhodobacter sphaeroides,5091,1
RPB004_62,barcode12a,Serratia sp. YD25,4256,1
RPB004_62,barcode12a,Citrobacter freundii,9117,3
RPB004_62,barcode12a,Bacillus mycoides,233663,78
RPB004_62,barcode12a,Enterococcus avium,7895,1
RPB004_62,barcode12a,Sphingomonas koreensis,20393,5
RPB004_62,barcode12a,Amphibacillus xylanus,2938,1
RPB004_62,barcode12a,Shigella boydii,155190,46
RPB004_62,barcode12a,Salmonella enterica,5998,3
RPB004_62,barcode12a,Leclercia adecarboxylata,6728,2
RPB004_62,barcode12a,Bacillus thuringiensis,3067,1
RPB004_62,barcode12a,Bacillus subtilis,3961732,1162
RPB004_62,barcode12a,Pantoea agglomerans,2121,1
RPB004_62,barcode12a,Enterococcus faecium,239988,37
RPB004_62,barcode12a,Escherichia coli,4392371,1288
RPB004_62,barcode12a,Pantoea dispersa,3502,1
RPB004_62,barcode12a,Cronobacter muytjensii,2856,1
RPB004_62,barcode12a,Staphylococcus aureus,14484713,4330
RPB004_62,barcode12a,Bacillus cereus,2256,1
RPB004_62,barcode12a,Staphylococcus haemolyticus,39880,14
RPB004_62,barcode12a,Moraxella osloensis,20286,9
RPB004_62,barcode12a,Escherichia fergusonii,21803,7
RPB004_62,barcode12a,Sphingobium cloacae,5033,1
RPB004_62,barcode12a,Raoultella ornithinolytica,3654,1
RPB004_62,barcode12a,Edwardsiella ictaluri,2377,1
RPB004_62,barcode12a,Shigella dysenteriae,124021,32
RPB004_62,barcode12a,Burkholderia sp. CCGE1001,5106,1
RPB004_62,barcode12a,Shigella sonnei,7681,3
RPB004_62,barcode12a,Shigella sp. PAMC 28760,19091,6
RPB004_62,barcode12a,Staphylococcus epidermidis,18255,4
RPB004_62,barcode12a,Pseudomonas sp. TKP,70906,15
RPB004_62,barcode12a,Escherichia albertii,87422,26
RPB004_62,barcode12a,Zymomonas mobilis,102600,37
RPB004_62,barcode12a,Propionibacterium freudenreichii,4084,2
RPB004_62,barcode12a,Escherichia marmotae,3652,1
RPB004_62,barcode12a,Staphylococcus argenteus,30156,8
RPB004_62,barcode12a,Enterobacter asburiae,2995,1
RPB004_62,barcode12a,Klebsiella pneumoniae,13517,4
RPB004_62,barcode12a,Sphingomonas melonis,5110,1
RPB004_62,barcode12a,Pseudomonas aeruginosa,4131,1
RPB004_62,barcode12a,Staphylococcus schweitzeri,3525,1
RPB004_62,barcode12a,Staphylococcus pettenkoferi,2066,1
RPB004_62,barcode12a,Enterobacter cloacae,3242,1
RPB004_62,barcode12a,Proteus mirabilis,4297,1
RPB004_62,barcode12a,Mycoplasma mycoides,4476,1
RPB004_62,barcode12a,Vibrio coralliilyticus,3850,1
RPB004_62,barcode12a,Cronobacter condimenti,2510,1
RPB004_62,barcode12a,Streptococcus salivarius,6344,1
RPB004_62,barcode09,Enterococcus wangshanyuanii,8454,3
RPB004_62,barcode09,Peptoniphilus ivorii,3893,1
RPB004_62,barcode09,Glutamicibacter creatinolyticus,4828,1
RPB004_62,barcode09,Corynebacterium ulcerans,207446,58
RPB004_62,barcode09,Atlantibacter hermannii,3715,1
RPB004_62,barcode09,Bacillus muralis,4790,1
RPB004_62,barcode09,Bacillus pseudomycoides,3187,1
RPB004_62,barcode09,Corynebacterium urealyticum,12002,3
RPB004_62,barcode09,Corynebacterium camporealensis,105108,31
RPB004_62,barcode09,Corynebacterium resistens,75117,21
RPB004_62,barcode09,Enterococcus sp. CR-Ec1,711810,154
RPB004_62,barcode09,Staphylococcus saprophyticus,2327,1
RPB004_62,barcode09,Corynebacterium maris,33044,9
RPB004_62,barcode09,Microbacterium testaceum,8481,2
RPB004_62,barcode09,Clostridium botulinum,3019,1
RPB004_62,barcode09,Enterococcus faecalis,5704122,1716
RPB004_62,barcode09,Microbacterium aurum,3792,1
RPB004_62,barcode09,Chryseobacterium haifense,96136,24
RPB004_62,barcode09,Saccharopolyspora erythraea,8058,2
RPB004_62,barcode09,Aerococcus urinaeequi,37240,11
RPB004_62,barcode09,Corynebacterium casei,17646,5
RPB004_62,barcode09,Streptococcus pasteurianus,109000,33
RPB004_62,barcode09,Exiguobacterium sp. AT1b,7604,2
RPB004_62,barcode09,Streptococcus salivarius,93024,23
RPB004_62,barcode09,Enterococcus cecorum,2098519,647
RPB004_62,barcode09,Marinilactibacillus sp. 15R,11443,5
RPB004_62,barcode09,Flavobacterium columnare,17054,5
RPB004_62,barcode09,Weissella ceti,6671,2
RPB004_62,barcode09,Bacillus subtilis,1319159,348
RPB004_62,barcode09,Corynebacterium halotolerans,32279,9
RPB004_62,barcode09,Bacillus thermoamylovorans,5351,1
RPB004_62,barcode09,Carnobacterium sp. CP1,6683,2
RPB004_62,barcode09,Gordonia polyisoprenivorans,2994,1
RPB004_62,barcode09,Bifidobacterium longum,4962,1
RPB004_62,barcode09,Clostridioides difficile,40408,14
RPB004_62,barcode09,Arthrobacter sp. ERGS1:01,3468,1
RPB004_62,barcode09,Brachybacterium faecium,10615,3
RPB004_62,barcode09,Staphylococcus pseudintermedius,17350,6
RPB004_62,barcode09,Corynebacterium atypicum,12941,4
RPB004_62,barcode09,Corynebacterium xerosis,2127,1
RPB004_62,barcode09,Lactobacillus parabuchneri,4212,1
RPB004_62,barcode09,Escherichia fergusonii,7416,2
RPB004_62,barcode09,Jeotgalibaca sp. PTS2502,25269,8
RPB004_62,barcode09,Streptomyces albus,4922,1
RPB004_62,barcode09,Carnobacterium divergens,546,1
RPB004_62,barcode09,Lactobacillus sakei,5526,2
RPB004_62,barcode09,Pseudomonas putida,3211,1
RPB004_62,barcode09,Staphylococcus nepalensis,949,1
RPB004_62,barcode09,Planctomycetes bacterium K23.9,3854,1
RPB004_62,barcode09,Lactococcus raffinolactis,6986,3
RPB004_62,barcode09,Zymomonas mobilis,28404,9
RPB004_62,barcode09,Corynebacterium sp. 3010,34710,9
RPB004_62,barcode09,Natranaerobius thermophilus,382749,99
RPB004_62,barcode09,Streptococcus oralis,1759,1
RPB004_62,barcode09,Lactobacillus helveticus,10569,3
RPB004_62,barcode09,Streptococcus dysgalactiae,2478,1
RPB004_62,barcode09,Klebsiella pneumoniae,66185,19
RPB004_62,barcode09,Corynebacterium simulans,450900,133
RPB004_62,barcode09,Nocardia cyriacigeorgica,9023,2
RPB004_62,barcode09,Rhodococcus sp. PBTS 2,4035,1
RPB004_62,barcode09,Chryseobacterium sp. StRB126,2443,1
RPB004_62,barcode09,Candidatus Sulcia muelleri,1979,1
RPB004_62,barcode09,Corynebacterium deserti,4817,1
RPB004_62,barcode09,Tetragenococcus koreensis,432438,123
RPB004_62,barcode09,Tsukamurella paurometabola,2443,1
RPB004_62,barcode09,Melissococcus plutonius,12033,3
RPB004_62,barcode09,Corynebacterium imitans,44145,13
RPB004_62,barcode09,Mycoplasma orale,40065,11
RPB004_62,barcode09,Erysipelotrichaceae bacterium I46,3863,1
RPB004_62,barcode09,Lactobacillus farciminis,4466,1
RPB004_62,barcode09,Streptococcus anginosus,7483,2
RPB004_62,barcode09,Streptococcus infantarius,7110,2
RPB004_62,barcode09,Lactobacillus murinus,6943,2
RPB004_62,barcode09,Corynebacterium aurimucosum,289708,85
RPB004_62,barcode09,Deinococcus proteolyticus,2107,1
RPB004_62,barcode09,Gordonia terrae,2753,1
RPB004_62,barcode09,Streptococcus equinus,3293,1
RPB004_62,barcode09,Fusobacterium hwasookii,4998,1
RPB004_62,barcode09,Vibrio furnissii,3757,1
RPB004_62,barcode09,Enterococcus casseliflavus,225927,66
RPB004_62,barcode09,Corynebacterium matruchotii,2267,1
RPB004_62,barcode09,Streptococcus equi,2213,1
RPB004_62,barcode09,Lactobacillus plantarum,10064,3
RPB004_62,barcode09,Lactobacillus paracasei,10084,3
RPB004_62,barcode09,Enterococcus gallinarum,40035,11
RPB004_62,barcode09,Corynebacterium geronticis,26044,7
RPB004_62,barcode09,Enterococcus avium,4049163,1206
RPB004_62,barcode09,Enterococcus durans,2128207,655
RPB004_62,barcode09,Corynebacterium testudinoris,19087,5
RPB004_62,barcode09,Mucilaginibacter gotjawali,3282,1
RPB004_62,barcode09,Rhodococcus fascians,4100,1
RPB004_62,barcode09,Vagococcus teuberi,25115,8
RPB004_62,barcode09,Shigella boydii,51212,15
RPB004_62,barcode09,Jeotgalibaca dankookensis,7033,2
RPB004_62,barcode09,Staphylococcus caprae,2598,1
RPB004_62,barcode09,Paracoccus mutanolyticus,6034,2
RPB004_62,barcode09,Corynebacterium pseudopelargi,8791,3
RPB004_62,barcode09,Corynebacterium ureicelerivorans,27661,7
RPB004_62,barcode09,Corynebacterium glutamicum,20611,7
RPB004_62,barcode09,Escherichia coli,2545649,648
RPB004_62,barcode09,Listeria monocytogenes,14906,4
RPB004_62,barcode09,Bifidobacterium breve,7609,2
RPB004_62,barcode09,Listeria grayi,2492,1
RPB004_62,barcode09,Corynebacterium kroppenstedtii,3971,1
RPB004_62,barcode09,Salmonella enterica,11261,3
RPB004_62,barcode09,Corynebacterium efficiens,6847,2
RPB004_62,barcode09,Lactobacillus fermentum,31380,11
RPB004_62,barcode09,Burkholderia sp. OLGA172,3908,1
RPB004_62,barcode09,Staphylococcus schleiferi,176582,62
RPB004_62,barcode09,Moraxella osloensis,477524,126
RPB004_62,barcode09,Corynebacterium pseudotuberculosis,5826,2
RPB004_62,barcode09,Corynebacterium stationis,32984,9
RPB004_62,barcode09,Carnobacterium maltaromaticum,10881,4
RPB004_62,barcode09,Cutibacterium acnes,48806,16
RPB004_62,barcode09,Helicobacter cinaedi,3229,1
RPB004_62,barcode09,Herbinix luporum,2332,1
RPB004_62,barcode09,Sphingomonas koreensis,2546,1
RPB004_62,barcode09,Actinoplanes sp. N902-109,1523,1
RPB004_62,barcode09,Streptomyces globisporus,2650,1
RPB004_62,barcode09,Lacimicrobium alkaliphilum,2941,1
RPB004_62,barcode09,Streptococcus porcinus,434,1
RPB004_62,barcode09,Planococcus sp. MB-3u-03,12540,5
RPB004_62,barcode09,Bacillus velezensis,10747,3
RPB004_62,barcode09,Moorella thermoacetica,4944,1
RPB004_62,barcode09,Cryobacterium arcticum,11728,3
RPB004_62,barcode09,Staphylococcus hominis,46529,18
RPB004_62,barcode09,Lactobacillus ginsenosidimutans,2140,1
RPB004_62,barcode09,Corynebacterium argentoratense,3946,1
RPB004_62,barcode09,Enterococcus sp. FDAARGOS_375,75709,23
RPB004_62,barcode09,Bordetella pertussis,672,1
RPB004_62,barcode09,Shewanella woodyi,4417,1
RPB004_62,barcode09,Lactobacillus johnsonii,4331,1
RPB004_62,barcode09,Streptococcus agalactiae,1636043,492
RPB004_62,barcode09,Glutamicibacter nicotianae,9262,2
RPB004_62,barcode09,Brachybacterium saurashtrense,3548,1
RPB004_62,barcode09,Escherichia marmotae,7629,2
RPB004_62,barcode09,Micavibrio aeruginosavorus,3771,1
RPB004_62,barcode09,Olsenella sp. Marseille-P2300,8898,3
RPB004_62,barcode09,Vibrio casei,11077,2
RPB004_62,barcode09,Streptomyces albulus,4853,1
RPB004_62,barcode09,Streptococcus sp. I-G2,2235,1
RPB004_62,barcode09,Bacillus safensis,2716,1
RPB004_62,barcode09,Shigella flexneri,73596,19
RPB004_62,barcode09,Janibacter indicus,4095,1
RPB004_62,barcode09,Streptococcus parauberis,71283,22
RPB004_62,barcode09,Corynebacterium glyciniphilum,2414,1
RPB004_62,barcode09,Arthrobacter sp. YC-RL1,2411,1
RPB004_62,barcode09,Rhodococcus aetherivorans,2890,1
RPB004_62,barcode09,Sphingobium yanoikuyae,4511,1
RPB004_62,barcode09,Megamonas hypermegale,2188,1
RPB004_62,barcode09,Nocardia terpenica,5446,2
RPB004_62,barcode09,Enterococcus thailandicus,188096,58
RPB004_62,barcode09,Corynebacterium phocae,14808,5
RPB004_62,barcode09,Ureibacillus thermosphaericus,2899,1
RPB004_62,barcode09,Corynebacterium epidermidicanis,112269,29
RPB004_62,barcode09,Lactobacillus delbrueckii,3997,1
RPB004_62,barcode09,Sphingobium sp. YG1,3160,1
RPB004_62,barcode09,Streptomyces sp. RTd22,3687,1
RPB004_62,barcode09,Streptomyces formicae,13938,3
RPB004_62,barcode09,Streptococcus parasanguinis,3160,1
RPB004_62,barcode09,Corynebacterium aquilae,6613,2
RPB004_62,barcode09,Corynebacterium jeikeium,143197,43
RPB004_62,barcode09,Corynebacterium minutissimum,121945,34
RPB004_62,barcode09,Lactobacillus acidophilus,2478,1
RPB004_62,barcode09,Enterococcus faecium,1463672594,435939
RPB004_62,barcode09,Lactococcus lactis,25835,11
RPB004_62,barcode09,Corynebacterium cystitidis,6251,2
RPB004_62,barcode09,Kutzneria albida,3632,1
RPB004_62,barcode09,Streptococcus pneumoniae,153635,48
RPB004_62,barcode09,Corynebacterium flavescens,73051,21
RPB004_62,barcode09,Weissella hellenica,2391,1
RPB004_62,barcode09,Staphylococcus aureus,3620503,1147
RPB004_62,barcode09,Lactobacillus curvatus,1104522,313
RPB004_62,barcode09,Streptococcus thermophilus,47595,17
RPB004_62,barcode09,Arthrobacter sp. PAMC 25486,5169,2
RPB004_62,barcode09,Corynebacterium renale,5734,1
RPB004_62,barcode09,Pseudarthrobacter chlorophenolicus,4248,1
RPB004_62,barcode09,Erysipelothrix rhusiopathiae,7469716,2063
RPB004_62,barcode09,Corynebacterium uterequi,21677,7
RPB004_62,barcode09,Corynebacterium humireducens,23699,6
RPB004_62,barcode09,Clostridium butyricum,7055,2
RPB004_62,barcode09,Tetragenococcus osmophilus,19981,6
RPB004_62,barcode09,Bacillus cereus,7768,3
RPB004_62,barcode09,Corynebacterium vitaeruminis,53353,14
RPB004_62,barcode09,Sphingomonas panacis,3441,1
RPB004_62,barcode09,Mycobacterium sp. EPa45,5803,1
RPB004_62,barcode09,Pseudonocardia autotrophica,3978,1
RPB004_62,barcode09,Fusobacterium necrophorum,2706,1
RPB004_62,barcode09,Lactobacillus mucosae,4841,1
RPB004_62,barcode09,Corynebacterium nuruki,21923,5
RPB004_62,barcode09,Escherichia albertii,10357,3
RPB004_62,barcode09,Micrococcus luteus,5268,2
RPB004_62,barcode09,Mycolicibacterium aurum,4738,1
RPB004_62,barcode09,Streptococcus pyogenes,321998,102
RPB004_62,barcode09,Desulfovibrio vulgaris,3801,1
RPB004_62,barcode09,Corynebacterium doosanense,6231,2
RPB004_62,barcode09,Bacillus amyloliquefaciens,3463,1
RPB004_62,barcode09,Staphylococcus cohnii,6198,2
RPB004_62,barcode09,Pseudarthrobacter phenanthrenivorans,4845,1
RPB004_62,barcode09,Arthrobacter sp. QXT-31,5373,1
RPB004_62,barcode09,Aerococcus viridans,26525,8
RPB004_62,barcode09,Mycobacterium,16358,3
RPB004_62,barcode09,Lactobacillus amylophilus,4962,2
RPB004_62,barcode09,Streptococcus intermedius,2542,1
RPB004_62,barcode09,Anaerococcus mediterraneensis,2078,1
RPB004_62,barcode09,Corynebacterium singulare,143493,44
RPB004_62,barcode09,Arthrobacter alpinus,4251,1
RPB004_62,barcode09,Gemmatimonas aurantiaca,3079,1
RPB004_62,barcode09,Corynebacterium glaucum,15494,5
RPB004_62,barcode09,Streptococcus gallolyticus,8394,3
RPB004_62,barcode09,Bacillus weihaiensis,7371,2
RPB004_62,barcode09,Virgibacillus phasianinus,2831,1
RPB004_62,barcode09,Corynebacterium diphtheriae,86086,24
RPB004_62,barcode09,Enterococcus mundtii,2439041,722
RPB004_62,barcode09,[Eubacterium] eligens,2308,1
RPB004_62,barcode09,Propionibacterium australiense,2316,1
RPB004_62,barcode09,Streptococcus canis,1111,1
RPB004_62,barcode09,Corynebacterium marinum,6233,2
RPB004_62,barcode09,Bacillus licheniformis,4093,2
RPB004_62,barcode09,Enterobacter sp. FY-07,4300,1
RPB004_62,barcode09,Corynebacterium sp. NML98-0116,19354,7
RPB004_62,barcode09,Streptococcus sanguinis,2741,1
RPB004_62,barcode09,Dermabacter vaginalis,16414,6
RPB004_62,barcode09,Microbacterium lemovicicum,3217,1
RPB004_62,barcode09,Agarivorans gilvus,3195,1
RPB004_62,barcode09,Corynebacterium frankenforstense,14920,5
RPB004_62,barcode09,Bacillus thuringiensis,24813,9
RPB004_62,barcode09,Streptococcus lutetiensis,407975,111
RPB004_62,barcode09,Corynebacterium striatum,971884,276
RPB004_62,barcode09,Staphylococcus lugdunensis,2654,1
RPB004_62,barcode09,Bacillus mycoides,52215,19
RPB004_62,barcode09,Streptococcus cristatus,46311,15
RPB004_62,barcode09,Turicibacter sp. H121,403711,111
RPB004_62,barcode09,Myxococcus xanthus,3114,1
RPB004_62,barcode09,Vagococcus penaei,3056,1
RPB004_62,barcode09,Lactobacillus bombi,9109,3
RPB004_62,barcode09,Staphylococcus haemolyticus,1894271,658
RPB004_62,barcode09,Tsukamurella tyrosinosolvens,2474,1
RPB004_62,barcode09,Sphingomonas paucimobilis,3497,1
RPB004_62,barcode09,Enterococcus gilvus,10785,4
RPB004_62,barcode09,Candidatus Hoaglandella endobia,2465,1
RPB004_62,barcode09,Corynebacterium ammoniagenes,26873,7
RPB004_62,barcode09,Lactococcus garvieae,3233,1
RPB004_62,barcode09,Deinococcus ficus,3088,1
RPB004_62,barcode09,Actinomyces gaoshouyii,4357,1
RPB004_62,barcode09,Bacillus sp. HBCD-sjtu,3434,1
RPB004_62,barcode09,Bacillus methanolicus,3103,1
RPB004_62,barcode09,Tetragenococcus halophilus,554811,168
RPB004_62,barcode09,Shigella dysenteriae,55786,14
RPB004_62,barcode09,Corynebacterium callunae,10174,3
RPB004_62,barcode09,Enterococcus hirae,5344082,1601
RPB004_62,barcode09,Citrobacter youngae,4184,1
RPB004_62,barcode09,Dehalococcoides mccartyi,18016,6
RPB004_62,barcode09,Staphylococcus epidermidis,32441521,10026
RPB004_62,barcode09,Streptomyces violaceusniger,2495,1
RPB004_62,barcode09,Kitasatospora sp. MMS16-BH015,9367,2
RPB004_62,barcode09,Vibrio coralliilyticus,12804,3
RPB004_62,barcode09,Geobacillus thermodenitrificans,1954,1
RPB004_62,barcode09,Paenisporosarcina antarctica,9513,3
RPB004_62,barcode09,Neisseria meningitidis,10913,4
RPB004_62,barcode09,Corynebacterium segmentosum,1349322,384
RPB004_62,barcode09,Arcobacter trophiarum,27017,9
RPB004_62,barcode09,Clostridium cellulovorans,2910,1
RPB004_62,barcode09,Anaerostipes hadrus,5163,1
RPB004_62,barcode09,Tessaracoccus flavus,2116,1
RPB004_62,barcode09,Lactobacillus buchneri,2589,1
RPB004_62,barcode09,Lactobacillus coryniformis,6112,2
RPB004_62,barcode09,Paenibacillus mucilaginosus,2382,1
RPB004_62,barcode09,Cellulophaga algicola,2567,1
RPB004_62,barcode09,Enterobacter cloacae,3734,1
RPB004_62,barcode09,Proteus mirabilis,14322,3
RPB004_62,barcode09,Corynebacterium falsenii,12125,3
RPB004_62,barcode09,Streptococcus suis,117749,44
RPB004_62,barcode09,Pseudomonas cremoricolorata,3129,1
RPB004_62,barcode09,Lactobacillus reuteri,20716,6
RPB004_62,barcode07,Escherichia coli,42353,11
RPB004_62,barcode07,Enterococcus faecium,29663,8
RPB004_62,barcode07,Moraxella osloensis,4673,2
RPB004_62,barcode07,Bacillus subtilis,13399,3
RPB004_62,unclassified,Corynebacterium aurimucosum,2583,1
RPB004_62,unclassified,Shigella flexneri,8817,4
RPB004_62,unclassified,Streptococcus parauberis,3909,1
RPB004_62,unclassified,Enterococcus sp. CR-Ec1,19972,6
RPB004_62,unclassified,Escherichia fergusonii,4099,1
RPB004_62,unclassified,Corynebacterium maris,2035,1
RPB004_62,unclassified,Enterococcus faecalis,219470,69
RPB004_62,unclassified,Enterococcus thailandicus,13801,4
RPB004_62,unclassified,Chryseobacterium haifense,4879,1
RPB004_62,unclassified,Aerococcus urinaeequi,1621,1
RPB004_62,unclassified,Streptococcus lutetiensis,17939,5
RPB004_62,unclassified,Sphingomonas koreensis,4028,1
RPB004_62,unclassified,Enterococcus cecorum,67738,22
RPB004_62,unclassified,Corynebacterium striatum,27551,8
RPB004_62,unclassified,Bacillus coagulans,2894,1
RPB004_62,unclassified,Streptococcus gallolyticus,270,1
RPB004_62,unclassified,Bacillus subtilis,222711,68
RPB004_62,unclassified,Corynebacterium jeikeium,8894,3
RPB004_62,unclassified,Corynebacterium minutissimum,3324,1
RPB004_62,unclassified,Corynebacterium halotolerans,1448,1
RPB004_62,unclassified,Enterococcus faecium,62418384,20468
RPB004_62,unclassified,Streptococcus pneumoniae,5121,2
RPB004_62,unclassified,Corynebacterium flavescens,776,1
RPB004_62,unclassified,Clostridioides difficile,10346,4
RPB004_62,unclassified,Staphylococcus aureus,1466174,466
RPB004_62,unclassified,Lactobacillus reuteri,2876,1
RPB004_62,unclassified,Corynebacterium singulare,2890,2
RPB004_62,unclassified,Staphylococcus hominis,650,1
RPB004_62,unclassified,Erysipelothrix rhusiopathiae,276721,88
RPB004_62,unclassified,Streptococcus cristatus,1327,1
RPB004_62,unclassified,Corynebacterium vitaeruminis,2337,1
RPB004_62,unclassified,Nitratireductor basaltis,5266,1
RPB004_62,unclassified,Corynebacterium phocae,2283,1
RPB004_62,unclassified,Paenibacillus polymyxa,2925,1
RPB004_62,unclassified,Klebsiella michiganensis,4054,2
RPB004_62,unclassified,Escherichia albertii,7466,2
RPB004_62,unclassified,Staphylococcus simiae,4713,1
RPB004_62,unclassified,Zymomonas mobilis,10408,3
RPB004_62,unclassified,Streptococcus pyogenes,4772,2
RPB004_62,unclassified,Natranaerobius thermophilus,42635,11
RPB004_62,unclassified,Pandoraea faecigallinarum,2419,1
RPB004_62,unclassified,Staphylococcus argenteus,6627,2
RPB004_62,unclassified,Streptococcus dysgalactiae,356,1
RPB004_62,unclassified,Corynebacterium simulans,34125,10
RPB004_62,unclassified,Cutibacterium acnes,2675,1
RPB004_62,unclassified,Rhodococcus sp. PBTS 2,4035,1
RPB004_62,unclassified,Mycoplasma capricolum,1506,1
RPB004_62,unclassified,Tetragenococcus koreensis,7564,2
RPB004_62,unclassified,Mycoplasma orale,8767,3
RPB004_62,unclassified,Lactobacillus curvatus,54039,16
RPB004_62,unclassified,Lactobacillus fermentum,2480,1
RPB004_62,unclassified,Carnobacterium maltaromaticum,3051,1
RPB004_62,unclassified,Lactobacillus hordei,1131,1
RPB004_62,unclassified,Enterococcus mundtii,115952,38
RPB004_62,unclassified,Enterococcus casseliflavus,8578,2
RPB004_62,unclassified,Corynebacterium diphtheriae,2807,1
RPB004_62,unclassified,Lactobacillus paracasei,247,1
RPB004_62,unclassified,Enterococcus avium,155865,53
RPB004_62,unclassified,Enterococcus durans,113045,33
RPB004_62,unclassified,Neisseria meningitidis,383,1
RPB004_62,unclassified,Shigella boydii,7576,3
RPB004_62,unclassified,Corynebacterium resistens,3481,1
RPB004_62,unclassified,Streptococcus pasteurianus,3690,1
RPB004_62,unclassified,Corynebacterium pseudopelargi,3840,1
RPB004_62,unclassified,Salmonella bongori,3133,1
RPB004_62,unclassified,Bacillus mycoides,23328,7
RPB004_62,unclassified,Brachybacterium faecium,4248,1
RPB004_62,unclassified,Corynebacterium glutamicum,2719,1
RPB004_62,unclassified,Escherichia coli,317778,102
RPB004_62,unclassified,Turicibacter sp. H121,8293,2
RPB004_62,unclassified,Listeria grayi,4748,1
RPB004_62,unclassified,Tumebacillus avium,1327,1
RPB004_62,unclassified,Staphylococcus haemolyticus,95503,36
RPB004_62,unclassified,Staphylococcus kloosii,3996,1
RPB004_62,unclassified,Staphylococcus schleiferi,13084,5
RPB004_62,unclassified,Moraxella osloensis,18927,5
RPB004_62,unclassified,Fusobacterium mortiferum,2916,1
RPB004_62,unclassified,Lactococcus garvieae,1803,1
RPB004_62,unclassified,Nocardiopsis dassonvillei,3886,1
RPB004_62,unclassified,Tetragenococcus halophilus,26838,8
RPB004_62,unclassified,Staphylococcus schweitzeri,4803,2
RPB004_62,unclassified,Enterococcus hirae,208455,62
RPB004_62,unclassified,Staphylococcus epidermidis,1339070,479
RPB004_62,unclassified,Citrobacter freundii complex sp. CFNIH3,4028,1
RPB004_62,unclassified,Corynebacterium ulcerans,7097,2
RPB004_62,unclassified,Planococcus sp. MB-3u-03,4370,1
RPB004_62,unclassified,Bacillus velezensis,2415,2
RPB004_62,unclassified,Escherichia marmotae,1831,1
RPB004_62,unclassified,Corynebacterium segmentosum,31407,10
RPB004_62,unclassified,Shigella dysenteriae,20095,6
RPB004_62,unclassified,Mycoplasma mycoides,4236,1
RPB004_62,unclassified,Streptococcus agalactiae,55071,16
RPB004_62,unclassified,Shigella sonnei,2994,1
RPB004_62,unclassified,Streptococcus suis,2750,1
RPB004_62,unclassified,Streptococcus salivarius,4426,1
RPB004_62,barcode01,Enterococcus faecium,16104,5
RPB004_62,barcode04,Enterococcus faecium,8912,3
RPB004_62,barcode04,Enterococcus casseliflavus,2865,1
RPB004_62,barcode05,Enterococcus faecium,18177,5
RPB004_62,barcode06,Enterococcus faecium,8356,3
RPB004_62,barcode02,Staphylococcus epidermidis,2386,1
RPB004_62,barcode02,Enterococcus faecium,130431,41
RPB004_62,barcode02,Enterococcus hirae,5250,1
RPB004_62,barcode08,Escherichia coli,70516,17
RPB004_62,barcode08,Streptococcus agalactiae,3412,1
RPB004_62,barcode08,Shigella dysenteriae,5086,1
RPB004_62,barcode08,Bacillus subtilis,23036,6
RPB004_62,barcode10,Shigella flexneri,9487,3
RPB004_62,barcode10,Streptococcus parauberis,2740,1
RPB004_62,barcode10,Corynebacterium urealyticum,5470,2
RPB004_62,barcode10,Ferrimonas balearica,3119,1
RPB004_62,barcode10,Corynebacterium camporealensis,33944,10
RPB004_62,barcode10,Enterococcus sp. CR-Ec1,51876,10
RPB004_62,barcode10,Corynebacterium maris,4468,1
RPB004_62,barcode10,Citrobacter freundii,2268,1
RPB004_62,barcode10,Bifidobacterium bifidum,6765,2
RPB004_62,barcode10,Enterococcus faecalis,230960,71
RPB004_62,barcode10,Bacillus mycoides,51230,16
RPB004_62,barcode10,Corynebacterium jeikeium,2243,1
RPB004_62,barcode10,Corynebacterium epidermidicanis,2365,1
RPB004_62,barcode10,Corynebacterium pelargi,3010,1
RPB004_62,barcode10,Corynebacterium casei,3000,1
RPB004_62,barcode10,Streptococcus pasteurianus,3773,1
RPB004_62,barcode10,Enterococcus cecorum,69609,22
RPB004_62,barcode10,Streptomyces formicae,4523,1
RPB004_62,barcode10,Streptococcus agalactiae,70843,20
RPB004_62,barcode10,Bacillus subtilis,488826,135
RPB004_62,barcode10,Mycolicibacterium aurum,3317,1
RPB004_62,barcode10,Corynebacterium minutissimum,16777,5
RPB004_62,barcode10,Corynebacterium halotolerans,7281,2
RPB004_62,barcode10,Enterococcus faecium,70514135,20371
RPB004_62,barcode10,Corynebacterium flavescens,2924,1
RPB004_62,barcode10,Staphylococcus aureus,122603,39
RPB004_62,barcode10,Corynebacterium singulare,10523,3
RPB004_62,barcode10,Staphylococcus hominis,3133,1
RPB004_62,barcode10,Corynebacterium renale,6807,2
RPB004_62,barcode10,Escherichia fergusonii,3337,1
RPB004_62,barcode10,Corynebacterium uterequi,3041,1
RPB004_62,barcode10,Corynebacterium humireducens,11461,3
RPB004_62,barcode10,Pseudomonas sp. LPH1,3436,1
RPB004_62,barcode10,Corynebacterium vitaeruminis,7517,2
RPB004_62,barcode10,Rhodococcus sp. P1Y,3635,1
RPB004_62,barcode10,Paenibacillus mucilaginosus,3118,1
RPB004_62,barcode10,Corynebacterium nuruki,4098,1
RPB004_62,barcode10,Escherichia albertii,7394,3
RPB004_62,barcode10,Zymomonas mobilis,11087,5
RPB004_62,barcode10,Glutamicibacter halophytocola,3442,1
RPB004_62,barcode10,Escherichia marmotae,5600,1
RPB004_62,barcode10,Natranaerobius thermophilus,22686,6
RPB004_62,barcode10,Erysipelothrix rhusiopathiae,282567,76
RPB004_62,barcode10,Dermabacter vaginalis,7079,2
RPB004_62,barcode10,Klebsiella pneumoniae,22681,6
RPB004_62,barcode10,Corynebacterium simulans,26836,8
RPB004_62,barcode10,Aerococcus viridans,4688,1
RPB004_62,barcode10,Mycobacterium,5927,2
RPB004_62,barcode10,Lactobacillus murinus,3174,1
RPB004_62,barcode10,Propionibacterium freudenreichii,2186,1
RPB004_62,barcode10,Bacillus cereus,3663,1
RPB004_62,barcode10,Enterococcus thailandicus,6702,2
RPB004_62,barcode10,Corynebacterium aurimucosum,41315,12
RPB004_62,barcode10,Lactobacillus curvatus,101800,28
RPB004_62,barcode10,Kosakonia radicincitans,4266,1
RPB004_62,barcode10,Corynebacterium glaucum,5102,1
RPB004_62,barcode10,Streptococcus gallolyticus,4395,1
RPB004_62,barcode10,Corynebacterium mustelae,7007,2
RPB004_62,barcode10,Enterococcus mundtii,128683,36
RPB004_62,barcode10,Enterococcus casseliflavus,2741,1
RPB004_62,barcode10,Corynebacterium diphtheriae,14783,5
RPB004_62,barcode10,Enterococcus gilvus,6776,2
RPB004_62,barcode10,Enterococcus avium,135478,37
RPB004_62,barcode10,Enterococcus durans,54480,15
RPB004_62,barcode10,Mycobacteroides immunogenum,2610,1
RPB004_62,barcode10,Vagococcus teuberi,6775,2
RPB004_62,barcode10,Shigella boydii,14448,6
RPB004_62,barcode10,Pseudomonas alcaliphila,3359,1
RPB004_62,barcode10,Corynebacterium resistens,17843,6
RPB004_62,barcode10,Streptococcus lutetiensis,42336,11
RPB004_62,barcode10,Corynebacterium striatum,97117,27
RPB004_62,barcode10,Escherichia coli,953731,258
RPB004_62,barcode10,Turicibacter sp. H121,10405,3
RPB004_62,barcode10,Acinetobacter wuhouensis,18450,5
RPB004_62,barcode10,Salmonella enterica,697,1
RPB004_62,barcode10,Corynebacterium efficiens,16798,5
RPB004_62,barcode10,Staphylococcus haemolyticus,215109,67
RPB004_62,barcode10,Lactobacillus fermentum,3649,1
RPB004_62,barcode10,Moraxella osloensis,107011,26
RPB004_62,barcode10,Jeotgalibaca dankookensis,3441,1
RPB004_62,barcode10,Corynebacterium ammoniagenes,6222,2
RPB004_62,barcode10,Proteus mirabilis,2788,1
RPB004_62,barcode10,Corynebacterium stationis,5038,1
RPB004_62,barcode10,Lactobacillus ginsenosidimutans,3335,1
RPB004_62,barcode10,Shigella dysenteriae,38734,12
RPB004_62,barcode10,Enterococcus hirae,290277,82
RPB004_62,barcode10,Staphylococcus epidermidis,1709337,539
RPB004_62,barcode10,Corynebacterium ulcerans,19505,6
RPB004_62,barcode10,Streptococcus pyogenes,10997,2
RPB004_62,barcode10,Corynebacterium segmentosum,170215,46
RPB004_62,barcode10,Tetragenococcus halophilus,5890,2
RPB004_62,barcode10,Arcobacter trophiarum,6243,2
RPB004_62,barcode10,Corynebacterium pseudopelargi,2396,1
RPB004_62,barcode10,Enterococcus sp. FDAARGOS_375,4758,1
RPB004_62,barcode10,Tsukamurella tyrosinosolvens,2762,1
RPB004_62,barcode10,Shigella sonnei,8400,2
RPB004_62,barcode10,Streptococcus suis,16561,4
RPB004_62,barcode11,Bacteroides vulgatus,10728,2
RPB004_62,barcode11,Rhodococcus sp. WB1,3564,1
RPB004_62,barcode11,Shigella flexneri,95208,23
RPB004_62,barcode11,Staphylococcus capitis,2100,1
RPB004_62,barcode11,Atlantibacter hermannii,2682,1
RPB004_62,barcode11,Citrobacter freundii complex sp. CFNIH9,1698,1
RPB004_62,barcode11,Staphylococcus muscae,3098,1
RPB004_62,barcode11,Rhodococcus aetherivorans,7166,2
RPB004_62,barcode11,Staphylococcus caprae,1689,1
RPB004_62,barcode11,Citrobacter rodentium,2664,1
RPB004_62,barcode11,Bacillus mycoides,307209,95
RPB004_62,barcode11,Tessaracoccus aquimaris,5346,1
RPB004_62,barcode11,Citrobacter werkmanii,2688,1
RPB004_62,barcode11,Glutamicibacter creatinolyticus,3538,1
RPB004_62,barcode11,Trueperella bialowiezensis,1911,1
RPB004_62,barcode11,Staphylococcus carnosus,854,1
RPB004_62,barcode11,Pantoea vagans,2155,1
RPB004_62,barcode11,Shigella boydii,237126,64
RPB004_62,barcode11,Serratia marcescens,4000,1
RPB004_62,barcode11,Salmonella enterica,6683,3
RPB004_62,barcode11,Leclercia adecarboxylata,11411,3
RPB004_62,barcode11,Enterococcus faecium,25974,5
RPB004_62,barcode11,Bacillus subtilis,8277528,2157
RPB004_62,barcode11,Escherichia fergusonii,16497,6
RPB004_62,barcode11,Serratia sp. YD25,2323,1
RPB004_62,barcode11,Salmonella bongori,2699,1
RPB004_62,barcode11,Brachybacterium faecium,3600,1
RPB004_62,barcode11,Acinetobacter baumannii,2140,1
RPB004_62,barcode11,Escherichia coli,9591055,2424
RPB004_62,barcode11,Staphylococcus aureus,49570926,13828
RPB004_62,barcode11,Mycoplasma mycoides,8802,3
RPB004_62,barcode11,Staphylococcus haemolyticus,5749,2
RPB004_62,barcode11,Staphylococcus schleiferi,2774,1
RPB004_62,barcode11,Moraxella osloensis,11521,5
RPB004_62,barcode11,Pantoea alhagi,2121,1
RPB004_62,barcode11,Magnetospirillum magneticum,2806,1
RPB004_62,barcode11,Brachybacterium ginsengisoli,3558,1
RPB004_62,barcode11,Kocuria sp. BT304,25048,7
RPB004_62,barcode11,Glutamicibacter arilaitensis,3486,1
RPB004_62,barcode11,Staphylococcus felis,1918,1
RPB004_62,barcode11,Bacteroides helcogenes,5339,1
RPB004_62,barcode11,Aeromonas hydrophila,3652,1
RPB004_62,barcode11,Streptococcus sp. oral taxon 431,22348,7
RPB004_62,barcode11,Staphylococcus schweitzeri,87136,25
RPB004_62,barcode11,Staphylococcus auricularis,5103,1
RPB004_62,barcode11,Shigella sonnei,83986,24
RPB004_62,barcode11,Haemophilus parainfluenzae,3185,1
RPB004_62,barcode11,Shigella sp. PAMC 28760,26539,6
RPB004_62,barcode11,Staphylococcus epidermidis,5077,1
RPB004_62,barcode11,Klebsiella michiganensis,7365,2
RPB004_62,barcode11,Escherichia albertii,48337,15
RPB004_62,barcode11,Staphylococcus simiae,16614,6
RPB004_62,barcode11,Zymomonas mobilis,142122,50
RPB004_62,barcode11,Enterobacter sp. SA187,1032,1
RPB004_62,barcode11,Enterobacter asburiae,7123,1
RPB004_62,barcode11,Kocuria rhizophila,7134,2
RPB004_62,barcode11,Bacillus velezensis,3858,1
RPB004_62,barcode11,Staphylococcus argenteus,118322,34
RPB004_62,barcode11,Escherichia marmotae,12323,5
RPB004_62,barcode11,Chlamydia suis,10511,3
RPB004_62,barcode11,Klebsiella pneumoniae,43447,13
RPB004_62,barcode11,Cutibacterium acnes,1773,1
RPB004_62,barcode11,Pseudomonas aeruginosa,3556,2
RPB004_62,barcode11,Shigella dysenteriae,221872,61
RPB004_62,barcode11,Bacteroides dorei,10691,2
RPB004_62,barcode11,Lelliottia jeotgali,3062,1
RPB004_62,barcode11,Staphylococcus lugdunensis,3923,1
RPB004_62,barcode11,Staphylococcus pettenkoferi,477,1
RPB004_62,barcode11,Enterobacter cloacae,7247,2
RPB004_62,barcode11,Proteus mirabilis,20684,6
RPB004_62,barcode11,Staphylococcus equorum,2859,1
RPB004_62,barcode11,Propionibacterium freudenreichii,3991,1
RPB004_62,barcode11,Aeromonas sp. ASNIH2,3365,1
RPB004_62,barcode11,Pectobacterium carotovorum,3126,1
RPB004_62,barcode12a,Staphylococcus virus 11,67365,16
RPB004_62,barcode12a,Escherichia virus T7,2820,2
RPB004_62,barcode12a,Staphylococcus virus phiETA2,4244,1
RPB004_62,barcode12a,Human endogenous retrovirus K,912,1
RPB004_62,barcode12a,Staphylococcus phage B236,5200,2
RPB004_62,barcode12a,Staphylococcus virus 71,408,1
RPB004_62,barcode12a,Staphylococcus virus 69,3721,1
RPB004_62,barcode12a,Escherichia virus Mu,2419,1
RPB004_62,barcode12a,Shigella virus SfMu,4804,2
RPB004_62,barcode12a,Proteus phage VB_PmiS-Isfahan,35506,44
RPB004_62,barcode09,Escherichia virus Eb49,5153,2
RPB004_62,barcode09,Enterococcus phage EF62phi,54270,19
RPB004_62,barcode09,Escherichia virus ACGM12,51323,14
RPB004_62,barcode09,Escherichia virus T7,5366,1
RPB004_62,barcode09,Escherichia virus Rtp,77143,20
RPB004_62,barcode09,Staphylococcus virus IPLA7,2132,1
RPB004_62,barcode09,Proteus phage VB_PmiS-Isfahan,216,1
RPB004_62,unclassified,Staphylococcus virus 11,12330,3
RPB004_62,unclassified,Escherichia virus ACGM12,10996,4
RPB004_62,unclassified,Escherichia virus Rtp,7815,2
RPB004_62,unclassified,Proteus phage VB_PmiS-Isfahan,16150,13
RPB004_62,barcode10,Escherichia virus Rtp,76657,21
RPB004_62,barcode10,Escherichia virus ACGM12,7603,2
RPB004_62,barcode10,Proteus phage VB_PmiS-Isfahan,17011,18
RPB004_62,barcode11,Staphylococcus virus 11,28410,9
RPB004_62,barcode11,Staphylococcus phage JS01,25335,5
RPB004_62,barcode11,Escherichia virus T7,12972,5
RPB004_62,barcode11,Escherichia virus ACGM12,344390,67
RPB004_62,barcode11,Staphylococcus phage P954,3615,1
RPB004_62,barcode11,Escherichia virus Mu,16232,4
RPB004_62,barcode11,Staphylococcus virus 85,4261,2
RPB004_62,barcode11,Shigella virus SfMu,7057,3
RPB004_62,barcode11,Staphylococcus phage PVL,10117,2
RPB004_62,barcode11,Staphylococcus phage 23MRA,29434,6
RPB004_62,barcode11,Staphylococcus virus phiETA2,3670,1
RPB004_62,barcode11,Escherichia virus Rtp,2531,1
RPB004_62,barcode11,Staphylococcus phage 3MRA,10775,3
RPB004_62,barcode11,Staphylococcus phage StB20-like,5062,1
RPB004_62,barcode11,Staphylococcus virus IPLA88,46783,13
RPB004_62,barcode11,Staphylococcus virus 69,14161,4
