Run_name,Barcode,Taxid,Bases,Reads
redo_RPB004_40,barcode01,Cutibacterium acnes,9843,1
redo_RPB004_40,barcode01,Bacillus subtilis,62571,10
redo_RPB004_40,barcode01,Shigella boydii,4927,1
redo_RPB004_40,barcode01,Staphylococcus aureus,262214,53
redo_RPB004_40,barcode01,Escherichia coli,100411,17
redo_RPB004_40,unclassified,Serratia marcescens,3485,1
redo_RPB004_40,unclassified,Staphylococcus condimenti,2483,1
redo_RPB004_40,unclassified,Streptococcus oralis,4427,1
redo_RPB004_40,unclassified,Bacillus mycoides,36927,14
redo_RPB004_40,unclassified,Shigella dysenteriae,15689,3
redo_RPB004_40,unclassified,Bacillus subtilis,516018,118
redo_RPB004_40,unclassified,Klebsiella michiganensis,5387,1
redo_RPB004_40,unclassified,Staphylococcus epidermidis,26627,11
redo_RPB004_40,unclassified,Shigella sonnei,7987,2
redo_RPB004_40,unclassified,Paenibacillus sp. IHBB 10380,2803,1
redo_RPB004_40,unclassified,Lactobacillus rhamnosus,3496,1
redo_RPB004_40,unclassified,Staphylococcus aureus,13087173,4028
redo_RPB004_40,unclassified,Staphylococcus capitis,56379,18
redo_RPB004_40,unclassified,Staphylococcus caprae,8267,3
redo_RPB004_40,unclassified,Lactobacillus salivarius,3609,1
redo_RPB004_40,unclassified,Mycoplasma putrefaciens,2532,1
redo_RPB004_40,unclassified,Enterobacter roggenkampii,2538,1
redo_RPB004_40,unclassified,Staphylococcus argenteus,26499,9
redo_RPB004_40,unclassified,Staphylococcus schweitzeri,4062,2
redo_RPB004_40,unclassified,Escherichia coli,965114,219
redo_RPB004_40,unclassified,Aeromonas sp. CU5,3987,1
redo_RPB004_40,unclassified,Staphylococcus xylosus,3384,1
redo_RPB004_40,unclassified,Staphylococcus lugdunensis,4973,1
redo_RPB004_40,unclassified,Salmonella enterica,2182,2
redo_RPB004_40,unclassified,Rhodococcus opacus,2999,1
redo_RPB004_40,unclassified,Enterobacter hormaechei subsp. xiangfangensis,6064,1
redo_RPB004_40,unclassified,Shigella flexneri,29207,5
redo_RPB004_40,unclassified,Citrobacter freundii,447,1
redo_RPB004_40,unclassified,Shigella boydii,11559,6
redo_RPB004_40,unclassified,Enterobacter cloacae,10810,3
redo_RPB004_40,unclassified,Cutibacterium acnes,6721,3
redo_RPB004_40,unclassified,Escherichia marmotae,2642,1
redo_RPB004_40,unclassified,Pseudomonas aeruginosa,6807,1
redo_RPB004_40,unclassified,Staphylococcus schleiferi,6598,2
redo_RPB004_40,unclassified,Citrobacter koseri,6533,1
redo_RPB004_40,unclassified,Enterobacter hormaechei,22135,7
redo_RPB004_40,unclassified,Staphylococcus pseudintermedius,4444,1
redo_RPB004_40,unclassified,Acinetobacter baumannii,2595,1
redo_RPB004_40,unclassified,Salmonella bongori,1087,1
redo_RPB004_40,unclassified,Moraxella osloensis,25914,9
redo_RPB004_40,unclassified,Escherichia fergusonii,10751,2
redo_RPB004_40,unclassified,Zymomonas mobilis,3313,3
redo_RPB004_40,barcode08,Enterobacter hormaechei subsp. hoffmannii,16226,4
redo_RPB004_40,barcode08,Aeromonas sp. ASNIH2,5587,1
redo_RPB004_40,barcode08,Citrobacter sp. CFNIH10,17604,4
redo_RPB004_40,barcode08,Bacillus mycoides,80320,22
redo_RPB004_40,barcode08,Shigella dysenteriae,57655,13
redo_RPB004_40,barcode08,Bacillus subtilis,4164184,788
redo_RPB004_40,barcode08,Escherichia albertii,18070,4
redo_RPB004_40,barcode08,Enterobacter kobei,3796,1
redo_RPB004_40,barcode08,Citrobacter freundii,2282,1
redo_RPB004_40,barcode08,Enterobacter asburiae,2813,1
redo_RPB004_40,barcode08,Enterobacter sp. CRENT-193,9096,2
redo_RPB004_40,barcode08,Staphylococcus aureus,11911,3
redo_RPB004_40,barcode08,Serratia marcescens,5345,2
redo_RPB004_40,barcode08,Escherichia marmotae,13469,3
redo_RPB004_40,barcode08,Pectobacterium carotovorum,2547,1
redo_RPB004_40,barcode08,Shigella boydii,81523,17
redo_RPB004_40,barcode08,Escherichia coli,5097484,996
redo_RPB004_40,barcode08,Enterobacter cloacae complex sp.,4152,1
redo_RPB004_40,barcode08,Pseudomonas frederiksbergensis,5122,1
redo_RPB004_40,barcode08,Shigella flexneri,45490,10
redo_RPB004_40,barcode08,Kocuria palustris,2249,1
redo_RPB004_40,barcode08,Propionibacterium freudenreichii,6165,2
redo_RPB004_40,barcode08,Salmonella enterica,19985,4
redo_RPB004_40,barcode08,Enterobacter hormaechei subsp. xiangfangensis,62861,16
redo_RPB004_40,barcode08,Enterobacter bugandensis,28049,8
redo_RPB004_40,barcode08,Cutibacterium acnes,20163,5
redo_RPB004_40,barcode08,Klebsiella pneumoniae,21999,6
redo_RPB004_40,barcode08,Micrococcus luteus,5188,1
redo_RPB004_40,barcode08,Shigella sonnei,14643,3
redo_RPB004_40,barcode08,Rhizobium leguminosarum,2642,1
redo_RPB004_40,barcode08,Klebsiella aerogenes,2686,1
redo_RPB004_40,barcode08,Enterobacter hormaechei,1308948,317
redo_RPB004_40,barcode08,Acinetobacter baumannii,4278,1
redo_RPB004_40,barcode08,Enterobacter cloacae,327563,78
redo_RPB004_40,barcode08,Zymomonas mobilis,33530,8
redo_RPB004_40,barcode02,Staphylococcus delphini,2496,1
redo_RPB004_40,barcode02,Staphylococcus carnosus,3338,1
redo_RPB004_40,barcode02,Citrobacter youngae,6182,1
redo_RPB004_40,barcode02,Bacillus mycoides,79138,19
redo_RPB004_40,barcode02,Shigella dysenteriae,27909,6
redo_RPB004_40,barcode02,Staphylococcus cohnii,13974,6
redo_RPB004_40,barcode02,Escherichia albertii,25352,6
redo_RPB004_40,barcode02,Staphylococcus stepanovicii,3423,2
redo_RPB004_40,barcode02,Bacillus litoralis,3421,1
redo_RPB004_40,barcode02,Enterobacter sp. SA187,5707,1
redo_RPB004_40,barcode02,Exiguobacterium sp. AT1b,4273,1
redo_RPB004_40,barcode02,Yersinia pestis,352,1
redo_RPB004_40,barcode02,Staphylococcus aureus,664505523,176524
redo_RPB004_40,barcode02,Staphylococcus caprae,732880,203
redo_RPB004_40,barcode02,Salinicoccus halodurans,694,1
redo_RPB004_40,barcode02,Enterobacter roggenkampii,1952,1
redo_RPB004_40,barcode02,Staphylococcus hominis,9690,3
redo_RPB004_40,barcode02,Staphylococcus simiae,24032,8
redo_RPB004_40,barcode02,Lactobacillus bombi,3154,1
redo_RPB004_40,barcode02,Shigella boydii,49752,11
redo_RPB004_40,barcode02,Bacillus thuringiensis,4043,1
redo_RPB004_40,barcode02,Staphylococcus lugdunensis,92212,29
redo_RPB004_40,barcode02,Shigella flexneri,13907,4
redo_RPB004_40,barcode02,Staphylococcus argenteus,64207,25
redo_RPB004_40,barcode02,Staphylococcus kloosii,2718,1
redo_RPB004_40,barcode02,Staphylococcus saprophyticus,1554,2
redo_RPB004_40,barcode02,Staphylococcus equorum,864,1
redo_RPB004_40,barcode02,Pseudomonas sp. TKP,2486,1
redo_RPB004_40,barcode02,Staphylococcus schweitzeri,41923,19
redo_RPB004_40,barcode02,Streptococcus sp. ChDC B345,6641,2
redo_RPB004_40,barcode02,Bacillus megaterium,812,1
redo_RPB004_40,barcode02,Staphylococcus lutrae,3516,1
redo_RPB004_40,barcode02,Zymomonas mobilis,23408,8
redo_RPB004_40,barcode02,Jeotgalibacillus malaysiensis,2984,1
redo_RPB004_40,barcode02,Staphylococcus haemolyticus,565380,167
redo_RPB004_40,barcode02,Escherichia coli,2392816,521
redo_RPB004_40,barcode02,Bacillus subtilis,2042557,452
redo_RPB004_40,barcode02,Staphylococcus epidermidis,748159,230
redo_RPB004_40,barcode02,Shigella sonnei,10005,2
redo_RPB004_40,barcode02,Staphylococcus pseudintermedius,116061,38
redo_RPB004_40,barcode02,Brochothrix thermosphacta,3270,2
redo_RPB004_40,barcode02,Streptococcus oralis,50287,12
redo_RPB004_40,barcode02,Enterococcus durans,2300,1
redo_RPB004_40,barcode02,Planococcus sp. MB-3u-03,4209,1
redo_RPB004_40,barcode02,Brevibacillus brevis,1987,1
redo_RPB004_40,barcode02,Propionibacterium freudenreichii,10321,2
redo_RPB004_40,barcode02,Caminibacter mediatlanticus,2043,1
redo_RPB004_40,barcode02,Bacillus cereus,9948,3
redo_RPB004_40,barcode02,Streptomyces malaysiensis,6151,1
redo_RPB004_40,barcode02,Bacillus anthracis,8181,2
redo_RPB004_40,barcode02,Staphylococcus xylosus,3385,1
redo_RPB004_40,barcode02,Salmonella enterica,6185,2
redo_RPB004_40,barcode02,Acinetobacter baumannii,4769,1
redo_RPB004_40,barcode02,Erwinia pyrifoliae,5825,1
redo_RPB004_40,barcode02,Streptococcus pneumoniae,10305,3
redo_RPB004_40,barcode02,Staphylococcus schleiferi,466297,129
redo_RPB004_40,barcode02,Kitasatospora sp. MMS16-BH015,6782,1
redo_RPB004_40,barcode02,Staphylococcus sp. AntiMn-1,6493,2
redo_RPB004_40,barcode09,Escherichia coli,343163,68
redo_RPB004_40,barcode09,Staphylococcus aureus,3418,1
redo_RPB004_40,barcode09,Cyanothece sp. PCC 7425,5397,1
redo_RPB004_40,barcode09,Bacillus mycoides,12776,4
redo_RPB004_40,barcode09,Shigella dysenteriae,16211,3
redo_RPB004_40,barcode09,Bacillus subtilis,361923,71
redo_RPB004_40,barcode09,Salmonella enterica,6429,1
redo_RPB004_40,barcode09,Yersinia enterocolitica,4226,1
redo_RPB004_40,barcode09,Pantoea agglomerans,5551,1
redo_RPB004_40,barcode09,Acinetobacter guillouiae,3050,1
redo_RPB004_40,barcode09,Enterobacter hormaechei,17086,5
redo_RPB004_40,barcode09,Shigella flexneri,6735,1
redo_RPB004_40,barcode09,Pseudopropionibacterium propionicum,3931,1
redo_RPB004_40,barcode09,Enterobacter hormaechei subsp. xiangfangensis,3452,1
redo_RPB004_40,barcode09,Enterobacter cloacae,7881,2
redo_RPB004_40,barcode09,Shigella boydii,11928,2
redo_RPB004_40,barcode06,Klebsiella quasipneumoniae,4281,1
redo_RPB004_40,barcode06,Escherichia marmotae,8208,3
redo_RPB004_40,barcode06,Bacillus mycoides,138837,38
redo_RPB004_40,barcode06,Shigella dysenteriae,192571,37
redo_RPB004_40,barcode06,Klebsiella michiganensis,8237,2
redo_RPB004_40,barcode06,Escherichia albertii,14112,4
redo_RPB004_40,barcode06,Shigella flexneri,66143,16
redo_RPB004_40,barcode06,Yersinia pestis,886,1
redo_RPB004_40,barcode06,Staphylococcus aureus,28406,10
redo_RPB004_40,barcode06,Shigella sp. PAMC 28760,16097,2
redo_RPB004_40,barcode06,Acinetobacter sp. ACNIH1,4868,2
redo_RPB004_40,barcode06,Corynebacterium renale,3276,1
redo_RPB004_40,barcode06,Shigella boydii,111769,26
redo_RPB004_40,barcode06,Mycoplasma mycoides,3279,1
redo_RPB004_40,barcode06,Staphylococcus haemolyticus,33940,7
redo_RPB004_40,barcode06,Arthrobacter sp. PGP41,3364,1
redo_RPB004_40,barcode06,Staphylococcus simulans,3065,1
redo_RPB004_40,barcode06,Pseudomonas aeruginosa,2072,1
redo_RPB004_40,barcode06,Flavobacterium johnsoniae,11751,3
redo_RPB004_40,barcode06,Pseudomonas sp. TKP,6513,2
redo_RPB004_40,barcode06,Chryseobacterium haifense,1690,1
redo_RPB004_40,barcode06,Chlamydia suis,7913,2
redo_RPB004_40,barcode06,Acinetobacter baumannii,3925,2
redo_RPB004_40,barcode06,Pantoea sp. PSNIH2,5423,1
redo_RPB004_40,barcode06,Salmonella bongori,6482,1
redo_RPB004_40,barcode06,Tenacibaculum jejuense,23875,5
redo_RPB004_40,barcode06,Escherichia coli,7508850,1503
redo_RPB004_40,barcode06,Klebsiella pneumoniae,6020,1
redo_RPB004_40,barcode06,Bacillus subtilis,5125510,1033
redo_RPB004_40,barcode06,Staphylococcus epidermidis,73444,22
redo_RPB004_40,barcode06,Shigella sonnei,34446,7
redo_RPB004_40,barcode06,Citrobacter rodentium,4686,1
redo_RPB004_40,barcode06,Staphylococcus capitis,1240584,347
redo_RPB004_40,barcode06,Isoptericola dokdonensis,3026,1
redo_RPB004_40,barcode06,Enterobacter ludwigii,4046,1
redo_RPB004_40,barcode06,Arthrobacter alpinus,2391,1
redo_RPB004_40,barcode06,Enterobacter asburiae,4286,1
redo_RPB004_40,barcode06,Moraxella osloensis,669043,179
redo_RPB004_40,barcode06,Raoultella terrigena,6469,1
redo_RPB004_40,barcode06,Salmonella enterica,13649,3
redo_RPB004_40,barcode06,Vibrio coralliilyticus,4762,1
redo_RPB004_40,barcode06,Proteus mirabilis,12149,3
redo_RPB004_40,barcode06,Escherichia fergusonii,6313,2
redo_RPB004_40,barcode06,Cutibacterium acnes,48955,11
redo_RPB004_40,barcode06,Zymomonas mobilis,51050,15
redo_RPB004_40,barcode06,Bifidobacterium bifidum,3046,1
redo_RPB004_40,barcode06,Arthrobacter sp. PAMC 25486,3343,1
redo_RPB004_40,barcode05,Shigella sonnei,6345,1
redo_RPB004_40,barcode05,Escherichia coli,2392374,462
redo_RPB004_40,barcode05,Klebsiella quasipneumoniae,5044,1
redo_RPB004_40,barcode05,Staphylococcus haemolyticus,102171,21
redo_RPB004_40,barcode05,Shigella sp. PAMC 28760,8034,1
redo_RPB004_40,barcode05,Bacillus mycoides,36020,11
redo_RPB004_40,barcode05,Shigella dysenteriae,34367,8
redo_RPB004_40,barcode05,Bacillus subtilis,2143524,414
redo_RPB004_40,barcode05,Massilia oculi,3205,1
redo_RPB004_40,barcode05,Shigella boydii,32212,6
redo_RPB004_40,barcode05,Escherichia albertii,20540,4
redo_RPB004_40,barcode05,Shigella flexneri,39569,8
redo_RPB004_40,barcode05,Staphylococcus epidermidis,2241,1
redo_RPB004_40,barcode05,Cutibacterium acnes,137913,29
redo_RPB004_40,barcode05,Pseudomonas aeruginosa,5133,1
redo_RPB004_40,barcode05,Staphylococcus aureus,67228,19
redo_RPB004_40,barcode05,Staphylococcus capitis,969741,236
redo_RPB004_40,barcode05,Escherichia marmotae,3700,1
redo_RPB004_40,barcode05,Leclercia adecarboxylata,4683,1
redo_RPB004_40,barcode05,Zymomonas mobilis,11878,3
redo_RPB004_40,barcode07,Cronobacter condimenti,6029,1
redo_RPB004_40,barcode07,Bacillus mycoides,99179,24
redo_RPB004_40,barcode07,Shigella dysenteriae,36193,8
redo_RPB004_40,barcode07,Bacillus subtilis,3585476,734
redo_RPB004_40,barcode07,Escherichia albertii,15308,4
redo_RPB004_40,barcode07,Cupriavidus metallidurans,12390,3
redo_RPB004_40,barcode07,Staphylococcus epidermidis,376968,85
redo_RPB004_40,barcode07,Shigella sonnei,23974,6
redo_RPB004_40,barcode07,Enterobacter hormaechei,45928,11
redo_RPB004_40,barcode07,Staphylococcus aureus,34887,7
redo_RPB004_40,barcode07,Escherichia marmotae,7986,2
redo_RPB004_40,barcode07,Citrobacter koseri,4410,1
redo_RPB004_40,barcode07,Escherichia coli,3646236,757
redo_RPB004_40,barcode07,Shigella boydii,74463,17
redo_RPB004_40,barcode07,Salmonella enterica,3806,1
redo_RPB004_40,barcode07,Shigella flexneri,36828,7
redo_RPB004_40,barcode07,Enterobacter hormaechei subsp. xiangfangensis,3471,1
redo_RPB004_40,barcode07,Escherichia fergusonii,3624,1
redo_RPB004_40,barcode07,Cutibacterium acnes,38199,9
redo_RPB004_40,barcode07,Klebsiella pneumoniae,8331,2
redo_RPB004_40,barcode07,Cupriavidus oxalaticus,4519,1
redo_RPB004_40,barcode07,Chlamydia suis,9621,2
redo_RPB004_40,barcode07,Zymomonas mobilis,24570,8
redo_RPB004_40,barcode07,Enterobacter cloacae,9599,3
redo_RPB004_40,barcode07,Moraxella osloensis,35619,10
redo_RPB004_40,barcode10,Magnetospirillum sp. XM-1,3298,1
redo_RPB004_40,barcode10,Citrobacter koseri,8102,2
redo_RPB004_40,barcode10,Shigella dysenteriae,280328,64
redo_RPB004_40,barcode10,Klebsiella michiganensis,4391,2
redo_RPB004_40,barcode10,Escherichia albertii,43400,11
redo_RPB004_40,barcode10,Shigella flexneri,165185,39
redo_RPB004_40,barcode10,Corynebacterium falsenii,3250,1
redo_RPB004_40,barcode10,Ralstonia solanacearum,3446,1
redo_RPB004_40,barcode10,Yersinia pestis,4248,1
redo_RPB004_40,barcode10,Staphylococcus aureus,23256,6
redo_RPB004_40,barcode10,Escherichia marmotae,32186,6
redo_RPB004_40,barcode10,Candidatus Thiodictyon syntrophicum,4546,2
redo_RPB004_40,barcode10,Cutibacterium acnes,374110,96
redo_RPB004_40,barcode10,Mycoplasma mycoides,3032,1
redo_RPB004_40,barcode10,Shigella boydii,299157,70
redo_RPB004_40,barcode10,Enterobacteriaceae bacterium strain FGI 57,4309,1
redo_RPB004_40,barcode10,Bacillus mycoides,270569,79
redo_RPB004_40,barcode10,Enterobacter sp. 638,5190,1
redo_RPB004_40,barcode10,Serratia sp. FGI94,4423,1
redo_RPB004_40,barcode10,Raoultella ornithinolytica,3985,1
redo_RPB004_40,barcode10,Chlamydia suis,3322,1
redo_RPB004_40,barcode10,Citrobacter amalonaticus,4372,1
redo_RPB004_40,barcode10,Salmonella bongori,3945,1
redo_RPB004_40,barcode10,Sphingopyxis sp. 113P3,3279,1
redo_RPB004_40,barcode10,Woeseia oceani,5150,1
redo_RPB004_40,barcode10,Escherichia coli,16464534,3417
redo_RPB004_40,barcode10,Klebsiella pneumoniae,14998,3
redo_RPB004_40,barcode10,Bacillus subtilis,11912510,2525
redo_RPB004_40,barcode10,Dickeya solani,257,1
redo_RPB004_40,barcode10,Kluyvera intermedia,4248,1
redo_RPB004_40,barcode10,Staphylococcus epidermidis,179529,44
redo_RPB004_40,barcode10,Shigella sonnei,46125,11
redo_RPB004_40,barcode10,Azotobacter chroococcum,5372,1
redo_RPB004_40,barcode10,Citrobacter werkmanii,3369,1
redo_RPB004_40,barcode10,Citrobacter youngae,4001,1
redo_RPB004_40,barcode10,Leclercia adecarboxylata,2199,1
redo_RPB004_40,barcode10,Citrobacter farmeri,5822,1
redo_RPB004_40,barcode10,Propionibacterium freudenreichii,16050,5
redo_RPB004_40,barcode10,Moraxella osloensis,455567,146
redo_RPB004_40,barcode10,Salmonella enterica,45518,11
redo_RPB004_40,barcode10,Proteus mirabilis,5717,2
redo_RPB004_40,barcode10,Citrobacter freundii,2247,1
redo_RPB004_40,barcode10,Shimwellia blattae,3589,1
redo_RPB004_40,barcode10,Psychrobacter sp. AntiMn-1,1915,1
redo_RPB004_40,barcode10,Pseudomonas aeruginosa,4251,1
redo_RPB004_40,barcode10,Enterobacter sp. CRENT-193,2488,1
redo_RPB004_40,barcode10,Aeromonas hydrophila,6786,1
redo_RPB004_40,barcode10,Nocardiopsis dassonvillei,3219,1
redo_RPB004_40,barcode10,Zymomonas mobilis,165212,45
redo_RPB004_40,barcode10,Escherichia fergusonii,18836,5
redo_RPB004_40,barcode04,Enterobacter asburiae,5244,1
redo_RPB004_40,barcode04,Escherichia coli,2763143,527
redo_RPB004_40,barcode04,Shigella sonnei,15668,3
redo_RPB004_40,barcode04,Bacillus mycoides,51559,11
redo_RPB004_40,barcode04,Shigella dysenteriae,53376,10
redo_RPB004_40,barcode04,Bacillus subtilis,2587397,483
redo_RPB004_40,barcode04,Shigella boydii,89311,16
redo_RPB004_40,barcode04,Escherichia albertii,33649,6
redo_RPB004_40,barcode04,Shigella flexneri,41987,8
redo_RPB004_40,barcode04,Salmonella enterica,14052,2
redo_RPB004_40,barcode04,Cutibacterium acnes,29303,7
redo_RPB004_40,barcode04,Klebsiella pneumoniae,7021,1
redo_RPB004_40,barcode04,Pseudomonas sp. TKP,12485,3
redo_RPB004_40,barcode04,Staphylococcus aureus,18772,4
redo_RPB004_40,barcode04,Escherichia marmotae,8299,2
redo_RPB004_40,barcode04,Chlamydia suis,5653,1
redo_RPB004_40,barcode04,Enterobacter roggenkampii,7122,1
redo_RPB004_40,barcode04,Zymomonas mobilis,22245,5
redo_RPB004_40,barcode04,Escherichia fergusonii,4136,1
redo_RPB004_40,barcode04,Burkholderia cepacia,5361,1
redo_RPB004_40,barcode04,Moraxella osloensis,10133,4
redo_RPB004_40,unclassified,Proteus phage VB_PmiS-Isfahan,568,1
redo_RPB004_40,unclassified,Escherichia virus T7,3946,1
redo_RPB004_40,barcode08,Escherichia virus Mu,8828,2
redo_RPB004_40,barcode02,Escherichia virus Mu,2776,1
redo_RPB004_40,barcode02,Staphylococcus phage 23MRA,278948,74
redo_RPB004_40,barcode02,Staphylococcus phage P954,1818,1
redo_RPB004_40,barcode02,Staphylococcus phage PVL,18779,4
redo_RPB004_40,barcode06,Escherichia virus Mu,21241,6
redo_RPB004_40,barcode06,Escherichia virus T7,3662,1
redo_RPB004_40,barcode05,Escherichia virus Mu,15483,3
redo_RPB004_40,barcode07,Escherichia virus Mu,8122,2
redo_RPB004_40,barcode07,Escherichia virus T7,1484,2
redo_RPB004_40,barcode07,Proteus phage VB_PmiS-Isfahan,767,1
redo_RPB004_40,barcode10,Escherichia virus Mu,57342,12
redo_RPB004_40,barcode10,Staphylococcus virus SEP9,22993,7
redo_RPB004_40,barcode04,Escherichia virus Mu,5619,1
