sample,barcode,Species name,chrom,len,covBread_1x_percent,avCov,x1,x5,x10
RPB004_59,barcode01,Cutibacterium acnes,NC_006085_1,2560265.0,0.5181885469,4.1428356071,13267.0,6161.0,0.0
RPB004_59,barcode01,Escherichia coli,NC_000913_3,4641652.0,2.7980124318,2.7615073071,129874.0,20687.0,6091.0
RPB004_59,barcode01,Shigella dysenteriae,NC_007606_1,4369232.0,0.3056830125,1.4177148847,13356.0,0.0,0.0
RPB004_59,barcode01,Shigella dysenteriae,NC_009344_1,8953.0,0.0,0.0,0.0,0.0,0.0
RPB004_59,barcode01,Shigella dysenteriae,NC_007607_1,182726.0,0.0,0.0,0.0,0.0,0.0
RPB004_59,barcode01,Shigella flexneri,NC_004337_2,4607202.0,0.3102967918,1.0,14296.0,0.0,0.0
RPB004_59,barcode01,Shigella flexneri,NC_004851_1,221618.0,0.0,0.0,0.0,0.0,0.0
RPB004_59,barcode01,Tetragenococcus osmophilus,NZ_CP027783_1,2329167.0,0.0619105457,1.0,1442.0,0.0,0.0
RPB004_59,barcode01,Tetragenococcus osmophilus,NZ_CP027784_1,27566.0,0.0,0.0,0.0,0.0,0.0
RPB004_59,barcode01,Tetragenococcus osmophilus,NZ_CP027785_1,27560.0,0.0,0.0,0.0,0.0,0.0
RPB004_59,barcode01,Yersinia pestis,NC_003143_1,4653728.0,0.1097614644,1.0,5108.0,0.0,0.0
RPB004_59,barcode01,Yersinia pestis,NC_003131_1,70305.0,0.0,0.0,0.0,0.0,0.0
RPB004_59,barcode01,Yersinia pestis,NC_003134_1,96210.0,0.0,0.0,0.0,0.0,0.0
RPB004_59,barcode01,Yersinia pestis,NC_003132_1,9612.0,0.0,0.0,0.0,0.0,0.0
RPB004_59,barcode02,Auricoccus indicus,NZ_CP019573_1,1745789.0,0.1455502355,2.0,2541.0,0.0,0.0
RPB004_59,barcode02,Cutibacterium acnes,NC_006085_1,2560265.0,1.2735400437,5.5212844262,32606.0,16342.0,3444.0
RPB004_59,barcode02,Dolosigranulum pigrum,NZ_CP041626_1,2082055.0,0.1209382077,4.780381255,2518.0,2228.0,0.0
RPB004_59,barcode02,Escherichia albertii,NZ_CP007025_1,4701875.0,0.2446045461,2.0,11501.0,0.0,0.0
RPB004_59,barcode02,Escherichia coli,NC_000913_3,4641652.0,5.0169422438,7.6410041697,232869.0,120283.0,41137.0
RPB004_59,barcode02,Escherichia fergusonii,NC_011740_1,4588711.0,0.0731142144,2.0,3355.0,0.0,0.0
RPB004_59,barcode02,Escherichia fergusonii,NC_011743_1,55150.0,0.0,0.0,0.0,0.0,0.0
RPB004_59,barcode02,Klebsiella pneumoniae,NC_016845_1,5333942.0,0.0,0.0,0.0,0.0,0.0
RPB004_59,barcode02,Klebsiella pneumoniae,NC_016838_1,122799.0,0.0,0.0,0.0,0.0,0.0
RPB004_59,barcode02,Klebsiella pneumoniae,NC_016846_1,111195.0,0.0,0.0,0.0,0.0,0.0
RPB004_59,barcode02,Klebsiella pneumoniae,NC_016839_1,105974.0,0.0,0.0,0.0,0.0,0.0
RPB004_59,barcode02,Klebsiella pneumoniae,NC_016840_1,3751.0,0.0,0.0,0.0,0.0,0.0
RPB004_59,barcode02,Klebsiella pneumoniae,NC_016847_1,3353.0,11.780495079,3.8886075949,395.0,0.0,0.0
RPB004_59,barcode02,Klebsiella pneumoniae,NC_016841_1,1308.0,0.0,0.0,0.0,0.0,0.0
RPB004_59,barcode02,Lysinibacillus fusiformis,NZ_CP010820_1,4843789.0,0.0257443088,4.9815557338,1247.0,983.0,0.0
RPB004_59,barcode02,Micrococcus luteus,NC_012803_1,2501097.0,0.0953981393,1.0,2386.0,0.0,0.0
RPB004_59,barcode02,Morganella morganii,NC_020418_1,3799539.0,0.0611653151,1.0,2324.0,0.0,0.0
RPB004_59,barcode02,Pseudomonas resinovorans,NC_021499_1,6285863.0,0.0188518267,2.0,1185.0,0.0,0.0
RPB004_59,barcode02,Pseudomonas resinovorans,NC_021506_1,198965.0,0.0,0.0,0.0,0.0,0.0
RPB004_59,barcode02,Shigella dysenteriae,NC_007606_1,4369232.0,0.4998361268,2.470809103,21839.0,3271.0,0.0
RPB004_59,barcode02,Shigella dysenteriae,NC_009344_1,8953.0,0.0,0.0,0.0,0.0,0.0
RPB004_59,barcode02,Shigella dysenteriae,NC_007607_1,182726.0,0.0,0.0,0.0,0.0,0.0
RPB004_59,barcode02,Shigella flexneri,NC_004337_2,4607202.0,0.156342179,2.7091489657,7203.0,0.0,0.0
RPB004_59,barcode02,Shigella flexneri,NC_004851_1,221618.0,0.0,0.0,0.0,0.0,0.0
RPB004_59,barcode02,Shigella sp. PAMC 28760,NZ_CP014768_1,4558287.0,0.0689513407,3.8902322622,3143.0,0.0,0.0
RPB004_59,barcode02,Sphingomonas sp. LK11,NZ_CP013916_1,3781071.0,0.0222423752,2.0,841.0,0.0,0.0
RPB004_59,barcode02,Sphingomonas sp. LK11,NZ_CP013918_1,34160.0,0.0,0.0,0.0,0.0,0.0
RPB004_59,barcode02,Sphingomonas sp. LK11,NZ_CP013917_1,122975.0,0.0,0.0,0.0,0.0,0.0
RPB004_59,barcode02,Staphylococcus agnetis,NZ_CP009623_1,2474434.0,0.1102474344,6.9769061584,2728.0,2292.0,0.0
RPB004_59,barcode02,Staphylococcus agnetis,NZ_CP009624_1,28965.0,0.0,0.0,0.0,0.0,0.0
RPB004_59,barcode02,Staphylococcus aureus,NC_007795_1,2821361.0,0.5246404129,13.7135522227,14802.0,6382.0,3955.0
RPB004_59,barcode02,Staphylococcus auricularis,NZ_LS483491_1,2216666.0,0.017864667,1.0,396.0,0.0,0.0
RPB004_59,barcode02,Staphylococcus capitis,NZ_CP007601_1,2443604.0,0.496561636,7.8292401516,12134.0,7166.0,3422.0
RPB004_59,barcode02,Staphylococcus capitis,NZ_CP007602_1,59661.0,0.0,0.0,0.0,0.0,0.0
RPB004_59,barcode02,Staphylococcus cohnii,NZ_CP027422_1,2557319.0,0.0818826279,2.0,2094.0,0.0,0.0
RPB004_59,barcode02,Staphylococcus cohnii,NZ_CP027420_1,36910.0,0.0,0.0,0.0,0.0,0.0
RPB004_59,barcode02,Staphylococcus cohnii,NZ_CP027419_1,32058.0,0.0,0.0,0.0,0.0,0.0
RPB004_59,barcode02,Staphylococcus cohnii,NZ_CP027421_1,29852.0,2.6128902586,2.2282051282,780.0,0.0,0.0
RPB004_59,barcode02,Staphylococcus cohnii,NZ_CP027423_1,2670.0,0.0,0.0,0.0,0.0,0.0
RPB004_59,barcode02,Staphylococcus cohnii,NZ_CP027424_1,2473.0,0.0,0.0,0.0,0.0,0.0
RPB004_59,barcode02,Staphylococcus epidermidis,NC_004461_1,2499279.0,93.2358892305,51.904133721,2330225.0,2196795.0,2025577.0
RPB004_59,barcode02,Staphylococcus epidermidis,NC_005008_1,4439.0,0.0,0.0,0.0,0.0,0.0
RPB004_59,barcode02,Staphylococcus epidermidis,NC_005007_1,4679.0,3.5905107929,14.5952380952,168.0,168.0,165.0
RPB004_59,barcode02,Staphylococcus epidermidis,NC_005006_1,8007.0,0.0,0.0,0.0,0.0,0.0
RPB004_59,barcode02,Staphylococcus epidermidis,NC_005005_1,17261.0,0.5677538961,2.0,98.0,0.0,0.0
RPB004_59,barcode02,Staphylococcus epidermidis,NC_005004_1,24365.0,8.0894726041,2.0,1971.0,0.0,0.0
RPB004_59,barcode02,Staphylococcus epidermidis,NC_005003_1,6585.0,0.0,0.0,0.0,0.0,0.0
RPB004_59,barcode02,Staphylococcus equorum,NZ_CP013114_1,2822193.0,0.0039331116,2.0,111.0,0.0,0.0
RPB004_59,barcode02,Staphylococcus haemolyticus,NC_007168_1,2685015.0,1.0959342871,5.9411744716,29426.0,11736.0,5080.0
RPB004_59,barcode02,Staphylococcus haemolyticus,NC_007169_1,2300.0,0.0,0.0,0.0,0.0,0.0
RPB004_59,barcode02,Staphylococcus haemolyticus,NC_007170_1,2366.0,0.0,0.0,0.0,0.0,0.0
RPB004_59,barcode02,Staphylococcus haemolyticus,NC_007171_1,8180.0,0.0,0.0,0.0,0.0,0.0
RPB004_59,barcode02,Staphylococcus lugdunensis,NC_013893_1,2658366.0,0.075572739,2.0039820806,2009.0,0.0,0.0
RPB004_59,barcode02,Staphylococcus phage CNPx,NC_031241_1,43293.0,29.7415286536,3.2388940665,12876.0,3677.0,0.0
RPB004_59,barcode02,Staphylococcus phage StB20,NC_019915_1,40917.0,1.7181122761,5.8435277383,703.0,656.0,0.0
RPB004_59,barcode02,Staphylococcus saprophyticus,NC_007350_1,2516575.0,0.0,0.0,0.0,0.0,0.0
RPB004_59,barcode02,Staphylococcus saprophyticus,NC_007351_1,38454.0,1.0193998024,2.0,392.0,0.0,0.0
RPB004_59,barcode02,Staphylococcus saprophyticus,NC_007352_1,22870.0,9.2785308264,3.4462770971,2122.0,377.0,0.0
RPB004_59,barcode02,Staphylococcus schleiferi,NZ_CP009470_1,2435632.0,0.0133435593,6.0030769231,325.0,172.0,0.0
RPB004_59,barcode02,Staphylococcus simulans,NZ_CP014016_2,2647556.0,0.0206605639,2.0,547.0,0.0,0.0
RPB004_59,barcode02,Staphylococcus virus CNPH82,NC_008722_1,43420.0,34.3436204514,21.6827387339,14912.0,12999.0,7819.0
RPB004_59,barcode02,Staphylococcus virus IPLA5,NC_018281_1,43581.0,55.8821504784,38.8928307465,24354.0,22623.0,20005.0
RPB004_59,barcode02,Staphylococcus virus IPLA7,NC_018284_1,42123.0,64.7342307053,50.8529778495,27268.0,21825.0,21662.0
RPB004_59,barcode02,Staphylococcus virus PH15,NC_008723_1,44041.0,58.5272813969,55.1947160149,25776.0,21719.0,21212.0
RPB004_59,barcode02,Staphylococcus warneri,NC_020164_1,2486042.0,0.0,0.0,0.0,0.0,0.0
RPB004_59,barcode02,Staphylococcus warneri,NC_020165_1,4374.0,0.0,0.0,0.0,0.0,0.0
RPB004_59,barcode02,Staphylococcus warneri,NC_020274_1,13186.0,3.0638556044,2.0,404.0,0.0,0.0
RPB004_59,barcode02,Staphylococcus warneri,NC_020264_1,8232.0,7.2400388727,2.0,596.0,0.0,0.0
RPB004_59,barcode02,Staphylococcus warneri,NC_020265_1,3352.0,0.0,0.0,0.0,0.0,0.0
RPB004_59,barcode02,Staphylococcus warneri,NC_020266_1,19866.0,0.0,0.0,0.0,0.0,0.0
RPB004_59,barcode02,Staphylococcus warneri,NC_020267_1,16515.0,0.0,0.0,0.0,0.0,0.0
RPB004_59,barcode02,Staphylococcus warneri,NC_020268_1,6212.0,0.0,0.0,0.0,0.0,0.0
RPB004_59,barcode02,Staphylococcus warneri,NC_020269_1,2937.0,0.0,0.0,0.0,0.0,0.0
RPB004_59,barcode02,Streptococcus oralis,NC_015291_1,1958690.0,0.4887450286,7.0918207458,9573.0,7005.0,1187.0
RPB004_59,barcode02,Streptococcus pasteurianus,NC_015600_1,2100077.0,0.0906633423,2.0,1904.0,0.0,0.0
RPB004_59,barcode04,Cutibacterium acnes,NC_006085_1,2560265.0,0.9775941162,6.5288665148,25029.0,15752.0,4096.0
RPB004_59,barcode04,Dolosigranulum pigrum,NZ_CP041626_1,2082055.0,0.1756918045,3.9196282121,3658.0,0.0,0.0
RPB004_59,barcode04,Enterococcus faecium,NC_017960_1,2698137.0,0.0143802928,1.0,388.0,0.0,0.0
RPB004_59,barcode04,Enterococcus faecium,NC_017961_1,36262.0,0.0,0.0,0.0,0.0,0.0
RPB004_59,barcode04,Enterococcus faecium,NC_017962_1,66247.0,0.0,0.0,0.0,0.0,0.0
RPB004_59,barcode04,Enterococcus faecium,NC_017963_1,251926.0,0.0,0.0,0.0,0.0,0.0
RPB004_59,barcode04,Escherichia albertii,NZ_CP007025_1,4701875.0,0.0783942576,1.0,3686.0,0.0,0.0
RPB004_59,barcode04,Escherichia coli,NC_000913_3,4641652.0,4.3014642201,4.0245718951,199659.0,52396.0,9954.0
RPB004_59,barcode04,Escherichia virus T7,NC_001604_1,39937.0,1.3396098856,10.6953271028,535.0,531.0,367.0
RPB004_59,barcode04,Human endogenous retrovirus K,NC_022518_1,9472.0,57.7913851351,1.8779685787,5474.0,0.0,0.0
RPB004_59,barcode04,Methylobacterium sp. 17SD2-17,NZ_CP029550_1,6788375.0,0.0460935054,2.0,3129.0,0.0,0.0
RPB004_59,barcode04,Moraxella osloensis,NZ_CP014234_1,2434688.0,0.1519701908,3.8291891892,3700.0,0.0,0.0
RPB004_59,barcode04,Moraxella osloensis,NZ_CP014238_1,40342.0,0.0,0.0,0.0,0.0,0.0
RPB004_59,barcode04,Moraxella osloensis,NZ_CP014237_1,35189.0,0.0,0.0,0.0,0.0,0.0
RPB004_59,barcode04,Moraxella osloensis,NZ_CP014236_1,57463.0,0.0,0.0,0.0,0.0,0.0
RPB004_59,barcode04,Moraxella osloensis,NZ_CP014235_1,81455.0,0.0,0.0,0.0,0.0,0.0
RPB004_59,barcode04,Novibacillus thermophilus,NZ_CP019699_1,3629225.0,0.0622446941,2.0,2259.0,0.0,0.0
RPB004_59,barcode04,Pseudomonas sp. TKP,NC_023064_1,7012672.0,0.0448616447,1.0,3146.0,0.0,0.0
RPB004_59,barcode04,Shigella dysenteriae,NC_007606_1,4369232.0,0.1013679292,2.0,4429.0,0.0,0.0
RPB004_59,barcode04,Shigella dysenteriae,NC_009344_1,8953.0,0.0,0.0,0.0,0.0,0.0
RPB004_59,barcode04,Shigella dysenteriae,NC_007607_1,182726.0,0.0,0.0,0.0,0.0,0.0
RPB004_59,barcode04,Shigella flexneri,NC_004337_2,4607202.0,0.121071314,1.6414485479,5578.0,0.0,0.0
RPB004_59,barcode04,Shigella flexneri,NC_004851_1,221618.0,0.0,0.0,0.0,0.0,0.0
RPB004_59,barcode04,Staphylococcus agnetis,NZ_CP009623_1,2474434.0,0.1585817201,5.7905198777,3924.0,3539.0,0.0
RPB004_59,barcode04,Staphylococcus agnetis,NZ_CP009624_1,28965.0,0.0,0.0,0.0,0.0,0.0
RPB004_59,barcode04,Staphylococcus aureus,NC_007795_1,2821361.0,0.2619303237,4.1618403248,7390.0,643.0,615.0
RPB004_59,barcode04,Staphylococcus auricularis,NZ_LS483491_1,2216666.0,0.0328421151,2.0,728.0,0.0,0.0
RPB004_59,barcode04,Staphylococcus capitis,NZ_CP007601_1,2443604.0,0.0316745266,2.0,774.0,0.0,0.0
RPB004_59,barcode04,Staphylococcus capitis,NZ_CP007602_1,59661.0,0.0,0.0,0.0,0.0,0.0
RPB004_59,barcode04,Staphylococcus epidermidis,NC_004461_1,2499279.0,54.2650100289,10.0014613997,1356234.0,921336.0,484826.0
RPB004_59,barcode04,Staphylococcus epidermidis,NC_005008_1,4439.0,0.0,0.0,0.0,0.0,0.0
RPB004_59,barcode04,Staphylococcus epidermidis,NC_005007_1,4679.0,0.0,0.0,0.0,0.0,0.0
RPB004_59,barcode04,Staphylococcus epidermidis,NC_005006_1,8007.0,0.0,0.0,0.0,0.0,0.0
RPB004_59,barcode04,Staphylococcus epidermidis,NC_005005_1,17261.0,0.0,0.0,0.0,0.0,0.0
RPB004_59,barcode04,Staphylococcus epidermidis,NC_005004_1,24365.0,0.0,0.0,0.0,0.0,0.0
RPB004_59,barcode04,Staphylococcus epidermidis,NC_005003_1,6585.0,0.0,0.0,0.0,0.0,0.0
RPB004_59,barcode04,Staphylococcus haemolyticus,NC_007168_1,2685015.0,0.3112831772,2.6581718114,8358.0,463.0,0.0
RPB004_59,barcode04,Staphylococcus haemolyticus,NC_007169_1,2300.0,0.0,0.0,0.0,0.0,0.0
RPB004_59,barcode04,Staphylococcus haemolyticus,NC_007170_1,2366.0,0.0,0.0,0.0,0.0,0.0
RPB004_59,barcode04,Staphylococcus haemolyticus,NC_007171_1,8180.0,0.0,0.0,0.0,0.0,0.0
RPB004_59,barcode04,Staphylococcus hominis,NZ_CP020618_1,2253412.0,0.0069672124,2.0,157.0,0.0,0.0
RPB004_59,barcode04,Staphylococcus saprophyticus,NC_007350_1,2516575.0,0.0,0.0,0.0,0.0,0.0
RPB004_59,barcode04,Staphylococcus saprophyticus,NC_007351_1,38454.0,3.1102096011,2.0,1196.0,0.0,0.0
RPB004_59,barcode04,Staphylococcus saprophyticus,NC_007352_1,22870.0,3.4062090074,2.0,779.0,0.0,0.0
RPB004_59,barcode04,Staphylococcus simulans,NZ_CP014016_2,2647556.0,0.0276481404,2.0,732.0,0.0,0.0
RPB004_59,barcode04,Staphylococcus virus CNPH82,NC_008722_1,43420.0,24.9907876555,4.5814210672,10851.0,4825.0,0.0
RPB004_59,barcode04,Staphylococcus virus IPLA5,NC_018281_1,43581.0,29.7469080563,7.1296667695,12964.0,5887.0,3560.0
RPB004_59,barcode04,Staphylococcus virus IPLA7,NC_018284_1,42123.0,41.9462051611,11.597430528,17669.0,11488.0,8590.0
RPB004_59,barcode04,Staphylococcus virus PH15,NC_008723_1,44041.0,37.5831611453,7.3332527791,16552.0,6894.0,5306.0
RPB004_59,barcode05,Escherichia coli,NC_000913_3,4641652.0,0.0554543943,1.0,2574.0,0.0,0.0
RPB004_59,barcode10,Cutibacterium acnes,NC_006085_1,2560265.0,0.5476386233,3.6533770772,14021.0,3963.0,0.0
RPB004_59,barcode10,Escherichia albertii,NZ_CP007025_1,4701875.0,0.0681855643,2.0,3206.0,0.0,0.0
RPB004_59,barcode10,Escherichia coli,NC_000913_3,4641652.0,3.2479384495,3.2664402552,150758.0,22682.0,1040.0
RPB004_59,barcode10,Escherichia marmotae,NZ_CP025979_1,4671322.0,0.1131157304,2.0,5284.0,0.0,0.0
RPB004_59,barcode10,Escherichia marmotae,NZ_CP025980_1,148809.0,0.0,0.0,0.0,0.0,0.0
RPB004_59,barcode10,Escherichia marmotae,NZ_CP025981_1,76160.0,0.0,0.0,0.0,0.0,0.0
RPB004_59,barcode10,Human endogenous retrovirus K,NC_022518_1,9472.0,34.0477195946,3.8511627907,3225.0,0.0,0.0
RPB004_59,barcode10,Moraxella osloensis,NZ_CP014234_1,2434688.0,0.147246793,7.8733612273,3585.0,3478.0,0.0
RPB004_59,barcode10,Moraxella osloensis,NZ_CP014238_1,40342.0,0.0,0.0,0.0,0.0,0.0
RPB004_59,barcode10,Moraxella osloensis,NZ_CP014237_1,35189.0,0.0,0.0,0.0,0.0,0.0
RPB004_59,barcode10,Moraxella osloensis,NZ_CP014236_1,57463.0,0.0,0.0,0.0,0.0,0.0
RPB004_59,barcode10,Moraxella osloensis,NZ_CP014235_1,81455.0,0.0,0.0,0.0,0.0,0.0
RPB004_59,barcode10,Pseudomonas sp. NC02,NZ_CP025624_1,6890566.0,0.0694282589,2.0,4784.0,0.0,0.0
RPB004_59,barcode10,Pseudomonas sp. TKP,NC_023064_1,7012672.0,0.057495916,3.8680555556,4032.0,0.0,0.0
RPB004_59,barcode10,Salmonella enterica,NC_003197_2,4857450.0,0.1041492964,2.0,5059.0,0.0,0.0
RPB004_59,barcode10,Salmonella enterica,NC_003277_2,93933.0,0.0,0.0,0.0,0.0,0.0
RPB004_59,barcode10,Shigella dysenteriae,NC_007606_1,4369232.0,0.3139911087,1.6409359283,13719.0,0.0,0.0
RPB004_59,barcode10,Shigella dysenteriae,NC_009344_1,8953.0,0.0,0.0,0.0,0.0,0.0
RPB004_59,barcode10,Shigella dysenteriae,NC_007607_1,182726.0,0.0,0.0,0.0,0.0,0.0
RPB004_59,barcode10,Staphylococcus epidermidis,NC_004461_1,2499279.0,0.2552336094,2.0,6379.0,0.0,0.0
RPB004_59,barcode10,Staphylococcus epidermidis,NC_005008_1,4439.0,0.0,0.0,0.0,0.0,0.0
RPB004_59,barcode10,Staphylococcus epidermidis,NC_005007_1,4679.0,0.0,0.0,0.0,0.0,0.0
RPB004_59,barcode10,Staphylococcus epidermidis,NC_005006_1,8007.0,0.0,0.0,0.0,0.0,0.0
RPB004_59,barcode10,Staphylococcus epidermidis,NC_005005_1,17261.0,0.0,0.0,0.0,0.0,0.0
RPB004_59,barcode10,Staphylococcus epidermidis,NC_005004_1,24365.0,0.0,0.0,0.0,0.0,0.0
RPB004_59,barcode10,Staphylococcus epidermidis,NC_005003_1,6585.0,0.0,0.0,0.0,0.0,0.0
RPB004_59,barcode10,Streptococcus thermophilus,NC_017581_1,1929905.0,0.2444679919,15.3363713438,4718.0,4718.0,4677.0
RPB004_59,barcode11,Escherichia coli,NC_000913_3,4641652.0,0.4633048751,1.0,21505.0,0.0,0.0
RPB004_59,unclassified,Cutibacterium acnes,NC_006085_1,2560265.0,0.375078361,2.4594397584,9603.0,0.0,0.0
RPB004_59,unclassified,Escherichia coli,NC_000913_3,4641652.0,0.4960949248,1.8283753854,23027.0,0.0,0.0
RPB004_59,unclassified,Staphylococcus aureus,NC_007795_1,2821361.0,0.1125697846,2.314231738,3176.0,0.0,0.0
RPB004_59,unclassified,Staphylococcus capitis,NZ_CP007601_1,2443604.0,0.1234651768,2.0,3017.0,0.0,0.0
RPB004_59,unclassified,Staphylococcus capitis,NZ_CP007602_1,59661.0,0.0,0.0,0.0,0.0,0.0
RPB004_59,unclassified,Staphylococcus cohnii,NZ_CP027422_1,2557319.0,0.0646380057,2.0,1653.0,0.0,0.0
RPB004_59,unclassified,Staphylococcus cohnii,NZ_CP027420_1,36910.0,0.0,0.0,0.0,0.0,0.0
RPB004_59,unclassified,Staphylococcus cohnii,NZ_CP027419_1,32058.0,0.0,0.0,0.0,0.0,0.0
RPB004_59,unclassified,Staphylococcus cohnii,NZ_CP027421_1,29852.0,2.0132654429,2.0,601.0,0.0,0.0
RPB004_59,unclassified,Staphylococcus cohnii,NZ_CP027423_1,2670.0,0.0,0.0,0.0,0.0,0.0
RPB004_59,unclassified,Staphylococcus cohnii,NZ_CP027424_1,2473.0,0.0,0.0,0.0,0.0,0.0
RPB004_59,unclassified,Staphylococcus epidermidis,NC_004461_1,2499279.0,40.3766446243,2.8916120401,1009125.0,114670.0,492.0
RPB004_59,unclassified,Staphylococcus epidermidis,NC_005008_1,4439.0,0.0,0.0,0.0,0.0,0.0
RPB004_59,unclassified,Staphylococcus epidermidis,NC_005007_1,4679.0,0.0,0.0,0.0,0.0,0.0
RPB004_59,unclassified,Staphylococcus epidermidis,NC_005006_1,8007.0,0.0,0.0,0.0,0.0,0.0
RPB004_59,unclassified,Staphylococcus epidermidis,NC_005005_1,17261.0,0.0,0.0,0.0,0.0,0.0
RPB004_59,unclassified,Staphylococcus epidermidis,NC_005004_1,24365.0,0.0,0.0,0.0,0.0,0.0
RPB004_59,unclassified,Staphylococcus epidermidis,NC_005003_1,6585.0,0.0,0.0,0.0,0.0,0.0
RPB004_59,unclassified,Staphylococcus nepalensis,NZ_CP017460_1,2913597.0,0.0,0.0,0.0,0.0,0.0
RPB004_59,unclassified,Staphylococcus nepalensis,NZ_CP017461_1,54521.0,1.327928688,2.0,724.0,0.0,0.0
RPB004_59,unclassified,Staphylococcus nepalensis,NZ_CP017462_1,22471.0,0.0,0.0,0.0,0.0,0.0
RPB004_59,unclassified,Staphylococcus virus CNPH82,NC_008722_1,43420.0,12.4458774758,1.8682457439,5404.0,0.0,0.0
RPB004_59,unclassified,Staphylococcus virus IPLA5,NC_018281_1,43581.0,17.0051169087,2.4168128458,7411.0,27.0,0.0
RPB004_59,unclassified,Staphylococcus virus IPLA7,NC_018284_1,42123.0,7.5279538494,2.5575528225,3171.0,0.0,0.0
RPB004_59,unclassified,Staphylococcus virus PH15,NC_008723_1,44041.0,20.6012579188,3.1148462471,9073.0,1906.0,0.0
